{
    "DNDConfig": null,
    "__parentReadjusting__": false,
    "_bottom_": {
        "type": "string",
        "value": "0%"
    },
    "_height_": {
        "type": "string",
        "value": "1dp"
    },
    "_left_": {
        "type": "string",
        "value": "0dp"
    },
    "_margin_": [
        0,
        0,
        0,
        0
    ],
    "_orientation_": 6,
    "_padding_": [
        0,
        0,
        0,
        0
    ],
    "_percent_": true,
    "_skin_": "s39a7b0d7371420db6cc0c74b5805950",
    "_width_": {
        "type": "string",
        "value": "100%"
    },
    "allboxes": [],
    "autogrowmode": 0,
    "canUpdateUI": true,
    "children": [],
    "clipbounds": true,
    "containerId": true,
    "containerweight": 100,
    "enablescrolling": true,
    "id": "flxShadowOne",
    "info": null,
    "isvisible": true,
    "kuid": "c006853dd11f4db8ac3fba418219d5e5",
    "layouttype": 2,
    "name": "kony.ui.FlexContainer",
    "parent": "flxSegAlertsList",
    "pf": "segAlertLists",
    "snapgridsize": 10,
    "snaptogrid": false,
    "wType": "FlexContainer",
    "widgetalignment": 1,
    "zindex": 1
}