{
    "AS_Form_f6b691fbc76340b2902e1882813ae1ce": {
        "id": "AS_Form_f6b691fbc76340b2902e1882813ae1ce",
        "type": "ACTION_SEQUENCE",
        "params": [{
            "datatype": "collection",
            "name": "eventobject"
        }],
        "contextObj": {
            "name": "frmAccountPrimaryLinking",
            "type": "forms",
            "platform": "",
            "KUID": "g3466d74fe6440e7b4b49ae86d6ed00f"
        },
        "language": "js",
        "actions": [{
            "id": "INVOKE_FUNCTION___a819fd301f9647df88e6473aabbd8199",
            "type": "INVOKE_FUNCTION",
            "sequenceKUID": "frmAccPrimaryLinkPreshow",
            "display": "frmAccPrimaryLinkPreshow",
            "inputparams": [],
            "parentId": null,
            "callbackType": null,
            "disabled": null,
            "source": "controller"
        }]
    }
}