{
    "AS_Form_e031d3ff65ed4894b7953acf4fb53361": {
        "id": "AS_Form_e031d3ff65ed4894b7953acf4fb53361",
        "type": "ACTION_SEQUENCE",
        "params": [{
            "datatype": "collection",
            "name": "eventobject"
        }],
        "contextObj": {
            "name": "frmEnrollVerifyIdentity",
            "type": "forms",
            "platform": null,
            "KUID": "b1fbffa004894b77964efdf249184e5f"
        },
        "language": "js",
        "actions": [{
            "id": "ADD_SNIPPET_ide_preShow_jddc377d3e6947f19212a746f0883305",
            "type": "ADD_SNIPPET",
            "codeSnippet": "this.frmEnrollVerifyIdentityPreShow();",
            "callbackType": null
        }]
    }
}