{
    "AS_Form_h38f7a3499db4f9a9bb84d34f4c0a6f4": {
        "id": "AS_Form_h38f7a3499db4f9a9bb84d34f4c0a6f4",
        "type": "ACTION_SEQUENCE",
        "params": [{
            "datatype": "collection",
            "name": "eventobject"
        }],
        "contextObj": {
            "name": "frmAccountPrimaryLinking",
            "type": "forms",
            "platform": "",
            "KUID": "g3466d74fe6440e7b4b49ae86d6ed00f"
        },
        "language": "js",
        "actions": [{
            "id": "INVOKE_FUNCTION___f8500d73cd3245f4b1cbbbfcde169f80",
            "type": "INVOKE_FUNCTION",
            "sequenceKUID": "init",
            "display": "init",
            "inputparams": [],
            "parentId": null,
            "callbackType": null,
            "disabled": null,
            "source": "controller"
        }]
    }
}