{
  "customCode" : {
    "responseProcessorName" : "com.kony.postprocessors.AddExternalRecipientObjectServicePostProcessor"
  },
  "operationConfig" : {
    "name" : "createExternalAccount5234",
    "type" : "MappedToBackend",
    "cachable" : false,
    "smsEnabled" : false,
    "security" : "authorized_app_user",
    "responseEncoding" : "UTF-8",
    "httpMethod" : "GET",
    "decodeResponseBody" : false,
    "iMapping" : "<?xml version=\"1.0\" encoding=\"UTF-8\" standalone=\"yes\"?><mapper xmlns=\"http://www.kony.com/ns/mapper\">        <map inputpath=\"request_in\" outputpath=\"request_out\">                <set-param inputpath=\"routingNumber\" outputpath=\"routingNumber\"/>                <set-param inputpath=\"notes\" outputpath=\"notes\"/>                <set-param inputpath=\"isInternationalAccount\" outputpath=\"isInternationalAccount\"/>                <set-param inputpath=\"isVerified\" outputpath=\"isVerified\"/>                <set-param inputpath=\"nickName\" outputpath=\"nickName\"/>                <set-param inputpath=\"beneficiaryName\" outputpath=\"beneficiaryName\"/>                <set-param inputpath=\"accountType\" outputpath=\"accountType\"/>                <set-param inputpath=\"swiftCode\" outputpath=\"swiftCode\"/>                <set-param inputpath=\"isSameBankAccount\" outputpath=\"isSameBankAccount\"/>                <set-param inputpath=\"bankName\" outputpath=\"bankName\"/>                <set-param inputpath=\"countryName\" outputpath=\"countryName\"/>                <set-param inputpath=\"accountNumber\" outputpath=\"accountNumber\"/>                <set-param inputpath=\"countryName\" outputpath=\"countryName\"/>\t            <set-param inputpath=\"sortCode\" outputpath=\"sortCode\"/>                  <set-param inputpath=\"IBAN\" outputpath=\"IBAN\"/>             <set-param inputpath=\"phoneCountryCode\" outputpath=\"phoneCountryCode\"/>             <set-param inputpath=\"phoneNumber\" outputpath=\"phoneNumber\"/>             <set-param inputpath=\"phoneExtension\" outputpath=\"phoneExtension\"/>     </map></mapper>",
    "oMapping" : "<?xml version=\"1.0\" encoding=\"UTF-8\" standalone=\"yes\"?><mapper xmlns=\"http://www.kony.com/ns/mapper\">  <map inputpath=\"response_in\" outputpath=\"response_out\">    <set-param inputpath=\"success\" outputpath=\"success\"/>    <set-param inputpath=\"errmsg\" outputpath=\"errmsg\"/>    <set-param inputpath=\"externalaccount/Id\" outputpath=\"Id\"/>  </map></mapper>",
    "iVisualMappingData" : "{\"nodeDataArray\":[{\"isGroup\":true,\"key\":\"request_in\",\"text\":\"ExternalAccounts\",\"xy\":\"150 100\",\"__gohashid\":97922},{\"isGroup\":true,\"key\":\"request_out\",\"text\":\"dbpRbLocalServicesJava (1.0).createExternalAccount\",\"xy\":\"770 100\",\"__gohashid\":97923}],\"linkDataArray\":[{\"from\":\"source\",\"to\":\"source:ExternalAccounts\",\"fromPort\":\"source\",\"toPort\":\"source:ExternalAccounts\",\"visible\":true,\"common\":false,\"__gohashid\":18770},{\"from\":\"source:ExternalAccounts\",\"to\":\"source:ExternalAccounts:fields\",\"fromPort\":\"source:ExternalAccounts\",\"toPort\":\"source:ExternalAccounts:fields\",\"visible\":true,\"common\":false,\"__gohashid\":18771},{\"from\":\"source:ExternalAccounts:fields\",\"to\":\"source:ExternalAccounts:accountNumber:\",\"fromPort\":\"source:ExternalAccounts:fields\",\"toPort\":\"source:ExternalAccounts:accountNumber:\",\"visible\":true,\"common\":false,\"__gohashid\":18772},{\"from\":\"source:ExternalAccounts:fields\",\"to\":\"source:ExternalAccounts:accountType:\",\"fromPort\":\"source:ExternalAccounts:fields\",\"toPort\":\"source:ExternalAccounts:accountType:\",\"visible\":true,\"common\":false,\"__gohashid\":18773},{\"from\":\"source:ExternalAccounts:fields\",\"to\":\"source:ExternalAccounts:bankName:\",\"fromPort\":\"source:ExternalAccounts:fields\",\"toPort\":\"source:ExternalAccounts:bankName:\",\"visible\":true,\"common\":false,\"__gohashid\":18774},{\"from\":\"source:ExternalAccounts:fields\",\"to\":\"source:ExternalAccounts:beneficiaryName:\",\"fromPort\":\"source:ExternalAccounts:fields\",\"toPort\":\"source:ExternalAccounts:beneficiaryName:\",\"visible\":true,\"common\":false,\"__gohashid\":18775},{\"from\":\"source:ExternalAccounts:fields\",\"to\":\"source:ExternalAccounts:countryName:\",\"fromPort\":\"source:ExternalAccounts:fields\",\"toPort\":\"source:ExternalAccounts:countryName:\",\"visible\":true,\"common\":false,\"__gohashid\":18776},{\"from\":\"source:ExternalAccounts:fields\",\"to\":\"source:ExternalAccounts:createdOn:\",\"fromPort\":\"source:ExternalAccounts:fields\",\"toPort\":\"source:ExternalAccounts:createdOn:\",\"visible\":true,\"common\":false,\"__gohashid\":18777},{\"from\":\"source:ExternalAccounts:fields\",\"to\":\"source:ExternalAccounts:errmsg:\",\"fromPort\":\"source:ExternalAccounts:fields\",\"toPort\":\"source:ExternalAccounts:errmsg:\",\"visible\":true,\"common\":false,\"__gohashid\":18778},{\"from\":\"source:ExternalAccounts:fields\",\"to\":\"source:ExternalAccounts:firstName:\",\"fromPort\":\"source:ExternalAccounts:fields\",\"toPort\":\"source:ExternalAccounts:firstName:\",\"visible\":true,\"common\":false,\"__gohashid\":18779},{\"from\":\"source:ExternalAccounts:fields\",\"to\":\"source:ExternalAccounts:Id:\",\"fromPort\":\"source:ExternalAccounts:fields\",\"toPort\":\"source:ExternalAccounts:Id:\",\"visible\":true,\"common\":false,\"__gohashid\":18780},{\"from\":\"source:ExternalAccounts:fields\",\"to\":\"source:ExternalAccounts:isInternationalAccount:\",\"fromPort\":\"source:ExternalAccounts:fields\",\"toPort\":\"source:ExternalAccounts:isInternationalAccount:\",\"visible\":true,\"common\":false,\"__gohashid\":18781},{\"from\":\"source:ExternalAccounts:fields\",\"to\":\"source:ExternalAccounts:isSameBankAccount:\",\"fromPort\":\"source:ExternalAccounts:fields\",\"toPort\":\"source:ExternalAccounts:isSameBankAccount:\",\"visible\":true,\"common\":false,\"__gohashid\":18782},{\"from\":\"source:ExternalAccounts:fields\",\"to\":\"source:ExternalAccounts:isVerified:\",\"fromPort\":\"source:ExternalAccounts:fields\",\"toPort\":\"source:ExternalAccounts:isVerified:\",\"visible\":true,\"common\":false,\"__gohashid\":18783},{\"from\":\"source:ExternalAccounts:fields\",\"to\":\"source:ExternalAccounts:lastName:\",\"fromPort\":\"source:ExternalAccounts:fields\",\"toPort\":\"source:ExternalAccounts:lastName:\",\"visible\":true,\"common\":false,\"__gohashid\":18784},{\"from\":\"source:ExternalAccounts:fields\",\"to\":\"source:ExternalAccounts:limit:\",\"fromPort\":\"source:ExternalAccounts:fields\",\"toPort\":\"source:ExternalAccounts:limit:\",\"visible\":true,\"common\":false,\"__gohashid\":18785},{\"from\":\"source:ExternalAccounts:fields\",\"to\":\"source:ExternalAccounts:nickName:\",\"fromPort\":\"source:ExternalAccounts:fields\",\"toPort\":\"source:ExternalAccounts:nickName:\",\"visible\":true,\"common\":false,\"__gohashid\":18786},{\"from\":\"source:ExternalAccounts:fields\",\"to\":\"source:ExternalAccounts:notes:\",\"fromPort\":\"source:ExternalAccounts:fields\",\"toPort\":\"source:ExternalAccounts:notes:\",\"visible\":true,\"common\":false,\"__gohashid\":18787},{\"from\":\"source:ExternalAccounts:fields\",\"to\":\"source:ExternalAccounts:offset:\",\"fromPort\":\"source:ExternalAccounts:fields\",\"toPort\":\"source:ExternalAccounts:offset:\",\"visible\":true,\"common\":false,\"__gohashid\":18788},{\"from\":\"source:ExternalAccounts:fields\",\"to\":\"source:ExternalAccounts:order:\",\"fromPort\":\"source:ExternalAccounts:fields\",\"toPort\":\"source:ExternalAccounts:order:\",\"visible\":true,\"common\":false,\"__gohashid\":18789},{\"from\":\"source:ExternalAccounts:fields\",\"to\":\"source:ExternalAccounts:routingNumber:\",\"fromPort\":\"source:ExternalAccounts:fields\",\"toPort\":\"source:ExternalAccounts:routingNumber:\",\"visible\":true,\"common\":false,\"__gohashid\":18790},{\"from\":\"source:ExternalAccounts:fields\",\"to\":\"source:ExternalAccounts:searchString:\",\"fromPort\":\"source:ExternalAccounts:fields\",\"toPort\":\"source:ExternalAccounts:searchString:\",\"visible\":true,\"common\":false,\"__gohashid\":18791},{\"from\":\"source:ExternalAccounts:fields\",\"to\":\"source:ExternalAccounts:sortBy:\",\"fromPort\":\"source:ExternalAccounts:fields\",\"toPort\":\"source:ExternalAccounts:sortBy:\",\"visible\":true,\"common\":false,\"__gohashid\":18792},{\"from\":\"source:ExternalAccounts:fields\",\"to\":\"source:ExternalAccounts:success:\",\"fromPort\":\"source:ExternalAccounts:fields\",\"toPort\":\"source:ExternalAccounts:success:\",\"visible\":true,\"common\":false,\"__gohashid\":18793},{\"from\":\"source:ExternalAccounts:fields\",\"to\":\"source:ExternalAccounts:swiftCode:\",\"fromPort\":\"source:ExternalAccounts:fields\",\"toPort\":\"source:ExternalAccounts:swiftCode:\",\"visible\":true,\"common\":false,\"__gohashid\":18794},{\"from\":\"source:ExternalAccounts:fields\",\"to\":\"source:ExternalAccounts:IBAN:\",\"fromPort\":\"source:ExternalAccounts:fields\",\"toPort\":\"source:ExternalAccounts:IBAN:\",\"visible\":true,\"common\":false,\"__gohashid\":18795},{\"from\":\"source:ExternalAccounts:fields\",\"to\":\"source:ExternalAccounts:sortCode:\",\"fromPort\":\"source:ExternalAccounts:fields\",\"toPort\":\"source:ExternalAccounts:sortCode:\",\"visible\":true,\"common\":false,\"__gohashid\":18796},{\"from\":\"source:ExternalAccounts:fields\",\"to\":\"source:ExternalAccounts:phoneExtension:\",\"fromPort\":\"source:ExternalAccounts:fields\",\"toPort\":\"source:ExternalAccounts:phoneExtension:\",\"visible\":true,\"common\":false,\"__gohashid\":18797},{\"from\":\"source:ExternalAccounts:fields\",\"to\":\"source:ExternalAccounts:phoneNumber:\",\"fromPort\":\"source:ExternalAccounts:fields\",\"toPort\":\"source:ExternalAccounts:phoneNumber:\",\"visible\":true,\"common\":false,\"__gohashid\":18798},{\"from\":\"source:ExternalAccounts:fields\",\"to\":\"source:ExternalAccounts:phoneCountryCode:\",\"fromPort\":\"source:ExternalAccounts:fields\",\"toPort\":\"source:ExternalAccounts:phoneCountryCode:\",\"visible\":true,\"common\":false,\"__gohashid\":18799},{\"from\":\"target\",\"to\":\"target:parameters\",\"fromPort\":\"target\",\"toPort\":\"target:parameters\",\"visible\":true,\"common\":false,\"__gohashid\":18800},{\"from\":\"target:parameters\",\"to\":\"target:accountNumber:\",\"fromPort\":\"target:parameters\",\"toPort\":\"target:accountNumber:\",\"visible\":true,\"common\":false,\"__gohashid\":18801},{\"from\":\"target:parameters\",\"to\":\"target:accountType:\",\"fromPort\":\"target:parameters\",\"toPort\":\"target:accountType:\",\"visible\":true,\"common\":false,\"__gohashid\":18802},{\"from\":\"target:parameters\",\"to\":\"target:bankName:\",\"fromPort\":\"target:parameters\",\"toPort\":\"target:bankName:\",\"visible\":true,\"common\":false,\"__gohashid\":18803},{\"from\":\"target:parameters\",\"to\":\"target:beneficiaryName:\",\"fromPort\":\"target:parameters\",\"toPort\":\"target:beneficiaryName:\",\"visible\":true,\"common\":false,\"__gohashid\":18804},{\"from\":\"target:parameters\",\"to\":\"target:countryName:\",\"fromPort\":\"target:parameters\",\"toPort\":\"target:countryName:\",\"visible\":true,\"common\":false,\"__gohashid\":18805},{\"from\":\"target:parameters\",\"to\":\"target:IBAN:\",\"fromPort\":\"target:parameters\",\"toPort\":\"target:IBAN:\",\"visible\":true,\"common\":false,\"__gohashid\":18806},{\"from\":\"target:parameters\",\"to\":\"target:isInternationalAccount:\",\"fromPort\":\"target:parameters\",\"toPort\":\"target:isInternationalAccount:\",\"visible\":true,\"common\":false,\"__gohashid\":18807},{\"from\":\"target:parameters\",\"to\":\"target:isSameBankAccount:\",\"fromPort\":\"target:parameters\",\"toPort\":\"target:isSameBankAccount:\",\"visible\":true,\"common\":false,\"__gohashid\":18808},{\"from\":\"target:parameters\",\"to\":\"target:isVerified:\",\"fromPort\":\"target:parameters\",\"toPort\":\"target:isVerified:\",\"visible\":true,\"common\":false,\"__gohashid\":18809},{\"from\":\"target:parameters\",\"to\":\"target:nickName:\",\"fromPort\":\"target:parameters\",\"toPort\":\"target:nickName:\",\"visible\":true,\"common\":false,\"__gohashid\":18810},{\"from\":\"target:parameters\",\"to\":\"target:notes:\",\"fromPort\":\"target:parameters\",\"toPort\":\"target:notes:\",\"visible\":true,\"common\":false,\"__gohashid\":18811},{\"from\":\"target:parameters\",\"to\":\"target:phoneCountryCode:\",\"fromPort\":\"target:parameters\",\"toPort\":\"target:phoneCountryCode:\",\"visible\":true,\"common\":false,\"__gohashid\":18812},{\"from\":\"target:parameters\",\"to\":\"target:phoneExtension:\",\"fromPort\":\"target:parameters\",\"toPort\":\"target:phoneExtension:\",\"visible\":true,\"common\":false,\"__gohashid\":18813},{\"from\":\"target:parameters\",\"to\":\"target:phoneNumber:\",\"fromPort\":\"target:parameters\",\"toPort\":\"target:phoneNumber:\",\"visible\":true,\"common\":false,\"__gohashid\":18814},{\"from\":\"target:parameters\",\"to\":\"target:routingNumber:\",\"fromPort\":\"target:parameters\",\"toPort\":\"target:routingNumber:\",\"visible\":true,\"common\":false,\"__gohashid\":18815},{\"from\":\"target:parameters\",\"to\":\"target:sortCode:\",\"fromPort\":\"target:parameters\",\"toPort\":\"target:sortCode:\",\"visible\":true,\"common\":false,\"__gohashid\":18816},{\"from\":\"target:parameters\",\"to\":\"target:swiftCode:\",\"fromPort\":\"target:parameters\",\"toPort\":\"target:swiftCode:\",\"visible\":true,\"common\":false,\"__gohashid\":18817}],\"blockCount\":{\"variableCount\":0},\"variableMap\":{},\"xmlMappingOverride\":true}",
    "oVisualMappingData" : "{\"nodeDataArray\":[{\"isGroup\":true,\"key\":\"response_out\",\"text\":\"ExternalAccounts\",\"xy\":\"770 100\",\"__gohashid\":22722},{\"isGroup\":true,\"key\":\"response_in\",\"text\":\"dbpRbLocalServicesJava.createExternalAccount\",\"xy\":\"150 100\",\"__gohashid\":22723}],\"linkDataArray\":[{\"from\":\"target\",\"to\":\"target:ExternalAccounts\",\"fromPort\":\"target\",\"toPort\":\"target:ExternalAccounts\",\"visible\":true,\"common\":false,\"__gohashid\":34460},{\"from\":\"target:ExternalAccounts\",\"to\":\"target:ExternalAccounts:fields\",\"fromPort\":\"target:ExternalAccounts\",\"toPort\":\"target:ExternalAccounts:fields\",\"visible\":true,\"common\":false,\"__gohashid\":34461},{\"from\":\"target:ExternalAccounts:fields\",\"to\":\"target:ExternalAccounts:accountNumber:\",\"fromPort\":\"target:ExternalAccounts:fields\",\"toPort\":\"target:ExternalAccounts:accountNumber:\",\"visible\":true,\"common\":false,\"__gohashid\":34462},{\"from\":\"target:ExternalAccounts:fields\",\"to\":\"target:ExternalAccounts:accountType:\",\"fromPort\":\"target:ExternalAccounts:fields\",\"toPort\":\"target:ExternalAccounts:accountType:\",\"visible\":true,\"common\":false,\"__gohashid\":34463},{\"from\":\"target:ExternalAccounts:fields\",\"to\":\"target:ExternalAccounts:bankName:\",\"fromPort\":\"target:ExternalAccounts:fields\",\"toPort\":\"target:ExternalAccounts:bankName:\",\"visible\":true,\"common\":false,\"__gohashid\":34464},{\"from\":\"target:ExternalAccounts:fields\",\"to\":\"target:ExternalAccounts:beneficiaryName:\",\"fromPort\":\"target:ExternalAccounts:fields\",\"toPort\":\"target:ExternalAccounts:beneficiaryName:\",\"visible\":true,\"common\":false,\"__gohashid\":34465},{\"from\":\"target:ExternalAccounts:fields\",\"to\":\"target:ExternalAccounts:countryName:\",\"fromPort\":\"target:ExternalAccounts:fields\",\"toPort\":\"target:ExternalAccounts:countryName:\",\"visible\":true,\"common\":false,\"__gohashid\":34466},{\"from\":\"target:ExternalAccounts:fields\",\"to\":\"target:ExternalAccounts:createdOn:\",\"fromPort\":\"target:ExternalAccounts:fields\",\"toPort\":\"target:ExternalAccounts:createdOn:\",\"visible\":true,\"common\":false,\"__gohashid\":34467},{\"from\":\"target:ExternalAccounts:fields\",\"to\":\"target:ExternalAccounts:errmsg:\",\"fromPort\":\"target:ExternalAccounts:fields\",\"toPort\":\"target:ExternalAccounts:errmsg:\",\"visible\":true,\"common\":false,\"__gohashid\":34468},{\"from\":\"target:ExternalAccounts:fields\",\"to\":\"target:ExternalAccounts:firstName:\",\"fromPort\":\"target:ExternalAccounts:fields\",\"toPort\":\"target:ExternalAccounts:firstName:\",\"visible\":true,\"common\":false,\"__gohashid\":34469},{\"from\":\"target:ExternalAccounts:fields\",\"to\":\"target:ExternalAccounts:Id:\",\"fromPort\":\"target:ExternalAccounts:fields\",\"toPort\":\"target:ExternalAccounts:Id:\",\"visible\":true,\"common\":false,\"__gohashid\":34470},{\"from\":\"target:ExternalAccounts:fields\",\"to\":\"target:ExternalAccounts:isInternationalAccount:\",\"fromPort\":\"target:ExternalAccounts:fields\",\"toPort\":\"target:ExternalAccounts:isInternationalAccount:\",\"visible\":true,\"common\":false,\"__gohashid\":34471},{\"from\":\"target:ExternalAccounts:fields\",\"to\":\"target:ExternalAccounts:isSameBankAccount:\",\"fromPort\":\"target:ExternalAccounts:fields\",\"toPort\":\"target:ExternalAccounts:isSameBankAccount:\",\"visible\":true,\"common\":false,\"__gohashid\":34472},{\"from\":\"target:ExternalAccounts:fields\",\"to\":\"target:ExternalAccounts:isVerified:\",\"fromPort\":\"target:ExternalAccounts:fields\",\"toPort\":\"target:ExternalAccounts:isVerified:\",\"visible\":true,\"common\":false,\"__gohashid\":34473},{\"from\":\"target:ExternalAccounts:fields\",\"to\":\"target:ExternalAccounts:lastName:\",\"fromPort\":\"target:ExternalAccounts:fields\",\"toPort\":\"target:ExternalAccounts:lastName:\",\"visible\":true,\"common\":false,\"__gohashid\":34474},{\"from\":\"target:ExternalAccounts:fields\",\"to\":\"target:ExternalAccounts:limit:\",\"fromPort\":\"target:ExternalAccounts:fields\",\"toPort\":\"target:ExternalAccounts:limit:\",\"visible\":true,\"common\":false,\"__gohashid\":34475},{\"from\":\"target:ExternalAccounts:fields\",\"to\":\"target:ExternalAccounts:nickName:\",\"fromPort\":\"target:ExternalAccounts:fields\",\"toPort\":\"target:ExternalAccounts:nickName:\",\"visible\":true,\"common\":false,\"__gohashid\":34476},{\"from\":\"target:ExternalAccounts:fields\",\"to\":\"target:ExternalAccounts:notes:\",\"fromPort\":\"target:ExternalAccounts:fields\",\"toPort\":\"target:ExternalAccounts:notes:\",\"visible\":true,\"common\":false,\"__gohashid\":34477},{\"from\":\"target:ExternalAccounts:fields\",\"to\":\"target:ExternalAccounts:offset:\",\"fromPort\":\"target:ExternalAccounts:fields\",\"toPort\":\"target:ExternalAccounts:offset:\",\"visible\":true,\"common\":false,\"__gohashid\":34478},{\"from\":\"target:ExternalAccounts:fields\",\"to\":\"target:ExternalAccounts:order:\",\"fromPort\":\"target:ExternalAccounts:fields\",\"toPort\":\"target:ExternalAccounts:order:\",\"visible\":true,\"common\":false,\"__gohashid\":34479},{\"from\":\"target:ExternalAccounts:fields\",\"to\":\"target:ExternalAccounts:routingNumber:\",\"fromPort\":\"target:ExternalAccounts:fields\",\"toPort\":\"target:ExternalAccounts:routingNumber:\",\"visible\":true,\"common\":false,\"__gohashid\":34480},{\"from\":\"target:ExternalAccounts:fields\",\"to\":\"target:ExternalAccounts:searchString:\",\"fromPort\":\"target:ExternalAccounts:fields\",\"toPort\":\"target:ExternalAccounts:searchString:\",\"visible\":true,\"common\":false,\"__gohashid\":34481},{\"from\":\"target:ExternalAccounts:fields\",\"to\":\"target:ExternalAccounts:sortBy:\",\"fromPort\":\"target:ExternalAccounts:fields\",\"toPort\":\"target:ExternalAccounts:sortBy:\",\"visible\":true,\"common\":false,\"__gohashid\":34482},{\"from\":\"target:ExternalAccounts:fields\",\"to\":\"target:ExternalAccounts:success:\",\"fromPort\":\"target:ExternalAccounts:fields\",\"toPort\":\"target:ExternalAccounts:success:\",\"visible\":true,\"common\":false,\"__gohashid\":34483},{\"from\":\"target:ExternalAccounts:fields\",\"to\":\"target:ExternalAccounts:swiftCode:\",\"fromPort\":\"target:ExternalAccounts:fields\",\"toPort\":\"target:ExternalAccounts:swiftCode:\",\"visible\":true,\"common\":false,\"__gohashid\":34484},{\"from\":\"source\",\"to\":\"source:parameters\",\"fromPort\":\"source\",\"toPort\":\"source:parameters\",\"visible\":true,\"common\":false,\"__gohashid\":34485},{\"from\":\"source:parameters\",\"to\":\"source:errmsg:\",\"fromPort\":\"source:parameters\",\"toPort\":\"source:errmsg:\",\"visible\":true,\"common\":false,\"__gohashid\":34486},{\"from\":\"source:parameters\",\"to\":\"source:Id:\",\"fromPort\":\"source:parameters\",\"toPort\":\"source:Id:\",\"visible\":true,\"common\":false,\"__gohashid\":34487},{\"from\":\"source:parameters\",\"to\":\"source:success:\",\"fromPort\":\"source:parameters\",\"toPort\":\"source:success:\",\"visible\":true,\"common\":false,\"__gohashid\":34488}],\"blockCount\":{\"variableCount\":0},\"variableMap\":{},\"xmlMappingOverride\":true}",
    "applyCommonMapping" : false,
    "applyRequestCommonMapping" : false,
    "applyResponseCommonMapping" : false,
    "backendMeta" : {
      "serviceName" : "dbpRbLocalServicesJava",
      "serviceVersion" : "1.0",
      "operationName" : "createExternalAccount"
    },
    "relationshipHierarchyMapping" : {
      "children" : [ ],
      "name" : "ExternalAccounts",
      "actions" : {
        "create" : true,
        "update" : true,
        "partialupdate" : true
      },
      "selected" : true
    },
    "requestXmlMappingOverride" : true,
    "responseXmlMappingOverride" : true
  }
}