{
    "DNDConfig": null,
    "_height_": {
        "type": "string",
        "value": "75dp"
    },
    "_margin_": [
        0,
        0,
        0,
        0
    ],
    "_orientation_": 6,
    "_padding_": [
        0,
        0,
        0,
        0
    ],
    "_percent_": true,
    "_skin_": "s7b436962d6a4647b197083ac7d03d38",
    "allboxes": [],
    "autogrowmode": 0,
    "canUpdateUI": true,
    "children": [
        "flxMain",
        "flxDelete"
    ],
    "clipbounds": true,
    "containerId": true,
    "containerweight": 100,
    "controllerInfo": {
        "default": {
            "channel": "mobile",
            "name": "flxAccountsController"
        }
    },
    "enablescrolling": true,
    "focusskin": "s7b436962d6a4647b197083ac7d03d38",
    "id": "flxAccounts",
    "info": null,
    "isTemplate": true,
    "isvisible": true,
    "kuid": "jb9145ff5961469385583859122b256a",
    "layouttype": 3,
    "name": "kony.ui.FlexContainer",
    "parent": "segAccounts",
    "pf": "segAccounts",
    "snapgridsize": 10,
    "snaptogrid": true,
    "wType": "FlexContainer",
    "widgetalignment": 1
}