{
    "@class": "com.kony.gen.viz.model.component.KVizUserWidget",
    "DNDConfig": null,
    "__parentReadjusting__": false,
    "_children_": [],
    "_height_": {
        "type": "string",
        "value": "100%"
    },
    "_left_": {
        "type": "string",
        "value": "0dp"
    },
    "_margin_": [
        0,
        0,
        0,
        0
    ],
    "_orientation_": 1,
    "_padding_": [
        0,
        0,
        0,
        0
    ],
    "_percent_": true,
    "_render_": true,
    "_skin_": "s966eaf1ea1441148b4828270a782f8b",
    "_top_": {
        "type": "string",
        "value": "0dp"
    },
    "_width_": {
        "type": "string",
        "value": "100%"
    },
    "areflexpropsreferenced": false,
    "autogrowmode": 0,
    "canUpdateUI": true,
    "clipbounds": true,
    "containerweight": 0,
    "dataDiffs": {
        "customPopup": {
            "__events__": {},
            "__info__": {
                "isRoot": true,
                "kuid": "ad056f11be564cf9b044906b633303b8",
                "srcKUID": "ie413e7d00ff441480a402d8b73f47f4",
                "wType": "FlexContainer"
            }
        },
        "flxPopupWrapper": {
            "__events__": {},
            "__info__": {
                "kuid": "dc715c370c47493e9bb8d1cf600855ee",
                "srcKUID": "f56145d08fa2451fb9475e5d2bc6a01d",
                "wType": "FlexContainer"
            }
        },
        "imgPopup": {
            "__events__": {},
            "__info__": {
                "kuid": "a81f0c23b89b450ba865154bded26100",
                "srcKUID": "f4638082e0dc4d7c9a5f12dbb322786e",
                "wType": "Image"
            }
        },
        "lblPopup": {
            "__events__": {},
            "__info__": {
                "kuid": "i8088486d02d4d37838c7ee332c1bf22",
                "srcKUID": "gc00deb3138044cd9f219a4d21d5533c",
                "wType": "Label"
            }
        }
    },
    "id": "customPopup",
    "info": null,
    "iscustomlayout": false,
    "isdatareferenced": false,
    "isvisible": true,
    "kuid": "he70ad9e3a1a4c36900e9126e4c5f0ec",
    "layouttype": 3,
    "masterType": 0,
    "name": "kony.ui.UserWidgetInstance",
    "parent": "flxPopup",
    "pf": "frmTransferAmount",
    "retaincontentalignment": false,
    "retainflexpositionproperties": false,
    "snaptogrid": true,
    "sourceUserWidget": "ie413e7d00ff441480a402d8b73f47f4",
    "wType": "UserWidgetInstance"
}