{
  "operationConfig" : {
    "name" : "updateUserAlert5336",
    "type" : "MappedToBackend",
    "cachable" : false,
    "smsEnabled" : false,
    "security" : "authorized_app_user",
    "responseEncoding" : "UTF-8",
    "httpMethod" : "GET",
    "decodeResponseBody" : false,
    "iMapping" : "<?xml version=\"1.0\" encoding=\"UTF-8\" standalone=\"yes\"?><mapper xmlns=\"http://www.kony.com/ns/mapper\"><map inputpath=\"request_in\" outputpath=\"request_out\"><set-param inputpath=\"bankingIDChange\" outputpath=\"bankingIDChange\"/><set-param inputpath=\"communicationChange\" outputpath=\"communicationChange\"/><set-param inputpath=\"passwordChange\" outputpath=\"passwordChange\"/><set-param inputpath=\"newPayeeAdded\" outputpath=\"newPayeeAdded\"/><set-param inputpath=\"alertid\" outputpath=\"alertid\"/><set-param inputpath=\"passwordExpired\" outputpath=\"passwordExpired\"/><set-param inputpath=\"dealsExpiring\" outputpath=\"dealsExpiring\"/><set-param inputpath=\"newDealsAvailable\" outputpath=\"newDealsAvailable\"/><set-param inputpath=\"payeeDetailsUpdated\" outputpath=\"payeeDetailsUpdated\"/></map></mapper>",
    "oMapping" : "<?xml version=\"1.0\" encoding=\"UTF-8\" standalone=\"yes\"?><mapper xmlns=\"http://www.kony.com/ns/mapper\"><map inputpath=\"response_in\" outputpath=\"response_out\"><set-param inputpath=\"success\" outputpath=\"success\"/><set-param inputpath=\"errmsg\" outputpath=\"errmsg\"/></map></mapper>",
    "applyCommonMapping" : true,
    "applyRequestCommonMapping" : true,
    "applyResponseCommonMapping" : true,
    "backendMeta" : {
      "serviceName" : "dbpRbLocalServicesJava",
      "serviceVersion" : "1.0",
      "operationName" : "updateUserAlert"
    },
    "relationshipHierarchyMapping" : {
      "children" : [ ],
      "name" : "UserAlerts",
      "actions" : {
        "create" : true,
        "update" : true,
        "partialupdate" : true,
        "delete" : true
      },
      "selected" : true
    },
    "requestXmlMappingOverride" : false,
    "responseXmlMappingOverride" : false
  }
}