{
    "DNDConfig": null,
    "__parentReadjusting__": false,
    "_height_": {
        "type": "string",
        "value": "72.90%"
    },
    "_left_": {
        "type": "string",
        "value": "0dp"
    },
    "_margin_": [
        0,
        0,
        0,
        0
    ],
    "_orientation_": 6,
    "_padding_": [
        0,
        0,
        0,
        0
    ],
    "_percent_": true,
    "_skin_": "s7b436962d6a4647b197083ac7d03d39",
    "_top_": {
        "type": "string",
        "value": "26.80%"
    },
    "_width_": {
        "type": "string",
        "value": "100%"
    },
    "allboxes": [],
    "autogrowmode": 0,
    "canUpdateUI": true,
    "children": [
        "tbxUsername",
        "tbxPassword",
        "flxPwdVisiblityToggle",
        "flxUserNmaeVisibiltyToogle",
        "flxForgot",
        "lblRememberMe",
        "flxCheckBox",
        "btnLogIn",
        "flxOpenNewAccount",
        "btnTouchId",
        "btnFaceId",
        "btnPinId"
    ],
    "clipbounds": false,
    "containerweight": 100,
    "enablescrolling": true,
    "id": "flxContent",
    "info": null,
    "isvisible": true,
    "kuid": "feb8a22c470e48f288ae99a51c532516",
    "layouttype": 2,
    "name": "kony.ui.FlexContainer",
    "parent": "frmLogin",
    "pf": "frmLogin",
    "snapgridsize": 10,
    "snaptogrid": true,
    "wType": "FlexContainer",
    "widgetalignment": 1,
    "zindex": 5
}