{
  "type" : "svcdriven",
  "custom" : false,
  "junction" : false,
  "customizable" : false,
  "verbs" : {
    "verifyCustomerSecurityQuestions" : "verifyCustomerSecurityQuestionsMapping",
    "get" : "getMapping",
    "getSecurityQuestions" : "getSecurityQuestionsMapping",
    "getRandomCustomerSecurityQuestions" : "getRandomCustomerSecurityQuestionsMapping",
    "createCustomerSecurityQuestions" : "createCustomerSecurityQuestionsMapping"
  },
  "entityProperties" : {
    "BatchMode" : "buffer",
    "backendMeta" : { },
    "designTimeBackendMeta" : { }
  }
}