{
    "@class": "com.kony.gen.viz.model.component.KVizLabel",
    "DNDConfig": null,
    "__parentReadjusting__": false,
    "_height_": {
        "type": "ref",
        "value": "preferred"
    },
    "_margin_": [
        1,
        1,
        1,
        1
    ],
    "_padding_": [
        0,
        0,
        0,
        0
    ],
    "_skin_": "sd4c8a33671f4e7bb1b415007e837e8a",
    "_text_": "Enter your Phone Number",
    "_top_": {
        "type": "number",
        "value": "0"
    },
    "_width_": {
        "type": "string",
        "value": "90%"
    },
    "_wrapping_": 2,
    "accessibilityconfig": {
        "a11yLabel": "Enter your Social Security Number (SSN)"
    },
    "android": {
        "textStyle": {
            "letterSpacing": 0,
            "strikeThrough": false
        }
    },
    "canUpdateUI": true,
    "centerx": {
        "type": "string",
        "value": "50.35%"
    },
    "containerweight": 100,
    "contentalignment": 5,
    "id": "lblEnterSSN",
    "info": null,
    "ipad": {
        "psp": {
            "wrapping": 2
        }
    },
    "iphone": {
        "psp": {
            "wrapping": 2
        }
    },
    "isvisible": true,
    "kuid": "bd4f83a625754aebbb4f1f064f2bb92c",
    "name": "kony.ui.Label",
    "parent": "flxEnterSSNo",
    "pf": "frmEnrollSSn",
    "texti18n": "kony.mb.enroll.enterSSN",
    "textstyle": {},
    "tooltip": "",
    "wType": "Label",
    "zindex": 1
}