{
  "operationConfig" : {
    "name" : "updateLoanNameByID8242",
    "type" : "MappedToBackend",
    "cachable" : false,
    "smsEnabled" : false,
    "security" : "public",
    "responseEncoding" : "UTF-8",
    "httpMethod" : "GET",
    "decodeResponseBody" : false,
    "iMapping" : "<?xml version=\"1.0\" encoding=\"UTF-8\" standalone=\"yes\"?><mapper xmlns=\"http://www.kony.com/ns/mapper\">  <map inputpath=\"request_in\" outputpath=\"request_out\">     <set-param inputpath=\"accountNumber\" outputpath=\"accountNumber\"/>             <set-param inputpath=\"email\" outputpath=\"Email\"/>             <set-param inputpath=\"locator\" outputpath=\"LoanNameLocator\"/>              </map></mapper>",
    "oMapping" : "<?xml version=\"1.0\" encoding=\"UTF-8\" standalone=\"yes\"?><mapper xmlns=\"http://www.kony.com/ns/mapper\">  <map inputpath=\"response_in\" outputpath=\"response_out\">    <set-param inputpath=\"isAllFieldsUpdateSuccess\" outputpath=\"success\"/>   </map></mapper>",
    "iVisualMappingData" : "{\"nodeDataArray\":[{\"isGroup\":true,\"key\":\"request_in\",\"text\":\"User\",\"xy\":\"150 100\",\"__gohashid\":211},{\"isGroup\":true,\"key\":\"request_out\",\"text\":\"SymXchangePreLogin (1.0).updateLoanNameByID\",\"xy\":\"770 100\",\"__gohashid\":212}],\"linkDataArray\":[{\"from\":\"source\",\"to\":\"source:User\",\"fromPort\":\"source\",\"toPort\":\"source:User\",\"visible\":true,\"common\":false,\"__gohashid\":302},{\"from\":\"source:User\",\"to\":\"source:User:fields\",\"fromPort\":\"source:User\",\"toPort\":\"source:User:fields\",\"visible\":true,\"common\":false,\"__gohashid\":303},{\"from\":\"source:User:fields\",\"to\":\"source:User:accountNumber:\",\"fromPort\":\"source:User:fields\",\"toPort\":\"source:User:accountNumber:\",\"visible\":true,\"common\":false,\"__gohashid\":304},{\"from\":\"source:User:fields\",\"to\":\"source:User:accountType:\",\"fromPort\":\"source:User:fields\",\"toPort\":\"source:User:accountType:\",\"visible\":true,\"common\":false,\"__gohashid\":305},{\"from\":\"source:User:fields\",\"to\":\"source:User:addressId:\",\"fromPort\":\"source:User:fields\",\"toPort\":\"source:User:addressId:\",\"visible\":true,\"common\":false,\"__gohashid\":306},{\"from\":\"source:User:fields\",\"to\":\"source:User:addressLine1:\",\"fromPort\":\"source:User:fields\",\"toPort\":\"source:User:addressLine1:\",\"visible\":true,\"common\":false,\"__gohashid\":307},{\"from\":\"source:User:fields\",\"to\":\"source:User:addressLine2:\",\"fromPort\":\"source:User:fields\",\"toPort\":\"source:User:addressLine2:\",\"visible\":true,\"common\":false,\"__gohashid\":308},{\"from\":\"source:User:fields\",\"to\":\"source:User:addressType:\",\"fromPort\":\"source:User:fields\",\"toPort\":\"source:User:addressType:\",\"visible\":true,\"common\":false,\"__gohashid\":309},{\"from\":\"source:User:fields\",\"to\":\"source:User:alertsTurnedOn:\",\"fromPort\":\"source:User:fields\",\"toPort\":\"source:User:alertsTurnedOn:\",\"visible\":true,\"common\":false,\"__gohashid\":310},{\"from\":\"source:User:fields\",\"to\":\"source:User:areAccountStatementTermsAccepted:\",\"fromPort\":\"source:User:fields\",\"toPort\":\"source:User:areAccountStatementTermsAccepted:\",\"visible\":true,\"common\":false,\"__gohashid\":311},{\"from\":\"source:User:fields\",\"to\":\"source:User:areDepositTermsAccepted:\",\"fromPort\":\"source:User:fields\",\"toPort\":\"source:User:areDepositTermsAccepted:\",\"visible\":true,\"common\":false,\"__gohashid\":312},{\"from\":\"source:User:fields\",\"to\":\"source:User:bankName:\",\"fromPort\":\"source:User:fields\",\"toPort\":\"source:User:bankName:\",\"visible\":true,\"common\":false,\"__gohashid\":313},{\"from\":\"source:User:fields\",\"to\":\"source:User:cardNumber:\",\"fromPort\":\"source:User:fields\",\"toPort\":\"source:User:cardNumber:\",\"visible\":true,\"common\":false,\"__gohashid\":314},{\"from\":\"source:User:fields\",\"to\":\"source:User:city:\",\"fromPort\":\"source:User:fields\",\"toPort\":\"source:User:city:\",\"visible\":true,\"common\":false,\"__gohashid\":315},{\"from\":\"source:User:fields\",\"to\":\"source:User:country:\",\"fromPort\":\"source:User:fields\",\"toPort\":\"source:User:country:\",\"visible\":true,\"common\":false,\"__gohashid\":316},{\"from\":\"source:User:fields\",\"to\":\"source:User:currencyCode:\",\"fromPort\":\"source:User:fields\",\"toPort\":\"source:User:currencyCode:\",\"visible\":true,\"common\":false,\"__gohashid\":317},{\"from\":\"source:User:fields\",\"to\":\"source:User:cvv:\",\"fromPort\":\"source:User:fields\",\"toPort\":\"source:User:cvv:\",\"visible\":true,\"common\":false,\"__gohashid\":318},{\"from\":\"source:User:fields\",\"to\":\"source:User:dateOfBirth:\",\"fromPort\":\"source:User:fields\",\"toPort\":\"source:User:dateOfBirth:\",\"visible\":true,\"common\":false,\"__gohashid\":319},{\"from\":\"source:User:fields\",\"to\":\"source:User:default_account_billPay:\",\"fromPort\":\"source:User:fields\",\"toPort\":\"source:User:default_account_billPay:\",\"visible\":true,\"common\":false,\"__gohashid\":320},{\"from\":\"source:User:fields\",\"to\":\"source:User:default_account_cardless:\",\"fromPort\":\"source:User:fields\",\"toPort\":\"source:User:default_account_cardless:\",\"visible\":true,\"common\":false,\"__gohashid\":321},{\"from\":\"source:User:fields\",\"to\":\"source:User:default_account_deposit:\",\"fromPort\":\"source:User:fields\",\"toPort\":\"source:User:default_account_deposit:\",\"visible\":true,\"common\":false,\"__gohashid\":322},{\"from\":\"source:User:fields\",\"to\":\"source:User:default_account_payments:\",\"fromPort\":\"source:User:fields\",\"toPort\":\"source:User:default_account_payments:\",\"visible\":true,\"common\":false,\"__gohashid\":323},{\"from\":\"source:User:fields\",\"to\":\"source:User:default_account_transfers:\",\"fromPort\":\"source:User:fields\",\"toPort\":\"source:User:default_account_transfers:\",\"visible\":true,\"common\":false,\"__gohashid\":324},{\"from\":\"source:User:fields\",\"to\":\"source:User:default_from_account_p2p:\",\"fromPort\":\"source:User:fields\",\"toPort\":\"source:User:default_from_account_p2p:\",\"visible\":true,\"common\":false,\"__gohashid\":325},{\"from\":\"source:User:fields\",\"to\":\"source:User:default_to_account_p2p:\",\"fromPort\":\"source:User:fields\",\"toPort\":\"source:User:default_to_account_p2p:\",\"visible\":true,\"common\":false,\"__gohashid\":326},{\"from\":\"source:User:fields\",\"to\":\"source:User:email:\",\"fromPort\":\"source:User:fields\",\"toPort\":\"source:User:email:\",\"visible\":true,\"common\":false,\"__gohashid\":327},{\"from\":\"source:User:fields\",\"to\":\"source:User:errmsg:\",\"fromPort\":\"source:User:fields\",\"toPort\":\"source:User:errmsg:\",\"visible\":true,\"common\":false,\"__gohashid\":328},{\"from\":\"source:User:fields\",\"to\":\"source:User:isEmailEnabled:\",\"fromPort\":\"source:User:fields\",\"toPort\":\"source:User:isEmailEnabled:\",\"visible\":true,\"common\":false,\"__gohashid\":329},{\"from\":\"source:User:fields\",\"to\":\"source:User:isPhoneEnabled:\",\"fromPort\":\"source:User:fields\",\"toPort\":\"source:User:isPhoneEnabled:\",\"visible\":true,\"common\":false,\"__gohashid\":330},{\"from\":\"source:User:fields\",\"to\":\"source:User:isPinSet:\",\"fromPort\":\"source:User:fields\",\"toPort\":\"source:User:isPinSet:\",\"visible\":true,\"common\":false,\"__gohashid\":331},{\"from\":\"source:User:fields\",\"to\":\"source:User:isPreferredAddress:\",\"fromPort\":\"source:User:fields\",\"toPort\":\"source:User:isPreferredAddress:\",\"visible\":true,\"common\":false,\"__gohashid\":332},{\"from\":\"source:User:fields\",\"to\":\"source:User:lastlogintime:\",\"fromPort\":\"source:User:fields\",\"toPort\":\"source:User:lastlogintime:\",\"visible\":true,\"common\":false,\"__gohashid\":333},{\"from\":\"source:User:fields\",\"to\":\"source:User:oldpassword:\",\"fromPort\":\"source:User:fields\",\"toPort\":\"source:User:oldpassword:\",\"visible\":true,\"common\":false,\"__gohashid\":334},{\"from\":\"source:User:fields\",\"to\":\"source:User:otp:\",\"fromPort\":\"source:User:fields\",\"toPort\":\"source:User:otp:\",\"visible\":true,\"common\":false,\"__gohashid\":335},{\"from\":\"source:User:fields\",\"to\":\"source:User:password:\",\"fromPort\":\"source:User:fields\",\"toPort\":\"source:User:password:\",\"visible\":true,\"common\":false,\"__gohashid\":336},{\"from\":\"source:User:fields\",\"to\":\"source:User:phone:\",\"fromPort\":\"source:User:fields\",\"toPort\":\"source:User:phone:\",\"visible\":true,\"common\":false,\"__gohashid\":337},{\"from\":\"source:User:fields\",\"to\":\"source:User:pin:\",\"fromPort\":\"source:User:fields\",\"toPort\":\"source:User:pin:\",\"visible\":true,\"common\":false,\"__gohashid\":338},{\"from\":\"source:User:fields\",\"to\":\"source:User:result:\",\"fromPort\":\"source:User:fields\",\"toPort\":\"source:User:result:\",\"visible\":true,\"common\":false,\"__gohashid\":339},{\"from\":\"source:User:fields\",\"to\":\"source:User:role:\",\"fromPort\":\"source:User:fields\",\"toPort\":\"source:User:role:\",\"visible\":true,\"common\":false,\"__gohashid\":340},{\"from\":\"source:User:fields\",\"to\":\"source:User:secondaryemail:\",\"fromPort\":\"source:User:fields\",\"toPort\":\"source:User:secondaryemail:\",\"visible\":true,\"common\":false,\"__gohashid\":341},{\"from\":\"source:User:fields\",\"to\":\"source:User:secondaryemail2:\",\"fromPort\":\"source:User:fields\",\"toPort\":\"source:User:secondaryemail2:\",\"visible\":true,\"common\":false,\"__gohashid\":342},{\"from\":\"source:User:fields\",\"to\":\"source:User:secondaryphone:\",\"fromPort\":\"source:User:fields\",\"toPort\":\"source:User:secondaryphone:\",\"visible\":true,\"common\":false,\"__gohashid\":343},{\"from\":\"source:User:fields\",\"to\":\"source:User:secondaryphone2:\",\"fromPort\":\"source:User:fields\",\"toPort\":\"source:User:secondaryphone2:\",\"visible\":true,\"common\":false,\"__gohashid\":344},{\"from\":\"source:User:fields\",\"to\":\"source:User:ssn:\",\"fromPort\":\"source:User:fields\",\"toPort\":\"source:User:ssn:\",\"visible\":true,\"common\":false,\"__gohashid\":345},{\"from\":\"source:User:fields\",\"to\":\"source:User:state:\",\"fromPort\":\"source:User:fields\",\"toPort\":\"source:User:state:\",\"visible\":true,\"common\":false,\"__gohashid\":346},{\"from\":\"source:User:fields\",\"to\":\"source:User:success:\",\"fromPort\":\"source:User:fields\",\"toPort\":\"source:User:success:\",\"visible\":true,\"common\":false,\"__gohashid\":347},{\"from\":\"source:User:fields\",\"to\":\"source:User:userfirstname:\",\"fromPort\":\"source:User:fields\",\"toPort\":\"source:User:userfirstname:\",\"visible\":true,\"common\":false,\"__gohashid\":348},{\"from\":\"source:User:fields\",\"to\":\"source:User:userId:\",\"fromPort\":\"source:User:fields\",\"toPort\":\"source:User:userId:\",\"visible\":true,\"common\":false,\"__gohashid\":349},{\"from\":\"source:User:fields\",\"to\":\"source:User:userImage:\",\"fromPort\":\"source:User:fields\",\"toPort\":\"source:User:userImage:\",\"visible\":true,\"common\":false,\"__gohashid\":350},{\"from\":\"source:User:fields\",\"to\":\"source:User:userlastname:\",\"fromPort\":\"source:User:fields\",\"toPort\":\"source:User:userlastname:\",\"visible\":true,\"common\":false,\"__gohashid\":351},{\"from\":\"source:User:fields\",\"to\":\"source:User:userName:\",\"fromPort\":\"source:User:fields\",\"toPort\":\"source:User:userName:\",\"visible\":true,\"common\":false,\"__gohashid\":352},{\"from\":\"source:User:fields\",\"to\":\"source:User:zipcode:\",\"fromPort\":\"source:User:fields\",\"toPort\":\"source:User:zipcode:\",\"visible\":true,\"common\":false,\"__gohashid\":353},{\"from\":\"source:User:fields\",\"to\":\"source:User:rating:\",\"fromPort\":\"source:User:fields\",\"toPort\":\"source:User:rating:\",\"visible\":true,\"common\":false,\"__gohashid\":354},{\"from\":\"source:User:fields\",\"to\":\"source:User:featureRequest:\",\"fromPort\":\"source:User:fields\",\"toPort\":\"source:User:featureRequest:\",\"visible\":true,\"common\":false,\"__gohashid\":355},{\"from\":\"source:User:fields\",\"to\":\"source:User:description:\",\"fromPort\":\"source:User:fields\",\"toPort\":\"source:User:description:\",\"visible\":true,\"common\":false,\"__gohashid\":356},{\"from\":\"source:User:fields\",\"to\":\"source:User:default_account_wire:\",\"fromPort\":\"source:User:fields\",\"toPort\":\"source:User:default_account_wire:\",\"visible\":true,\"common\":false,\"__gohashid\":357},{\"from\":\"source:User:fields\",\"to\":\"source:User:isWireTransferActivated:\",\"fromPort\":\"source:User:fields\",\"toPort\":\"source:User:isWireTransferActivated:\",\"visible\":true,\"common\":false,\"__gohashid\":358},{\"from\":\"source:User:fields\",\"to\":\"source:User:isWireTransferEligible:\",\"fromPort\":\"source:User:fields\",\"toPort\":\"source:User:isWireTransferEligible:\",\"visible\":true,\"common\":false,\"__gohashid\":359},{\"from\":\"source:User:fields\",\"to\":\"source:User:userImageURL:\",\"fromPort\":\"source:User:fields\",\"toPort\":\"source:User:userImageURL:\",\"visible\":true,\"common\":false,\"__gohashid\":360},{\"from\":\"source:User:fields\",\"to\":\"source:User:modifiedByName:\",\"fromPort\":\"source:User:fields\",\"toPort\":\"source:User:modifiedByName:\",\"visible\":true,\"common\":false,\"__gohashid\":361},{\"from\":\"source:User:fields\",\"to\":\"source:User:addresses:\",\"fromPort\":\"source:User:fields\",\"toPort\":\"source:User:addresses:\",\"visible\":true,\"common\":false,\"__gohashid\":362},{\"from\":\"source:User:fields\",\"to\":\"source:User:emailIds:\",\"fromPort\":\"source:User:fields\",\"toPort\":\"source:User:emailIds:\",\"visible\":true,\"common\":false,\"__gohashid\":363},{\"from\":\"source:User:fields\",\"to\":\"source:User:phoneNumbers:\",\"fromPort\":\"source:User:fields\",\"toPort\":\"source:User:phoneNumbers:\",\"visible\":true,\"common\":false,\"__gohashid\":364},{\"from\":\"source:User:fields\",\"to\":\"source:User:preferredContactMethod:\",\"fromPort\":\"source:User:fields\",\"toPort\":\"source:User:preferredContactMethod:\",\"visible\":true,\"common\":false,\"__gohashid\":365},{\"from\":\"source:User:fields\",\"to\":\"source:User:preferredContactTime:\",\"fromPort\":\"source:User:fields\",\"toPort\":\"source:User:preferredContactTime:\",\"visible\":true,\"common\":false,\"__gohashid\":366},{\"from\":\"source:User:fields\",\"to\":\"source:User:deleteAddressID:\",\"fromPort\":\"source:User:fields\",\"toPort\":\"source:User:deleteAddressID:\",\"visible\":true,\"common\":false,\"__gohashid\":367},{\"from\":\"source:User:fields\",\"to\":\"source:User:deleteCommunicationID:\",\"fromPort\":\"source:User:fields\",\"toPort\":\"source:User:deleteCommunicationID:\",\"visible\":true,\"common\":false,\"__gohashid\":368},{\"from\":\"source:User:fields\",\"to\":\"source:User:maritalStatus:\",\"fromPort\":\"source:User:fields\",\"toPort\":\"source:User:maritalStatus:\",\"visible\":true,\"common\":false,\"__gohashid\":369},{\"from\":\"source:User:fields\",\"to\":\"source:User:noOfDependents:\",\"fromPort\":\"source:User:fields\",\"toPort\":\"source:User:noOfDependents:\",\"visible\":true,\"common\":false,\"__gohashid\":370},{\"from\":\"source:User:fields\",\"to\":\"source:User:spouseFirstName:\",\"fromPort\":\"source:User:fields\",\"toPort\":\"source:User:spouseFirstName:\",\"visible\":true,\"common\":false,\"__gohashid\":371},{\"from\":\"source:User:fields\",\"to\":\"source:User:spouseLastName:\",\"fromPort\":\"source:User:fields\",\"toPort\":\"source:User:spouseLastName:\",\"visible\":true,\"common\":false,\"__gohashid\":372},{\"from\":\"source:User:fields\",\"to\":\"source:User:gender:\",\"fromPort\":\"source:User:fields\",\"toPort\":\"source:User:gender:\",\"visible\":true,\"common\":false,\"__gohashid\":373},{\"from\":\"source:User:fields\",\"to\":\"source:User:showBillPayFromAccPopup:\",\"fromPort\":\"source:User:fields\",\"toPort\":\"source:User:showBillPayFromAccPopup:\",\"visible\":true,\"common\":false,\"__gohashid\":374},{\"from\":\"source:User:fields\",\"to\":\"source:User:isP2PActivated:\",\"fromPort\":\"source:User:fields\",\"toPort\":\"source:User:isP2PActivated:\",\"visible\":true,\"common\":false,\"__gohashid\":375},{\"from\":\"source:User:fields\",\"to\":\"source:User:isP2PSupported:\",\"fromPort\":\"source:User:fields\",\"toPort\":\"source:User:isP2PSupported:\",\"visible\":true,\"common\":false,\"__gohashid\":376},{\"from\":\"source:User:fields\",\"to\":\"source:User:isBillPaySupported:\",\"fromPort\":\"source:User:fields\",\"toPort\":\"source:User:isBillPaySupported:\",\"visible\":true,\"common\":false,\"__gohashid\":377},{\"from\":\"source:User:fields\",\"to\":\"source:User:isBillPayActivated:\",\"fromPort\":\"source:User:fields\",\"toPort\":\"source:User:isBillPayActivated:\",\"visible\":true,\"common\":false,\"__gohashid\":378},{\"from\":\"source:User:fields\",\"to\":\"source:User:type:\",\"fromPort\":\"source:User:fields\",\"toPort\":\"source:User:type:\",\"visible\":true,\"common\":false,\"__gohashid\":379},{\"from\":\"source:User:fields\",\"to\":\"source:User:hasReachedMaximumListSize:\",\"fromPort\":\"source:User:fields\",\"toPort\":\"source:User:hasReachedMaximumListSize:\",\"visible\":true,\"common\":false,\"__gohashid\":380},{\"from\":\"source:User:fields\",\"to\":\"source:User:loanId:\",\"fromPort\":\"source:User:fields\",\"toPort\":\"source:User:loanId:\",\"visible\":true,\"common\":false,\"__gohashid\":381},{\"from\":\"source:User:fields\",\"to\":\"source:User:reference:\",\"fromPort\":\"source:User:fields\",\"toPort\":\"source:User:reference:\",\"visible\":true,\"common\":false,\"__gohashid\":382},{\"from\":\"source:User:fields\",\"to\":\"source:User:shareId:\",\"fromPort\":\"source:User:fields\",\"toPort\":\"source:User:shareId:\",\"visible\":true,\"common\":false,\"__gohashid\":383},{\"from\":\"source:User:fields\",\"to\":\"source:User:micr:\",\"fromPort\":\"source:User:fields\",\"toPort\":\"source:User:micr:\",\"visible\":true,\"common\":false,\"__gohashid\":384},{\"from\":\"source:User:fields\",\"to\":\"source:User:locator:\",\"fromPort\":\"source:User:fields\",\"toPort\":\"source:User:locator:\",\"visible\":true,\"common\":false,\"__gohashid\":385},{\"from\":\"source:User:fields\",\"to\":\"source:User:preference:\",\"fromPort\":\"source:User:fields\",\"toPort\":\"source:User:preference:\",\"visible\":true,\"common\":false,\"__gohashid\":386},{\"from\":\"source:User:fields\",\"to\":\"source:User:userCode:\",\"fromPort\":\"source:User:fields\",\"toPort\":\"source:User:userCode:\",\"visible\":true,\"common\":false,\"__gohashid\":387}],\"blockCount\":{\"variableCount\":0},\"variableMap\":{},\"xmlMappingOverride\":true}",
    "oVisualMappingData" : "{\"nodeDataArray\":[{\"isGroup\":true,\"key\":\"response_out\",\"text\":\"User\",\"xy\":\"770 100\",\"__gohashid\":431},{\"isGroup\":true,\"key\":\"response_in\",\"text\":\"SymXchangePreLogin (1.0).updateLoanNameByID\",\"xy\":\"150 100\",\"__gohashid\":432}],\"linkDataArray\":[{\"from\":\"target\",\"to\":\"target:User\",\"fromPort\":\"target\",\"toPort\":\"target:User\",\"visible\":true,\"common\":false,\"__gohashid\":524},{\"from\":\"target:User\",\"to\":\"target:User:fields\",\"fromPort\":\"target:User\",\"toPort\":\"target:User:fields\",\"visible\":true,\"common\":false,\"__gohashid\":525},{\"from\":\"target:User:fields\",\"to\":\"target:User:accountNumber:\",\"fromPort\":\"target:User:fields\",\"toPort\":\"target:User:accountNumber:\",\"visible\":true,\"common\":false,\"__gohashid\":526},{\"from\":\"target:User:fields\",\"to\":\"target:User:accountType:\",\"fromPort\":\"target:User:fields\",\"toPort\":\"target:User:accountType:\",\"visible\":true,\"common\":false,\"__gohashid\":527},{\"from\":\"target:User:fields\",\"to\":\"target:User:addressId:\",\"fromPort\":\"target:User:fields\",\"toPort\":\"target:User:addressId:\",\"visible\":true,\"common\":false,\"__gohashid\":528},{\"from\":\"target:User:fields\",\"to\":\"target:User:addressLine1:\",\"fromPort\":\"target:User:fields\",\"toPort\":\"target:User:addressLine1:\",\"visible\":true,\"common\":false,\"__gohashid\":529},{\"from\":\"target:User:fields\",\"to\":\"target:User:addressLine2:\",\"fromPort\":\"target:User:fields\",\"toPort\":\"target:User:addressLine2:\",\"visible\":true,\"common\":false,\"__gohashid\":530},{\"from\":\"target:User:fields\",\"to\":\"target:User:addressType:\",\"fromPort\":\"target:User:fields\",\"toPort\":\"target:User:addressType:\",\"visible\":true,\"common\":false,\"__gohashid\":531},{\"from\":\"target:User:fields\",\"to\":\"target:User:alertsTurnedOn:\",\"fromPort\":\"target:User:fields\",\"toPort\":\"target:User:alertsTurnedOn:\",\"visible\":true,\"common\":false,\"__gohashid\":532},{\"from\":\"target:User:fields\",\"to\":\"target:User:areAccountStatementTermsAccepted:\",\"fromPort\":\"target:User:fields\",\"toPort\":\"target:User:areAccountStatementTermsAccepted:\",\"visible\":true,\"common\":false,\"__gohashid\":533},{\"from\":\"target:User:fields\",\"to\":\"target:User:areDepositTermsAccepted:\",\"fromPort\":\"target:User:fields\",\"toPort\":\"target:User:areDepositTermsAccepted:\",\"visible\":true,\"common\":false,\"__gohashid\":534},{\"from\":\"target:User:fields\",\"to\":\"target:User:bankName:\",\"fromPort\":\"target:User:fields\",\"toPort\":\"target:User:bankName:\",\"visible\":true,\"common\":false,\"__gohashid\":535},{\"from\":\"target:User:fields\",\"to\":\"target:User:cardNumber:\",\"fromPort\":\"target:User:fields\",\"toPort\":\"target:User:cardNumber:\",\"visible\":true,\"common\":false,\"__gohashid\":536},{\"from\":\"target:User:fields\",\"to\":\"target:User:city:\",\"fromPort\":\"target:User:fields\",\"toPort\":\"target:User:city:\",\"visible\":true,\"common\":false,\"__gohashid\":537},{\"from\":\"target:User:fields\",\"to\":\"target:User:country:\",\"fromPort\":\"target:User:fields\",\"toPort\":\"target:User:country:\",\"visible\":true,\"common\":false,\"__gohashid\":538},{\"from\":\"target:User:fields\",\"to\":\"target:User:currencyCode:\",\"fromPort\":\"target:User:fields\",\"toPort\":\"target:User:currencyCode:\",\"visible\":true,\"common\":false,\"__gohashid\":539},{\"from\":\"target:User:fields\",\"to\":\"target:User:cvv:\",\"fromPort\":\"target:User:fields\",\"toPort\":\"target:User:cvv:\",\"visible\":true,\"common\":false,\"__gohashid\":540},{\"from\":\"target:User:fields\",\"to\":\"target:User:dateOfBirth:\",\"fromPort\":\"target:User:fields\",\"toPort\":\"target:User:dateOfBirth:\",\"visible\":true,\"common\":false,\"__gohashid\":541},{\"from\":\"target:User:fields\",\"to\":\"target:User:default_account_billPay:\",\"fromPort\":\"target:User:fields\",\"toPort\":\"target:User:default_account_billPay:\",\"visible\":true,\"common\":false,\"__gohashid\":542},{\"from\":\"target:User:fields\",\"to\":\"target:User:default_account_cardless:\",\"fromPort\":\"target:User:fields\",\"toPort\":\"target:User:default_account_cardless:\",\"visible\":true,\"common\":false,\"__gohashid\":543},{\"from\":\"target:User:fields\",\"to\":\"target:User:default_account_deposit:\",\"fromPort\":\"target:User:fields\",\"toPort\":\"target:User:default_account_deposit:\",\"visible\":true,\"common\":false,\"__gohashid\":544},{\"from\":\"target:User:fields\",\"to\":\"target:User:default_account_payments:\",\"fromPort\":\"target:User:fields\",\"toPort\":\"target:User:default_account_payments:\",\"visible\":true,\"common\":false,\"__gohashid\":545},{\"from\":\"target:User:fields\",\"to\":\"target:User:default_account_transfers:\",\"fromPort\":\"target:User:fields\",\"toPort\":\"target:User:default_account_transfers:\",\"visible\":true,\"common\":false,\"__gohashid\":546},{\"from\":\"target:User:fields\",\"to\":\"target:User:default_from_account_p2p:\",\"fromPort\":\"target:User:fields\",\"toPort\":\"target:User:default_from_account_p2p:\",\"visible\":true,\"common\":false,\"__gohashid\":547},{\"from\":\"target:User:fields\",\"to\":\"target:User:default_to_account_p2p:\",\"fromPort\":\"target:User:fields\",\"toPort\":\"target:User:default_to_account_p2p:\",\"visible\":true,\"common\":false,\"__gohashid\":548},{\"from\":\"target:User:fields\",\"to\":\"target:User:email:\",\"fromPort\":\"target:User:fields\",\"toPort\":\"target:User:email:\",\"visible\":true,\"common\":false,\"__gohashid\":549},{\"from\":\"target:User:fields\",\"to\":\"target:User:errmsg:\",\"fromPort\":\"target:User:fields\",\"toPort\":\"target:User:errmsg:\",\"visible\":true,\"common\":false,\"__gohashid\":550},{\"from\":\"target:User:fields\",\"to\":\"target:User:isEmailEnabled:\",\"fromPort\":\"target:User:fields\",\"toPort\":\"target:User:isEmailEnabled:\",\"visible\":true,\"common\":false,\"__gohashid\":551},{\"from\":\"target:User:fields\",\"to\":\"target:User:isPhoneEnabled:\",\"fromPort\":\"target:User:fields\",\"toPort\":\"target:User:isPhoneEnabled:\",\"visible\":true,\"common\":false,\"__gohashid\":552},{\"from\":\"target:User:fields\",\"to\":\"target:User:isPinSet:\",\"fromPort\":\"target:User:fields\",\"toPort\":\"target:User:isPinSet:\",\"visible\":true,\"common\":false,\"__gohashid\":553},{\"from\":\"target:User:fields\",\"to\":\"target:User:isPreferredAddress:\",\"fromPort\":\"target:User:fields\",\"toPort\":\"target:User:isPreferredAddress:\",\"visible\":true,\"common\":false,\"__gohashid\":554},{\"from\":\"target:User:fields\",\"to\":\"target:User:lastlogintime:\",\"fromPort\":\"target:User:fields\",\"toPort\":\"target:User:lastlogintime:\",\"visible\":true,\"common\":false,\"__gohashid\":555},{\"from\":\"target:User:fields\",\"to\":\"target:User:oldpassword:\",\"fromPort\":\"target:User:fields\",\"toPort\":\"target:User:oldpassword:\",\"visible\":true,\"common\":false,\"__gohashid\":556},{\"from\":\"target:User:fields\",\"to\":\"target:User:otp:\",\"fromPort\":\"target:User:fields\",\"toPort\":\"target:User:otp:\",\"visible\":true,\"common\":false,\"__gohashid\":557},{\"from\":\"target:User:fields\",\"to\":\"target:User:password:\",\"fromPort\":\"target:User:fields\",\"toPort\":\"target:User:password:\",\"visible\":true,\"common\":false,\"__gohashid\":558},{\"from\":\"target:User:fields\",\"to\":\"target:User:phone:\",\"fromPort\":\"target:User:fields\",\"toPort\":\"target:User:phone:\",\"visible\":true,\"common\":false,\"__gohashid\":559},{\"from\":\"target:User:fields\",\"to\":\"target:User:pin:\",\"fromPort\":\"target:User:fields\",\"toPort\":\"target:User:pin:\",\"visible\":true,\"common\":false,\"__gohashid\":560},{\"from\":\"target:User:fields\",\"to\":\"target:User:result:\",\"fromPort\":\"target:User:fields\",\"toPort\":\"target:User:result:\",\"visible\":true,\"common\":false,\"__gohashid\":561},{\"from\":\"target:User:fields\",\"to\":\"target:User:role:\",\"fromPort\":\"target:User:fields\",\"toPort\":\"target:User:role:\",\"visible\":true,\"common\":false,\"__gohashid\":562},{\"from\":\"target:User:fields\",\"to\":\"target:User:secondaryemail:\",\"fromPort\":\"target:User:fields\",\"toPort\":\"target:User:secondaryemail:\",\"visible\":true,\"common\":false,\"__gohashid\":563},{\"from\":\"target:User:fields\",\"to\":\"target:User:secondaryemail2:\",\"fromPort\":\"target:User:fields\",\"toPort\":\"target:User:secondaryemail2:\",\"visible\":true,\"common\":false,\"__gohashid\":564},{\"from\":\"target:User:fields\",\"to\":\"target:User:secondaryphone:\",\"fromPort\":\"target:User:fields\",\"toPort\":\"target:User:secondaryphone:\",\"visible\":true,\"common\":false,\"__gohashid\":565},{\"from\":\"target:User:fields\",\"to\":\"target:User:secondaryphone2:\",\"fromPort\":\"target:User:fields\",\"toPort\":\"target:User:secondaryphone2:\",\"visible\":true,\"common\":false,\"__gohashid\":566},{\"from\":\"target:User:fields\",\"to\":\"target:User:ssn:\",\"fromPort\":\"target:User:fields\",\"toPort\":\"target:User:ssn:\",\"visible\":true,\"common\":false,\"__gohashid\":567},{\"from\":\"target:User:fields\",\"to\":\"target:User:state:\",\"fromPort\":\"target:User:fields\",\"toPort\":\"target:User:state:\",\"visible\":true,\"common\":false,\"__gohashid\":568},{\"from\":\"target:User:fields\",\"to\":\"target:User:success:\",\"fromPort\":\"target:User:fields\",\"toPort\":\"target:User:success:\",\"visible\":true,\"common\":false,\"__gohashid\":569},{\"from\":\"target:User:fields\",\"to\":\"target:User:userfirstname:\",\"fromPort\":\"target:User:fields\",\"toPort\":\"target:User:userfirstname:\",\"visible\":true,\"common\":false,\"__gohashid\":570},{\"from\":\"target:User:fields\",\"to\":\"target:User:userId:\",\"fromPort\":\"target:User:fields\",\"toPort\":\"target:User:userId:\",\"visible\":true,\"common\":false,\"__gohashid\":571},{\"from\":\"target:User:fields\",\"to\":\"target:User:userImage:\",\"fromPort\":\"target:User:fields\",\"toPort\":\"target:User:userImage:\",\"visible\":true,\"common\":false,\"__gohashid\":572},{\"from\":\"target:User:fields\",\"to\":\"target:User:userlastname:\",\"fromPort\":\"target:User:fields\",\"toPort\":\"target:User:userlastname:\",\"visible\":true,\"common\":false,\"__gohashid\":573},{\"from\":\"target:User:fields\",\"to\":\"target:User:userName:\",\"fromPort\":\"target:User:fields\",\"toPort\":\"target:User:userName:\",\"visible\":true,\"common\":false,\"__gohashid\":574},{\"from\":\"target:User:fields\",\"to\":\"target:User:zipcode:\",\"fromPort\":\"target:User:fields\",\"toPort\":\"target:User:zipcode:\",\"visible\":true,\"common\":false,\"__gohashid\":575},{\"from\":\"target:User:fields\",\"to\":\"target:User:rating:\",\"fromPort\":\"target:User:fields\",\"toPort\":\"target:User:rating:\",\"visible\":true,\"common\":false,\"__gohashid\":576},{\"from\":\"target:User:fields\",\"to\":\"target:User:featureRequest:\",\"fromPort\":\"target:User:fields\",\"toPort\":\"target:User:featureRequest:\",\"visible\":true,\"common\":false,\"__gohashid\":577},{\"from\":\"target:User:fields\",\"to\":\"target:User:description:\",\"fromPort\":\"target:User:fields\",\"toPort\":\"target:User:description:\",\"visible\":true,\"common\":false,\"__gohashid\":578},{\"from\":\"target:User:fields\",\"to\":\"target:User:default_account_wire:\",\"fromPort\":\"target:User:fields\",\"toPort\":\"target:User:default_account_wire:\",\"visible\":true,\"common\":false,\"__gohashid\":579},{\"from\":\"target:User:fields\",\"to\":\"target:User:isWireTransferActivated:\",\"fromPort\":\"target:User:fields\",\"toPort\":\"target:User:isWireTransferActivated:\",\"visible\":true,\"common\":false,\"__gohashid\":580},{\"from\":\"target:User:fields\",\"to\":\"target:User:isWireTransferEligible:\",\"fromPort\":\"target:User:fields\",\"toPort\":\"target:User:isWireTransferEligible:\",\"visible\":true,\"common\":false,\"__gohashid\":581},{\"from\":\"target:User:fields\",\"to\":\"target:User:userImageURL:\",\"fromPort\":\"target:User:fields\",\"toPort\":\"target:User:userImageURL:\",\"visible\":true,\"common\":false,\"__gohashid\":582},{\"from\":\"target:User:fields\",\"to\":\"target:User:modifiedByName:\",\"fromPort\":\"target:User:fields\",\"toPort\":\"target:User:modifiedByName:\",\"visible\":true,\"common\":false,\"__gohashid\":583},{\"from\":\"target:User:fields\",\"to\":\"target:User:addresses:\",\"fromPort\":\"target:User:fields\",\"toPort\":\"target:User:addresses:\",\"visible\":true,\"common\":false,\"__gohashid\":584},{\"from\":\"target:User:fields\",\"to\":\"target:User:emailIds:\",\"fromPort\":\"target:User:fields\",\"toPort\":\"target:User:emailIds:\",\"visible\":true,\"common\":false,\"__gohashid\":585},{\"from\":\"target:User:fields\",\"to\":\"target:User:phoneNumbers:\",\"fromPort\":\"target:User:fields\",\"toPort\":\"target:User:phoneNumbers:\",\"visible\":true,\"common\":false,\"__gohashid\":586},{\"from\":\"target:User:fields\",\"to\":\"target:User:preferredContactMethod:\",\"fromPort\":\"target:User:fields\",\"toPort\":\"target:User:preferredContactMethod:\",\"visible\":true,\"common\":false,\"__gohashid\":587},{\"from\":\"target:User:fields\",\"to\":\"target:User:preferredContactTime:\",\"fromPort\":\"target:User:fields\",\"toPort\":\"target:User:preferredContactTime:\",\"visible\":true,\"common\":false,\"__gohashid\":588},{\"from\":\"target:User:fields\",\"to\":\"target:User:deleteAddressID:\",\"fromPort\":\"target:User:fields\",\"toPort\":\"target:User:deleteAddressID:\",\"visible\":true,\"common\":false,\"__gohashid\":589},{\"from\":\"target:User:fields\",\"to\":\"target:User:deleteCommunicationID:\",\"fromPort\":\"target:User:fields\",\"toPort\":\"target:User:deleteCommunicationID:\",\"visible\":true,\"common\":false,\"__gohashid\":590},{\"from\":\"target:User:fields\",\"to\":\"target:User:maritalStatus:\",\"fromPort\":\"target:User:fields\",\"toPort\":\"target:User:maritalStatus:\",\"visible\":true,\"common\":false,\"__gohashid\":591},{\"from\":\"target:User:fields\",\"to\":\"target:User:noOfDependents:\",\"fromPort\":\"target:User:fields\",\"toPort\":\"target:User:noOfDependents:\",\"visible\":true,\"common\":false,\"__gohashid\":592},{\"from\":\"target:User:fields\",\"to\":\"target:User:spouseFirstName:\",\"fromPort\":\"target:User:fields\",\"toPort\":\"target:User:spouseFirstName:\",\"visible\":true,\"common\":false,\"__gohashid\":593},{\"from\":\"target:User:fields\",\"to\":\"target:User:spouseLastName:\",\"fromPort\":\"target:User:fields\",\"toPort\":\"target:User:spouseLastName:\",\"visible\":true,\"common\":false,\"__gohashid\":594},{\"from\":\"target:User:fields\",\"to\":\"target:User:gender:\",\"fromPort\":\"target:User:fields\",\"toPort\":\"target:User:gender:\",\"visible\":true,\"common\":false,\"__gohashid\":595},{\"from\":\"target:User:fields\",\"to\":\"target:User:showBillPayFromAccPopup:\",\"fromPort\":\"target:User:fields\",\"toPort\":\"target:User:showBillPayFromAccPopup:\",\"visible\":true,\"common\":false,\"__gohashid\":596},{\"from\":\"target:User:fields\",\"to\":\"target:User:isP2PActivated:\",\"fromPort\":\"target:User:fields\",\"toPort\":\"target:User:isP2PActivated:\",\"visible\":true,\"common\":false,\"__gohashid\":597},{\"from\":\"target:User:fields\",\"to\":\"target:User:isP2PSupported:\",\"fromPort\":\"target:User:fields\",\"toPort\":\"target:User:isP2PSupported:\",\"visible\":true,\"common\":false,\"__gohashid\":598},{\"from\":\"target:User:fields\",\"to\":\"target:User:isBillPaySupported:\",\"fromPort\":\"target:User:fields\",\"toPort\":\"target:User:isBillPaySupported:\",\"visible\":true,\"common\":false,\"__gohashid\":599},{\"from\":\"target:User:fields\",\"to\":\"target:User:isBillPayActivated:\",\"fromPort\":\"target:User:fields\",\"toPort\":\"target:User:isBillPayActivated:\",\"visible\":true,\"common\":false,\"__gohashid\":600},{\"from\":\"target:User:fields\",\"to\":\"target:User:type:\",\"fromPort\":\"target:User:fields\",\"toPort\":\"target:User:type:\",\"visible\":true,\"common\":false,\"__gohashid\":601},{\"from\":\"target:User:fields\",\"to\":\"target:User:hasReachedMaximumListSize:\",\"fromPort\":\"target:User:fields\",\"toPort\":\"target:User:hasReachedMaximumListSize:\",\"visible\":true,\"common\":false,\"__gohashid\":602},{\"from\":\"target:User:fields\",\"to\":\"target:User:loanId:\",\"fromPort\":\"target:User:fields\",\"toPort\":\"target:User:loanId:\",\"visible\":true,\"common\":false,\"__gohashid\":603},{\"from\":\"target:User:fields\",\"to\":\"target:User:reference:\",\"fromPort\":\"target:User:fields\",\"toPort\":\"target:User:reference:\",\"visible\":true,\"common\":false,\"__gohashid\":604},{\"from\":\"target:User:fields\",\"to\":\"target:User:shareId:\",\"fromPort\":\"target:User:fields\",\"toPort\":\"target:User:shareId:\",\"visible\":true,\"common\":false,\"__gohashid\":605},{\"from\":\"target:User:fields\",\"to\":\"target:User:micr:\",\"fromPort\":\"target:User:fields\",\"toPort\":\"target:User:micr:\",\"visible\":true,\"common\":false,\"__gohashid\":606},{\"from\":\"target:User:fields\",\"to\":\"target:User:locator:\",\"fromPort\":\"target:User:fields\",\"toPort\":\"target:User:locator:\",\"visible\":true,\"common\":false,\"__gohashid\":607},{\"from\":\"target:User:fields\",\"to\":\"target:User:preference:\",\"fromPort\":\"target:User:fields\",\"toPort\":\"target:User:preference:\",\"visible\":true,\"common\":false,\"__gohashid\":608},{\"from\":\"target:User:fields\",\"to\":\"target:User:userCode:\",\"fromPort\":\"target:User:fields\",\"toPort\":\"target:User:userCode:\",\"visible\":true,\"common\":false,\"__gohashid\":609},{\"from\":\"source\",\"to\":\"source:parameters\",\"fromPort\":\"source\",\"toPort\":\"source:parameters\",\"visible\":true,\"common\":false,\"__gohashid\":610},{\"from\":\"source:parameters\",\"to\":\"source:isAllFieldsUpdateSuccess:\",\"fromPort\":\"source:parameters\",\"toPort\":\"source:isAllFieldsUpdateSuccess:\",\"visible\":true,\"common\":false,\"__gohashid\":611}],\"blockCount\":{\"variableCount\":0},\"variableMap\":{},\"xmlMappingOverride\":true}",
    "applyCommonMapping" : false,
    "applyRequestCommonMapping" : false,
    "applyResponseCommonMapping" : false,
    "backendMeta" : {
      "serviceName" : "SymXchangePreLogin",
      "serviceVersion" : "1.0",
      "operationName" : "updateLoanNameByID"
    },
    "relationshipHierarchyMapping" : {
      "children" : [ ],
      "name" : "User",
      "actions" : { },
      "selected" : true
    },
    "requestXmlMappingOverride" : true,
    "responseXmlMappingOverride" : true
  }
}