{
    "@class": "com.kony.gen.viz.model.component.KVizButton",
    "DNDConfig": null,
    "__parentReadjusting__": false,
    "_height_": {
        "type": "string",
        "value": "50dp"
    },
    "_left_": {
        "type": "string",
        "value": "10%"
    },
    "_margin_": [
        6,
        6,
        6,
        6
    ],
    "_padding_": [
        0,
        0,
        0,
        0
    ],
    "_skin_": "sd83311fe53246c2a9382528c807f6ca",
    "_text_": "Button",
    "_top_": {
        "type": "string",
        "value": "20%"
    },
    "_width_": {
        "type": "string",
        "value": "90%"
    },
    "canUpdateUI": true,
    "centerx": {
        "type": "string",
        "value": "50%"
    },
    "containerweight": 100,
    "contentalignment": 5,
    "disabledSkins": {
        "focusSkin": "s31beeb1acb948a9ab9cfb48513042ca"
    },
    "displaytext": true,
    "id": "btnSkip",
    "info": null,
    "iscustomlayout": false,
    "isvisible": true,
    "kuid": "c587fc3a0f7c47c6b725568fcd32c90d",
    "name": "kony.ui.Button",
    "parent": "flxMainContainer",
    "pf": "frmAccountLinking",
    "retaincontentalignment": false,
    "retainflexpositionproperties": false,
    "texti18n": "kony.mb.common.skip",
    "wType": "Button",
    "zindex": 1
}