{
    "DNDConfig": null,
    "__parentReadjusting__": false,
    "_height_": {
        "type": "string",
        "value": "100%"
    },
    "_left_": {
        "type": "string",
        "value": "0dp"
    },
    "_margin_": [
        0,
        0,
        0,
        0
    ],
    "_orientation_": 6,
    "_padding_": [
        0,
        0,
        0,
        0
    ],
    "_percent_": true,
    "_skin_": "sa80fdb2bec243dc965318c59033d68b",
    "_top_": {
        "type": "string",
        "value": "57dp"
    },
    "_width_": {
        "type": "string",
        "value": "100%"
    },
    "allboxes": [],
    "autogrowmode": 0,
    "canUpdateUI": true,
    "children": [
        "lblText1",
        "lblTextdesc1",
        "flxAccLink1",
        "btnSkip1",
        "btnContinue1"
    ],
    "clipbounds": true,
    "containerweight": 100,
    "enablescrolling": true,
    "id": "flxMaincontainer1",
    "info": null,
    "iscustomlayout": false,
    "isvisible": false,
    "kuid": "if3f6f314f2446089d054f171988d6ba",
    "layouttype": 2,
    "name": "kony.ui.FlexContainer",
    "parent": "frmAccountLinking",
    "pf": "frmAccountLinking",
    "retaincontentalignment": false,
    "retainflexpositionproperties": false,
    "snapgridsize": 10,
    "snaptogrid": true,
    "wType": "FlexContainer",
    "widgetalignment": 1,
    "zindex": 30
}