{
    "@class": "com.kony.gen.viz.model.container.KVizSegment2",
    "DNDConfig": null,
    "__parentReadjusting__": false,
    "_data_": [
        {
            "imgIndicator": {
                "@class": "com.viz.ide.model.segment.ImageSegmentData",
                "src": "checkbox_unactive_light.png"
            },
            "lblAccName": {
                "@class": "com.viz.ide.model.segment.SimpleTextSegmentData",
                "i18nkey": "kony.mb.enroll.primary",
                "text": "Primary:"
            },
            "lblAccNameValue": {
                "@class": "com.viz.ide.model.segment.SimpleTextSegmentData",
                "text": "David Cooper"
            },
            "lblAccNum": {
                "@class": "com.viz.ide.model.segment.SimpleTextSegmentData",
                "text": "1234567890"
            },
            "lblAccType": {
                "@class": "com.viz.ide.model.segment.SimpleTextSegmentData",
                "i18nkey": "kony.mb.enroll.accType",
                "text": "Account Type"
            },
            "lblAccTypeValue": {
                "@class": "com.viz.ide.model.segment.SimpleTextSegmentData",
                "text": "Business"
            }
        },
        {
            "imgIndicator": {
                "@class": "com.viz.ide.model.segment.ImageSegmentData",
                "src": "checkbox_unactive_light.png"
            },
            "lblAccName": {
                "@class": "com.viz.ide.model.segment.SimpleTextSegmentData",
                "i18nkey": "kony.mb.enroll.primary",
                "text": "Primary:"
            },
            "lblAccNameValue": {
                "@class": "com.viz.ide.model.segment.SimpleTextSegmentData",
                "text": "David Cooper"
            },
            "lblAccNum": {
                "@class": "com.viz.ide.model.segment.SimpleTextSegmentData",
                "text": "1234567890"
            },
            "lblAccType": {
                "@class": "com.viz.ide.model.segment.SimpleTextSegmentData",
                "i18nkey": "kony.mb.enroll.accType",
                "text": "Account Type"
            },
            "lblAccTypeValue": {
                "@class": "com.viz.ide.model.segment.SimpleTextSegmentData",
                "text": "Business"
            }
        },
        {
            "imgIndicator": {
                "@class": "com.viz.ide.model.segment.ImageSegmentData",
                "src": "checkbox_unactive_light.png"
            },
            "lblAccName": {
                "@class": "com.viz.ide.model.segment.SimpleTextSegmentData",
                "i18nkey": "kony.mb.enroll.primary",
                "text": "Primary:"
            },
            "lblAccNameValue": {
                "@class": "com.viz.ide.model.segment.SimpleTextSegmentData",
                "text": "David Cooper"
            },
            "lblAccNum": {
                "@class": "com.viz.ide.model.segment.SimpleTextSegmentData",
                "text": "1234567890"
            },
            "lblAccType": {
                "@class": "com.viz.ide.model.segment.SimpleTextSegmentData",
                "i18nkey": "kony.mb.enroll.accType",
                "text": "Account Type"
            },
            "lblAccTypeValue": {
                "@class": "com.viz.ide.model.segment.SimpleTextSegmentData",
                "text": "Business"
            }
        }
    ],
    "_height_": {
        "type": "ref",
        "value": "preferred"
    },
    "_indicator_": "none",
    "_left_": {
        "type": "number",
        "value": "0"
    },
    "_margin_": [
        0,
        0,
        0,
        0
    ],
    "_orientation_": 2,
    "_padding_": [
        0,
        0,
        1,
        0
    ],
    "_top_": {
        "type": "number",
        "value": "0"
    },
    "_width_": {
        "type": "string",
        "value": "100%"
    },
    "android": {
        "viewType": "tableview"
    },
    "autogrowmode": 1,
    "canUpdateUI": true,
    "containerweight": 100,
    "counter": "02",
    "focusedindex": null,
    "focuseditem": null,
    "groupcells": false,
    "hasSections": false,
    "id": "segAccLink",
    "info": null,
    "ipad": {
        "psp": {
            "indicator": "rowselect"
        }
    },
    "iphone": {
        "psp": {
            "bounces": false,
            "indicator": "none",
            "showProgressIndicator": true
        },
        "viewType": "tableview"
    },
    "iscustomlayout": false,
    "isvisible": true,
    "kuid": "h97ce7f8da4844e4b7d964ad79e87e69",
    "masterdata": {},
    "name": "kony.ui.SegmentedUI2",
    "needpageindicator": true,
    "paddinginpixel": false,
    "pageoffdotimage": "pageoffdot.png",
    "pageondotimage": "pageondot.png",
    "paginationconfig": {
        "position": "bottom",
        "vdistance": 1
    },
    "parent": "flxAccLink",
    "pf": "frmAccountLinking",
    "retaincontentalignment": false,
    "retainflexpositionproperties": false,
    "retainselection": false,
    "rowTemplateId": "i9161051a8444579abf2f47fecb20f44",
    "rowcounter": 2,
    "rowfocusskin": "sec47134c53840738acea176209ff716",
    "rowskin": "s3666c04010e4ab3b48d16cfd535d361",
    "rowtemplate": "flxAccLinking",
    "screenlevelwidget": false,
    "seccounter": 0,
    "sectionheaderskin": "s65e8b0a8be54624ac979cda71a22cac",
    "selectedRows": null,
    "selectedState": false,
    "selectedindex": null,
    "selectedindices": null,
    "selecteditems": null,
    "selectedsectionindex": null,
    "selectionbehavior": "default",
    "separatorcolor": "ddddde00",
    "separatorrequired": true,
    "separatorthickness": 1,
    "showprogressindicator": true,
    "showscrollbars": false,
    "swipeContext": {
        "currentPage": 0,
        "imageWidth": 1288,
        "widthRatio": 0
    },
    "viewtype": "tableview",
    "wType": "Segment",
    "widgetalignment": 5,
    "widgetdatamap": {
        "flxAccDetails": "flxAccDetails",
        "flxAccLinking": "flxAccLinking",
        "flxAccTypeDetails": "flxAccTypeDetails",
        "flxImgIndicator": "flxImgIndicator",
        "flxSeparator": "flxSeparator",
        "imgIndicator": "imgIndicator",
        "lblAccName": "lblAccName",
        "lblAccNameValue": "lblAccNameValue",
        "lblAccNum": "lblAccNum",
        "lblAccType": "lblAccType",
        "lblAccTypeValue": "lblAccTypeValue"
    },
    "zindex": 1
}