{
  "operationConfig" : {
    "name" : "FetchBBTaxSubType9858",
    "type" : "MappedToBackend",
    "cachable" : false,
    "smsEnabled" : false,
    "security" : "authorized_app_user",
    "responseEncoding" : "UTF-8",
    "httpMethod" : "GET",
    "decodeResponseBody" : false,
    "iMapping" : "<?xml version=\"1.0\" encoding=\"UTF-8\" standalone=\"yes\"?><mapper xmlns=\"http://www.kony.com/ns/mapper\"><map inputpath=\"request_in\" outputpath=\"request_out\"><set-param inputpath=\"TaxType\" outputpath=\"taxType\"/></map></mapper>",
    "oMapping" : "<?xml version=\"1.0\" encoding=\"UTF-8\" standalone=\"yes\"?><mapper xmlns=\"http://www.kony.com/ns/mapper\">    <map inputpath=\"response_in\" outputpath=\"response_out\">        <map inputpath=\"bbtaxsubtype\" outputpath=\"TaxSubType\">            <set-param inputpath=\"id\" outputpath=\"Id\" />            <set-param inputpath=\"taxSubType\" outputpath=\"TaxSubType\" />            <set-param inputpath=\"taxType\" outputpath=\"TaxType\" />        </map>     <set-param outputpath=\"dbpErrCode\" inputpath=\"dbpErrCode\" />                <set-param outputpath=\"dbpErrMsg\" inputpath=\"dbpErrMsg\" />        <set-param outputpath=\"opstatus\" inputpath=\"opstatus\" />        <set-param outputpath=\"httpStatusCode\" inputpath=\"httpStatusCode\" />    </map></mapper>",
    "oVisualMappingData" : "{\"nodeDataArray\":[{\"isGroup\":true,\"key\":\"response_out\",\"text\":\"TaxSubType\",\"xy\":\"770 100\",\"__gohashid\":3245},{\"isGroup\":true,\"key\":\"response_in\",\"text\":\"dbpBBJavaServices (1.0).FetchBBTaxSubType\",\"xy\":\"150 100\",\"__gohashid\":3246}],\"linkDataArray\":[{\"from\":\"target\",\"to\":\"target:TaxSubType\",\"fromPort\":\"target\",\"toPort\":\"target:TaxSubType\",\"visible\":true,\"common\":false,\"__gohashid\":37142},{\"from\":\"target:TaxSubType\",\"to\":\"target:TaxSubType:fields\",\"fromPort\":\"target:TaxSubType\",\"toPort\":\"target:TaxSubType:fields\",\"visible\":true,\"common\":false,\"__gohashid\":37143},{\"from\":\"target:TaxSubType:fields\",\"to\":\"target:TaxSubType:Id:\",\"fromPort\":\"target:TaxSubType:fields\",\"toPort\":\"target:TaxSubType:Id:\",\"visible\":true,\"common\":false,\"__gohashid\":37144},{\"from\":\"target:TaxSubType:fields\",\"to\":\"target:TaxSubType:TaxType:\",\"fromPort\":\"target:TaxSubType:fields\",\"toPort\":\"target:TaxSubType:TaxType:\",\"visible\":true,\"common\":false,\"__gohashid\":37145},{\"from\":\"target:TaxSubType:fields\",\"to\":\"target:TaxSubType:TaxSubType:\",\"fromPort\":\"target:TaxSubType:fields\",\"toPort\":\"target:TaxSubType:TaxSubType:\",\"visible\":true,\"common\":false,\"__gohashid\":37146},{\"from\":\"target:TaxSubType:fields\",\"to\":\"target:TaxSubType:dbpErrCode:\",\"fromPort\":\"target:TaxSubType:fields\",\"toPort\":\"target:TaxSubType:dbpErrCode:\",\"visible\":true,\"common\":false,\"__gohashid\":37147},{\"from\":\"target:TaxSubType:fields\",\"to\":\"target:TaxSubType:dbpErrMsg:\",\"fromPort\":\"target:TaxSubType:fields\",\"toPort\":\"target:TaxSubType:dbpErrMsg:\",\"visible\":true,\"common\":false,\"__gohashid\":37148},{\"from\":\"target:TaxSubType:fields\",\"to\":\"target:TaxSubType:opstatus:\",\"fromPort\":\"target:TaxSubType:fields\",\"toPort\":\"target:TaxSubType:opstatus:\",\"visible\":true,\"common\":false,\"__gohashid\":37149},{\"from\":\"target:TaxSubType:fields\",\"to\":\"target:TaxSubType:httpStatusCode:\",\"fromPort\":\"target:TaxSubType:fields\",\"toPort\":\"target:TaxSubType:httpStatusCode:\",\"visible\":true,\"common\":false,\"__gohashid\":37150}],\"blockCount\":{\"variableCount\":0},\"variableMap\":{},\"xmlMappingOverride\":true}",
    "applyCommonMapping" : false,
    "applyRequestCommonMapping" : true,
    "applyResponseCommonMapping" : false,
    "backendMeta" : {
      "serviceName" : "dbpBBJavaServices",
      "serviceVersion" : "1.0",
      "operationName" : "FetchBBTaxSubType"
    },
    "relationshipHierarchyMapping" : {
      "children" : [ ],
      "name" : "TaxSubType",
      "actions" : { },
      "selected" : true
    },
    "requestXmlMappingOverride" : false,
    "responseXmlMappingOverride" : true
  }
}