{
    "@class": "com.kony.gen.viz.model.component.KVizUserWidget",
    "DNDConfig": null,
    "__parentReadjusting__": false,
    "_android_": {},
    "_children_": [],
    "_height_": {
        "type": "string",
        "value": "40dp"
    },
    "_iphone_": {},
    "_left_": {
        "type": "string",
        "value": "0dp"
    },
    "_margin_": [
        0,
        0,
        0,
        0
    ],
    "_orientation_": 1,
    "_padding_": [
        0,
        0,
        0,
        0
    ],
    "_percent_": true,
    "_render_": true,
    "_skin_": "s966eaf1ea1441148b4828270a782f8b",
    "_spa_": {},
    "_spaan_": {},
    "_spabb_": {},
    "_spaip_": {},
    "_top_": {
        "type": "string",
        "value": "0dp"
    },
    "_vizProps_": {
        "hidewidgethierarchy": false
    },
    "_width_": {
        "type": "string",
        "value": "100%"
    },
    "areflexpropsreferenced": false,
    "canUpdateUI": true,
    "clipbounds": false,
    "containerweight": 100,
    "dataDiffs": {
        "btnCancel": {
            "__events__": {},
            "__info__": {
                "kuid": "jed2436b561941edbdae1cd6ed419977",
                "srcKUID": "cf0f0a7a19664002a53a1f77e7082c6c",
                "wType": "Button"
            }
        },
        "customSearchbox": {
            "__events__": {},
            "__info__": {
                "isRoot": true,
                "kuid": "cd1dca67bd884266aa0b14b74a16fbbf",
                "srcKUID": "f1b1b5e40a58453ab9a1b4f121e4f4eb",
                "wType": "FlexContainer"
            },
            "top": {
                "Default": {
                    "type": "string",
                    "value": "0dp"
                }
            }
        },
        "flxHeaderShadow": {
            "__events__": {},
            "__info__": {
                "kuid": "efd3d8c838bb4f8199ca7ffbb1adc30e",
                "srcKUID": "f2d9c4a6a40143d8810c778f5f634853",
                "wType": "FlexContainer"
            }
        },
        "flxSearch": {
            "__events__": {},
            "__info__": {
                "kuid": "bbc2cefba22d4e498f3f6c9e3751d176",
                "srcKUID": "b3770ab32332447ab59176519234cee8",
                "wType": "FlexContainer"
            }
        },
        "flxSearchMain": {
            "__events__": {},
            "__info__": {
                "kuid": "ifb78ab90406442c9763050304ca58d2",
                "srcKUID": "db20269d51344928b8ba8a9b29d0741f",
                "wType": "FlexContainer"
            }
        },
        "imgSearch": {
            "__events__": {},
            "__info__": {
                "kuid": "d1bd666172194672acfeabe3afa76c09",
                "srcKUID": "f9d61cc007354263ab63d0c7a742aa41",
                "wType": "Image"
            },
            "src": "searchblue.png"
        },
        "imgSearchIcon": {
            "__events__": {},
            "__info__": {
                "kuid": "a5f9e31032c44a399fbedf431a319dc2",
                "srcKUID": "j657ec465367414995d83c0c48f49c43",
                "wType": "Image"
            },
            "src": "search.png"
        },
        "tbxSearch": {
            "__events__": {},
            "__info__": {
                "kuid": "a5a214fd4d744f13bfa3ebb814a09826",
                "srcKUID": "b9d79b6a7ddf4527a22a3e3cc610c0f5",
                "wType": "TextField"
            },
            "placeholder": "Search Products..."
        }
    },
    "id": "customSearchbox",
    "info": null,
    "iscustomlayout": false,
    "isdatareferenced": false,
    "isvisible": true,
    "kuid": "cd1dca67bd884266aa0b14b74a16fbbf",
    "layouttype": 2,
    "masterType": 0,
    "name": "kony.ui.UserWidgetInstance",
    "parent": "flxHeaderSearchbox",
    "pf": "frmNAOSelectProduct",
    "retaincontentalignment": false,
    "retainflexpositionproperties": false,
    "snaptogrid": true,
    "sourceUserWidget": "f1b1b5e40a58453ab9a1b4f121e4f4eb",
    "wType": "UserWidgetInstance"
}