{
  "operationConfig" : {
    "name" : "getLocationAddress4437",
    "type" : "MappedToBackend",
    "cachable" : false,
    "smsEnabled" : false,
    "security" : "public",
    "responseEncoding" : "UTF-8",
    "httpMethod" : "GET",
    "decodeResponseBody" : false,
    "iMapping" : "<?xml version=\"1.0\" encoding=\"UTF-8\" standalone=\"yes\"?><mapper xmlns=\"http://www.kony.com/ns/mapper\"><map inputpath=\"request_in\" outputpath=\"request_out\"><set-param inputpath=\"latitude\" outputpath=\"latitude\"/><set-param inputpath=\"longitude\" outputpath=\"longitude\"/></map></mapper>",
    "oMapping" : "<?xml version=\"1.0\" encoding=\"UTF-8\" standalone=\"yes\"?><mapper xmlns=\"http://www.kony.com/ns/mapper\">    <map inputpath=\"response_in\" outputpath=\"response_out\">        <set-param inputpath=\"formattedAddress\" outputpath=\"formattedAddress\"/>        <set-param inputpath=\"status\" outputpath=\"status\"/>    </map></mapper>",
    "oVisualMappingData" : "{\"nodeDataArray\":[{\"isGroup\":true,\"key\":\"response_out\",\"text\":\"Locations\",\"xy\":\"770 100\",\"__gohashid\":4054},{\"isGroup\":true,\"key\":\"response_in\",\"text\":\"GoogleAPIs.getLocationAddress\",\"xy\":\"150 100\",\"__gohashid\":4055}],\"linkDataArray\":[{\"from\":\"target\",\"to\":\"target:Locations\",\"fromPort\":\"target\",\"toPort\":\"target:Locations\",\"visible\":true,\"common\":false,\"__gohashid\":4090},{\"from\":\"target:Locations\",\"to\":\"target:Locations:fields\",\"fromPort\":\"target:Locations\",\"toPort\":\"target:Locations:fields\",\"visible\":true,\"common\":false,\"__gohashid\":4091},{\"from\":\"target:Locations:fields\",\"to\":\"target:Locations:addressLine1:\",\"fromPort\":\"target:Locations:fields\",\"toPort\":\"target:Locations:addressLine1:\",\"visible\":true,\"common\":false,\"__gohashid\":4092},{\"from\":\"target:Locations:fields\",\"to\":\"target:Locations:addressLine2:\",\"fromPort\":\"target:Locations:fields\",\"toPort\":\"target:Locations:addressLine2:\",\"visible\":true,\"common\":false,\"__gohashid\":4093},{\"from\":\"target:Locations:fields\",\"to\":\"target:Locations:API_KEY:\",\"fromPort\":\"target:Locations:fields\",\"toPort\":\"target:Locations:API_KEY:\",\"visible\":true,\"common\":false,\"__gohashid\":4094},{\"from\":\"target:Locations:fields\",\"to\":\"target:Locations:currLatitude:\",\"fromPort\":\"target:Locations:fields\",\"toPort\":\"target:Locations:currLatitude:\",\"visible\":true,\"common\":false,\"__gohashid\":4095},{\"from\":\"target:Locations:fields\",\"to\":\"target:Locations:currLongitude:\",\"fromPort\":\"target:Locations:fields\",\"toPort\":\"target:Locations:currLongitude:\",\"visible\":true,\"common\":false,\"__gohashid\":4096},{\"from\":\"target:Locations:fields\",\"to\":\"target:Locations:distance:\",\"fromPort\":\"target:Locations:fields\",\"toPort\":\"target:Locations:distance:\",\"visible\":true,\"common\":false,\"__gohashid\":4097},{\"from\":\"target:Locations:fields\",\"to\":\"target:Locations:errmsg:\",\"fromPort\":\"target:Locations:fields\",\"toPort\":\"target:Locations:errmsg:\",\"visible\":true,\"common\":false,\"__gohashid\":4098},{\"from\":\"target:Locations:fields\",\"to\":\"target:Locations:formattedAddress:\",\"fromPort\":\"target:Locations:fields\",\"toPort\":\"target:Locations:formattedAddress:\",\"visible\":true,\"common\":false,\"__gohashid\":4099},{\"from\":\"target:Locations:fields\",\"to\":\"target:Locations:informationTitle:\",\"fromPort\":\"target:Locations:fields\",\"toPort\":\"target:Locations:informationTitle:\",\"visible\":true,\"common\":false,\"__gohashid\":4100},{\"from\":\"target:Locations:fields\",\"to\":\"target:Locations:latitude:\",\"fromPort\":\"target:Locations:fields\",\"toPort\":\"target:Locations:latitude:\",\"visible\":true,\"common\":false,\"__gohashid\":4101},{\"from\":\"target:Locations:fields\",\"to\":\"target:Locations:locationId:\",\"fromPort\":\"target:Locations:fields\",\"toPort\":\"target:Locations:locationId:\",\"visible\":true,\"common\":false,\"__gohashid\":4102},{\"from\":\"target:Locations:fields\",\"to\":\"target:Locations:longitude:\",\"fromPort\":\"target:Locations:fields\",\"toPort\":\"target:Locations:longitude:\",\"visible\":true,\"common\":false,\"__gohashid\":4103},{\"from\":\"target:Locations:fields\",\"to\":\"target:Locations:mapURL:\",\"fromPort\":\"target:Locations:fields\",\"toPort\":\"target:Locations:mapURL:\",\"visible\":true,\"common\":false,\"__gohashid\":4104},{\"from\":\"target:Locations:fields\",\"to\":\"target:Locations:name:\",\"fromPort\":\"target:Locations:fields\",\"toPort\":\"target:Locations:name:\",\"visible\":true,\"common\":false,\"__gohashid\":4105},{\"from\":\"target:Locations:fields\",\"to\":\"target:Locations:phoneNumber:\",\"fromPort\":\"target:Locations:fields\",\"toPort\":\"target:Locations:phoneNumber:\",\"visible\":true,\"common\":false,\"__gohashid\":4106},{\"from\":\"target:Locations:fields\",\"to\":\"target:Locations:placeID:\",\"fromPort\":\"target:Locations:fields\",\"toPort\":\"target:Locations:placeID:\",\"visible\":true,\"common\":false,\"__gohashid\":4107},{\"from\":\"target:Locations:fields\",\"to\":\"target:Locations:place_id:\",\"fromPort\":\"target:Locations:fields\",\"toPort\":\"target:Locations:place_id:\",\"visible\":true,\"common\":false,\"__gohashid\":4108},{\"from\":\"target:Locations:fields\",\"to\":\"target:Locations:query:\",\"fromPort\":\"target:Locations:fields\",\"toPort\":\"target:Locations:query:\",\"visible\":true,\"common\":false,\"__gohashid\":4109},{\"from\":\"target:Locations:fields\",\"to\":\"target:Locations:radius:\",\"fromPort\":\"target:Locations:fields\",\"toPort\":\"target:Locations:radius:\",\"visible\":true,\"common\":false,\"__gohashid\":4110},{\"from\":\"target:Locations:fields\",\"to\":\"target:Locations:rating:\",\"fromPort\":\"target:Locations:fields\",\"toPort\":\"target:Locations:rating:\",\"visible\":true,\"common\":false,\"__gohashid\":4111},{\"from\":\"target:Locations:fields\",\"to\":\"target:Locations:services:\",\"fromPort\":\"target:Locations:fields\",\"toPort\":\"target:Locations:services:\",\"visible\":true,\"common\":false,\"__gohashid\":4112},{\"from\":\"target:Locations:fields\",\"to\":\"target:Locations:status:\",\"fromPort\":\"target:Locations:fields\",\"toPort\":\"target:Locations:status:\",\"visible\":true,\"common\":false,\"__gohashid\":4113},{\"from\":\"target:Locations:fields\",\"to\":\"target:Locations:type:\",\"fromPort\":\"target:Locations:fields\",\"toPort\":\"target:Locations:type:\",\"visible\":true,\"common\":false,\"__gohashid\":4114},{\"from\":\"target:Locations:fields\",\"to\":\"target:Locations:types:\",\"fromPort\":\"target:Locations:fields\",\"toPort\":\"target:Locations:types:\",\"visible\":true,\"common\":false,\"__gohashid\":4115},{\"from\":\"target:Locations:fields\",\"to\":\"target:Locations:webSiteURL:\",\"fromPort\":\"target:Locations:fields\",\"toPort\":\"target:Locations:webSiteURL:\",\"visible\":true,\"common\":false,\"__gohashid\":4116},{\"from\":\"target:Locations:fields\",\"to\":\"target:Locations:workingHours:\",\"fromPort\":\"target:Locations:fields\",\"toPort\":\"target:Locations:workingHours:\",\"visible\":true,\"common\":false,\"__gohashid\":4117},{\"from\":\"source\",\"to\":\"source:parameters\",\"fromPort\":\"source\",\"toPort\":\"source:parameters\",\"visible\":true,\"common\":false,\"__gohashid\":4118},{\"from\":\"source:parameters\",\"to\":\"source:formattedAddress:\",\"fromPort\":\"source:parameters\",\"toPort\":\"source:formattedAddress:\",\"visible\":true,\"common\":false,\"__gohashid\":4119},{\"from\":\"source:parameters\",\"to\":\"source:status:\",\"fromPort\":\"source:parameters\",\"toPort\":\"source:status:\",\"visible\":true,\"common\":false,\"__gohashid\":4120}],\"blockCount\":{\"variableCount\":0},\"variableMap\":{},\"xmlMappingOverride\":true}",
    "applyCommonMapping" : false,
    "applyRequestCommonMapping" : true,
    "applyResponseCommonMapping" : false,
    "backendMeta" : {
      "serviceName" : "GoogleAPIs",
      "serviceVersion" : "1.0",
      "operationName" : "getLocationAddress"
    },
    "relationshipHierarchyMapping" : {
      "children" : [ ],
      "name" : "Locations",
      "actions" : { },
      "selected" : true
    },
    "requestXmlMappingOverride" : false,
    "responseXmlMappingOverride" : true
  }
}