{
  "operationConfig" : {
    "name" : "registerDevice9986",
    "type" : "MappedToBackend",
    "cachable" : false,
    "smsEnabled" : false,
    "security" : "authorized_app_user",
    "responseEncoding" : "UTF-8",
    "httpMethod" : "GET",
    "decodeResponseBody" : false,
    "iMapping" : "<?xml version=\"1.0\" encoding=\"UTF-8\" standalone=\"yes\"?><mapper xmlns=\"http://www.kony.com/ns/mapper\">        <map inputpath=\"request_in\" outputpath=\"request_out\">                <set-param inputpath=\"deviceId\" outputpath=\"deviceId\"/>          </map></mapper>",
    "oMapping" : "<?xml version=\"1.0\" encoding=\"UTF-8\" standalone=\"yes\"?><mapper xmlns=\"http://www.kony.com/ns/mapper\">      <map inputpath=\"response_in\" outputpath=\"response_out\">           <set-param inputpath=\"errmsg\" outputpath=\"errmsg\"/>             <set-param inputpath=\"deviceregistration/Status_id\" outputpath=\"status\"/>            <set-param inputpath=\"deviceregistration/DeviceId\" outputpath=\"deviceId\"/>      </map>  </mapper>    ",
    "iVisualMappingData" : "{\"nodeDataArray\":[{\"isGroup\":true,\"key\":\"request_in\",\"text\":\"DeviceRegistration\",\"xy\":\"150 100\",\"__gohashid\":32572},{\"isGroup\":true,\"key\":\"request_out\",\"text\":\"dbpRbLocalServicesJava.registerDevice\",\"xy\":\"770 100\",\"__gohashid\":32573}],\"linkDataArray\":[{\"from\":\"source\",\"to\":\"source:DeviceRegistration\",\"fromPort\":\"source\",\"toPort\":\"source:DeviceRegistration\",\"visible\":true,\"common\":false,\"__gohashid\":43315},{\"from\":\"source:DeviceRegistration\",\"to\":\"source:DeviceRegistration:fields\",\"fromPort\":\"source:DeviceRegistration\",\"toPort\":\"source:DeviceRegistration:fields\",\"visible\":true,\"common\":false,\"__gohashid\":43316},{\"from\":\"source:DeviceRegistration:fields\",\"to\":\"source:DeviceRegistration:deviceId:\",\"fromPort\":\"source:DeviceRegistration:fields\",\"toPort\":\"source:DeviceRegistration:deviceId:\",\"visible\":true,\"common\":false,\"__gohashid\":43317},{\"from\":\"source:DeviceRegistration:fields\",\"to\":\"source:DeviceRegistration:errmsg:\",\"fromPort\":\"source:DeviceRegistration:fields\",\"toPort\":\"source:DeviceRegistration:errmsg:\",\"visible\":true,\"common\":false,\"__gohashid\":43318},{\"from\":\"source:DeviceRegistration:fields\",\"to\":\"source:DeviceRegistration:status:\",\"fromPort\":\"source:DeviceRegistration:fields\",\"toPort\":\"source:DeviceRegistration:status:\",\"visible\":true,\"common\":false,\"__gohashid\":43319},{\"from\":\"target\",\"to\":\"target:parameters\",\"fromPort\":\"target\",\"toPort\":\"target:parameters\",\"visible\":true,\"common\":false,\"__gohashid\":43320},{\"from\":\"target:parameters\",\"to\":\"target:deviceId:\",\"fromPort\":\"target:parameters\",\"toPort\":\"target:deviceId:\",\"visible\":true,\"common\":false,\"__gohashid\":43321}],\"blockCount\":{\"variableCount\":0},\"variableMap\":{},\"xmlMappingOverride\":true}",
    "oVisualMappingData" : "{\"nodeDataArray\":[{\"isGroup\":true,\"key\":\"response_out\",\"text\":\"DeviceRegistration\",\"xy\":\"770 100\",\"__gohashid\":35932},{\"isGroup\":true,\"key\":\"response_in\",\"text\":\"dbpRbLocalServicesJava (1.0).registerDevice\",\"xy\":\"150 100\",\"__gohashid\":35933}],\"linkDataArray\":[{\"from\":\"target\",\"to\":\"target:DeviceRegistration\",\"fromPort\":\"target\",\"toPort\":\"target:DeviceRegistration\",\"visible\":true,\"common\":false,\"__gohashid\":416},{\"from\":\"target:DeviceRegistration\",\"to\":\"target:DeviceRegistration:fields\",\"fromPort\":\"target:DeviceRegistration\",\"toPort\":\"target:DeviceRegistration:fields\",\"visible\":true,\"common\":false,\"__gohashid\":417},{\"from\":\"target:DeviceRegistration:fields\",\"to\":\"target:DeviceRegistration:deviceId:\",\"fromPort\":\"target:DeviceRegistration:fields\",\"toPort\":\"target:DeviceRegistration:deviceId:\",\"visible\":true,\"common\":false,\"__gohashid\":418},{\"from\":\"target:DeviceRegistration:fields\",\"to\":\"target:DeviceRegistration:errmsg:\",\"fromPort\":\"target:DeviceRegistration:fields\",\"toPort\":\"target:DeviceRegistration:errmsg:\",\"visible\":true,\"common\":false,\"__gohashid\":419},{\"from\":\"target:DeviceRegistration:fields\",\"to\":\"target:DeviceRegistration:status:\",\"fromPort\":\"target:DeviceRegistration:fields\",\"toPort\":\"target:DeviceRegistration:status:\",\"visible\":true,\"common\":false,\"__gohashid\":420},{\"from\":\"source\",\"to\":\"source:parameters\",\"fromPort\":\"source\",\"toPort\":\"source:parameters\",\"visible\":true,\"common\":false,\"__gohashid\":421},{\"from\":\"source:parameters\",\"to\":\"source:deviceId:\",\"fromPort\":\"source:parameters\",\"toPort\":\"source:deviceId:\",\"visible\":true,\"common\":false,\"__gohashid\":422},{\"from\":\"source:parameters\",\"to\":\"source:errmsg:\",\"fromPort\":\"source:parameters\",\"toPort\":\"source:errmsg:\",\"visible\":true,\"common\":false,\"__gohashid\":423},{\"from\":\"source:parameters\",\"to\":\"source:status:\",\"fromPort\":\"source:parameters\",\"toPort\":\"source:status:\",\"visible\":true,\"common\":false,\"__gohashid\":424}],\"blockCount\":{\"variableCount\":0},\"variableMap\":{},\"xmlMappingOverride\":true}",
    "applyCommonMapping" : false,
    "applyRequestCommonMapping" : false,
    "applyResponseCommonMapping" : false,
    "backendMeta" : {
      "serviceName" : "dbpRbLocalServicesJava",
      "serviceVersion" : "1.0",
      "operationName" : "registerDevice"
    },
    "relationshipHierarchyMapping" : {
      "children" : [ ],
      "name" : "DeviceRegistration",
      "actions" : { },
      "selected" : true
    },
    "requestXmlMappingOverride" : true,
    "responseXmlMappingOverride" : true
  }
}