{
  "background_color": "ddddde00",
  "bg_type": "one",
  "border_color": "000000ff",
  "border_style": "plain",
  "border_type": 0,
  "border_width": 0,
  "isDefaultSkin": false,
  "kuid": "sf7892b1e2f440869e279110bd3837f4",
  "wType": "FlexContainer"
}