{
  "android": {
    "font_name": "SourceSansPro-Light"
  },
  "background_color": "ffffffff",
  "bg_type": "one",
  "border_color": "d6d2d6ff",
  "border_style": "plain",
  "border_type": 0,
  "border_width": 1,
  "font_color": "424242ff",
  "font_name": "Helvetica",
  "font_size": 126,
  "font_style": "normal",
  "font_weight": "normal",
  "isDefaultSkin": false,
  "kuid": "sa9746e8d84c4222880ea004f73fc563",
  "wType": "TextField"
}