{
  "android": {
    "font_size": 95,
    "isForked": false
  },
  "androidwearos": {
    "font_size": 95,
    "isForked": false
  },
  "background_color": "00000000",
  "bg_type": "one",
  "border_color": "424242ff",
  "border_style": "plain",
  "border_type": 0,
  "border_width": 0,
  "desktopweb": {
    "font_size": 95,
    "isForked": false
  },
  "fontSizeInPx": false,
  "font_color": "004876ff",
  "font_name": "Helvetica",
  "font_size": 95,
  "font_style": "normal",
  "font_weight": "normal",
  "ipad": {
    "font_size": 95,
    "isForked": false
  },
  "iphone": {
    "font_name": "SourceSansPro-Regular",
    "font_size": 95,
    "isForked": false
  },
  "isDefaultSkin": false,
  "kiosk": {
    "font_size": 95,
    "isForked": false
  },
  "kuid": "se3a837f03ab4fb7b9c990a91058e15f",
  "spaan": {
    "font_size": 95,
    "isForked": false
  },
  "spaandroidtablet": {
    "font_size": 95,
    "isForked": false
  },
  "spabb": {
    "font_size": 95,
    "isForked": false
  },
  "spaip": {
    "font_size": 95,
    "isForked": false
  },
  "spaipad": {
    "font_size": 95,
    "isForked": false
  },
  "spawindowstablet": {
    "font_size": 95,
    "isForked": false
  },
  "spawinphone8": {
    "font_size": 95,
    "isForked": false
  },
  "tabrcandroid": {
    "font_size": 95,
    "isForked": false
  },
  "wType": "RichText",
  "watchos": {
    "font_size": 95,
    "isForked": false
  },
  "windows8": {
    "font_size": 95,
    "isForked": false
  },
  "winphone8": {
    "font_size": 95,
    "isForked": false
  }
}