{
    "@class": "com.kony.gen.viz.model.component.KVizRichText",
    "DNDConfig": null,
    "__parentReadjusting__": false,
    "_height_": {
        "type": "ref",
        "value": "preferred"
    },
    "_left_": {
        "type": "string",
        "value": "55dp"
    },
    "_margin_": [
        0,
        0,
        0,
        0
    ],
    "_padding_": [
        0,
        0,
        0,
        0
    ],
    "_skin_": "sfbeee1fcbbd406e895e9215da082c5b",
    "_text_": "Send <b>SECURITY CODE</b> to registered Mobile Number",
    "_width_": {
        "type": "string",
        "value": "70%"
    },
    "_wrapping_": 2,
    "accessibilityconfig": {
        "a11yLabel": "Send <b>SECURITY CODE</b> to registered Mobile Number"
    },
    "canUpdateUI": true,
    "centery": {
        "type": "string",
        "value": "50%"
    },
    "containerweight": 100,
    "contentalignment": 4,
    "id": "rtxSelectSecurityCode",
    "info": null,
    "isvisible": true,
    "kuid": "c4ae8e95dcc0427d8733aba3f9eb411f",
    "name": "kony.ui.RichText",
    "parent": "flxSelectSecurityCode",
    "pf": "frmForgotSelectMethod",
    "texti18n": "kony.mb.Forgot.RtxSelectSecurityCode",
    "wType": "RichText",
    "widgetalignment": 5,
    "zindex": 1
}