{
  "customCode" : {
    "requestProcessorName" : "com.kony.dbputilities.objpreprocessors.UsernamePasswordPolicyPreProcessor"
  },
  "operationConfig" : {
    "name" : "CreateMicroOrganizationEmployee8363",
    "type" : "MappedToBackend",
    "cachable" : false,
    "smsEnabled" : false,
    "security" : "authorized_app_user",
    "responseEncoding" : "UTF-8",
    "httpMethod" : "GET",
    "decodeResponseBody" : false,
    "iMapping" : "<?xml version=\"1.0\" encoding=\"UTF-8\"?><mapper xmlns=\"http://www.kony.com/ns/mapper\">       <map inputpath=\"request_in\" outputpath=\"request_out\">              <set-param inputpath=\"OtpGenaratedts\" outputpath=\"OtpGenaratedts\" />              <set-param inputpath=\"Email\" outputpath=\"Email\" />              <set-param inputpath=\"areAccountStatementTermsAccepted\" outputpath=\"areAccountStatementTermsAccepted\" />              <set-param inputpath=\"unsuccessfulLoginAttempts\" outputpath=\"unsuccessfulLoginAttempts\" />              <set-param inputpath=\"isSuperAdmin\" outputpath=\"isSuperAdmin\" />              <set-param inputpath=\"Token\" outputpath=\"Token\" />              <set-param inputpath=\"Otp\" outputpath=\"Otp\" />              <set-param inputpath=\"Gender\" outputpath=\"Gender\" />              <set-param inputpath=\"IDValue\" outputpath=\"IDValue\" />              <set-param inputpath=\"Lastlogintime\" outputpath=\"Lastlogintime\" />              <set-param inputpath=\"Location_id\" outputpath=\"Location_id\" />              <set-param inputpath=\"ValidDate\" outputpath=\"ValidDate\" />              <set-param inputpath=\"RegistrationLink\" outputpath=\"RegistrationLink\" />              <set-param inputpath=\"createdby\" outputpath=\"createdby\" />              <set-param inputpath=\"IDType_id\" outputpath=\"IDType_id\" />              <set-param inputpath=\"NoOfDependents\" outputpath=\"NoOfDependents\" />              <set-param inputpath=\"areUserAlertsTurnedOn\" outputpath=\"areUserAlertsTurnedOn\" />              <set-param inputpath=\"id\" outputpath=\"id\" />              <set-param inputpath=\"synctimestamp\" outputpath=\"synctimestamp\" />              <set-param inputpath=\"isWireTransferActivated\" outputpath=\"isWireTransferActivated\" />              <set-param inputpath=\"DateOfBirth\" outputpath=\"DateOfBirth\" />              <set-param inputpath=\"MaritalStatus_id\" outputpath=\"MaritalStatus_id\" />              <set-param inputpath=\"IsAssistConsented\" outputpath=\"IsAssistConsented\" />              <set-param inputpath=\"EmployementStatus_id\" outputpath=\"EmployementStatus_id\" />              <set-param inputpath=\"IsOlbAllowed\" outputpath=\"IsOlbAllowed\" />              <set-param inputpath=\"Role_id\" outputpath=\"Role_id\" />              <set-param inputpath=\"Is_MemberEligibile\" outputpath=\"Is_MemberEligibile\" />              <set-param inputpath=\"Role\" outputpath=\"Role\" />              <set-param inputpath=\"Customer_id\" outputpath=\"Customer_id\" />              <set-param inputpath=\"RegLinkValidity\" outputpath=\"RegLinkValidity\" />              <set-param inputpath=\"IsPhoneEnabled\" outputpath=\"IsPhoneEnabled\" />              <set-param inputpath=\"modifiedby\" outputpath=\"modifiedby\" />              <set-param inputpath=\"LastName\" outputpath=\"LastName\" />              <set-param inputpath=\"isUserAccountLocked\" outputpath=\"isUserAccountLocked\" />              <set-param inputpath=\"isWireTransferEligible\" outputpath=\"isWireTransferEligible\" />              <set-param inputpath=\"UserImage\" outputpath=\"UserImage\" />              <set-param inputpath=\"CreditUnionMemberSince\" outputpath=\"CreditUnionMemberSince\" />              <set-param inputpath=\"OlbEnrolmentStatus_id\" outputpath=\"OlbEnrolmentStatus_id\" />              <set-param inputpath=\"Salutation\" outputpath=\"Salutation\" />              <set-param inputpath=\"createdts\" outputpath=\"createdts\" />              <set-param inputpath=\"softdeleteflag\" outputpath=\"softdeleteflag\" />              <set-param inputpath=\"IsStaffMember\" outputpath=\"IsStaffMember\" />              <set-param inputpath=\"IsC`eIdentityScope\" outputpath=\"IsCoreIdentityScope\" />              <set-param inputpath=\"SecurityImage_id\" outputpath=\"SecurityImage_id\" />              <set-param inputpath=\"IsPinSet\" outputpath=\"IsPinSet\" />              <set-param inputpath=\"UserImageURL\" outputpath=\"UserImageURL\" />              <set-param inputpath=\"CurrentLoginTime\" outputpath=\"CurrentLoginTime\" />              <set-param inputpath=\"Phone\" outputpath=\"Phone\" />              <set-param inputpath=\"CustomerType_id\" outputpath=\"CustomerType_id\" />              <set-param inputpath=\"Is_BBOA\" outputpath=\"Is_BBOA\" />              <set-param inputpath=\"CountryCode\" outputpath=\"CountryCode\" />              <set-param inputpath=\"isEnrolled\" outputpath=\"isEnrolled\" />              <set-param inputpath=\"Password\" outputpath=\"Password\" />              <set-param inputpath=\"lastmodifiedts\" outputpath=\"lastmodifiedts\" />              <set-param inputpath=\"EAgreementRequired\" outputpath=\"EAgreementRequired\" />              <set-param inputpath=\"isBillPayActivated\" outputpath=\"isBillPayActivated\" />              <set-param inputpath=\"UserName\" outputpath=\"UserName\" />              <set-param inputpath=\"IDMidentifier\" outputpath=\"IDMidentifier\" />              <set-param inputpath=\"Status_id\" outputpath=\"Status_id\" />              <set-param inputpath=\"FirstName\" outputpath=\"FirstName\" />              <set-param inputpath=\"IsEmailEnabled\" outputpath=\"IsEmailEnabled\" />              <set-param inputpath=\"services\" outputpath=\"services\" />              <set-param inputpath=\"MiddleName\" outputpath=\"MiddleName\" />              <set-param inputpath=\"isBillPaySupported\" outputpath=\"isBillPaySupported\" />              <set-param inputpath=\"SpouseName\" outputpath=\"SpouseName\" />              <set-param inputpath=\"Ssn\" outputpath=\"Ssn\" />              <set-param inputpath=\"AtionProfile_id\" outputpath=\"AtionProfile_id\" />              <set-param inputpath=\"isP2PSupported\" outputpath=\"isP2PSupported\" />              <set-param inputpath=\"Pin\" outputpath=\"Pin\" />              <set-param inputpath=\"MemberEligibilityData\" outputpath=\"MemberEligibilityData\" />              <set-param inputpath=\"FullName\" outputpath=\"FullName\" />              <set-param inputpath=\"areDepositTermsAccepted\" outputpath=\"areDepositTermsAccepted\" />              <set-param inputpath=\"accounts\" outputpath=\"accounts\" />              <set-param inputpath=\"RegLinkResendCount\" outputpath=\"RegLinkResendCount\" />              <set-param inputpath=\"isP2PActivated\" outputpath=\"isP2PActivated\" />              <set-param inputpath=\"Organization_id\" outputpath=\"Organization_id\" />    <set-param inputpath=\"DrivingLicenseNumber\" outputpath=\"DrivingLicenseNumber\" />  </map></mapper>",
    "oMapping" : "<?xml version=\"1.0\" encoding=\"UTF-8\" standalone=\"yes\"?><mapper xmlns=\"http://www.kony.com/ns/mapper\">      <map inputpath=\"response_in\" outputpath=\"response_out\">              <set-param inputpath=\"id\" outputpath=\"id\"/>              <set-param inputpath=\"success\" outputpath=\"success\"/>              <set-param inputpath=\"dbpErrCode\" outputpath=\"dbpErrCode\"/>              <set-param inputpath=\"dbpErrMsg\" outputpath=\"dbpErrMsg\"/>         <set-param inputpath=\"isEagreementSigned\" outputpath=\"isEagreementSigned\" />          <set-param inputpath=\"isEAgreementRequired\" outputpath=\"isEAgreementRequired\" />    </map></mapper>",
    "iVisualMappingData" : "{\"nodeDataArray\":[{\"isGroup\":true,\"key\":\"request_in\",\"text\":\"DbxUser\",\"xy\":\"150 100\",\"__gohashid\":129083},{\"isGroup\":true,\"key\":\"request_out\",\"text\":\"dbpDBX (1.0).CreateMicroOrganizationEmployee\",\"xy\":\"770 100\",\"__gohashid\":129084}],\"linkDataArray\":[{\"from\":\"source\",\"to\":\"source:DbxUser\",\"fromPort\":\"source\",\"toPort\":\"source:DbxUser\",\"visible\":true,\"common\":false,\"__gohashid\":395},{\"from\":\"source:DbxUser\",\"to\":\"source:DbxUser:fields\",\"fromPort\":\"source:DbxUser\",\"toPort\":\"source:DbxUser:fields\",\"visible\":true,\"common\":false,\"__gohashid\":396},{\"from\":\"source:DbxUser:fields\",\"to\":\"source:DbxUser:id:\",\"fromPort\":\"source:DbxUser:fields\",\"toPort\":\"source:DbxUser:id:\",\"visible\":true,\"common\":false,\"__gohashid\":397},{\"from\":\"source:DbxUser:fields\",\"to\":\"source:DbxUser:IDValue:\",\"fromPort\":\"source:DbxUser:fields\",\"toPort\":\"source:DbxUser:IDValue:\",\"visible\":true,\"common\":false,\"__gohashid\":398},{\"from\":\"source:DbxUser:fields\",\"to\":\"source:DbxUser:IDType_id:\",\"fromPort\":\"source:DbxUser:fields\",\"toPort\":\"source:DbxUser:IDType_id:\",\"visible\":true,\"common\":false,\"__gohashid\":399},{\"from\":\"source:DbxUser:fields\",\"to\":\"source:DbxUser:UserName:\",\"fromPort\":\"source:DbxUser:fields\",\"toPort\":\"source:DbxUser:UserName:\",\"visible\":true,\"common\":false,\"__gohashid\":400},{\"from\":\"source:DbxUser:fields\",\"to\":\"source:DbxUser:Password:\",\"fromPort\":\"source:DbxUser:fields\",\"toPort\":\"source:DbxUser:Password:\",\"visible\":true,\"common\":false,\"__gohashid\":401},{\"from\":\"source:DbxUser:fields\",\"to\":\"source:DbxUser:IsCoreIdentityScope:\",\"fromPort\":\"source:DbxUser:fields\",\"toPort\":\"source:DbxUser:IsCoreIdentityScope:\",\"visible\":true,\"common\":false,\"__gohashid\":402},{\"from\":\"source:DbxUser:fields\",\"to\":\"source:DbxUser:Salutation:\",\"fromPort\":\"source:DbxUser:fields\",\"toPort\":\"source:DbxUser:Salutation:\",\"visible\":true,\"common\":false,\"__gohashid\":403},{\"from\":\"source:DbxUser:fields\",\"to\":\"source:DbxUser:FirstName:\",\"fromPort\":\"source:DbxUser:fields\",\"toPort\":\"source:DbxUser:FirstName:\",\"visible\":true,\"common\":false,\"__gohashid\":404},{\"from\":\"source:DbxUser:fields\",\"to\":\"source:DbxUser:MiddleName:\",\"fromPort\":\"source:DbxUser:fields\",\"toPort\":\"source:DbxUser:MiddleName:\",\"visible\":true,\"common\":false,\"__gohashid\":405},{\"from\":\"source:DbxUser:fields\",\"to\":\"source:DbxUser:LastName:\",\"fromPort\":\"source:DbxUser:fields\",\"toPort\":\"source:DbxUser:LastName:\",\"visible\":true,\"common\":false,\"__gohashid\":406},{\"from\":\"source:DbxUser:fields\",\"to\":\"source:DbxUser:FullName:\",\"fromPort\":\"source:DbxUser:fields\",\"toPort\":\"source:DbxUser:FullName:\",\"visible\":true,\"common\":false,\"__gohashid\":407},{\"from\":\"source:DbxUser:fields\",\"to\":\"source:DbxUser:Gender:\",\"fromPort\":\"source:DbxUser:fields\",\"toPort\":\"source:DbxUser:Gender:\",\"visible\":true,\"common\":false,\"__gohashid\":408},{\"from\":\"source:DbxUser:fields\",\"to\":\"source:DbxUser:DateOfBirth:\",\"fromPort\":\"source:DbxUser:fields\",\"toPort\":\"source:DbxUser:DateOfBirth:\",\"visible\":true,\"common\":false,\"__gohashid\":409},{\"from\":\"source:DbxUser:fields\",\"to\":\"source:DbxUser:Ssn:\",\"fromPort\":\"source:DbxUser:fields\",\"toPort\":\"source:DbxUser:Ssn:\",\"visible\":true,\"common\":false,\"__gohashid\":410},{\"from\":\"source:DbxUser:fields\",\"to\":\"source:DbxUser:CustomerType_id:\",\"fromPort\":\"source:DbxUser:fields\",\"toPort\":\"source:DbxUser:CustomerType_id:\",\"visible\":true,\"common\":false,\"__gohashid\":411},{\"from\":\"source:DbxUser:fields\",\"to\":\"source:DbxUser:CustomerType:\",\"fromPort\":\"source:DbxUser:fields\",\"toPort\":\"source:DbxUser:CustomerType:\",\"visible\":true,\"common\":false,\"__gohashid\":412},{\"from\":\"source:DbxUser:fields\",\"to\":\"source:DbxUser:Status_id:\",\"fromPort\":\"source:DbxUser:fields\",\"toPort\":\"source:DbxUser:Status_id:\",\"visible\":true,\"common\":false,\"__gohashid\":413},{\"from\":\"source:DbxUser:fields\",\"to\":\"source:DbxUser:Status:\",\"fromPort\":\"source:DbxUser:fields\",\"toPort\":\"source:DbxUser:Status:\",\"visible\":true,\"common\":false,\"__gohashid\":414},{\"from\":\"source:DbxUser:fields\",\"to\":\"source:DbxUser:success:\",\"fromPort\":\"source:DbxUser:fields\",\"toPort\":\"source:DbxUser:success:\",\"visible\":true,\"common\":false,\"__gohashid\":415},{\"from\":\"source:DbxUser:fields\",\"to\":\"source:DbxUser:IsPhoneEnabled:\",\"fromPort\":\"source:DbxUser:fields\",\"toPort\":\"source:DbxUser:IsPhoneEnabled:\",\"visible\":true,\"common\":false,\"__gohashid\":416},{\"from\":\"source:DbxUser:fields\",\"to\":\"source:DbxUser:IsEmailEnabled:\",\"fromPort\":\"source:DbxUser:fields\",\"toPort\":\"source:DbxUser:IsEmailEnabled:\",\"visible\":true,\"common\":false,\"__gohashid\":417},{\"from\":\"source:DbxUser:fields\",\"to\":\"source:DbxUser:IsStaffMember:\",\"fromPort\":\"source:DbxUser:fields\",\"toPort\":\"source:DbxUser:IsStaffMember:\",\"visible\":true,\"common\":false,\"__gohashid\":418},{\"from\":\"source:DbxUser:fields\",\"to\":\"source:DbxUser:isSuperAdmin:\",\"fromPort\":\"source:DbxUser:fields\",\"toPort\":\"source:DbxUser:isSuperAdmin:\",\"visible\":true,\"common\":false,\"__gohashid\":419},{\"from\":\"source:DbxUser:fields\",\"to\":\"source:DbxUser:Role:\",\"fromPort\":\"source:DbxUser:fields\",\"toPort\":\"source:DbxUser:Role:\",\"visible\":true,\"common\":false,\"__gohashid\":420},{\"from\":\"source:DbxUser:fields\",\"to\":\"source:DbxUser:SecurityImage_id:\",\"fromPort\":\"source:DbxUser:fields\",\"toPort\":\"source:DbxUser:SecurityImage_id:\",\"visible\":true,\"common\":false,\"__gohashid\":421},{\"from\":\"source:DbxUser:fields\",\"to\":\"source:DbxUser:IsPinSet:\",\"fromPort\":\"source:DbxUser:fields\",\"toPort\":\"source:DbxUser:IsPinSet:\",\"visible\":true,\"common\":false,\"__gohashid\":422},{\"from\":\"source:DbxUser:fields\",\"to\":\"source:DbxUser:Pin:\",\"fromPort\":\"source:DbxUser:fields\",\"toPort\":\"source:DbxUser:Pin:\",\"visible\":true,\"common\":false,\"__gohashid\":423},{\"from\":\"source:DbxUser:fields\",\"to\":\"source:DbxUser:Token:\",\"fromPort\":\"source:DbxUser:fields\",\"toPort\":\"source:DbxUser:Token:\",\"visible\":true,\"common\":false,\"__gohashid\":424},{\"from\":\"source:DbxUser:fields\",\"to\":\"source:DbxUser:Otp:\",\"fromPort\":\"source:DbxUser:fields\",\"toPort\":\"source:DbxUser:Otp:\",\"visible\":true,\"common\":false,\"__gohashid\":425},{\"from\":\"source:DbxUser:fields\",\"to\":\"source:DbxUser:OtpGenaratedts:\",\"fromPort\":\"source:DbxUser:fields\",\"toPort\":\"source:DbxUser:OtpGenaratedts:\",\"visible\":true,\"common\":false,\"__gohashid\":426},{\"from\":\"source:DbxUser:fields\",\"to\":\"source:DbxUser:ValidDate:\",\"fromPort\":\"source:DbxUser:fields\",\"toPort\":\"source:DbxUser:ValidDate:\",\"visible\":true,\"common\":false,\"__gohashid\":427},{\"from\":\"source:DbxUser:fields\",\"to\":\"source:DbxUser:unsuccessfulLoginAttempts:\",\"fromPort\":\"source:DbxUser:fields\",\"toPort\":\"source:DbxUser:unsuccessfulLoginAttempts:\",\"visible\":true,\"common\":false,\"__gohashid\":428},{\"from\":\"source:DbxUser:fields\",\"to\":\"source:DbxUser:isUserAccountLocked:\",\"fromPort\":\"source:DbxUser:fields\",\"toPort\":\"source:DbxUser:isUserAccountLocked:\",\"visible\":true,\"common\":false,\"__gohashid\":429},{\"from\":\"source:DbxUser:fields\",\"to\":\"source:DbxUser:UserImage:\",\"fromPort\":\"source:DbxUser:fields\",\"toPort\":\"source:DbxUser:UserImage:\",\"visible\":true,\"common\":false,\"__gohashid\":430},{\"from\":\"source:DbxUser:fields\",\"to\":\"source:DbxUser:UserImageURL:\",\"fromPort\":\"source:DbxUser:fields\",\"toPort\":\"source:DbxUser:UserImageURL:\",\"visible\":true,\"common\":false,\"__gohashid\":431},{\"from\":\"source:DbxUser:fields\",\"to\":\"source:DbxUser:CountryCode:\",\"fromPort\":\"source:DbxUser:fields\",\"toPort\":\"source:DbxUser:CountryCode:\",\"visible\":true,\"common\":false,\"__gohashid\":432},{\"from\":\"source:DbxUser:fields\",\"to\":\"source:DbxUser:Location_id:\",\"fromPort\":\"source:DbxUser:fields\",\"toPort\":\"source:DbxUser:Location_id:\",\"visible\":true,\"common\":false,\"__gohashid\":433},{\"from\":\"source:DbxUser:fields\",\"to\":\"source:DbxUser:IsOlbAllowed:\",\"fromPort\":\"source:DbxUser:fields\",\"toPort\":\"source:DbxUser:IsOlbAllowed:\",\"visible\":true,\"common\":false,\"__gohashid\":434},{\"from\":\"source:DbxUser:fields\",\"to\":\"source:DbxUser:OlbEnrolmentStatus_id:\",\"fromPort\":\"source:DbxUser:fields\",\"toPort\":\"source:DbxUser:OlbEnrolmentStatus_id:\",\"visible\":true,\"common\":false,\"__gohashid\":435},{\"from\":\"source:DbxUser:fields\",\"to\":\"source:DbxUser:isEnrolled:\",\"fromPort\":\"source:DbxUser:fields\",\"toPort\":\"source:DbxUser:isEnrolled:\",\"visible\":true,\"common\":false,\"__gohashid\":436},{\"from\":\"source:DbxUser:fields\",\"to\":\"source:DbxUser:Is_MemberEligibile:\",\"fromPort\":\"source:DbxUser:fields\",\"toPort\":\"source:DbxUser:Is_MemberEligibile:\",\"visible\":true,\"common\":false,\"__gohashid\":437},{\"from\":\"source:DbxUser:fields\",\"to\":\"source:DbxUser:MemberEligibilityData:\",\"fromPort\":\"source:DbxUser:fields\",\"toPort\":\"source:DbxUser:MemberEligibilityData:\",\"visible\":true,\"common\":false,\"__gohashid\":438},{\"from\":\"source:DbxUser:fields\",\"to\":\"source:DbxUser:Is_BBOA:\",\"fromPort\":\"source:DbxUser:fields\",\"toPort\":\"source:DbxUser:Is_BBOA:\",\"visible\":true,\"common\":false,\"__gohashid\":439},{\"from\":\"source:DbxUser:fields\",\"to\":\"source:DbxUser:MaritalStatus_id:\",\"fromPort\":\"source:DbxUser:fields\",\"toPort\":\"source:DbxUser:MaritalStatus_id:\",\"visible\":true,\"common\":false,\"__gohashid\":440},{\"from\":\"source:DbxUser:fields\",\"to\":\"source:DbxUser:SpouseName:\",\"fromPort\":\"source:DbxUser:fields\",\"toPort\":\"source:DbxUser:SpouseName:\",\"visible\":true,\"common\":false,\"__gohashid\":441},{\"from\":\"source:DbxUser:fields\",\"to\":\"source:DbxUser:NoOfDependents:\",\"fromPort\":\"source:DbxUser:fields\",\"toPort\":\"source:DbxUser:NoOfDependents:\",\"visible\":true,\"common\":false,\"__gohashid\":442},{\"from\":\"source:DbxUser:fields\",\"to\":\"source:DbxUser:EmployementStatus_id:\",\"fromPort\":\"source:DbxUser:fields\",\"toPort\":\"source:DbxUser:EmployementStatus_id:\",\"visible\":true,\"common\":false,\"__gohashid\":443},{\"from\":\"source:DbxUser:fields\",\"to\":\"source:DbxUser:CurrentLoginTime:\",\"fromPort\":\"source:DbxUser:fields\",\"toPort\":\"source:DbxUser:CurrentLoginTime:\",\"visible\":true,\"common\":false,\"__gohashid\":444},{\"from\":\"source:DbxUser:fields\",\"to\":\"source:DbxUser:Lastlogintime:\",\"fromPort\":\"source:DbxUser:fields\",\"toPort\":\"source:DbxUser:Lastlogintime:\",\"visible\":true,\"common\":false,\"__gohashid\":445},{\"from\":\"source:DbxUser:fields\",\"to\":\"source:DbxUser:CreditUnionMemberSince:\",\"fromPort\":\"source:DbxUser:fields\",\"toPort\":\"source:DbxUser:CreditUnionMemberSince:\",\"visible\":true,\"common\":false,\"__gohashid\":446},{\"from\":\"source:DbxUser:fields\",\"to\":\"source:DbxUser:AtionProfile_id:\",\"fromPort\":\"source:DbxUser:fields\",\"toPort\":\"source:DbxUser:AtionProfile_id:\",\"visible\":true,\"common\":false,\"__gohashid\":447},{\"from\":\"source:DbxUser:fields\",\"to\":\"source:DbxUser:RegistrationLink:\",\"fromPort\":\"source:DbxUser:fields\",\"toPort\":\"source:DbxUser:RegistrationLink:\",\"visible\":true,\"common\":false,\"__gohashid\":448},{\"from\":\"source:DbxUser:fields\",\"to\":\"source:DbxUser:RegLinkResendCount:\",\"fromPort\":\"source:DbxUser:fields\",\"toPort\":\"source:DbxUser:RegLinkResendCount:\",\"visible\":true,\"common\":false,\"__gohashid\":449},{\"from\":\"source:DbxUser:fields\",\"to\":\"source:DbxUser:RegLinkValidity:\",\"fromPort\":\"source:DbxUser:fields\",\"toPort\":\"source:DbxUser:RegLinkValidity:\",\"visible\":true,\"common\":false,\"__gohashid\":450},{\"from\":\"source:DbxUser:fields\",\"to\":\"source:DbxUser:IsAssistConsented:\",\"fromPort\":\"source:DbxUser:fields\",\"toPort\":\"source:DbxUser:IsAssistConsented:\",\"visible\":true,\"common\":false,\"__gohashid\":451},{\"from\":\"source:DbxUser:fields\",\"to\":\"source:DbxUser:areDepositTermsAccepted:\",\"fromPort\":\"source:DbxUser:fields\",\"toPort\":\"source:DbxUser:areDepositTermsAccepted:\",\"visible\":true,\"common\":false,\"__gohashid\":452},{\"from\":\"source:DbxUser:fields\",\"to\":\"source:DbxUser:areAccountStatementTermsAccepted:\",\"fromPort\":\"source:DbxUser:fields\",\"toPort\":\"source:DbxUser:areAccountStatementTermsAccepted:\",\"visible\":true,\"common\":false,\"__gohashid\":453},{\"from\":\"source:DbxUser:fields\",\"to\":\"source:DbxUser:areUserAlertsTurnedOn:\",\"fromPort\":\"source:DbxUser:fields\",\"toPort\":\"source:DbxUser:areUserAlertsTurnedOn:\",\"visible\":true,\"common\":false,\"__gohashid\":454},{\"from\":\"source:DbxUser:fields\",\"to\":\"source:DbxUser:isBillPaySupported:\",\"fromPort\":\"source:DbxUser:fields\",\"toPort\":\"source:DbxUser:isBillPaySupported:\",\"visible\":true,\"common\":false,\"__gohashid\":455},{\"from\":\"source:DbxUser:fields\",\"to\":\"source:DbxUser:isBillPayActivated:\",\"fromPort\":\"source:DbxUser:fields\",\"toPort\":\"source:DbxUser:isBillPayActivated:\",\"visible\":true,\"common\":false,\"__gohashid\":456},{\"from\":\"source:DbxUser:fields\",\"to\":\"source:DbxUser:isP2PSupported:\",\"fromPort\":\"source:DbxUser:fields\",\"toPort\":\"source:DbxUser:isP2PSupported:\",\"visible\":true,\"common\":false,\"__gohashid\":457},{\"from\":\"source:DbxUser:fields\",\"to\":\"source:DbxUser:isP2PActivated:\",\"fromPort\":\"source:DbxUser:fields\",\"toPort\":\"source:DbxUser:isP2PActivated:\",\"visible\":true,\"common\":false,\"__gohashid\":458},{\"from\":\"source:DbxUser:fields\",\"to\":\"source:DbxUser:isWireTransferEligible:\",\"fromPort\":\"source:DbxUser:fields\",\"toPort\":\"source:DbxUser:isWireTransferEligible:\",\"visible\":true,\"common\":false,\"__gohashid\":459},{\"from\":\"source:DbxUser:fields\",\"to\":\"source:DbxUser:isWireTransferActivated:\",\"fromPort\":\"source:DbxUser:fields\",\"toPort\":\"source:DbxUser:isWireTransferActivated:\",\"visible\":true,\"common\":false,\"__gohashid\":460},{\"from\":\"source:DbxUser:fields\",\"to\":\"source:DbxUser:createdby:\",\"fromPort\":\"source:DbxUser:fields\",\"toPort\":\"source:DbxUser:createdby:\",\"visible\":true,\"common\":false,\"__gohashid\":461},{\"from\":\"source:DbxUser:fields\",\"to\":\"source:DbxUser:modifiedby:\",\"fromPort\":\"source:DbxUser:fields\",\"toPort\":\"source:DbxUser:modifiedby:\",\"visible\":true,\"common\":false,\"__gohashid\":462},{\"from\":\"source:DbxUser:fields\",\"to\":\"source:DbxUser:createdts:\",\"fromPort\":\"source:DbxUser:fields\",\"toPort\":\"source:DbxUser:createdts:\",\"visible\":true,\"common\":false,\"__gohashid\":463},{\"from\":\"source:DbxUser:fields\",\"to\":\"source:DbxUser:lastmodifiedts:\",\"fromPort\":\"source:DbxUser:fields\",\"toPort\":\"source:DbxUser:lastmodifiedts:\",\"visible\":true,\"common\":false,\"__gohashid\":464},{\"from\":\"source:DbxUser:fields\",\"to\":\"source:DbxUser:synctimestamp:\",\"fromPort\":\"source:DbxUser:fields\",\"toPort\":\"source:DbxUser:synctimestamp:\",\"visible\":true,\"common\":false,\"__gohashid\":465},{\"from\":\"source:DbxUser:fields\",\"to\":\"source:DbxUser:softdeleteflag:\",\"fromPort\":\"source:DbxUser:fields\",\"toPort\":\"source:DbxUser:softdeleteflag:\",\"visible\":true,\"common\":false,\"__gohashid\":466},{\"from\":\"source:DbxUser:fields\",\"to\":\"source:DbxUser:securityKey:\",\"fromPort\":\"source:DbxUser:fields\",\"toPort\":\"source:DbxUser:securityKey:\",\"visible\":true,\"common\":false,\"__gohashid\":467},{\"from\":\"source:DbxUser:fields\",\"to\":\"source:DbxUser:Phone:\",\"fromPort\":\"source:DbxUser:fields\",\"toPort\":\"source:DbxUser:Phone:\",\"visible\":true,\"common\":false,\"__gohashid\":468},{\"from\":\"source:DbxUser:fields\",\"to\":\"source:DbxUser:Email:\",\"fromPort\":\"source:DbxUser:fields\",\"toPort\":\"source:DbxUser:Email:\",\"visible\":true,\"common\":false,\"__gohashid\":469},{\"from\":\"source:DbxUser:fields\",\"to\":\"source:DbxUser:Result:\",\"fromPort\":\"source:DbxUser:fields\",\"toPort\":\"source:DbxUser:Result:\",\"visible\":true,\"common\":false,\"__gohashid\":470},{\"from\":\"source:DbxUser:fields\",\"to\":\"source:DbxUser:errMessage:\",\"fromPort\":\"source:DbxUser:fields\",\"toPort\":\"source:DbxUser:errMessage:\",\"visible\":true,\"common\":false,\"__gohashid\":471},{\"from\":\"source:DbxUser:fields\",\"to\":\"source:DbxUser:errCode:\",\"fromPort\":\"source:DbxUser:fields\",\"toPort\":\"source:DbxUser:errCode:\",\"visible\":true,\"common\":false,\"__gohashid\":472},{\"from\":\"source:DbxUser:fields\",\"to\":\"source:DbxUser:message:\",\"fromPort\":\"source:DbxUser:fields\",\"toPort\":\"source:DbxUser:message:\",\"visible\":true,\"common\":false,\"__gohashid\":473},{\"from\":\"source:DbxUser:fields\",\"to\":\"source:DbxUser:error:\",\"fromPort\":\"source:DbxUser:fields\",\"toPort\":\"source:DbxUser:error:\",\"visible\":true,\"common\":false,\"__gohashid\":474},{\"from\":\"source:DbxUser:fields\",\"to\":\"source:DbxUser:errmsg:\",\"fromPort\":\"source:DbxUser:fields\",\"toPort\":\"source:DbxUser:errmsg:\",\"visible\":true,\"common\":false,\"__gohashid\":475},{\"from\":\"source:DbxUser:fields\",\"to\":\"source:DbxUser:MemberId:\",\"fromPort\":\"source:DbxUser:fields\",\"toPort\":\"source:DbxUser:MemberId:\",\"visible\":true,\"common\":false,\"__gohashid\":476},{\"from\":\"source:DbxUser:fields\",\"to\":\"source:DbxUser:IDMidentifier:\",\"fromPort\":\"source:DbxUser:fields\",\"toPort\":\"source:DbxUser:IDMidentifier:\",\"visible\":true,\"common\":false,\"__gohashid\":477},{\"from\":\"source:DbxUser:fields\",\"to\":\"source:DbxUser:errorMessage:\",\"fromPort\":\"source:DbxUser:fields\",\"toPort\":\"source:DbxUser:errorMessage:\",\"visible\":true,\"common\":false,\"__gohashid\":478},{\"from\":\"source:DbxUser:fields\",\"to\":\"source:DbxUser:errorCode:\",\"fromPort\":\"source:DbxUser:fields\",\"toPort\":\"source:DbxUser:errorCode:\",\"visible\":true,\"common\":false,\"__gohashid\":479},{\"from\":\"source:DbxUser:fields\",\"to\":\"source:DbxUser:lockedOn:\",\"fromPort\":\"source:DbxUser:fields\",\"toPort\":\"source:DbxUser:lockedOn:\",\"visible\":true,\"common\":false,\"__gohashid\":480},{\"from\":\"source:DbxUser:fields\",\"to\":\"source:DbxUser:Subscribe:\",\"fromPort\":\"source:DbxUser:fields\",\"toPort\":\"source:DbxUser:Subscribe:\",\"visible\":true,\"common\":false,\"__gohashid\":481},{\"from\":\"source:DbxUser:fields\",\"to\":\"source:DbxUser:Membership_id:\",\"fromPort\":\"source:DbxUser:fields\",\"toPort\":\"source:DbxUser:Membership_id:\",\"visible\":true,\"common\":false,\"__gohashid\":482},{\"from\":\"source:DbxUser:fields\",\"to\":\"source:DbxUser:Taxid:\",\"fromPort\":\"source:DbxUser:fields\",\"toPort\":\"source:DbxUser:Taxid:\",\"visible\":true,\"common\":false,\"__gohashid\":483},{\"from\":\"source:DbxUser:fields\",\"to\":\"source:DbxUser:Customer_id:\",\"fromPort\":\"source:DbxUser:fields\",\"toPort\":\"source:DbxUser:Customer_id:\",\"visible\":true,\"common\":false,\"__gohashid\":484},{\"from\":\"source:DbxUser:fields\",\"to\":\"source:DbxUser:accounts:\",\"fromPort\":\"source:DbxUser:fields\",\"toPort\":\"source:DbxUser:accounts:\",\"visible\":true,\"common\":false,\"__gohashid\":485},{\"from\":\"source:DbxUser:fields\",\"to\":\"source:DbxUser:services:\",\"fromPort\":\"source:DbxUser:fields\",\"toPort\":\"source:DbxUser:services:\",\"visible\":true,\"common\":false,\"__gohashid\":486},{\"from\":\"source:DbxUser:fields\",\"to\":\"source:DbxUser:Role_id:\",\"fromPort\":\"source:DbxUser:fields\",\"toPort\":\"source:DbxUser:Role_id:\",\"visible\":true,\"common\":false,\"__gohashid\":487},{\"from\":\"source:DbxUser:fields\",\"to\":\"source:DbxUser:customeraccounts:\",\"fromPort\":\"source:DbxUser:fields\",\"toPort\":\"source:DbxUser:customeraccounts:\",\"visible\":true,\"common\":false,\"__gohashid\":488},{\"from\":\"source:DbxUser:fields\",\"to\":\"source:DbxUser:DrivingLicenseNumber:\",\"fromPort\":\"source:DbxUser:fields\",\"toPort\":\"source:DbxUser:DrivingLicenseNumber:\",\"visible\":true,\"common\":false,\"__gohashid\":489},{\"from\":\"source:DbxUser:fields\",\"to\":\"source:DbxUser:EAgreementRequired:\",\"fromPort\":\"source:DbxUser:fields\",\"toPort\":\"source:DbxUser:EAgreementRequired:\",\"visible\":true,\"common\":false,\"__gohashid\":490},{\"from\":\"source:DbxUser:fields\",\"to\":\"source:DbxUser:doNotSendOTP:\",\"fromPort\":\"source:DbxUser:fields\",\"toPort\":\"source:DbxUser:doNotSendOTP:\",\"visible\":true,\"common\":false,\"__gohashid\":491},{\"from\":\"source:DbxUser:fields\",\"to\":\"source:DbxUser:redirectLink:\",\"fromPort\":\"source:DbxUser:fields\",\"toPort\":\"source:DbxUser:redirectLink:\",\"visible\":true,\"common\":false,\"__gohashid\":492},{\"from\":\"source:DbxUser:fields\",\"to\":\"source:DbxUser:Organization_id:\",\"fromPort\":\"source:DbxUser:fields\",\"toPort\":\"source:DbxUser:Organization_id:\",\"visible\":true,\"common\":false,\"__gohashid\":493},{\"from\":\"source:DbxUser:fields\",\"to\":\"source:DbxUser:isEAgreementRequired:\",\"fromPort\":\"source:DbxUser:fields\",\"toPort\":\"source:DbxUser:isEAgreementRequired:\",\"visible\":true,\"common\":false,\"__gohashid\":494},{\"from\":\"source:DbxUser:fields\",\"to\":\"source:DbxUser:isEagreementSigned:\",\"fromPort\":\"source:DbxUser:fields\",\"toPort\":\"source:DbxUser:isEagreementSigned:\",\"visible\":true,\"common\":false,\"__gohashid\":495},{\"from\":\"source:DbxUser:fields\",\"to\":\"source:DbxUser:opCode:\",\"fromPort\":\"source:DbxUser:fields\",\"toPort\":\"source:DbxUser:opCode:\",\"visible\":true,\"common\":false,\"__gohashid\":496},{\"from\":\"source:DbxUser:fields\",\"to\":\"source:DbxUser:opMessage:\",\"fromPort\":\"source:DbxUser:fields\",\"toPort\":\"source:DbxUser:opMessage:\",\"visible\":true,\"common\":false,\"__gohashid\":497},{\"from\":\"target\",\"to\":\"target:parameters\",\"fromPort\":\"target\",\"toPort\":\"target:parameters\",\"visible\":true,\"common\":false,\"__gohashid\":498},{\"from\":\"target:parameters\",\"to\":\"target:AtionProfile_id:\",\"fromPort\":\"target:parameters\",\"toPort\":\"target:AtionProfile_id:\",\"visible\":true,\"common\":false,\"__gohashid\":499},{\"from\":\"target:parameters\",\"to\":\"target:CountryCode:\",\"fromPort\":\"target:parameters\",\"toPort\":\"target:CountryCode:\",\"visible\":true,\"common\":false,\"__gohashid\":500},{\"from\":\"target:parameters\",\"to\":\"target:CreditUnionMemberSince:\",\"fromPort\":\"target:parameters\",\"toPort\":\"target:CreditUnionMemberSince:\",\"visible\":true,\"common\":false,\"__gohashid\":501},{\"from\":\"target:parameters\",\"to\":\"target:CurrentLoginTime:\",\"fromPort\":\"target:parameters\",\"toPort\":\"target:CurrentLoginTime:\",\"visible\":true,\"common\":false,\"__gohashid\":502},{\"from\":\"target:parameters\",\"to\":\"target:CustomerType_id:\",\"fromPort\":\"target:parameters\",\"toPort\":\"target:CustomerType_id:\",\"visible\":true,\"common\":false,\"__gohashid\":503},{\"from\":\"target:parameters\",\"to\":\"target:Customer_id:\",\"fromPort\":\"target:parameters\",\"toPort\":\"target:Customer_id:\",\"visible\":true,\"common\":false,\"__gohashid\":504},{\"from\":\"target:parameters\",\"to\":\"target:DateOfBirth:\",\"fromPort\":\"target:parameters\",\"toPort\":\"target:DateOfBirth:\",\"visible\":true,\"common\":false,\"__gohashid\":505},{\"from\":\"target:parameters\",\"to\":\"target:DrivingLicenseNumber:\",\"fromPort\":\"target:parameters\",\"toPort\":\"target:DrivingLicenseNumber:\",\"visible\":true,\"common\":false,\"__gohashid\":506},{\"from\":\"target:parameters\",\"to\":\"target:EAgreementRequired:\",\"fromPort\":\"target:parameters\",\"toPort\":\"target:EAgreementRequired:\",\"visible\":true,\"common\":false,\"__gohashid\":507},{\"from\":\"target:parameters\",\"to\":\"target:Email:\",\"fromPort\":\"target:parameters\",\"toPort\":\"target:Email:\",\"visible\":true,\"common\":false,\"__gohashid\":508},{\"from\":\"target:parameters\",\"to\":\"target:EmployementStatus_id:\",\"fromPort\":\"target:parameters\",\"toPort\":\"target:EmployementStatus_id:\",\"visible\":true,\"common\":false,\"__gohashid\":509},{\"from\":\"target:parameters\",\"to\":\"target:FirstName:\",\"fromPort\":\"target:parameters\",\"toPort\":\"target:FirstName:\",\"visible\":true,\"common\":false,\"__gohashid\":510},{\"from\":\"target:parameters\",\"to\":\"target:FullName:\",\"fromPort\":\"target:parameters\",\"toPort\":\"target:FullName:\",\"visible\":true,\"common\":false,\"__gohashid\":511},{\"from\":\"target:parameters\",\"to\":\"target:Gender:\",\"fromPort\":\"target:parameters\",\"toPort\":\"target:Gender:\",\"visible\":true,\"common\":false,\"__gohashid\":512},{\"from\":\"target:parameters\",\"to\":\"target:IDMidentifier:\",\"fromPort\":\"target:parameters\",\"toPort\":\"target:IDMidentifier:\",\"visible\":true,\"common\":false,\"__gohashid\":513},{\"from\":\"target:parameters\",\"to\":\"target:IDType_id:\",\"fromPort\":\"target:parameters\",\"toPort\":\"target:IDType_id:\",\"visible\":true,\"common\":false,\"__gohashid\":514},{\"from\":\"target:parameters\",\"to\":\"target:IDValue:\",\"fromPort\":\"target:parameters\",\"toPort\":\"target:IDValue:\",\"visible\":true,\"common\":false,\"__gohashid\":515},{\"from\":\"target:parameters\",\"to\":\"target:IsAssistConsented:\",\"fromPort\":\"target:parameters\",\"toPort\":\"target:IsAssistConsented:\",\"visible\":true,\"common\":false,\"__gohashid\":516},{\"from\":\"target:parameters\",\"to\":\"target:IsCoreIdentityScope:\",\"fromPort\":\"target:parameters\",\"toPort\":\"target:IsCoreIdentityScope:\",\"visible\":true,\"common\":false,\"__gohashid\":517},{\"from\":\"target:parameters\",\"to\":\"target:IsEmailEnabled:\",\"fromPort\":\"target:parameters\",\"toPort\":\"target:IsEmailEnabled:\",\"visible\":true,\"common\":false,\"__gohashid\":518},{\"from\":\"target:parameters\",\"to\":\"target:IsOlbAllowed:\",\"fromPort\":\"target:parameters\",\"toPort\":\"target:IsOlbAllowed:\",\"visible\":true,\"common\":false,\"__gohashid\":519},{\"from\":\"target:parameters\",\"to\":\"target:IsPhoneEnabled:\",\"fromPort\":\"target:parameters\",\"toPort\":\"target:IsPhoneEnabled:\",\"visible\":true,\"common\":false,\"__gohashid\":520},{\"from\":\"target:parameters\",\"to\":\"target:IsPinSet:\",\"fromPort\":\"target:parameters\",\"toPort\":\"target:IsPinSet:\",\"visible\":true,\"common\":false,\"__gohashid\":521},{\"from\":\"target:parameters\",\"to\":\"target:IsStaffMember:\",\"fromPort\":\"target:parameters\",\"toPort\":\"target:IsStaffMember:\",\"visible\":true,\"common\":false,\"__gohashid\":522},{\"from\":\"target:parameters\",\"to\":\"target:Is_BBOA:\",\"fromPort\":\"target:parameters\",\"toPort\":\"target:Is_BBOA:\",\"visible\":true,\"common\":false,\"__gohashid\":523},{\"from\":\"target:parameters\",\"to\":\"target:Is_MemberEligibile:\",\"fromPort\":\"target:parameters\",\"toPort\":\"target:Is_MemberEligibile:\",\"visible\":true,\"common\":false,\"__gohashid\":524},{\"from\":\"target:parameters\",\"to\":\"target:LastName:\",\"fromPort\":\"target:parameters\",\"toPort\":\"target:LastName:\",\"visible\":true,\"common\":false,\"__gohashid\":525},{\"from\":\"target:parameters\",\"to\":\"target:Lastlogintime:\",\"fromPort\":\"target:parameters\",\"toPort\":\"target:Lastlogintime:\",\"visible\":true,\"common\":false,\"__gohashid\":526},{\"from\":\"target:parameters\",\"to\":\"target:Location_id:\",\"fromPort\":\"target:parameters\",\"toPort\":\"target:Location_id:\",\"visible\":true,\"common\":false,\"__gohashid\":527},{\"from\":\"target:parameters\",\"to\":\"target:MaritalStatus_id:\",\"fromPort\":\"target:parameters\",\"toPort\":\"target:MaritalStatus_id:\",\"visible\":true,\"common\":false,\"__gohashid\":528},{\"from\":\"target:parameters\",\"to\":\"target:MemberEligibilityData:\",\"fromPort\":\"target:parameters\",\"toPort\":\"target:MemberEligibilityData:\",\"visible\":true,\"common\":false,\"__gohashid\":529},{\"from\":\"target:parameters\",\"to\":\"target:MiddleName:\",\"fromPort\":\"target:parameters\",\"toPort\":\"target:MiddleName:\",\"visible\":true,\"common\":false,\"__gohashid\":530},{\"from\":\"target:parameters\",\"to\":\"target:NoOfDependents:\",\"fromPort\":\"target:parameters\",\"toPort\":\"target:NoOfDependents:\",\"visible\":true,\"common\":false,\"__gohashid\":531},{\"from\":\"target:parameters\",\"to\":\"target:OlbEnrolmentStatus_id:\",\"fromPort\":\"target:parameters\",\"toPort\":\"target:OlbEnrolmentStatus_id:\",\"visible\":true,\"common\":false,\"__gohashid\":532},{\"from\":\"target:parameters\",\"to\":\"target:Organization_Id:\",\"fromPort\":\"target:parameters\",\"toPort\":\"target:Organization_Id:\",\"visible\":true,\"common\":false,\"__gohashid\":533},{\"from\":\"target:parameters\",\"to\":\"target:Otp:\",\"fromPort\":\"target:parameters\",\"toPort\":\"target:Otp:\",\"visible\":true,\"common\":false,\"__gohashid\":534},{\"from\":\"target:parameters\",\"to\":\"target:OtpGenaratedts:\",\"fromPort\":\"target:parameters\",\"toPort\":\"target:OtpGenaratedts:\",\"visible\":true,\"common\":false,\"__gohashid\":535},{\"from\":\"target:parameters\",\"to\":\"target:Password:\",\"fromPort\":\"target:parameters\",\"toPort\":\"target:Password:\",\"visible\":true,\"common\":false,\"__gohashid\":536},{\"from\":\"target:parameters\",\"to\":\"target:Phone:\",\"fromPort\":\"target:parameters\",\"toPort\":\"target:Phone:\",\"visible\":true,\"common\":false,\"__gohashid\":537},{\"from\":\"target:parameters\",\"to\":\"target:Pin:\",\"fromPort\":\"target:parameters\",\"toPort\":\"target:Pin:\",\"visible\":true,\"common\":false,\"__gohashid\":538},{\"from\":\"target:parameters\",\"to\":\"target:RegLinkResendCount:\",\"fromPort\":\"target:parameters\",\"toPort\":\"target:RegLinkResendCount:\",\"visible\":true,\"common\":false,\"__gohashid\":539},{\"from\":\"target:parameters\",\"to\":\"target:RegLinkValidity:\",\"fromPort\":\"target:parameters\",\"toPort\":\"target:RegLinkValidity:\",\"visible\":true,\"common\":false,\"__gohashid\":540},{\"from\":\"target:parameters\",\"to\":\"target:RegistrationLink:\",\"fromPort\":\"target:parameters\",\"toPort\":\"target:RegistrationLink:\",\"visible\":true,\"common\":false,\"__gohashid\":541},{\"from\":\"target:parameters\",\"to\":\"target:Role:\",\"fromPort\":\"target:parameters\",\"toPort\":\"target:Role:\",\"visible\":true,\"common\":false,\"__gohashid\":542},{\"from\":\"target:parameters\",\"to\":\"target:Role_id:\",\"fromPort\":\"target:parameters\",\"toPort\":\"target:Role_id:\",\"visible\":true,\"common\":false,\"__gohashid\":543},{\"from\":\"target:parameters\",\"to\":\"target:Salutation:\",\"fromPort\":\"target:parameters\",\"toPort\":\"target:Salutation:\",\"visible\":true,\"common\":false,\"__gohashid\":544},{\"from\":\"target:parameters\",\"to\":\"target:SecurityImage_id:\",\"fromPort\":\"target:parameters\",\"toPort\":\"target:SecurityImage_id:\",\"visible\":true,\"common\":false,\"__gohashid\":545},{\"from\":\"target:parameters\",\"to\":\"target:SpouseName:\",\"fromPort\":\"target:parameters\",\"toPort\":\"target:SpouseName:\",\"visible\":true,\"common\":false,\"__gohashid\":546},{\"from\":\"target:parameters\",\"to\":\"target:Ssn:\",\"fromPort\":\"target:parameters\",\"toPort\":\"target:Ssn:\",\"visible\":true,\"common\":false,\"__gohashid\":547},{\"from\":\"target:parameters\",\"to\":\"target:Status_id:\",\"fromPort\":\"target:parameters\",\"toPort\":\"target:Status_id:\",\"visible\":true,\"common\":false,\"__gohashid\":548},{\"from\":\"target:parameters\",\"to\":\"target:Token:\",\"fromPort\":\"target:parameters\",\"toPort\":\"target:Token:\",\"visible\":true,\"common\":false,\"__gohashid\":549},{\"from\":\"target:parameters\",\"to\":\"target:UserImage:\",\"fromPort\":\"target:parameters\",\"toPort\":\"target:UserImage:\",\"visible\":true,\"common\":false,\"__gohashid\":550},{\"from\":\"target:parameters\",\"to\":\"target:UserImageURL:\",\"fromPort\":\"target:parameters\",\"toPort\":\"target:UserImageURL:\",\"visible\":true,\"common\":false,\"__gohashid\":551},{\"from\":\"target:parameters\",\"to\":\"target:UserName:\",\"fromPort\":\"target:parameters\",\"toPort\":\"target:UserName:\",\"visible\":true,\"common\":false,\"__gohashid\":552},{\"from\":\"target:parameters\",\"to\":\"target:ValidDate:\",\"fromPort\":\"target:parameters\",\"toPort\":\"target:ValidDate:\",\"visible\":true,\"common\":false,\"__gohashid\":553},{\"from\":\"target:parameters\",\"to\":\"target:accounts:\",\"fromPort\":\"target:parameters\",\"toPort\":\"target:accounts:\",\"visible\":true,\"common\":false,\"__gohashid\":554},{\"from\":\"target:parameters\",\"to\":\"target:areAccountStatementTermsAccepted:\",\"fromPort\":\"target:parameters\",\"toPort\":\"target:areAccountStatementTermsAccepted:\",\"visible\":true,\"common\":false,\"__gohashid\":555},{\"from\":\"target:parameters\",\"to\":\"target:areDepositTermsAccepted:\",\"fromPort\":\"target:parameters\",\"toPort\":\"target:areDepositTermsAccepted:\",\"visible\":true,\"common\":false,\"__gohashid\":556},{\"from\":\"target:parameters\",\"to\":\"target:areUserAlertsTurnedOn:\",\"fromPort\":\"target:parameters\",\"toPort\":\"target:areUserAlertsTurnedOn:\",\"visible\":true,\"common\":false,\"__gohashid\":557},{\"from\":\"target:parameters\",\"to\":\"target:createdby:\",\"fromPort\":\"target:parameters\",\"toPort\":\"target:createdby:\",\"visible\":true,\"common\":false,\"__gohashid\":558},{\"from\":\"target:parameters\",\"to\":\"target:createdts:\",\"fromPort\":\"target:parameters\",\"toPort\":\"target:createdts:\",\"visible\":true,\"common\":false,\"__gohashid\":559},{\"from\":\"target:parameters\",\"to\":\"target:id:\",\"fromPort\":\"target:parameters\",\"toPort\":\"target:id:\",\"visible\":true,\"common\":false,\"__gohashid\":560},{\"from\":\"target:parameters\",\"to\":\"target:isBillPayActivated:\",\"fromPort\":\"target:parameters\",\"toPort\":\"target:isBillPayActivated:\",\"visible\":true,\"common\":false,\"__gohashid\":561},{\"from\":\"target:parameters\",\"to\":\"target:isBillPaySupported:\",\"fromPort\":\"target:parameters\",\"toPort\":\"target:isBillPaySupported:\",\"visible\":true,\"common\":false,\"__gohashid\":562},{\"from\":\"target:parameters\",\"to\":\"target:isEnrolled:\",\"fromPort\":\"target:parameters\",\"toPort\":\"target:isEnrolled:\",\"visible\":true,\"common\":false,\"__gohashid\":563},{\"from\":\"target:parameters\",\"to\":\"target:isP2PActivated:\",\"fromPort\":\"target:parameters\",\"toPort\":\"target:isP2PActivated:\",\"visible\":true,\"common\":false,\"__gohashid\":564},{\"from\":\"target:parameters\",\"to\":\"target:isP2PSupported:\",\"fromPort\":\"target:parameters\",\"toPort\":\"target:isP2PSupported:\",\"visible\":true,\"common\":false,\"__gohashid\":565},{\"from\":\"target:parameters\",\"to\":\"target:isSuperAdmin:\",\"fromPort\":\"target:parameters\",\"toPort\":\"target:isSuperAdmin:\",\"visible\":true,\"common\":false,\"__gohashid\":566},{\"from\":\"target:parameters\",\"to\":\"target:isUserAccountLocked:\",\"fromPort\":\"target:parameters\",\"toPort\":\"target:isUserAccountLocked:\",\"visible\":true,\"common\":false,\"__gohashid\":567},{\"from\":\"target:parameters\",\"to\":\"target:isWireTransferActivated:\",\"fromPort\":\"target:parameters\",\"toPort\":\"target:isWireTransferActivated:\",\"visible\":true,\"common\":false,\"__gohashid\":568},{\"from\":\"target:parameters\",\"to\":\"target:isWireTransferEligible:\",\"fromPort\":\"target:parameters\",\"toPort\":\"target:isWireTransferEligible:\",\"visible\":true,\"common\":false,\"__gohashid\":569},{\"from\":\"target:parameters\",\"to\":\"target:lastmodifiedts:\",\"fromPort\":\"target:parameters\",\"toPort\":\"target:lastmodifiedts:\",\"visible\":true,\"common\":false,\"__gohashid\":570},{\"from\":\"target:parameters\",\"to\":\"target:modifiedby:\",\"fromPort\":\"target:parameters\",\"toPort\":\"target:modifiedby:\",\"visible\":true,\"common\":false,\"__gohashid\":571},{\"from\":\"target:parameters\",\"to\":\"target:services:\",\"fromPort\":\"target:parameters\",\"toPort\":\"target:services:\",\"visible\":true,\"common\":false,\"__gohashid\":572},{\"from\":\"target:parameters\",\"to\":\"target:softdeleteflag:\",\"fromPort\":\"target:parameters\",\"toPort\":\"target:softdeleteflag:\",\"visible\":true,\"common\":false,\"__gohashid\":573},{\"from\":\"target:parameters\",\"to\":\"target:synctimestamp:\",\"fromPort\":\"target:parameters\",\"toPort\":\"target:synctimestamp:\",\"visible\":true,\"common\":false,\"__gohashid\":574},{\"from\":\"target:parameters\",\"to\":\"target:unsuccessfulLoginAttempts:\",\"fromPort\":\"target:parameters\",\"toPort\":\"target:unsuccessfulLoginAttempts:\",\"visible\":true,\"common\":false,\"__gohashid\":575}],\"blockCount\":{\"variableCount\":0},\"variableMap\":{},\"xmlMappingOverride\":true}",
    "oVisualMappingData" : "{\"nodeDataArray\":[{\"isGroup\":true,\"key\":\"response_out\",\"text\":\"DbxUser\",\"xy\":\"770 100\",\"__gohashid\":46971},{\"isGroup\":true,\"key\":\"response_in\",\"text\":\"dbpDBX (1.0).CreateMicroOrganizationEmployee\",\"xy\":\"456.7706249999999 2040.1795000000002\",\"__gohashid\":46972}],\"linkDataArray\":[{\"from\":\"target\",\"to\":\"target:DbxUser\",\"fromPort\":\"target\",\"toPort\":\"target:DbxUser\",\"visible\":true,\"common\":false,\"__gohashid\":771},{\"from\":\"target:DbxUser\",\"to\":\"target:DbxUser:fields\",\"fromPort\":\"target:DbxUser\",\"toPort\":\"target:DbxUser:fields\",\"visible\":true,\"common\":false,\"__gohashid\":772},{\"from\":\"target:DbxUser:fields\",\"to\":\"target:DbxUser:id:\",\"fromPort\":\"target:DbxUser:fields\",\"toPort\":\"target:DbxUser:id:\",\"visible\":true,\"common\":false,\"__gohashid\":773},{\"from\":\"target:DbxUser:fields\",\"to\":\"target:DbxUser:IDValue:\",\"fromPort\":\"target:DbxUser:fields\",\"toPort\":\"target:DbxUser:IDValue:\",\"visible\":true,\"common\":false,\"__gohashid\":774},{\"from\":\"target:DbxUser:fields\",\"to\":\"target:DbxUser:IDType_id:\",\"fromPort\":\"target:DbxUser:fields\",\"toPort\":\"target:DbxUser:IDType_id:\",\"visible\":true,\"common\":false,\"__gohashid\":775},{\"from\":\"target:DbxUser:fields\",\"to\":\"target:DbxUser:UserName:\",\"fromPort\":\"target:DbxUser:fields\",\"toPort\":\"target:DbxUser:UserName:\",\"visible\":true,\"common\":false,\"__gohashid\":776},{\"from\":\"target:DbxUser:fields\",\"to\":\"target:DbxUser:Password:\",\"fromPort\":\"target:DbxUser:fields\",\"toPort\":\"target:DbxUser:Password:\",\"visible\":true,\"common\":false,\"__gohashid\":777},{\"from\":\"target:DbxUser:fields\",\"to\":\"target:DbxUser:IsCoreIdentityScope:\",\"fromPort\":\"target:DbxUser:fields\",\"toPort\":\"target:DbxUser:IsCoreIdentityScope:\",\"visible\":true,\"common\":false,\"__gohashid\":778},{\"from\":\"target:DbxUser:fields\",\"to\":\"target:DbxUser:Salutation:\",\"fromPort\":\"target:DbxUser:fields\",\"toPort\":\"target:DbxUser:Salutation:\",\"visible\":true,\"common\":false,\"__gohashid\":779},{\"from\":\"target:DbxUser:fields\",\"to\":\"target:DbxUser:FirstName:\",\"fromPort\":\"target:DbxUser:fields\",\"toPort\":\"target:DbxUser:FirstName:\",\"visible\":true,\"common\":false,\"__gohashid\":780},{\"from\":\"target:DbxUser:fields\",\"to\":\"target:DbxUser:MiddleName:\",\"fromPort\":\"target:DbxUser:fields\",\"toPort\":\"target:DbxUser:MiddleName:\",\"visible\":true,\"common\":false,\"__gohashid\":781},{\"from\":\"target:DbxUser:fields\",\"to\":\"target:DbxUser:LastName:\",\"fromPort\":\"target:DbxUser:fields\",\"toPort\":\"target:DbxUser:LastName:\",\"visible\":true,\"common\":false,\"__gohashid\":782},{\"from\":\"target:DbxUser:fields\",\"to\":\"target:DbxUser:FullName:\",\"fromPort\":\"target:DbxUser:fields\",\"toPort\":\"target:DbxUser:FullName:\",\"visible\":true,\"common\":false,\"__gohashid\":783},{\"from\":\"target:DbxUser:fields\",\"to\":\"target:DbxUser:Gender:\",\"fromPort\":\"target:DbxUser:fields\",\"toPort\":\"target:DbxUser:Gender:\",\"visible\":true,\"common\":false,\"__gohashid\":784},{\"from\":\"target:DbxUser:fields\",\"to\":\"target:DbxUser:DateOfBirth:\",\"fromPort\":\"target:DbxUser:fields\",\"toPort\":\"target:DbxUser:DateOfBirth:\",\"visible\":true,\"common\":false,\"__gohashid\":785},{\"from\":\"target:DbxUser:fields\",\"to\":\"target:DbxUser:Ssn:\",\"fromPort\":\"target:DbxUser:fields\",\"toPort\":\"target:DbxUser:Ssn:\",\"visible\":true,\"common\":false,\"__gohashid\":786},{\"from\":\"target:DbxUser:fields\",\"to\":\"target:DbxUser:CustomerType_id:\",\"fromPort\":\"target:DbxUser:fields\",\"toPort\":\"target:DbxUser:CustomerType_id:\",\"visible\":true,\"common\":false,\"__gohashid\":787},{\"from\":\"target:DbxUser:fields\",\"to\":\"target:DbxUser:CustomerType:\",\"fromPort\":\"target:DbxUser:fields\",\"toPort\":\"target:DbxUser:CustomerType:\",\"visible\":true,\"common\":false,\"__gohashid\":788},{\"from\":\"target:DbxUser:fields\",\"to\":\"target:DbxUser:Status_id:\",\"fromPort\":\"target:DbxUser:fields\",\"toPort\":\"target:DbxUser:Status_id:\",\"visible\":true,\"common\":false,\"__gohashid\":789},{\"from\":\"target:DbxUser:fields\",\"to\":\"target:DbxUser:Status:\",\"fromPort\":\"target:DbxUser:fields\",\"toPort\":\"target:DbxUser:Status:\",\"visible\":true,\"common\":false,\"__gohashid\":790},{\"from\":\"target:DbxUser:fields\",\"to\":\"target:DbxUser:success:\",\"fromPort\":\"target:DbxUser:fields\",\"toPort\":\"target:DbxUser:success:\",\"visible\":true,\"common\":false,\"__gohashid\":791},{\"from\":\"target:DbxUser:fields\",\"to\":\"target:DbxUser:IsPhoneEnabled:\",\"fromPort\":\"target:DbxUser:fields\",\"toPort\":\"target:DbxUser:IsPhoneEnabled:\",\"visible\":true,\"common\":false,\"__gohashid\":792},{\"from\":\"target:DbxUser:fields\",\"to\":\"target:DbxUser:IsEmailEnabled:\",\"fromPort\":\"target:DbxUser:fields\",\"toPort\":\"target:DbxUser:IsEmailEnabled:\",\"visible\":true,\"common\":false,\"__gohashid\":793},{\"from\":\"target:DbxUser:fields\",\"to\":\"target:DbxUser:IsStaffMember:\",\"fromPort\":\"target:DbxUser:fields\",\"toPort\":\"target:DbxUser:IsStaffMember:\",\"visible\":true,\"common\":false,\"__gohashid\":794},{\"from\":\"target:DbxUser:fields\",\"to\":\"target:DbxUser:isSuperAdmin:\",\"fromPort\":\"target:DbxUser:fields\",\"toPort\":\"target:DbxUser:isSuperAdmin:\",\"visible\":true,\"common\":false,\"__gohashid\":795},{\"from\":\"target:DbxUser:fields\",\"to\":\"target:DbxUser:Role:\",\"fromPort\":\"target:DbxUser:fields\",\"toPort\":\"target:DbxUser:Role:\",\"visible\":true,\"common\":false,\"__gohashid\":796},{\"from\":\"target:DbxUser:fields\",\"to\":\"target:DbxUser:SecurityImage_id:\",\"fromPort\":\"target:DbxUser:fields\",\"toPort\":\"target:DbxUser:SecurityImage_id:\",\"visible\":true,\"common\":false,\"__gohashid\":797},{\"from\":\"target:DbxUser:fields\",\"to\":\"target:DbxUser:IsPinSet:\",\"fromPort\":\"target:DbxUser:fields\",\"toPort\":\"target:DbxUser:IsPinSet:\",\"visible\":true,\"common\":false,\"__gohashid\":798},{\"from\":\"target:DbxUser:fields\",\"to\":\"target:DbxUser:Pin:\",\"fromPort\":\"target:DbxUser:fields\",\"toPort\":\"target:DbxUser:Pin:\",\"visible\":true,\"common\":false,\"__gohashid\":799},{\"from\":\"target:DbxUser:fields\",\"to\":\"target:DbxUser:Token:\",\"fromPort\":\"target:DbxUser:fields\",\"toPort\":\"target:DbxUser:Token:\",\"visible\":true,\"common\":false,\"__gohashid\":800},{\"from\":\"target:DbxUser:fields\",\"to\":\"target:DbxUser:Otp:\",\"fromPort\":\"target:DbxUser:fields\",\"toPort\":\"target:DbxUser:Otp:\",\"visible\":true,\"common\":false,\"__gohashid\":801},{\"from\":\"target:DbxUser:fields\",\"to\":\"target:DbxUser:OtpGenaratedts:\",\"fromPort\":\"target:DbxUser:fields\",\"toPort\":\"target:DbxUser:OtpGenaratedts:\",\"visible\":true,\"common\":false,\"__gohashid\":802},{\"from\":\"target:DbxUser:fields\",\"to\":\"target:DbxUser:ValidDate:\",\"fromPort\":\"target:DbxUser:fields\",\"toPort\":\"target:DbxUser:ValidDate:\",\"visible\":true,\"common\":false,\"__gohashid\":803},{\"from\":\"target:DbxUser:fields\",\"to\":\"target:DbxUser:unsuccessfulLoginAttempts:\",\"fromPort\":\"target:DbxUser:fields\",\"toPort\":\"target:DbxUser:unsuccessfulLoginAttempts:\",\"visible\":true,\"common\":false,\"__gohashid\":804},{\"from\":\"target:DbxUser:fields\",\"to\":\"target:DbxUser:isUserAccountLocked:\",\"fromPort\":\"target:DbxUser:fields\",\"toPort\":\"target:DbxUser:isUserAccountLocked:\",\"visible\":true,\"common\":false,\"__gohashid\":805},{\"from\":\"target:DbxUser:fields\",\"to\":\"target:DbxUser:UserImage:\",\"fromPort\":\"target:DbxUser:fields\",\"toPort\":\"target:DbxUser:UserImage:\",\"visible\":true,\"common\":false,\"__gohashid\":806},{\"from\":\"target:DbxUser:fields\",\"to\":\"target:DbxUser:UserImageURL:\",\"fromPort\":\"target:DbxUser:fields\",\"toPort\":\"target:DbxUser:UserImageURL:\",\"visible\":true,\"common\":false,\"__gohashid\":807},{\"from\":\"target:DbxUser:fields\",\"to\":\"target:DbxUser:CountryCode:\",\"fromPort\":\"target:DbxUser:fields\",\"toPort\":\"target:DbxUser:CountryCode:\",\"visible\":true,\"common\":false,\"__gohashid\":808},{\"from\":\"target:DbxUser:fields\",\"to\":\"target:DbxUser:Location_id:\",\"fromPort\":\"target:DbxUser:fields\",\"toPort\":\"target:DbxUser:Location_id:\",\"visible\":true,\"common\":false,\"__gohashid\":809},{\"from\":\"target:DbxUser:fields\",\"to\":\"target:DbxUser:IsOlbAllowed:\",\"fromPort\":\"target:DbxUser:fields\",\"toPort\":\"target:DbxUser:IsOlbAllowed:\",\"visible\":true,\"common\":false,\"__gohashid\":810},{\"from\":\"target:DbxUser:fields\",\"to\":\"target:DbxUser:OlbEnrolmentStatus_id:\",\"fromPort\":\"target:DbxUser:fields\",\"toPort\":\"target:DbxUser:OlbEnrolmentStatus_id:\",\"visible\":true,\"common\":false,\"__gohashid\":811},{\"from\":\"target:DbxUser:fields\",\"to\":\"target:DbxUser:isEnrolled:\",\"fromPort\":\"target:DbxUser:fields\",\"toPort\":\"target:DbxUser:isEnrolled:\",\"visible\":true,\"common\":false,\"__gohashid\":812},{\"from\":\"target:DbxUser:fields\",\"to\":\"target:DbxUser:Is_MemberEligibile:\",\"fromPort\":\"target:DbxUser:fields\",\"toPort\":\"target:DbxUser:Is_MemberEligibile:\",\"visible\":true,\"common\":false,\"__gohashid\":813},{\"from\":\"target:DbxUser:fields\",\"to\":\"target:DbxUser:MemberEligibilityData:\",\"fromPort\":\"target:DbxUser:fields\",\"toPort\":\"target:DbxUser:MemberEligibilityData:\",\"visible\":true,\"common\":false,\"__gohashid\":814},{\"from\":\"target:DbxUser:fields\",\"to\":\"target:DbxUser:Is_BBOA:\",\"fromPort\":\"target:DbxUser:fields\",\"toPort\":\"target:DbxUser:Is_BBOA:\",\"visible\":true,\"common\":false,\"__gohashid\":815},{\"from\":\"target:DbxUser:fields\",\"to\":\"target:DbxUser:MaritalStatus_id:\",\"fromPort\":\"target:DbxUser:fields\",\"toPort\":\"target:DbxUser:MaritalStatus_id:\",\"visible\":true,\"common\":false,\"__gohashid\":816},{\"from\":\"target:DbxUser:fields\",\"to\":\"target:DbxUser:SpouseName:\",\"fromPort\":\"target:DbxUser:fields\",\"toPort\":\"target:DbxUser:SpouseName:\",\"visible\":true,\"common\":false,\"__gohashid\":817},{\"from\":\"target:DbxUser:fields\",\"to\":\"target:DbxUser:NoOfDependents:\",\"fromPort\":\"target:DbxUser:fields\",\"toPort\":\"target:DbxUser:NoOfDependents:\",\"visible\":true,\"common\":false,\"__gohashid\":818},{\"from\":\"target:DbxUser:fields\",\"to\":\"target:DbxUser:EmployementStatus_id:\",\"fromPort\":\"target:DbxUser:fields\",\"toPort\":\"target:DbxUser:EmployementStatus_id:\",\"visible\":true,\"common\":false,\"__gohashid\":819},{\"from\":\"target:DbxUser:fields\",\"to\":\"target:DbxUser:CurrentLoginTime:\",\"fromPort\":\"target:DbxUser:fields\",\"toPort\":\"target:DbxUser:CurrentLoginTime:\",\"visible\":true,\"common\":false,\"__gohashid\":820},{\"from\":\"target:DbxUser:fields\",\"to\":\"target:DbxUser:Lastlogintime:\",\"fromPort\":\"target:DbxUser:fields\",\"toPort\":\"target:DbxUser:Lastlogintime:\",\"visible\":true,\"common\":false,\"__gohashid\":821},{\"from\":\"target:DbxUser:fields\",\"to\":\"target:DbxUser:CreditUnionMemberSince:\",\"fromPort\":\"target:DbxUser:fields\",\"toPort\":\"target:DbxUser:CreditUnionMemberSince:\",\"visible\":true,\"common\":false,\"__gohashid\":822},{\"from\":\"target:DbxUser:fields\",\"to\":\"target:DbxUser:AtionProfile_id:\",\"fromPort\":\"target:DbxUser:fields\",\"toPort\":\"target:DbxUser:AtionProfile_id:\",\"visible\":true,\"common\":false,\"__gohashid\":823},{\"from\":\"target:DbxUser:fields\",\"to\":\"target:DbxUser:RegistrationLink:\",\"fromPort\":\"target:DbxUser:fields\",\"toPort\":\"target:DbxUser:RegistrationLink:\",\"visible\":true,\"common\":false,\"__gohashid\":824},{\"from\":\"target:DbxUser:fields\",\"to\":\"target:DbxUser:RegLinkResendCount:\",\"fromPort\":\"target:DbxUser:fields\",\"toPort\":\"target:DbxUser:RegLinkResendCount:\",\"visible\":true,\"common\":false,\"__gohashid\":825},{\"from\":\"target:DbxUser:fields\",\"to\":\"target:DbxUser:RegLinkValidity:\",\"fromPort\":\"target:DbxUser:fields\",\"toPort\":\"target:DbxUser:RegLinkValidity:\",\"visible\":true,\"common\":false,\"__gohashid\":826},{\"from\":\"target:DbxUser:fields\",\"to\":\"target:DbxUser:IsAssistConsented:\",\"fromPort\":\"target:DbxUser:fields\",\"toPort\":\"target:DbxUser:IsAssistConsented:\",\"visible\":true,\"common\":false,\"__gohashid\":827},{\"from\":\"target:DbxUser:fields\",\"to\":\"target:DbxUser:areDepositTermsAccepted:\",\"fromPort\":\"target:DbxUser:fields\",\"toPort\":\"target:DbxUser:areDepositTermsAccepted:\",\"visible\":true,\"common\":false,\"__gohashid\":828},{\"from\":\"target:DbxUser:fields\",\"to\":\"target:DbxUser:areAccountStatementTermsAccepted:\",\"fromPort\":\"target:DbxUser:fields\",\"toPort\":\"target:DbxUser:areAccountStatementTermsAccepted:\",\"visible\":true,\"common\":false,\"__gohashid\":829},{\"from\":\"target:DbxUser:fields\",\"to\":\"target:DbxUser:areUserAlertsTurnedOn:\",\"fromPort\":\"target:DbxUser:fields\",\"toPort\":\"target:DbxUser:areUserAlertsTurnedOn:\",\"visible\":true,\"common\":false,\"__gohashid\":830},{\"from\":\"target:DbxUser:fields\",\"to\":\"target:DbxUser:isBillPaySupported:\",\"fromPort\":\"target:DbxUser:fields\",\"toPort\":\"target:DbxUser:isBillPaySupported:\",\"visible\":true,\"common\":false,\"__gohashid\":831},{\"from\":\"target:DbxUser:fields\",\"to\":\"target:DbxUser:isBillPayActivated:\",\"fromPort\":\"target:DbxUser:fields\",\"toPort\":\"target:DbxUser:isBillPayActivated:\",\"visible\":true,\"common\":false,\"__gohashid\":832},{\"from\":\"target:DbxUser:fields\",\"to\":\"target:DbxUser:isP2PSupported:\",\"fromPort\":\"target:DbxUser:fields\",\"toPort\":\"target:DbxUser:isP2PSupported:\",\"visible\":true,\"common\":false,\"__gohashid\":833},{\"from\":\"target:DbxUser:fields\",\"to\":\"target:DbxUser:isP2PActivated:\",\"fromPort\":\"target:DbxUser:fields\",\"toPort\":\"target:DbxUser:isP2PActivated:\",\"visible\":true,\"common\":false,\"__gohashid\":834},{\"from\":\"target:DbxUser:fields\",\"to\":\"target:DbxUser:isWireTransferEligible:\",\"fromPort\":\"target:DbxUser:fields\",\"toPort\":\"target:DbxUser:isWireTransferEligible:\",\"visible\":true,\"common\":false,\"__gohashid\":835},{\"from\":\"target:DbxUser:fields\",\"to\":\"target:DbxUser:isWireTransferActivated:\",\"fromPort\":\"target:DbxUser:fields\",\"toPort\":\"target:DbxUser:isWireTransferActivated:\",\"visible\":true,\"common\":false,\"__gohashid\":836},{\"from\":\"target:DbxUser:fields\",\"to\":\"target:DbxUser:createdby:\",\"fromPort\":\"target:DbxUser:fields\",\"toPort\":\"target:DbxUser:createdby:\",\"visible\":true,\"common\":false,\"__gohashid\":837},{\"from\":\"target:DbxUser:fields\",\"to\":\"target:DbxUser:modifiedby:\",\"fromPort\":\"target:DbxUser:fields\",\"toPort\":\"target:DbxUser:modifiedby:\",\"visible\":true,\"common\":false,\"__gohashid\":838},{\"from\":\"target:DbxUser:fields\",\"to\":\"target:DbxUser:createdts:\",\"fromPort\":\"target:DbxUser:fields\",\"toPort\":\"target:DbxUser:createdts:\",\"visible\":true,\"common\":false,\"__gohashid\":839},{\"from\":\"target:DbxUser:fields\",\"to\":\"target:DbxUser:lastmodifiedts:\",\"fromPort\":\"target:DbxUser:fields\",\"toPort\":\"target:DbxUser:lastmodifiedts:\",\"visible\":true,\"common\":false,\"__gohashid\":840},{\"from\":\"target:DbxUser:fields\",\"to\":\"target:DbxUser:synctimestamp:\",\"fromPort\":\"target:DbxUser:fields\",\"toPort\":\"target:DbxUser:synctimestamp:\",\"visible\":true,\"common\":false,\"__gohashid\":841},{\"from\":\"target:DbxUser:fields\",\"to\":\"target:DbxUser:softdeleteflag:\",\"fromPort\":\"target:DbxUser:fields\",\"toPort\":\"target:DbxUser:softdeleteflag:\",\"visible\":true,\"common\":false,\"__gohashid\":842},{\"from\":\"target:DbxUser:fields\",\"to\":\"target:DbxUser:securityKey:\",\"fromPort\":\"target:DbxUser:fields\",\"toPort\":\"target:DbxUser:securityKey:\",\"visible\":true,\"common\":false,\"__gohashid\":843},{\"from\":\"target:DbxUser:fields\",\"to\":\"target:DbxUser:Phone:\",\"fromPort\":\"target:DbxUser:fields\",\"toPort\":\"target:DbxUser:Phone:\",\"visible\":true,\"common\":false,\"__gohashid\":844},{\"from\":\"target:DbxUser:fields\",\"to\":\"target:DbxUser:Email:\",\"fromPort\":\"target:DbxUser:fields\",\"toPort\":\"target:DbxUser:Email:\",\"visible\":true,\"common\":false,\"__gohashid\":845},{\"from\":\"target:DbxUser:fields\",\"to\":\"target:DbxUser:Result:\",\"fromPort\":\"target:DbxUser:fields\",\"toPort\":\"target:DbxUser:Result:\",\"visible\":true,\"common\":false,\"__gohashid\":846},{\"from\":\"target:DbxUser:fields\",\"to\":\"target:DbxUser:errMessage:\",\"fromPort\":\"target:DbxUser:fields\",\"toPort\":\"target:DbxUser:errMessage:\",\"visible\":true,\"common\":false,\"__gohashid\":847},{\"from\":\"target:DbxUser:fields\",\"to\":\"target:DbxUser:errCode:\",\"fromPort\":\"target:DbxUser:fields\",\"toPort\":\"target:DbxUser:errCode:\",\"visible\":true,\"common\":false,\"__gohashid\":848},{\"from\":\"target:DbxUser:fields\",\"to\":\"target:DbxUser:message:\",\"fromPort\":\"target:DbxUser:fields\",\"toPort\":\"target:DbxUser:message:\",\"visible\":true,\"common\":false,\"__gohashid\":849},{\"from\":\"target:DbxUser:fields\",\"to\":\"target:DbxUser:error:\",\"fromPort\":\"target:DbxUser:fields\",\"toPort\":\"target:DbxUser:error:\",\"visible\":true,\"common\":false,\"__gohashid\":850},{\"from\":\"target:DbxUser:fields\",\"to\":\"target:DbxUser:errmsg:\",\"fromPort\":\"target:DbxUser:fields\",\"toPort\":\"target:DbxUser:errmsg:\",\"visible\":true,\"common\":false,\"__gohashid\":851},{\"from\":\"target:DbxUser:fields\",\"to\":\"target:DbxUser:MemberId:\",\"fromPort\":\"target:DbxUser:fields\",\"toPort\":\"target:DbxUser:MemberId:\",\"visible\":true,\"common\":false,\"__gohashid\":852},{\"from\":\"target:DbxUser:fields\",\"to\":\"target:DbxUser:IDMidentifier:\",\"fromPort\":\"target:DbxUser:fields\",\"toPort\":\"target:DbxUser:IDMidentifier:\",\"visible\":true,\"common\":false,\"__gohashid\":853},{\"from\":\"target:DbxUser:fields\",\"to\":\"target:DbxUser:errorMessage:\",\"fromPort\":\"target:DbxUser:fields\",\"toPort\":\"target:DbxUser:errorMessage:\",\"visible\":true,\"common\":false,\"__gohashid\":854},{\"from\":\"target:DbxUser:fields\",\"to\":\"target:DbxUser:errorCode:\",\"fromPort\":\"target:DbxUser:fields\",\"toPort\":\"target:DbxUser:errorCode:\",\"visible\":true,\"common\":false,\"__gohashid\":855},{\"from\":\"target:DbxUser:fields\",\"to\":\"target:DbxUser:lockedOn:\",\"fromPort\":\"target:DbxUser:fields\",\"toPort\":\"target:DbxUser:lockedOn:\",\"visible\":true,\"common\":false,\"__gohashid\":856},{\"from\":\"target:DbxUser:fields\",\"to\":\"target:DbxUser:Subscribe:\",\"fromPort\":\"target:DbxUser:fields\",\"toPort\":\"target:DbxUser:Subscribe:\",\"visible\":true,\"common\":false,\"__gohashid\":857},{\"from\":\"target:DbxUser:fields\",\"to\":\"target:DbxUser:Membership_id:\",\"fromPort\":\"target:DbxUser:fields\",\"toPort\":\"target:DbxUser:Membership_id:\",\"visible\":true,\"common\":false,\"__gohashid\":858},{\"from\":\"target:DbxUser:fields\",\"to\":\"target:DbxUser:Taxid:\",\"fromPort\":\"target:DbxUser:fields\",\"toPort\":\"target:DbxUser:Taxid:\",\"visible\":true,\"common\":false,\"__gohashid\":859},{\"from\":\"target:DbxUser:fields\",\"to\":\"target:DbxUser:Customer_id:\",\"fromPort\":\"target:DbxUser:fields\",\"toPort\":\"target:DbxUser:Customer_id:\",\"visible\":true,\"common\":false,\"__gohashid\":860},{\"from\":\"target:DbxUser:fields\",\"to\":\"target:DbxUser:accounts:\",\"fromPort\":\"target:DbxUser:fields\",\"toPort\":\"target:DbxUser:accounts:\",\"visible\":true,\"common\":false,\"__gohashid\":861},{\"from\":\"target:DbxUser:fields\",\"to\":\"target:DbxUser:services:\",\"fromPort\":\"target:DbxUser:fields\",\"toPort\":\"target:DbxUser:services:\",\"visible\":true,\"common\":false,\"__gohashid\":862},{\"from\":\"target:DbxUser:fields\",\"to\":\"target:DbxUser:Role_id:\",\"fromPort\":\"target:DbxUser:fields\",\"toPort\":\"target:DbxUser:Role_id:\",\"visible\":true,\"common\":false,\"__gohashid\":863},{\"from\":\"target:DbxUser:fields\",\"to\":\"target:DbxUser:customeraccounts:\",\"fromPort\":\"target:DbxUser:fields\",\"toPort\":\"target:DbxUser:customeraccounts:\",\"visible\":true,\"common\":false,\"__gohashid\":864},{\"from\":\"target:DbxUser:fields\",\"to\":\"target:DbxUser:DrivingLicenseNumber:\",\"fromPort\":\"target:DbxUser:fields\",\"toPort\":\"target:DbxUser:DrivingLicenseNumber:\",\"visible\":true,\"common\":false,\"__gohashid\":865},{\"from\":\"target:DbxUser:fields\",\"to\":\"target:DbxUser:EAgreementRequired:\",\"fromPort\":\"target:DbxUser:fields\",\"toPort\":\"target:DbxUser:EAgreementRequired:\",\"visible\":true,\"common\":false,\"__gohashid\":866},{\"from\":\"target:DbxUser:fields\",\"to\":\"target:DbxUser:doNotSendOTP:\",\"fromPort\":\"target:DbxUser:fields\",\"toPort\":\"target:DbxUser:doNotSendOTP:\",\"visible\":true,\"common\":false,\"__gohashid\":867},{\"from\":\"target:DbxUser:fields\",\"to\":\"target:DbxUser:redirectLink:\",\"fromPort\":\"target:DbxUser:fields\",\"toPort\":\"target:DbxUser:redirectLink:\",\"visible\":true,\"common\":false,\"__gohashid\":868},{\"from\":\"target:DbxUser:fields\",\"to\":\"target:DbxUser:Organization_id:\",\"fromPort\":\"target:DbxUser:fields\",\"toPort\":\"target:DbxUser:Organization_id:\",\"visible\":true,\"common\":false,\"__gohashid\":869},{\"from\":\"target:DbxUser:fields\",\"to\":\"target:DbxUser:isEAgreementRequired:\",\"fromPort\":\"target:DbxUser:fields\",\"toPort\":\"target:DbxUser:isEAgreementRequired:\",\"visible\":true,\"common\":false,\"__gohashid\":870},{\"from\":\"target:DbxUser:fields\",\"to\":\"target:DbxUser:isEagreementSigned:\",\"fromPort\":\"target:DbxUser:fields\",\"toPort\":\"target:DbxUser:isEagreementSigned:\",\"visible\":true,\"common\":false,\"__gohashid\":871},{\"from\":\"target:DbxUser:fields\",\"to\":\"target:DbxUser:opCode:\",\"fromPort\":\"target:DbxUser:fields\",\"toPort\":\"target:DbxUser:opCode:\",\"visible\":true,\"common\":false,\"__gohashid\":872},{\"from\":\"target:DbxUser:fields\",\"to\":\"target:DbxUser:opMessage:\",\"fromPort\":\"target:DbxUser:fields\",\"toPort\":\"target:DbxUser:opMessage:\",\"visible\":true,\"common\":false,\"__gohashid\":873},{\"from\":\"target:DbxUser:fields\",\"to\":\"target:DbxUser:MessageType:\",\"fromPort\":\"target:DbxUser:fields\",\"toPort\":\"target:DbxUser:MessageType:\",\"visible\":true,\"common\":false,\"__gohashid\":874},{\"from\":\"target:DbxUser:fields\",\"to\":\"target:DbxUser:SendToMobiles:\",\"fromPort\":\"target:DbxUser:fields\",\"toPort\":\"target:DbxUser:SendToMobiles:\",\"visible\":true,\"common\":false,\"__gohashid\":875},{\"from\":\"target:DbxUser:fields\",\"to\":\"target:DbxUser:membershipID:\",\"fromPort\":\"target:DbxUser:fields\",\"toPort\":\"target:DbxUser:membershipID:\",\"visible\":true,\"common\":false,\"__gohashid\":876},{\"from\":\"target:DbxUser:fields\",\"to\":\"target:DbxUser:isUserNameExists:\",\"fromPort\":\"target:DbxUser:fields\",\"toPort\":\"target:DbxUser:isUserNameExists:\",\"visible\":true,\"common\":false,\"__gohashid\":877},{\"from\":\"target:DbxUser:fields\",\"to\":\"target:DbxUser:isUserExists:\",\"fromPort\":\"target:DbxUser:fields\",\"toPort\":\"target:DbxUser:isUserExists:\",\"visible\":true,\"common\":false,\"__gohashid\":878},{\"from\":\"target:DbxUser:fields\",\"to\":\"target:DbxUser:dbpErrMsg:\",\"fromPort\":\"target:DbxUser:fields\",\"toPort\":\"target:DbxUser:dbpErrMsg:\",\"visible\":true,\"common\":false,\"__gohashid\":879},{\"from\":\"target:DbxUser:fields\",\"to\":\"target:DbxUser:dbpErrCode:\",\"fromPort\":\"target:DbxUser:fields\",\"toPort\":\"target:DbxUser:dbpErrCode:\",\"visible\":true,\"common\":false,\"__gohashid\":880},{\"from\":\"target:DbxUser:fields\",\"to\":\"target:DbxUser:MFAAttributes:\",\"fromPort\":\"target:DbxUser:fields\",\"toPort\":\"target:DbxUser:MFAAttributes:\",\"visible\":true,\"common\":false,\"__gohashid\":881},{\"from\":\"target:DbxUser:fields\",\"to\":\"target:DbxUser:sacMaxResendRequestsAllowed:\",\"fromPort\":\"target:DbxUser:fields\",\"toPort\":\"target:DbxUser:sacMaxResendRequestsAllowed:\",\"visible\":true,\"common\":false,\"__gohashid\":882},{\"from\":\"target:DbxUser:fields\",\"to\":\"target:DbxUser:remainingResendAttempts:\",\"fromPort\":\"target:DbxUser:fields\",\"toPort\":\"target:DbxUser:remainingResendAttempts:\",\"visible\":true,\"common\":false,\"__gohashid\":883},{\"from\":\"target:DbxUser:fields\",\"to\":\"target:DbxUser:sacCodeLength:\",\"fromPort\":\"target:DbxUser:fields\",\"toPort\":\"target:DbxUser:sacCodeLength:\",\"visible\":true,\"common\":false,\"__gohashid\":884},{\"from\":\"target:DbxUser:fields\",\"to\":\"target:DbxUser:maxFailedAttemptsAllowed:\",\"fromPort\":\"target:DbxUser:fields\",\"toPort\":\"target:DbxUser:maxFailedAttemptsAllowed:\",\"visible\":true,\"common\":false,\"__gohashid\":885},{\"from\":\"target:DbxUser:fields\",\"to\":\"target:DbxUser:remainingFailedAttempts:\",\"fromPort\":\"target:DbxUser:fields\",\"toPort\":\"target:DbxUser:remainingFailedAttempts:\",\"visible\":true,\"common\":false,\"__gohashid\":886},{\"from\":\"target:DbxUser:fields\",\"to\":\"target:DbxUser:failedAttempts:\",\"fromPort\":\"target:DbxUser:fields\",\"toPort\":\"target:DbxUser:failedAttempts:\",\"visible\":true,\"common\":false,\"__gohashid\":887},{\"from\":\"target:DbxUser:fields\",\"to\":\"target:DbxUser:serviceKey:\",\"fromPort\":\"target:DbxUser:fields\",\"toPort\":\"target:DbxUser:serviceKey:\",\"visible\":true,\"common\":false,\"__gohashid\":888},{\"from\":\"target:DbxUser:fields\",\"to\":\"target:DbxUser:oldPassword:\",\"fromPort\":\"target:DbxUser:fields\",\"toPort\":\"target:DbxUser:oldPassword:\",\"visible\":true,\"common\":false,\"__gohashid\":889},{\"from\":\"target:DbxUser:fields\",\"to\":\"target:DbxUser:newPassword:\",\"fromPort\":\"target:DbxUser:fields\",\"toPort\":\"target:DbxUser:newPassword:\",\"visible\":true,\"common\":false,\"__gohashid\":890},{\"from\":\"target:DbxUser:fields\",\"to\":\"target:DbxUser:oldUserName:\",\"fromPort\":\"target:DbxUser:fields\",\"toPort\":\"target:DbxUser:oldUserName:\",\"visible\":true,\"common\":false,\"__gohashid\":891},{\"from\":\"target:DbxUser:fields\",\"to\":\"target:DbxUser:newUserName:\",\"fromPort\":\"target:DbxUser:fields\",\"toPort\":\"target:DbxUser:newUserName:\",\"visible\":true,\"common\":false,\"__gohashid\":892},{\"from\":\"target:DbxUser:fields\",\"to\":\"target:DbxUser:isOtpVerified:\",\"fromPort\":\"target:DbxUser:fields\",\"toPort\":\"target:DbxUser:isOtpVerified:\",\"visible\":true,\"common\":false,\"__gohashid\":893},{\"from\":\"target:DbxUser:fields\",\"to\":\"target:DbxUser:lockUser:\",\"fromPort\":\"target:DbxUser:fields\",\"toPort\":\"target:DbxUser:lockUser:\",\"visible\":true,\"common\":false,\"__gohashid\":894},{\"from\":\"target:DbxUser:fields\",\"to\":\"target:DbxUser:logoutUser:\",\"fromPort\":\"target:DbxUser:fields\",\"toPort\":\"target:DbxUser:logoutUser:\",\"visible\":true,\"common\":false,\"__gohashid\":895},{\"from\":\"target:DbxUser:fields\",\"to\":\"target:DbxUser:serviceName:\",\"fromPort\":\"target:DbxUser:fields\",\"toPort\":\"target:DbxUser:serviceName:\",\"visible\":true,\"common\":false,\"__gohashid\":896},{\"from\":\"source\",\"to\":\"source:parameters\",\"fromPort\":\"source\",\"toPort\":\"source:parameters\",\"visible\":true,\"common\":false,\"__gohashid\":897},{\"from\":\"source:parameters\",\"to\":\"source:Customer_id:\",\"fromPort\":\"source:parameters\",\"toPort\":\"source:Customer_id:\",\"visible\":true,\"common\":false,\"__gohashid\":898},{\"from\":\"source:parameters\",\"to\":\"source:dbpErrCode:\",\"fromPort\":\"source:parameters\",\"toPort\":\"source:dbpErrCode:\",\"visible\":true,\"common\":false,\"__gohashid\":899},{\"from\":\"source:parameters\",\"to\":\"source:dbpErrMsg:\",\"fromPort\":\"source:parameters\",\"toPort\":\"source:dbpErrMsg:\",\"visible\":true,\"common\":false,\"__gohashid\":900},{\"from\":\"source:parameters\",\"to\":\"source:errorCode:\",\"fromPort\":\"source:parameters\",\"toPort\":\"source:errorCode:\",\"visible\":true,\"common\":false,\"__gohashid\":901},{\"from\":\"source:parameters\",\"to\":\"source:errorMessage:\",\"fromPort\":\"source:parameters\",\"toPort\":\"source:errorMessage:\",\"visible\":true,\"common\":false,\"__gohashid\":902},{\"from\":\"source:parameters\",\"to\":\"source:id:\",\"fromPort\":\"source:parameters\",\"toPort\":\"source:id:\",\"visible\":true,\"common\":false,\"__gohashid\":903},{\"from\":\"source:parameters\",\"to\":\"source:isEAgreementRequired:\",\"fromPort\":\"source:parameters\",\"toPort\":\"source:isEAgreementRequired:\",\"visible\":true,\"common\":false,\"__gohashid\":904},{\"from\":\"source:parameters\",\"to\":\"source:isEagreementSigned:\",\"fromPort\":\"source:parameters\",\"toPort\":\"source:isEagreementSigned:\",\"visible\":true,\"common\":false,\"__gohashid\":905},{\"from\":\"source:parameters\",\"to\":\"source:success:\",\"fromPort\":\"source:parameters\",\"toPort\":\"source:success:\",\"visible\":true,\"common\":false,\"__gohashid\":906}],\"blockCount\":{\"variableCount\":0},\"variableMap\":{},\"xmlMappingOverride\":true}",
    "applyCommonMapping" : false,
    "applyRequestCommonMapping" : false,
    "applyResponseCommonMapping" : false,
    "backendMeta" : {
      "serviceName" : "dbpDBX",
      "serviceVersion" : "1.0",
      "operationName" : "CreateMicroOrganizationEmployee"
    },
    "relationshipHierarchyMapping" : {
      "children" : [ ],
      "name" : "DbxUser",
      "actions" : { },
      "selected" : true
    },
    "requestXmlMappingOverride" : true,
    "responseXmlMappingOverride" : true
  }
}