{
  "operationConfig" : {
    "name" : "getApplicantInfo3967",
    "type" : "MappedToBackend",
    "cachable" : false,
    "smsEnabled" : false,
    "security" : "public",
    "responseEncoding" : "UTF-8",
    "httpMethod" : "GET",
    "decodeResponseBody" : false,
    "iMapping" : "<?xml version=\"1.0\" encoding=\"UTF-8\" standalone=\"yes\"?><mapper xmlns=\"http://www.kony.com/ns/mapper\"><map inputpath=\"request_in\" outputpath=\"request_out\"><set-param inputpath=\"Customer_id\" outputpath=\"Customer_id\"/></map></mapper>",
    "oMapping" : "<?xml version=\"1.0\" encoding=\"UTF-8\" standalone=\"yes\"?><mapper xmlns=\"http://www.kony.com/ns/mapper\">                  <map inputpath=\"response_in\" outputpath=\"response_out\">            <map inputpath=\"dbpErrCode\" outputpath=\"dbpErrCode\"/>            <map inputpath=\"dbpErrMsg\" outputpath=\"dbpErrMsg\"/>                                                                             <map inputpath=\"success\" outputpath=\"success\"/>                                                                             <map inputpath=\"applicantinfo\" outputpath=\"ApplicantInfo\">  \t\t                                                <map inputpath=\"Customer_id\" outputpath=\"Customer_id\"/>                                                                                   <map inputpath=\"FirstName\" outputpath=\"FirstName\"/>                                                      <map inputpath=\"MiddleName\" outputpath=\"MiddleName\"/>                                                      <map inputpath=\"LastName\" outputpath=\"LastName\"/>                                                      <map inputpath=\"DateOfBirth\" outputpath=\"DateOfBirth\"/>                                                      <map inputpath=\"Ssn\" outputpath=\"Ssn\"/>                                                      <map inputpath=\"PreferredContactMethod\" outputpath=\"PreferredContactMethod\"/>                                                                  <map inputpath=\"Phone\" outputpath=\"Phone\"/>                                    <map inputpath=\"Email\" outputpath=\"Email\"/>                        </map>                <map inputpath=\"addresses\" outputpath=\"Addresses\">                                    <set-param inputpath=\"Address_id\" outputpath=\"Address_id\"/>                                    <set-param inputpath=\"Type_id\" outputpath=\"Type_id\"/>                                    <set-param inputpath=\"DurationOfStay\" outputpath=\"DurationOfStay\"/>                                    <set-param inputpath=\"HomeOwnership\" outputpath=\"HomeOwnership\"/>                                    <set-param inputpath=\"isPrimary\" outputpath=\"isPrimary\"/>                                    <set-param inputpath=\"AddressLine1\" outputpath=\"AddressLine1\"/>                                    <set-param inputpath=\"AddressLine2\" outputpath=\"AddressLine2\"/>                                    <set-param inputpath=\"AddressLine3\" outputpath=\"AddressLine3\"/>                                    <set-param inputpath=\"ZipCode\" outputpath=\"ZipCode\"/>                                    <set-param inputpath=\"CityName\" outputpath=\"CityName\"/>                                    <set-param inputpath=\"CountryName\" outputpath=\"CountryName\"/>                                    <set-param inputpath=\"State\" outputpath=\"State\"/>                        </map>        </map></mapper>",
    "oVisualMappingData" : "{\"nodeDataArray\":[{\"isGroup\":true,\"key\":\"response_out\",\"text\":\"DbxUser\",\"xy\":\"770 100\",\"__gohashid\":32496},{\"isGroup\":true,\"key\":\"response_in\",\"text\":\"dbpRbLocalServicesJava (1.0).getApplicantInfo\",\"xy\":\"150 100\",\"__gohashid\":32497}],\"linkDataArray\":[{\"from\":\"target\",\"to\":\"target:DbxUser\",\"fromPort\":\"target\",\"toPort\":\"target:DbxUser\",\"visible\":true,\"common\":false,\"__gohashid\":8411},{\"from\":\"target:DbxUser\",\"to\":\"target:DbxUser:fields\",\"fromPort\":\"target:DbxUser\",\"toPort\":\"target:DbxUser:fields\",\"visible\":true,\"common\":false,\"__gohashid\":8412},{\"from\":\"target:DbxUser:fields\",\"to\":\"target:DbxUser:id:\",\"fromPort\":\"target:DbxUser:fields\",\"toPort\":\"target:DbxUser:id:\",\"visible\":true,\"common\":false,\"__gohashid\":8413},{\"from\":\"target:DbxUser:fields\",\"to\":\"target:DbxUser:IDValue:\",\"fromPort\":\"target:DbxUser:fields\",\"toPort\":\"target:DbxUser:IDValue:\",\"visible\":true,\"common\":false,\"__gohashid\":8414},{\"from\":\"target:DbxUser:fields\",\"to\":\"target:DbxUser:IDType_id:\",\"fromPort\":\"target:DbxUser:fields\",\"toPort\":\"target:DbxUser:IDType_id:\",\"visible\":true,\"common\":false,\"__gohashid\":8415},{\"from\":\"target:DbxUser:fields\",\"to\":\"target:DbxUser:UserName:\",\"fromPort\":\"target:DbxUser:fields\",\"toPort\":\"target:DbxUser:UserName:\",\"visible\":true,\"common\":false,\"__gohashid\":8416},{\"from\":\"target:DbxUser:fields\",\"to\":\"target:DbxUser:Password:\",\"fromPort\":\"target:DbxUser:fields\",\"toPort\":\"target:DbxUser:Password:\",\"visible\":true,\"common\":false,\"__gohashid\":8417},{\"from\":\"target:DbxUser:fields\",\"to\":\"target:DbxUser:IsCoreIdentityScope:\",\"fromPort\":\"target:DbxUser:fields\",\"toPort\":\"target:DbxUser:IsCoreIdentityScope:\",\"visible\":true,\"common\":false,\"__gohashid\":8418},{\"from\":\"target:DbxUser:fields\",\"to\":\"target:DbxUser:Salutation:\",\"fromPort\":\"target:DbxUser:fields\",\"toPort\":\"target:DbxUser:Salutation:\",\"visible\":true,\"common\":false,\"__gohashid\":8419},{\"from\":\"target:DbxUser:fields\",\"to\":\"target:DbxUser:FirstName:\",\"fromPort\":\"target:DbxUser:fields\",\"toPort\":\"target:DbxUser:FirstName:\",\"visible\":true,\"common\":false,\"__gohashid\":8420},{\"from\":\"target:DbxUser:fields\",\"to\":\"target:DbxUser:MiddleName:\",\"fromPort\":\"target:DbxUser:fields\",\"toPort\":\"target:DbxUser:MiddleName:\",\"visible\":true,\"common\":false,\"__gohashid\":8421},{\"from\":\"target:DbxUser:fields\",\"to\":\"target:DbxUser:LastName:\",\"fromPort\":\"target:DbxUser:fields\",\"toPort\":\"target:DbxUser:LastName:\",\"visible\":true,\"common\":false,\"__gohashid\":8422},{\"from\":\"target:DbxUser:fields\",\"to\":\"target:DbxUser:FullName:\",\"fromPort\":\"target:DbxUser:fields\",\"toPort\":\"target:DbxUser:FullName:\",\"visible\":true,\"common\":false,\"__gohashid\":8423},{\"from\":\"target:DbxUser:fields\",\"to\":\"target:DbxUser:Gender:\",\"fromPort\":\"target:DbxUser:fields\",\"toPort\":\"target:DbxUser:Gender:\",\"visible\":true,\"common\":false,\"__gohashid\":8424},{\"from\":\"target:DbxUser:fields\",\"to\":\"target:DbxUser:DateOfBirth:\",\"fromPort\":\"target:DbxUser:fields\",\"toPort\":\"target:DbxUser:DateOfBirth:\",\"visible\":true,\"common\":false,\"__gohashid\":8425},{\"from\":\"target:DbxUser:fields\",\"to\":\"target:DbxUser:Ssn:\",\"fromPort\":\"target:DbxUser:fields\",\"toPort\":\"target:DbxUser:Ssn:\",\"visible\":true,\"common\":false,\"__gohashid\":8426},{\"from\":\"target:DbxUser:fields\",\"to\":\"target:DbxUser:CustomerType_id:\",\"fromPort\":\"target:DbxUser:fields\",\"toPort\":\"target:DbxUser:CustomerType_id:\",\"visible\":true,\"common\":false,\"__gohashid\":8427},{\"from\":\"target:DbxUser:fields\",\"to\":\"target:DbxUser:CustomerType:\",\"fromPort\":\"target:DbxUser:fields\",\"toPort\":\"target:DbxUser:CustomerType:\",\"visible\":true,\"common\":false,\"__gohashid\":8428},{\"from\":\"target:DbxUser:fields\",\"to\":\"target:DbxUser:Status_id:\",\"fromPort\":\"target:DbxUser:fields\",\"toPort\":\"target:DbxUser:Status_id:\",\"visible\":true,\"common\":false,\"__gohashid\":8429},{\"from\":\"target:DbxUser:fields\",\"to\":\"target:DbxUser:Status:\",\"fromPort\":\"target:DbxUser:fields\",\"toPort\":\"target:DbxUser:Status:\",\"visible\":true,\"common\":false,\"__gohashid\":8430},{\"from\":\"target:DbxUser:fields\",\"to\":\"target:DbxUser:success:\",\"fromPort\":\"target:DbxUser:fields\",\"toPort\":\"target:DbxUser:success:\",\"visible\":true,\"common\":false,\"__gohashid\":8431},{\"from\":\"target:DbxUser:fields\",\"to\":\"target:DbxUser:IsPhoneEnabled:\",\"fromPort\":\"target:DbxUser:fields\",\"toPort\":\"target:DbxUser:IsPhoneEnabled:\",\"visible\":true,\"common\":false,\"__gohashid\":8432},{\"from\":\"target:DbxUser:fields\",\"to\":\"target:DbxUser:IsEmailEnabled:\",\"fromPort\":\"target:DbxUser:fields\",\"toPort\":\"target:DbxUser:IsEmailEnabled:\",\"visible\":true,\"common\":false,\"__gohashid\":8433},{\"from\":\"target:DbxUser:fields\",\"to\":\"target:DbxUser:IsStaffMember:\",\"fromPort\":\"target:DbxUser:fields\",\"toPort\":\"target:DbxUser:IsStaffMember:\",\"visible\":true,\"common\":false,\"__gohashid\":8434},{\"from\":\"target:DbxUser:fields\",\"to\":\"target:DbxUser:isSuperAdmin:\",\"fromPort\":\"target:DbxUser:fields\",\"toPort\":\"target:DbxUser:isSuperAdmin:\",\"visible\":true,\"common\":false,\"__gohashid\":8435},{\"from\":\"target:DbxUser:fields\",\"to\":\"target:DbxUser:Role:\",\"fromPort\":\"target:DbxUser:fields\",\"toPort\":\"target:DbxUser:Role:\",\"visible\":true,\"common\":false,\"__gohashid\":8436},{\"from\":\"target:DbxUser:fields\",\"to\":\"target:DbxUser:SecurityImage_id:\",\"fromPort\":\"target:DbxUser:fields\",\"toPort\":\"target:DbxUser:SecurityImage_id:\",\"visible\":true,\"common\":false,\"__gohashid\":8437},{\"from\":\"target:DbxUser:fields\",\"to\":\"target:DbxUser:IsPinSet:\",\"fromPort\":\"target:DbxUser:fields\",\"toPort\":\"target:DbxUser:IsPinSet:\",\"visible\":true,\"common\":false,\"__gohashid\":8438},{\"from\":\"target:DbxUser:fields\",\"to\":\"target:DbxUser:Pin:\",\"fromPort\":\"target:DbxUser:fields\",\"toPort\":\"target:DbxUser:Pin:\",\"visible\":true,\"common\":false,\"__gohashid\":8439},{\"from\":\"target:DbxUser:fields\",\"to\":\"target:DbxUser:Token:\",\"fromPort\":\"target:DbxUser:fields\",\"toPort\":\"target:DbxUser:Token:\",\"visible\":true,\"common\":false,\"__gohashid\":8440},{\"from\":\"target:DbxUser:fields\",\"to\":\"target:DbxUser:Otp:\",\"fromPort\":\"target:DbxUser:fields\",\"toPort\":\"target:DbxUser:Otp:\",\"visible\":true,\"common\":false,\"__gohashid\":8441},{\"from\":\"target:DbxUser:fields\",\"to\":\"target:DbxUser:OtpGenaratedts:\",\"fromPort\":\"target:DbxUser:fields\",\"toPort\":\"target:DbxUser:OtpGenaratedts:\",\"visible\":true,\"common\":false,\"__gohashid\":8442},{\"from\":\"target:DbxUser:fields\",\"to\":\"target:DbxUser:ValidDate:\",\"fromPort\":\"target:DbxUser:fields\",\"toPort\":\"target:DbxUser:ValidDate:\",\"visible\":true,\"common\":false,\"__gohashid\":8443},{\"from\":\"target:DbxUser:fields\",\"to\":\"target:DbxUser:unsuccessfulLoginAttempts:\",\"fromPort\":\"target:DbxUser:fields\",\"toPort\":\"target:DbxUser:unsuccessfulLoginAttempts:\",\"visible\":true,\"common\":false,\"__gohashid\":8444},{\"from\":\"target:DbxUser:fields\",\"to\":\"target:DbxUser:isUserAccountLocked:\",\"fromPort\":\"target:DbxUser:fields\",\"toPort\":\"target:DbxUser:isUserAccountLocked:\",\"visible\":true,\"common\":false,\"__gohashid\":8445},{\"from\":\"target:DbxUser:fields\",\"to\":\"target:DbxUser:UserImage:\",\"fromPort\":\"target:DbxUser:fields\",\"toPort\":\"target:DbxUser:UserImage:\",\"visible\":true,\"common\":false,\"__gohashid\":8446},{\"from\":\"target:DbxUser:fields\",\"to\":\"target:DbxUser:UserImageURL:\",\"fromPort\":\"target:DbxUser:fields\",\"toPort\":\"target:DbxUser:UserImageURL:\",\"visible\":true,\"common\":false,\"__gohashid\":8447},{\"from\":\"target:DbxUser:fields\",\"to\":\"target:DbxUser:CountryCode:\",\"fromPort\":\"target:DbxUser:fields\",\"toPort\":\"target:DbxUser:CountryCode:\",\"visible\":true,\"common\":false,\"__gohashid\":8448},{\"from\":\"target:DbxUser:fields\",\"to\":\"target:DbxUser:Location_id:\",\"fromPort\":\"target:DbxUser:fields\",\"toPort\":\"target:DbxUser:Location_id:\",\"visible\":true,\"common\":false,\"__gohashid\":8449},{\"from\":\"target:DbxUser:fields\",\"to\":\"target:DbxUser:IsOlbAllowed:\",\"fromPort\":\"target:DbxUser:fields\",\"toPort\":\"target:DbxUser:IsOlbAllowed:\",\"visible\":true,\"common\":false,\"__gohashid\":8450},{\"from\":\"target:DbxUser:fields\",\"to\":\"target:DbxUser:OlbEnrolmentStatus_id:\",\"fromPort\":\"target:DbxUser:fields\",\"toPort\":\"target:DbxUser:OlbEnrolmentStatus_id:\",\"visible\":true,\"common\":false,\"__gohashid\":8451},{\"from\":\"target:DbxUser:fields\",\"to\":\"target:DbxUser:isEnrolled:\",\"fromPort\":\"target:DbxUser:fields\",\"toPort\":\"target:DbxUser:isEnrolled:\",\"visible\":true,\"common\":false,\"__gohashid\":8452},{\"from\":\"target:DbxUser:fields\",\"to\":\"target:DbxUser:Is_MemberEligibile:\",\"fromPort\":\"target:DbxUser:fields\",\"toPort\":\"target:DbxUser:Is_MemberEligibile:\",\"visible\":true,\"common\":false,\"__gohashid\":8453},{\"from\":\"target:DbxUser:fields\",\"to\":\"target:DbxUser:MemberEligibilityData:\",\"fromPort\":\"target:DbxUser:fields\",\"toPort\":\"target:DbxUser:MemberEligibilityData:\",\"visible\":true,\"common\":false,\"__gohashid\":8454},{\"from\":\"target:DbxUser:fields\",\"to\":\"target:DbxUser:Is_BBOA:\",\"fromPort\":\"target:DbxUser:fields\",\"toPort\":\"target:DbxUser:Is_BBOA:\",\"visible\":true,\"common\":false,\"__gohashid\":8455},{\"from\":\"target:DbxUser:fields\",\"to\":\"target:DbxUser:MaritalStatus_id:\",\"fromPort\":\"target:DbxUser:fields\",\"toPort\":\"target:DbxUser:MaritalStatus_id:\",\"visible\":true,\"common\":false,\"__gohashid\":8456},{\"from\":\"target:DbxUser:fields\",\"to\":\"target:DbxUser:SpouseName:\",\"fromPort\":\"target:DbxUser:fields\",\"toPort\":\"target:DbxUser:SpouseName:\",\"visible\":true,\"common\":false,\"__gohashid\":8457},{\"from\":\"target:DbxUser:fields\",\"to\":\"target:DbxUser:NoOfDependents:\",\"fromPort\":\"target:DbxUser:fields\",\"toPort\":\"target:DbxUser:NoOfDependents:\",\"visible\":true,\"common\":false,\"__gohashid\":8458},{\"from\":\"target:DbxUser:fields\",\"to\":\"target:DbxUser:EmployementStatus_id:\",\"fromPort\":\"target:DbxUser:fields\",\"toPort\":\"target:DbxUser:EmployementStatus_id:\",\"visible\":true,\"common\":false,\"__gohashid\":8459},{\"from\":\"target:DbxUser:fields\",\"to\":\"target:DbxUser:CurrentLoginTime:\",\"fromPort\":\"target:DbxUser:fields\",\"toPort\":\"target:DbxUser:CurrentLoginTime:\",\"visible\":true,\"common\":false,\"__gohashid\":8460},{\"from\":\"target:DbxUser:fields\",\"to\":\"target:DbxUser:Lastlogintime:\",\"fromPort\":\"target:DbxUser:fields\",\"toPort\":\"target:DbxUser:Lastlogintime:\",\"visible\":true,\"common\":false,\"__gohashid\":8461},{\"from\":\"target:DbxUser:fields\",\"to\":\"target:DbxUser:CreditUnionMemberSince:\",\"fromPort\":\"target:DbxUser:fields\",\"toPort\":\"target:DbxUser:CreditUnionMemberSince:\",\"visible\":true,\"common\":false,\"__gohashid\":8462},{\"from\":\"target:DbxUser:fields\",\"to\":\"target:DbxUser:AtionProfile_id:\",\"fromPort\":\"target:DbxUser:fields\",\"toPort\":\"target:DbxUser:AtionProfile_id:\",\"visible\":true,\"common\":false,\"__gohashid\":8463},{\"from\":\"target:DbxUser:fields\",\"to\":\"target:DbxUser:RegistrationLink:\",\"fromPort\":\"target:DbxUser:fields\",\"toPort\":\"target:DbxUser:RegistrationLink:\",\"visible\":true,\"common\":false,\"__gohashid\":8464},{\"from\":\"target:DbxUser:fields\",\"to\":\"target:DbxUser:RegLinkResendCount:\",\"fromPort\":\"target:DbxUser:fields\",\"toPort\":\"target:DbxUser:RegLinkResendCount:\",\"visible\":true,\"common\":false,\"__gohashid\":8465},{\"from\":\"target:DbxUser:fields\",\"to\":\"target:DbxUser:RegLinkValidity:\",\"fromPort\":\"target:DbxUser:fields\",\"toPort\":\"target:DbxUser:RegLinkValidity:\",\"visible\":true,\"common\":false,\"__gohashid\":8466},{\"from\":\"target:DbxUser:fields\",\"to\":\"target:DbxUser:IsAssistConsented:\",\"fromPort\":\"target:DbxUser:fields\",\"toPort\":\"target:DbxUser:IsAssistConsented:\",\"visible\":true,\"common\":false,\"__gohashid\":8467},{\"from\":\"target:DbxUser:fields\",\"to\":\"target:DbxUser:areDepositTermsAccepted:\",\"fromPort\":\"target:DbxUser:fields\",\"toPort\":\"target:DbxUser:areDepositTermsAccepted:\",\"visible\":true,\"common\":false,\"__gohashid\":8468},{\"from\":\"target:DbxUser:fields\",\"to\":\"target:DbxUser:areAccountStatementTermsAccepted:\",\"fromPort\":\"target:DbxUser:fields\",\"toPort\":\"target:DbxUser:areAccountStatementTermsAccepted:\",\"visible\":true,\"common\":false,\"__gohashid\":8469},{\"from\":\"target:DbxUser:fields\",\"to\":\"target:DbxUser:areUserAlertsTurnedOn:\",\"fromPort\":\"target:DbxUser:fields\",\"toPort\":\"target:DbxUser:areUserAlertsTurnedOn:\",\"visible\":true,\"common\":false,\"__gohashid\":8470},{\"from\":\"target:DbxUser:fields\",\"to\":\"target:DbxUser:isBillPaySupported:\",\"fromPort\":\"target:DbxUser:fields\",\"toPort\":\"target:DbxUser:isBillPaySupported:\",\"visible\":true,\"common\":false,\"__gohashid\":8471},{\"from\":\"target:DbxUser:fields\",\"to\":\"target:DbxUser:isBillPayActivated:\",\"fromPort\":\"target:DbxUser:fields\",\"toPort\":\"target:DbxUser:isBillPayActivated:\",\"visible\":true,\"common\":false,\"__gohashid\":8472},{\"from\":\"target:DbxUser:fields\",\"to\":\"target:DbxUser:isP2PSupported:\",\"fromPort\":\"target:DbxUser:fields\",\"toPort\":\"target:DbxUser:isP2PSupported:\",\"visible\":true,\"common\":false,\"__gohashid\":8473},{\"from\":\"target:DbxUser:fields\",\"to\":\"target:DbxUser:isP2PActivated:\",\"fromPort\":\"target:DbxUser:fields\",\"toPort\":\"target:DbxUser:isP2PActivated:\",\"visible\":true,\"common\":false,\"__gohashid\":8474},{\"from\":\"target:DbxUser:fields\",\"to\":\"target:DbxUser:isWireTransferEligible:\",\"fromPort\":\"target:DbxUser:fields\",\"toPort\":\"target:DbxUser:isWireTransferEligible:\",\"visible\":true,\"common\":false,\"__gohashid\":8475},{\"from\":\"target:DbxUser:fields\",\"to\":\"target:DbxUser:isWireTransferActivated:\",\"fromPort\":\"target:DbxUser:fields\",\"toPort\":\"target:DbxUser:isWireTransferActivated:\",\"visible\":true,\"common\":false,\"__gohashid\":8476},{\"from\":\"target:DbxUser:fields\",\"to\":\"target:DbxUser:createdby:\",\"fromPort\":\"target:DbxUser:fields\",\"toPort\":\"target:DbxUser:createdby:\",\"visible\":true,\"common\":false,\"__gohashid\":8477},{\"from\":\"target:DbxUser:fields\",\"to\":\"target:DbxUser:modifiedby:\",\"fromPort\":\"target:DbxUser:fields\",\"toPort\":\"target:DbxUser:modifiedby:\",\"visible\":true,\"common\":false,\"__gohashid\":8478},{\"from\":\"target:DbxUser:fields\",\"to\":\"target:DbxUser:createdts:\",\"fromPort\":\"target:DbxUser:fields\",\"toPort\":\"target:DbxUser:createdts:\",\"visible\":true,\"common\":false,\"__gohashid\":8479},{\"from\":\"target:DbxUser:fields\",\"to\":\"target:DbxUser:lastmodifiedts:\",\"fromPort\":\"target:DbxUser:fields\",\"toPort\":\"target:DbxUser:lastmodifiedts:\",\"visible\":true,\"common\":false,\"__gohashid\":8480},{\"from\":\"target:DbxUser:fields\",\"to\":\"target:DbxUser:synctimestamp:\",\"fromPort\":\"target:DbxUser:fields\",\"toPort\":\"target:DbxUser:synctimestamp:\",\"visible\":true,\"common\":false,\"__gohashid\":8481},{\"from\":\"target:DbxUser:fields\",\"to\":\"target:DbxUser:softdeleteflag:\",\"fromPort\":\"target:DbxUser:fields\",\"toPort\":\"target:DbxUser:softdeleteflag:\",\"visible\":true,\"common\":false,\"__gohashid\":8482},{\"from\":\"target:DbxUser:fields\",\"to\":\"target:DbxUser:securityKey:\",\"fromPort\":\"target:DbxUser:fields\",\"toPort\":\"target:DbxUser:securityKey:\",\"visible\":true,\"common\":false,\"__gohashid\":8483},{\"from\":\"target:DbxUser:fields\",\"to\":\"target:DbxUser:Phone:\",\"fromPort\":\"target:DbxUser:fields\",\"toPort\":\"target:DbxUser:Phone:\",\"visible\":true,\"common\":false,\"__gohashid\":8484},{\"from\":\"target:DbxUser:fields\",\"to\":\"target:DbxUser:Email:\",\"fromPort\":\"target:DbxUser:fields\",\"toPort\":\"target:DbxUser:Email:\",\"visible\":true,\"common\":false,\"__gohashid\":8485},{\"from\":\"target:DbxUser:fields\",\"to\":\"target:DbxUser:Result:\",\"fromPort\":\"target:DbxUser:fields\",\"toPort\":\"target:DbxUser:Result:\",\"visible\":true,\"common\":false,\"__gohashid\":8486},{\"from\":\"target:DbxUser:fields\",\"to\":\"target:DbxUser:errMessage:\",\"fromPort\":\"target:DbxUser:fields\",\"toPort\":\"target:DbxUser:errMessage:\",\"visible\":true,\"common\":false,\"__gohashid\":8487},{\"from\":\"target:DbxUser:fields\",\"to\":\"target:DbxUser:errCode:\",\"fromPort\":\"target:DbxUser:fields\",\"toPort\":\"target:DbxUser:errCode:\",\"visible\":true,\"common\":false,\"__gohashid\":8488},{\"from\":\"target:DbxUser:fields\",\"to\":\"target:DbxUser:message:\",\"fromPort\":\"target:DbxUser:fields\",\"toPort\":\"target:DbxUser:message:\",\"visible\":true,\"common\":false,\"__gohashid\":8489},{\"from\":\"target:DbxUser:fields\",\"to\":\"target:DbxUser:error:\",\"fromPort\":\"target:DbxUser:fields\",\"toPort\":\"target:DbxUser:error:\",\"visible\":true,\"common\":false,\"__gohashid\":8490},{\"from\":\"target:DbxUser:fields\",\"to\":\"target:DbxUser:errmsg:\",\"fromPort\":\"target:DbxUser:fields\",\"toPort\":\"target:DbxUser:errmsg:\",\"visible\":true,\"common\":false,\"__gohashid\":8491},{\"from\":\"target:DbxUser:fields\",\"to\":\"target:DbxUser:MemberId:\",\"fromPort\":\"target:DbxUser:fields\",\"toPort\":\"target:DbxUser:MemberId:\",\"visible\":true,\"common\":false,\"__gohashid\":8492},{\"from\":\"target:DbxUser:fields\",\"to\":\"target:DbxUser:IDMidentifier:\",\"fromPort\":\"target:DbxUser:fields\",\"toPort\":\"target:DbxUser:IDMidentifier:\",\"visible\":true,\"common\":false,\"__gohashid\":8493},{\"from\":\"target:DbxUser:fields\",\"to\":\"target:DbxUser:errorMessage:\",\"fromPort\":\"target:DbxUser:fields\",\"toPort\":\"target:DbxUser:errorMessage:\",\"visible\":true,\"common\":false,\"__gohashid\":8494},{\"from\":\"target:DbxUser:fields\",\"to\":\"target:DbxUser:errorCode:\",\"fromPort\":\"target:DbxUser:fields\",\"toPort\":\"target:DbxUser:errorCode:\",\"visible\":true,\"common\":false,\"__gohashid\":8495},{\"from\":\"target:DbxUser:fields\",\"to\":\"target:DbxUser:lockedOn:\",\"fromPort\":\"target:DbxUser:fields\",\"toPort\":\"target:DbxUser:lockedOn:\",\"visible\":true,\"common\":false,\"__gohashid\":8496},{\"from\":\"target:DbxUser:fields\",\"to\":\"target:DbxUser:Subscribe:\",\"fromPort\":\"target:DbxUser:fields\",\"toPort\":\"target:DbxUser:Subscribe:\",\"visible\":true,\"common\":false,\"__gohashid\":8497},{\"from\":\"target:DbxUser:fields\",\"to\":\"target:DbxUser:Membership_id:\",\"fromPort\":\"target:DbxUser:fields\",\"toPort\":\"target:DbxUser:Membership_id:\",\"visible\":true,\"common\":false,\"__gohashid\":8498},{\"from\":\"target:DbxUser:fields\",\"to\":\"target:DbxUser:Taxid:\",\"fromPort\":\"target:DbxUser:fields\",\"toPort\":\"target:DbxUser:Taxid:\",\"visible\":true,\"common\":false,\"__gohashid\":8499},{\"from\":\"target:DbxUser:fields\",\"to\":\"target:DbxUser:Customer_id:\",\"fromPort\":\"target:DbxUser:fields\",\"toPort\":\"target:DbxUser:Customer_id:\",\"visible\":true,\"common\":false,\"__gohashid\":8500},{\"from\":\"target:DbxUser:fields\",\"to\":\"target:DbxUser:accounts:\",\"fromPort\":\"target:DbxUser:fields\",\"toPort\":\"target:DbxUser:accounts:\",\"visible\":true,\"common\":false,\"__gohashid\":8501},{\"from\":\"target:DbxUser:fields\",\"to\":\"target:DbxUser:services:\",\"fromPort\":\"target:DbxUser:fields\",\"toPort\":\"target:DbxUser:services:\",\"visible\":true,\"common\":false,\"__gohashid\":8502},{\"from\":\"target:DbxUser:fields\",\"to\":\"target:DbxUser:Role_id:\",\"fromPort\":\"target:DbxUser:fields\",\"toPort\":\"target:DbxUser:Role_id:\",\"visible\":true,\"common\":false,\"__gohashid\":8503},{\"from\":\"target:DbxUser:fields\",\"to\":\"target:DbxUser:customeraccounts:\",\"fromPort\":\"target:DbxUser:fields\",\"toPort\":\"target:DbxUser:customeraccounts:\",\"visible\":true,\"common\":false,\"__gohashid\":8504},{\"from\":\"target:DbxUser:fields\",\"to\":\"target:DbxUser:DrivingLicenseNumber:\",\"fromPort\":\"target:DbxUser:fields\",\"toPort\":\"target:DbxUser:DrivingLicenseNumber:\",\"visible\":true,\"common\":false,\"__gohashid\":8505},{\"from\":\"target:DbxUser:fields\",\"to\":\"target:DbxUser:EAgreementRequired:\",\"fromPort\":\"target:DbxUser:fields\",\"toPort\":\"target:DbxUser:EAgreementRequired:\",\"visible\":true,\"common\":false,\"__gohashid\":8506},{\"from\":\"target:DbxUser:fields\",\"to\":\"target:DbxUser:doNotSendOTP:\",\"fromPort\":\"target:DbxUser:fields\",\"toPort\":\"target:DbxUser:doNotSendOTP:\",\"visible\":true,\"common\":false,\"__gohashid\":8507},{\"from\":\"target:DbxUser:fields\",\"to\":\"target:DbxUser:redirectLink:\",\"fromPort\":\"target:DbxUser:fields\",\"toPort\":\"target:DbxUser:redirectLink:\",\"visible\":true,\"common\":false,\"__gohashid\":8508},{\"from\":\"target:DbxUser:fields\",\"to\":\"target:DbxUser:Organization_id:\",\"fromPort\":\"target:DbxUser:fields\",\"toPort\":\"target:DbxUser:Organization_id:\",\"visible\":true,\"common\":false,\"__gohashid\":8509},{\"from\":\"target:DbxUser:fields\",\"to\":\"target:DbxUser:isEAgreementRequired:\",\"fromPort\":\"target:DbxUser:fields\",\"toPort\":\"target:DbxUser:isEAgreementRequired:\",\"visible\":true,\"common\":false,\"__gohashid\":8510},{\"from\":\"target:DbxUser:fields\",\"to\":\"target:DbxUser:isEagreementSigned:\",\"fromPort\":\"target:DbxUser:fields\",\"toPort\":\"target:DbxUser:isEagreementSigned:\",\"visible\":true,\"common\":false,\"__gohashid\":8511},{\"from\":\"target:DbxUser:fields\",\"to\":\"target:DbxUser:opCode:\",\"fromPort\":\"target:DbxUser:fields\",\"toPort\":\"target:DbxUser:opCode:\",\"visible\":true,\"common\":false,\"__gohashid\":8512},{\"from\":\"target:DbxUser:fields\",\"to\":\"target:DbxUser:opMessage:\",\"fromPort\":\"target:DbxUser:fields\",\"toPort\":\"target:DbxUser:opMessage:\",\"visible\":true,\"common\":false,\"__gohashid\":8513},{\"from\":\"target:DbxUser:fields\",\"to\":\"target:DbxUser:MessageType:\",\"fromPort\":\"target:DbxUser:fields\",\"toPort\":\"target:DbxUser:MessageType:\",\"visible\":true,\"common\":false,\"__gohashid\":8514},{\"from\":\"target:DbxUser:fields\",\"to\":\"target:DbxUser:SendToMobiles:\",\"fromPort\":\"target:DbxUser:fields\",\"toPort\":\"target:DbxUser:SendToMobiles:\",\"visible\":true,\"common\":false,\"__gohashid\":8515},{\"from\":\"target:DbxUser:fields\",\"to\":\"target:DbxUser:membershipID:\",\"fromPort\":\"target:DbxUser:fields\",\"toPort\":\"target:DbxUser:membershipID:\",\"visible\":true,\"common\":false,\"__gohashid\":8516},{\"from\":\"target:DbxUser:fields\",\"to\":\"target:DbxUser:isUserNameExists:\",\"fromPort\":\"target:DbxUser:fields\",\"toPort\":\"target:DbxUser:isUserNameExists:\",\"visible\":true,\"common\":false,\"__gohashid\":8517},{\"from\":\"target:DbxUser:fields\",\"to\":\"target:DbxUser:isUserExists:\",\"fromPort\":\"target:DbxUser:fields\",\"toPort\":\"target:DbxUser:isUserExists:\",\"visible\":true,\"common\":false,\"__gohashid\":8518},{\"from\":\"target:DbxUser:fields\",\"to\":\"target:DbxUser:dbpErrMsg:\",\"fromPort\":\"target:DbxUser:fields\",\"toPort\":\"target:DbxUser:dbpErrMsg:\",\"visible\":true,\"common\":false,\"__gohashid\":8519},{\"from\":\"target:DbxUser:fields\",\"to\":\"target:DbxUser:dbpErrCode:\",\"fromPort\":\"target:DbxUser:fields\",\"toPort\":\"target:DbxUser:dbpErrCode:\",\"visible\":true,\"common\":false,\"__gohashid\":8520},{\"from\":\"target:DbxUser:fields\",\"to\":\"target:DbxUser:MFAAttributes:\",\"fromPort\":\"target:DbxUser:fields\",\"toPort\":\"target:DbxUser:MFAAttributes:\",\"visible\":true,\"common\":false,\"__gohashid\":8521},{\"from\":\"target:DbxUser:fields\",\"to\":\"target:DbxUser:sacMaxResendRequestsAllowed:\",\"fromPort\":\"target:DbxUser:fields\",\"toPort\":\"target:DbxUser:sacMaxResendRequestsAllowed:\",\"visible\":true,\"common\":false,\"__gohashid\":8522},{\"from\":\"target:DbxUser:fields\",\"to\":\"target:DbxUser:remainingResendAttempts:\",\"fromPort\":\"target:DbxUser:fields\",\"toPort\":\"target:DbxUser:remainingResendAttempts:\",\"visible\":true,\"common\":false,\"__gohashid\":8523},{\"from\":\"target:DbxUser:fields\",\"to\":\"target:DbxUser:sacCodeLength:\",\"fromPort\":\"target:DbxUser:fields\",\"toPort\":\"target:DbxUser:sacCodeLength:\",\"visible\":true,\"common\":false,\"__gohashid\":8524},{\"from\":\"target:DbxUser:fields\",\"to\":\"target:DbxUser:maxFailedAttemptsAllowed:\",\"fromPort\":\"target:DbxUser:fields\",\"toPort\":\"target:DbxUser:maxFailedAttemptsAllowed:\",\"visible\":true,\"common\":false,\"__gohashid\":8525},{\"from\":\"target:DbxUser:fields\",\"to\":\"target:DbxUser:remainingFailedAttempts:\",\"fromPort\":\"target:DbxUser:fields\",\"toPort\":\"target:DbxUser:remainingFailedAttempts:\",\"visible\":true,\"common\":false,\"__gohashid\":8526},{\"from\":\"target:DbxUser:fields\",\"to\":\"target:DbxUser:failedAttempts:\",\"fromPort\":\"target:DbxUser:fields\",\"toPort\":\"target:DbxUser:failedAttempts:\",\"visible\":true,\"common\":false,\"__gohashid\":8527},{\"from\":\"target:DbxUser:fields\",\"to\":\"target:DbxUser:serviceKey:\",\"fromPort\":\"target:DbxUser:fields\",\"toPort\":\"target:DbxUser:serviceKey:\",\"visible\":true,\"common\":false,\"__gohashid\":8528},{\"from\":\"target:DbxUser:fields\",\"to\":\"target:DbxUser:oldPassword:\",\"fromPort\":\"target:DbxUser:fields\",\"toPort\":\"target:DbxUser:oldPassword:\",\"visible\":true,\"common\":false,\"__gohashid\":8529},{\"from\":\"target:DbxUser:fields\",\"to\":\"target:DbxUser:newPassword:\",\"fromPort\":\"target:DbxUser:fields\",\"toPort\":\"target:DbxUser:newPassword:\",\"visible\":true,\"common\":false,\"__gohashid\":8530},{\"from\":\"target:DbxUser:fields\",\"to\":\"target:DbxUser:oldUserName:\",\"fromPort\":\"target:DbxUser:fields\",\"toPort\":\"target:DbxUser:oldUserName:\",\"visible\":true,\"common\":false,\"__gohashid\":8531},{\"from\":\"target:DbxUser:fields\",\"to\":\"target:DbxUser:newUserName:\",\"fromPort\":\"target:DbxUser:fields\",\"toPort\":\"target:DbxUser:newUserName:\",\"visible\":true,\"common\":false,\"__gohashid\":8532}],\"blockCount\":{\"variableCount\":0},\"variableMap\":{},\"xmlMappingOverride\":true}",
    "applyCommonMapping" : false,
    "applyRequestCommonMapping" : true,
    "applyResponseCommonMapping" : false,
    "backendMeta" : {
      "serviceName" : "dbpRbLocalServicesJava",
      "serviceVersion" : "1.0",
      "operationName" : "getApplicantInfo"
    },
    "relationshipHierarchyMapping" : {
      "children" : [ ],
      "name" : "DbxUser",
      "actions" : { },
      "selected" : true
    },
    "requestXmlMappingOverride" : false,
    "responseXmlMappingOverride" : true
  }
}