{
  "operationConfig" : {
    "name" : "createCheckOrder3873",
    "type" : "MappedToBackend",
    "cachable" : false,
    "smsEnabled" : false,
    "security" : "authorized_app_user",
    "responseEncoding" : "UTF-8",
    "httpMethod" : "GET",
    "decodeResponseBody" : false,
    "iMapping" : "<?xml version=\"1.0\" encoding=\"UTF-8\" standalone=\"yes\"?><mapper xmlns=\"http://www.kony.com/ns/mapper\">        <map inputpath=\"request_in\" outputpath=\"request_out\">                <set-param inputpath=\"zipCode\" outputpath=\"zipcode\"/>                <set-param inputpath=\"accountID\" outputpath=\"account_id\"/>                <set-param inputpath=\"country\" outputpath=\"country\"/>                <set-param inputpath=\"leafCount\" outputpath=\"leafCount\"/>                <set-param inputpath=\"name\" outputpath=\"name\"/>                <set-param inputpath=\"state\" outputpath=\"state\"/>                <set-param inputpath=\"postboxNumber\" outputpath=\"postBoxNumber\"/>           </map></mapper>",
    "oMapping" : "<?xml version=\"1.0\" encoding=\"UTF-8\" standalone=\"yes\"?><mapper xmlns=\"http://www.kony.com/ns/mapper\">      <map inputpath=\"response_in\" outputpath=\"response_out\">            <set-param inputpath=\"success\" outputpath=\"success\"/>            <set-param inputpath=\"errmsg\" outputpath=\"errmsg\"/>            <set-param inputpath=\"id\" outputpath=\"checkOrderID\"/>      </map></mapper>",
    "iVisualMappingData" : "{\"nodeDataArray\":[{\"isGroup\":true,\"key\":\"request_in\",\"text\":\"CheckOrder\",\"xy\":\"150 100\",\"__gohashid\":95749},{\"isGroup\":true,\"key\":\"request_out\",\"text\":\"dbpRbLocalServicesJava.createCheckOrder\",\"xy\":\"770 100\",\"__gohashid\":95750}],\"linkDataArray\":[{\"from\":\"source\",\"to\":\"source:CheckOrder\",\"fromPort\":\"source\",\"toPort\":\"source:CheckOrder\",\"visible\":true,\"common\":false,\"__gohashid\":95778},{\"from\":\"source:CheckOrder\",\"to\":\"source:CheckOrder:fields\",\"fromPort\":\"source:CheckOrder\",\"toPort\":\"source:CheckOrder:fields\",\"visible\":true,\"common\":false,\"__gohashid\":95779},{\"from\":\"source:CheckOrder:fields\",\"to\":\"source:CheckOrder:accountID:\",\"fromPort\":\"source:CheckOrder:fields\",\"toPort\":\"source:CheckOrder:accountID:\",\"visible\":true,\"common\":false,\"__gohashid\":95780},{\"from\":\"source:CheckOrder:fields\",\"to\":\"source:CheckOrder:accountName:\",\"fromPort\":\"source:CheckOrder:fields\",\"toPort\":\"source:CheckOrder:accountName:\",\"visible\":true,\"common\":false,\"__gohashid\":95781},{\"from\":\"source:CheckOrder:fields\",\"to\":\"source:CheckOrder:accountNickName:\",\"fromPort\":\"source:CheckOrder:fields\",\"toPort\":\"source:CheckOrder:accountNickName:\",\"visible\":true,\"common\":false,\"__gohashid\":95782},{\"from\":\"source:CheckOrder:fields\",\"to\":\"source:CheckOrder:checkOrderID:\",\"fromPort\":\"source:CheckOrder:fields\",\"toPort\":\"source:CheckOrder:checkOrderID:\",\"visible\":true,\"common\":false,\"__gohashid\":95783},{\"from\":\"source:CheckOrder:fields\",\"to\":\"source:CheckOrder:country:\",\"fromPort\":\"source:CheckOrder:fields\",\"toPort\":\"source:CheckOrder:country:\",\"visible\":true,\"common\":false,\"__gohashid\":95784},{\"from\":\"source:CheckOrder:fields\",\"to\":\"source:CheckOrder:errmsg:\",\"fromPort\":\"source:CheckOrder:fields\",\"toPort\":\"source:CheckOrder:errmsg:\",\"visible\":true,\"common\":false,\"__gohashid\":95785},{\"from\":\"source:CheckOrder:fields\",\"to\":\"source:CheckOrder:leafCount:\",\"fromPort\":\"source:CheckOrder:fields\",\"toPort\":\"source:CheckOrder:leafCount:\",\"visible\":true,\"common\":false,\"__gohashid\":95786},{\"from\":\"source:CheckOrder:fields\",\"to\":\"source:CheckOrder:name:\",\"fromPort\":\"source:CheckOrder:fields\",\"toPort\":\"source:CheckOrder:name:\",\"visible\":true,\"common\":false,\"__gohashid\":95787},{\"from\":\"source:CheckOrder:fields\",\"to\":\"source:CheckOrder:orderTime:\",\"fromPort\":\"source:CheckOrder:fields\",\"toPort\":\"source:CheckOrder:orderTime:\",\"visible\":true,\"common\":false,\"__gohashid\":95788},{\"from\":\"source:CheckOrder:fields\",\"to\":\"source:CheckOrder:postboxNumber:\",\"fromPort\":\"source:CheckOrder:fields\",\"toPort\":\"source:CheckOrder:postboxNumber:\",\"visible\":true,\"common\":false,\"__gohashid\":95789},{\"from\":\"source:CheckOrder:fields\",\"to\":\"source:CheckOrder:state:\",\"fromPort\":\"source:CheckOrder:fields\",\"toPort\":\"source:CheckOrder:state:\",\"visible\":true,\"common\":false,\"__gohashid\":95790},{\"from\":\"source:CheckOrder:fields\",\"to\":\"source:CheckOrder:status:\",\"fromPort\":\"source:CheckOrder:fields\",\"toPort\":\"source:CheckOrder:status:\",\"visible\":true,\"common\":false,\"__gohashid\":95791},{\"from\":\"source:CheckOrder:fields\",\"to\":\"source:CheckOrder:success:\",\"fromPort\":\"source:CheckOrder:fields\",\"toPort\":\"source:CheckOrder:success:\",\"visible\":true,\"common\":false,\"__gohashid\":95792},{\"from\":\"source:CheckOrder:fields\",\"to\":\"source:CheckOrder:zipcode:\",\"fromPort\":\"source:CheckOrder:fields\",\"toPort\":\"source:CheckOrder:zipcode:\",\"visible\":true,\"common\":false,\"__gohashid\":95793},{\"from\":\"target\",\"to\":\"target:parameters\",\"fromPort\":\"target\",\"toPort\":\"target:parameters\",\"visible\":true,\"common\":false,\"__gohashid\":95794},{\"from\":\"target:parameters\",\"to\":\"target:accountID:\",\"fromPort\":\"target:parameters\",\"toPort\":\"target:accountID:\",\"visible\":true,\"common\":false,\"__gohashid\":95795},{\"from\":\"target:parameters\",\"to\":\"target:country:\",\"fromPort\":\"target:parameters\",\"toPort\":\"target:country:\",\"visible\":true,\"common\":false,\"__gohashid\":95796},{\"from\":\"target:parameters\",\"to\":\"target:leafCount:\",\"fromPort\":\"target:parameters\",\"toPort\":\"target:leafCount:\",\"visible\":true,\"common\":false,\"__gohashid\":95797},{\"from\":\"target:parameters\",\"to\":\"target:name:\",\"fromPort\":\"target:parameters\",\"toPort\":\"target:name:\",\"visible\":true,\"common\":false,\"__gohashid\":95798},{\"from\":\"target:parameters\",\"to\":\"target:postboxNumber:\",\"fromPort\":\"target:parameters\",\"toPort\":\"target:postboxNumber:\",\"visible\":true,\"common\":false,\"__gohashid\":95799},{\"from\":\"target:parameters\",\"to\":\"target:state:\",\"fromPort\":\"target:parameters\",\"toPort\":\"target:state:\",\"visible\":true,\"common\":false,\"__gohashid\":95800},{\"from\":\"target:parameters\",\"to\":\"target:zipcode:\",\"fromPort\":\"target:parameters\",\"toPort\":\"target:zipcode:\",\"visible\":true,\"common\":false,\"__gohashid\":95801}],\"blockCount\":{\"variableCount\":0},\"variableMap\":{},\"xmlMappingOverride\":true}",
    "oVisualMappingData" : "{\"nodeDataArray\":[{\"isGroup\":true,\"key\":\"response_out\",\"text\":\"CheckOrder\",\"xy\":\"770 100\",\"__gohashid\":100922},{\"isGroup\":true,\"key\":\"response_in\",\"text\":\"dbpRbLocalServicesJava.createCheckOrder\",\"xy\":\"150 100\",\"__gohashid\":100923}],\"linkDataArray\":[{\"from\":\"target\",\"to\":\"target:CheckOrder\",\"fromPort\":\"target\",\"toPort\":\"target:CheckOrder\",\"visible\":true,\"common\":false,\"__gohashid\":16806},{\"from\":\"target:CheckOrder\",\"to\":\"target:CheckOrder:fields\",\"fromPort\":\"target:CheckOrder\",\"toPort\":\"target:CheckOrder:fields\",\"visible\":true,\"common\":false,\"__gohashid\":16807},{\"from\":\"target:CheckOrder:fields\",\"to\":\"target:CheckOrder:accountID:\",\"fromPort\":\"target:CheckOrder:fields\",\"toPort\":\"target:CheckOrder:accountID:\",\"visible\":true,\"common\":false,\"__gohashid\":16808},{\"from\":\"target:CheckOrder:fields\",\"to\":\"target:CheckOrder:accountName:\",\"fromPort\":\"target:CheckOrder:fields\",\"toPort\":\"target:CheckOrder:accountName:\",\"visible\":true,\"common\":false,\"__gohashid\":16809},{\"from\":\"target:CheckOrder:fields\",\"to\":\"target:CheckOrder:accountNickName:\",\"fromPort\":\"target:CheckOrder:fields\",\"toPort\":\"target:CheckOrder:accountNickName:\",\"visible\":true,\"common\":false,\"__gohashid\":16810},{\"from\":\"target:CheckOrder:fields\",\"to\":\"target:CheckOrder:checkOrderID:\",\"fromPort\":\"target:CheckOrder:fields\",\"toPort\":\"target:CheckOrder:checkOrderID:\",\"visible\":true,\"common\":false,\"__gohashid\":16811},{\"from\":\"target:CheckOrder:fields\",\"to\":\"target:CheckOrder:country:\",\"fromPort\":\"target:CheckOrder:fields\",\"toPort\":\"target:CheckOrder:country:\",\"visible\":true,\"common\":false,\"__gohashid\":16812},{\"from\":\"target:CheckOrder:fields\",\"to\":\"target:CheckOrder:errmsg:\",\"fromPort\":\"target:CheckOrder:fields\",\"toPort\":\"target:CheckOrder:errmsg:\",\"visible\":true,\"common\":false,\"__gohashid\":16813},{\"from\":\"target:CheckOrder:fields\",\"to\":\"target:CheckOrder:leafCount:\",\"fromPort\":\"target:CheckOrder:fields\",\"toPort\":\"target:CheckOrder:leafCount:\",\"visible\":true,\"common\":false,\"__gohashid\":16814},{\"from\":\"target:CheckOrder:fields\",\"to\":\"target:CheckOrder:name:\",\"fromPort\":\"target:CheckOrder:fields\",\"toPort\":\"target:CheckOrder:name:\",\"visible\":true,\"common\":false,\"__gohashid\":16815},{\"from\":\"target:CheckOrder:fields\",\"to\":\"target:CheckOrder:orderTime:\",\"fromPort\":\"target:CheckOrder:fields\",\"toPort\":\"target:CheckOrder:orderTime:\",\"visible\":true,\"common\":false,\"__gohashid\":16816},{\"from\":\"target:CheckOrder:fields\",\"to\":\"target:CheckOrder:postboxNumber:\",\"fromPort\":\"target:CheckOrder:fields\",\"toPort\":\"target:CheckOrder:postboxNumber:\",\"visible\":true,\"common\":false,\"__gohashid\":16817},{\"from\":\"target:CheckOrder:fields\",\"to\":\"target:CheckOrder:state:\",\"fromPort\":\"target:CheckOrder:fields\",\"toPort\":\"target:CheckOrder:state:\",\"visible\":true,\"common\":false,\"__gohashid\":16818},{\"from\":\"target:CheckOrder:fields\",\"to\":\"target:CheckOrder:status:\",\"fromPort\":\"target:CheckOrder:fields\",\"toPort\":\"target:CheckOrder:status:\",\"visible\":true,\"common\":false,\"__gohashid\":16819},{\"from\":\"target:CheckOrder:fields\",\"to\":\"target:CheckOrder:success:\",\"fromPort\":\"target:CheckOrder:fields\",\"toPort\":\"target:CheckOrder:success:\",\"visible\":true,\"common\":false,\"__gohashid\":16820},{\"from\":\"target:CheckOrder:fields\",\"to\":\"target:CheckOrder:zipcode:\",\"fromPort\":\"target:CheckOrder:fields\",\"toPort\":\"target:CheckOrder:zipcode:\",\"visible\":true,\"common\":false,\"__gohashid\":16821},{\"from\":\"source\",\"to\":\"source:parameters\",\"fromPort\":\"source\",\"toPort\":\"source:parameters\",\"visible\":true,\"common\":false,\"__gohashid\":16822},{\"from\":\"source:parameters\",\"to\":\"source:checkOrderID:\",\"fromPort\":\"source:parameters\",\"toPort\":\"source:checkOrderID:\",\"visible\":true,\"common\":false,\"__gohashid\":16823},{\"from\":\"source:parameters\",\"to\":\"source:errmsg:\",\"fromPort\":\"source:parameters\",\"toPort\":\"source:errmsg:\",\"visible\":true,\"common\":false,\"__gohashid\":16824},{\"from\":\"source:parameters\",\"to\":\"source:success:\",\"fromPort\":\"source:parameters\",\"toPort\":\"source:success:\",\"visible\":true,\"common\":false,\"__gohashid\":16825}],\"blockCount\":{\"variableCount\":0},\"variableMap\":{},\"xmlMappingOverride\":true}",
    "applyCommonMapping" : false,
    "applyRequestCommonMapping" : false,
    "applyResponseCommonMapping" : false,
    "backendMeta" : {
      "serviceName" : "dbpRbLocalServicesJava",
      "serviceVersion" : "1.0",
      "operationName" : "createCheckOrder"
    },
    "relationshipHierarchyMapping" : {
      "children" : [ ],
      "name" : "CheckOrder",
      "actions" : {
        "create" : true,
        "update" : true,
        "partialupdate" : true
      },
      "selected" : true
    },
    "requestXmlMappingOverride" : true,
    "responseXmlMappingOverride" : true
  }
}