{
  "operationConfig" : {
    "name" : "ACHVendorMockService4729",
    "type" : "MappedToBackend",
    "cachable" : false,
    "smsEnabled" : false,
    "security" : "authorized_app_user",
    "responseEncoding" : "UTF-8",
    "httpMethod" : "GET",
    "decodeResponseBody" : false,
    "iMapping" : "<?xml version=\"1.0\" encoding=\"UTF-8\" standalone=\"yes\"?><mapper xmlns=\"http://www.kony.com/ns/mapper\">          <map inputpath=\"request_in\" outputpath=\"request_out\">                    <set-param inputpath=\"ConfirmationNumber\" outputpath=\"ConfirmationNumber\"/>                    <set-param inputpath=\"DebitAccount\" outputpath=\"DebitAccount\"/>                    <set-param inputpath=\"EffectiveDate\" outputpath=\"EffectiveDate\"/>                    <set-param inputpath=\"MaxAmount\" outputpath=\"MaxAmount\"/>                    <set-param inputpath=\"TotalAmount\" outputpath=\"TotalAmount\" />                    <set-param inputpath=\"Records\" outputpath=\"Records\"/>                    <set-param inputpath=\"TemplateRequestType_id\" outputpath=\"TemplateRequestType_id\"/>                    <set-param inputpath=\"TemplateType_id\" outputpath=\"TemplateType_id\"/>                    <set-param inputpath=\"TransactionType_id\" outputpath=\"TransactionType_id\"/>        </map></mapper>",
    "oMapping" : "<?xml version=\"1.0\" encoding=\"UTF-8\" standalone=\"yes\"?><mapper xmlns=\"http://www.kony.com/ns/mapper\">  <map inputpath=\"response_in\" outputpath=\"response_out\">    <set-param inputpath=\"Status\" outputpath=\"Status\"/>                    <set-param inputpath=\"ReferenceID\" outputpath=\"ReferenceID\"/>  </map></mapper>",
    "iVisualMappingData" : "{\"nodeDataArray\":[{\"isGroup\":true,\"key\":\"request_in\",\"text\":\"ACHTransactions\",\"xy\":\"150 100\",\"__gohashid\":5186},{\"isGroup\":true,\"key\":\"request_out\",\"text\":\"BBMockServices (1.0).ACHVendorMockService\",\"xy\":\"770 100\",\"__gohashid\":5187}],\"linkDataArray\":[{\"from\":\"source\",\"to\":\"source:ACHTransactions\",\"fromPort\":\"source\",\"toPort\":\"source:ACHTransactions\",\"visible\":true,\"common\":false,\"__gohashid\":5221},{\"from\":\"source:ACHTransactions\",\"to\":\"source:ACHTransactions:fields\",\"fromPort\":\"source:ACHTransactions\",\"toPort\":\"source:ACHTransactions:fields\",\"visible\":true,\"common\":false,\"__gohashid\":5222},{\"from\":\"source:ACHTransactions:fields\",\"to\":\"source:ACHTransactions:BBGeneralTransactionType_id:\",\"fromPort\":\"source:ACHTransactions:fields\",\"toPort\":\"source:ACHTransactions:BBGeneralTransactionType_id:\",\"visible\":true,\"common\":false,\"__gohashid\":5223},{\"from\":\"source:ACHTransactions:fields\",\"to\":\"source:ACHTransactions:Status:\",\"fromPort\":\"source:ACHTransactions:fields\",\"toPort\":\"source:ACHTransactions:Status:\",\"visible\":true,\"common\":false,\"__gohashid\":5224},{\"from\":\"source:ACHTransactions:fields\",\"to\":\"source:ACHTransactions:TemplateRequestType_id:\",\"fromPort\":\"source:ACHTransactions:fields\",\"toPort\":\"source:ACHTransactions:TemplateRequestType_id:\",\"visible\":true,\"common\":false,\"__gohashid\":5225},{\"from\":\"source:ACHTransactions:fields\",\"to\":\"source:ACHTransactions:Request_id:\",\"fromPort\":\"source:ACHTransactions:fields\",\"toPort\":\"source:ACHTransactions:Request_id:\",\"visible\":true,\"common\":false,\"__gohashid\":5226},{\"from\":\"source:ACHTransactions:fields\",\"to\":\"source:ACHTransactions:userName:\",\"fromPort\":\"source:ACHTransactions:fields\",\"toPort\":\"source:ACHTransactions:userName:\",\"visible\":true,\"common\":false,\"__gohashid\":5227},{\"from\":\"source:ACHTransactions:fields\",\"to\":\"source:ACHTransactions:DebitAccount:\",\"fromPort\":\"source:ACHTransactions:fields\",\"toPort\":\"source:ACHTransactions:DebitAccount:\",\"visible\":true,\"common\":false,\"__gohashid\":5228},{\"from\":\"source:ACHTransactions:fields\",\"to\":\"source:ACHTransactions:CreatedOn:\",\"fromPort\":\"source:ACHTransactions:fields\",\"toPort\":\"source:ACHTransactions:CreatedOn:\",\"visible\":true,\"common\":false,\"__gohashid\":5229},{\"from\":\"source:ACHTransactions:fields\",\"to\":\"source:ACHTransactions:MaxAmount:\",\"fromPort\":\"source:ACHTransactions:fields\",\"toPort\":\"source:ACHTransactions:MaxAmount:\",\"visible\":true,\"common\":false,\"__gohashid\":5230},{\"from\":\"source:ACHTransactions:fields\",\"to\":\"source:ACHTransactions:TemplateType_id:\",\"fromPort\":\"source:ACHTransactions:fields\",\"toPort\":\"source:ACHTransactions:TemplateType_id:\",\"visible\":true,\"common\":false,\"__gohashid\":5231},{\"from\":\"source:ACHTransactions:fields\",\"to\":\"source:ACHTransactions:CompanyName:\",\"fromPort\":\"source:ACHTransactions:fields\",\"toPort\":\"source:ACHTransactions:CompanyName:\",\"visible\":true,\"common\":false,\"__gohashid\":5232},{\"from\":\"source:ACHTransactions:fields\",\"to\":\"source:ACHTransactions:RequestType:\",\"fromPort\":\"source:ACHTransactions:fields\",\"toPort\":\"source:ACHTransactions:RequestType:\",\"visible\":true,\"common\":false,\"__gohashid\":5233},{\"from\":\"source:ACHTransactions:fields\",\"to\":\"source:ACHTransactions:TemplateTypeValue:\",\"fromPort\":\"source:ACHTransactions:fields\",\"toPort\":\"source:ACHTransactions:TemplateTypeValue:\",\"visible\":true,\"common\":false,\"__gohashid\":5234},{\"from\":\"source:ACHTransactions:fields\",\"to\":\"source:ACHTransactions:softDelete:\",\"fromPort\":\"source:ACHTransactions:fields\",\"toPort\":\"source:ACHTransactions:softDelete:\",\"visible\":true,\"common\":false,\"__gohashid\":5235},{\"from\":\"source:ACHTransactions:fields\",\"to\":\"source:ACHTransactions:TransactionType_id:\",\"fromPort\":\"source:ACHTransactions:fields\",\"toPort\":\"source:ACHTransactions:TransactionType_id:\",\"visible\":true,\"common\":false,\"__gohashid\":5236},{\"from\":\"source:ACHTransactions:fields\",\"to\":\"source:ACHTransactions:CreatedBy:\",\"fromPort\":\"source:ACHTransactions:fields\",\"toPort\":\"source:ACHTransactions:CreatedBy:\",\"visible\":true,\"common\":false,\"__gohashid\":5237},{\"from\":\"source:ACHTransactions:fields\",\"to\":\"source:ACHTransactions:Company_id:\",\"fromPort\":\"source:ACHTransactions:fields\",\"toPort\":\"source:ACHTransactions:Company_id:\",\"visible\":true,\"common\":false,\"__gohashid\":5238},{\"from\":\"source:ACHTransactions:fields\",\"to\":\"source:ACHTransactions:TransactionTypeValue:\",\"fromPort\":\"source:ACHTransactions:fields\",\"toPort\":\"source:ACHTransactions:TransactionTypeValue:\",\"visible\":true,\"common\":false,\"__gohashid\":5239},{\"from\":\"source:ACHTransactions:fields\",\"to\":\"source:ACHTransactions:StatusValue:\",\"fromPort\":\"source:ACHTransactions:fields\",\"toPort\":\"source:ACHTransactions:StatusValue:\",\"visible\":true,\"common\":false,\"__gohashid\":5240},{\"from\":\"source:ACHTransactions:fields\",\"to\":\"source:ACHTransactions:Transaction_id:\",\"fromPort\":\"source:ACHTransactions:fields\",\"toPort\":\"source:ACHTransactions:Transaction_id:\",\"visible\":true,\"common\":false,\"__gohashid\":5241},{\"from\":\"source:ACHTransactions:fields\",\"to\":\"source:ACHTransactions:EffectiveDate:\",\"fromPort\":\"source:ACHTransactions:fields\",\"toPort\":\"source:ACHTransactions:EffectiveDate:\",\"visible\":true,\"common\":false,\"__gohashid\":5242},{\"from\":\"source:ACHTransactions:fields\",\"to\":\"source:ACHTransactions:TemplateName:\",\"fromPort\":\"source:ACHTransactions:fields\",\"toPort\":\"source:ACHTransactions:TemplateName:\",\"visible\":true,\"common\":false,\"__gohashid\":5243},{\"from\":\"source:ACHTransactions:fields\",\"to\":\"source:ACHTransactions:ConfirmationNumber:\",\"fromPort\":\"source:ACHTransactions:fields\",\"toPort\":\"source:ACHTransactions:ConfirmationNumber:\",\"visible\":true,\"common\":false,\"__gohashid\":5244},{\"from\":\"source:ACHTransactions:fields\",\"to\":\"source:ACHTransactions:Approver:\",\"fromPort\":\"source:ACHTransactions:fields\",\"toPort\":\"source:ACHTransactions:Approver:\",\"visible\":true,\"common\":false,\"__gohashid\":5245},{\"from\":\"source:ACHTransactions:fields\",\"to\":\"source:ACHTransactions:Records:\",\"fromPort\":\"source:ACHTransactions:fields\",\"toPort\":\"source:ACHTransactions:Records:\",\"visible\":true,\"common\":false,\"__gohashid\":5246},{\"from\":\"source:ACHTransactions:fields\",\"to\":\"source:ACHTransactions:TemplateDescription:\",\"fromPort\":\"source:ACHTransactions:fields\",\"toPort\":\"source:ACHTransactions:TemplateDescription:\",\"visible\":true,\"common\":false,\"__gohashid\":5247},{\"from\":\"source:ACHTransactions:fields\",\"to\":\"source:ACHTransactions:TotalAmount:\",\"fromPort\":\"source:ACHTransactions:fields\",\"toPort\":\"source:ACHTransactions:TotalAmount:\",\"visible\":true,\"common\":false,\"__gohashid\":5248},{\"from\":\"target\",\"to\":\"target:parameters\",\"fromPort\":\"target\",\"toPort\":\"target:parameters\",\"visible\":true,\"common\":false,\"__gohashid\":5249},{\"from\":\"target:parameters\",\"to\":\"target:EffectiveDate:\",\"fromPort\":\"target:parameters\",\"toPort\":\"target:EffectiveDate:\",\"visible\":true,\"common\":false,\"__gohashid\":5250}],\"blockCount\":{\"variableCount\":0},\"variableMap\":{},\"xmlMappingOverride\":true}",
    "oVisualMappingData" : "{\"nodeDataArray\":[{\"isGroup\":true,\"key\":\"response_out\",\"text\":\"ACHTransactions\",\"xy\":\"770 100\",\"__gohashid\":10566},{\"isGroup\":true,\"key\":\"response_in\",\"text\":\"BBMockServices (1.0).ACHVendorMockService\",\"xy\":\"150 100\",\"__gohashid\":10567}],\"linkDataArray\":[{\"from\":\"target\",\"to\":\"target:ACHTransactions\",\"fromPort\":\"target\",\"toPort\":\"target:ACHTransactions\",\"visible\":true,\"common\":false,\"__gohashid\":10599},{\"from\":\"target:ACHTransactions\",\"to\":\"target:ACHTransactions:fields\",\"fromPort\":\"target:ACHTransactions\",\"toPort\":\"target:ACHTransactions:fields\",\"visible\":true,\"common\":false,\"__gohashid\":10600},{\"from\":\"target:ACHTransactions:fields\",\"to\":\"target:ACHTransactions:BBGeneralTransactionType_id:\",\"fromPort\":\"target:ACHTransactions:fields\",\"toPort\":\"target:ACHTransactions:BBGeneralTransactionType_id:\",\"visible\":true,\"common\":false,\"__gohashid\":10601},{\"from\":\"target:ACHTransactions:fields\",\"to\":\"target:ACHTransactions:Status:\",\"fromPort\":\"target:ACHTransactions:fields\",\"toPort\":\"target:ACHTransactions:Status:\",\"visible\":true,\"common\":false,\"__gohashid\":10602},{\"from\":\"target:ACHTransactions:fields\",\"to\":\"target:ACHTransactions:TemplateRequestType_id:\",\"fromPort\":\"target:ACHTransactions:fields\",\"toPort\":\"target:ACHTransactions:TemplateRequestType_id:\",\"visible\":true,\"common\":false,\"__gohashid\":10603},{\"from\":\"target:ACHTransactions:fields\",\"to\":\"target:ACHTransactions:Request_id:\",\"fromPort\":\"target:ACHTransactions:fields\",\"toPort\":\"target:ACHTransactions:Request_id:\",\"visible\":true,\"common\":false,\"__gohashid\":10604},{\"from\":\"target:ACHTransactions:fields\",\"to\":\"target:ACHTransactions:userName:\",\"fromPort\":\"target:ACHTransactions:fields\",\"toPort\":\"target:ACHTransactions:userName:\",\"visible\":true,\"common\":false,\"__gohashid\":10605},{\"from\":\"target:ACHTransactions:fields\",\"to\":\"target:ACHTransactions:DebitAccount:\",\"fromPort\":\"target:ACHTransactions:fields\",\"toPort\":\"target:ACHTransactions:DebitAccount:\",\"visible\":true,\"common\":false,\"__gohashid\":10606},{\"from\":\"target:ACHTransactions:fields\",\"to\":\"target:ACHTransactions:CreatedOn:\",\"fromPort\":\"target:ACHTransactions:fields\",\"toPort\":\"target:ACHTransactions:CreatedOn:\",\"visible\":true,\"common\":false,\"__gohashid\":10607},{\"from\":\"target:ACHTransactions:fields\",\"to\":\"target:ACHTransactions:MaxAmount:\",\"fromPort\":\"target:ACHTransactions:fields\",\"toPort\":\"target:ACHTransactions:MaxAmount:\",\"visible\":true,\"common\":false,\"__gohashid\":10608},{\"from\":\"target:ACHTransactions:fields\",\"to\":\"target:ACHTransactions:TemplateType_id:\",\"fromPort\":\"target:ACHTransactions:fields\",\"toPort\":\"target:ACHTransactions:TemplateType_id:\",\"visible\":true,\"common\":false,\"__gohashid\":10609},{\"from\":\"target:ACHTransactions:fields\",\"to\":\"target:ACHTransactions:CompanyName:\",\"fromPort\":\"target:ACHTransactions:fields\",\"toPort\":\"target:ACHTransactions:CompanyName:\",\"visible\":true,\"common\":false,\"__gohashid\":10610},{\"from\":\"target:ACHTransactions:fields\",\"to\":\"target:ACHTransactions:RequestType:\",\"fromPort\":\"target:ACHTransactions:fields\",\"toPort\":\"target:ACHTransactions:RequestType:\",\"visible\":true,\"common\":false,\"__gohashid\":10611},{\"from\":\"target:ACHTransactions:fields\",\"to\":\"target:ACHTransactions:TemplateTypeValue:\",\"fromPort\":\"target:ACHTransactions:fields\",\"toPort\":\"target:ACHTransactions:TemplateTypeValue:\",\"visible\":true,\"common\":false,\"__gohashid\":10612},{\"from\":\"target:ACHTransactions:fields\",\"to\":\"target:ACHTransactions:softDelete:\",\"fromPort\":\"target:ACHTransactions:fields\",\"toPort\":\"target:ACHTransactions:softDelete:\",\"visible\":true,\"common\":false,\"__gohashid\":10613},{\"from\":\"target:ACHTransactions:fields\",\"to\":\"target:ACHTransactions:TransactionType_id:\",\"fromPort\":\"target:ACHTransactions:fields\",\"toPort\":\"target:ACHTransactions:TransactionType_id:\",\"visible\":true,\"common\":false,\"__gohashid\":10614},{\"from\":\"target:ACHTransactions:fields\",\"to\":\"target:ACHTransactions:CreatedBy:\",\"fromPort\":\"target:ACHTransactions:fields\",\"toPort\":\"target:ACHTransactions:CreatedBy:\",\"visible\":true,\"common\":false,\"__gohashid\":10615},{\"from\":\"target:ACHTransactions:fields\",\"to\":\"target:ACHTransactions:Company_id:\",\"fromPort\":\"target:ACHTransactions:fields\",\"toPort\":\"target:ACHTransactions:Company_id:\",\"visible\":true,\"common\":false,\"__gohashid\":10616},{\"from\":\"target:ACHTransactions:fields\",\"to\":\"target:ACHTransactions:TransactionTypeValue:\",\"fromPort\":\"target:ACHTransactions:fields\",\"toPort\":\"target:ACHTransactions:TransactionTypeValue:\",\"visible\":true,\"common\":false,\"__gohashid\":10617},{\"from\":\"target:ACHTransactions:fields\",\"to\":\"target:ACHTransactions:StatusValue:\",\"fromPort\":\"target:ACHTransactions:fields\",\"toPort\":\"target:ACHTransactions:StatusValue:\",\"visible\":true,\"common\":false,\"__gohashid\":10618},{\"from\":\"target:ACHTransactions:fields\",\"to\":\"target:ACHTransactions:Transaction_id:\",\"fromPort\":\"target:ACHTransactions:fields\",\"toPort\":\"target:ACHTransactions:Transaction_id:\",\"visible\":true,\"common\":false,\"__gohashid\":10619},{\"from\":\"target:ACHTransactions:fields\",\"to\":\"target:ACHTransactions:EffectiveDate:\",\"fromPort\":\"target:ACHTransactions:fields\",\"toPort\":\"target:ACHTransactions:EffectiveDate:\",\"visible\":true,\"common\":false,\"__gohashid\":10620},{\"from\":\"target:ACHTransactions:fields\",\"to\":\"target:ACHTransactions:TemplateName:\",\"fromPort\":\"target:ACHTransactions:fields\",\"toPort\":\"target:ACHTransactions:TemplateName:\",\"visible\":true,\"common\":false,\"__gohashid\":10621},{\"from\":\"target:ACHTransactions:fields\",\"to\":\"target:ACHTransactions:ConfirmationNumber:\",\"fromPort\":\"target:ACHTransactions:fields\",\"toPort\":\"target:ACHTransactions:ConfirmationNumber:\",\"visible\":true,\"common\":false,\"__gohashid\":10622},{\"from\":\"target:ACHTransactions:fields\",\"to\":\"target:ACHTransactions:Approver:\",\"fromPort\":\"target:ACHTransactions:fields\",\"toPort\":\"target:ACHTransactions:Approver:\",\"visible\":true,\"common\":false,\"__gohashid\":10623},{\"from\":\"target:ACHTransactions:fields\",\"to\":\"target:ACHTransactions:Records:\",\"fromPort\":\"target:ACHTransactions:fields\",\"toPort\":\"target:ACHTransactions:Records:\",\"visible\":true,\"common\":false,\"__gohashid\":10624},{\"from\":\"target:ACHTransactions:fields\",\"to\":\"target:ACHTransactions:TemplateDescription:\",\"fromPort\":\"target:ACHTransactions:fields\",\"toPort\":\"target:ACHTransactions:TemplateDescription:\",\"visible\":true,\"common\":false,\"__gohashid\":10625},{\"from\":\"target:ACHTransactions:fields\",\"to\":\"target:ACHTransactions:TotalAmount:\",\"fromPort\":\"target:ACHTransactions:fields\",\"toPort\":\"target:ACHTransactions:TotalAmount:\",\"visible\":true,\"common\":false,\"__gohashid\":10626}],\"blockCount\":{\"variableCount\":0},\"variableMap\":{},\"xmlMappingOverride\":true}",
    "applyCommonMapping" : false,
    "applyRequestCommonMapping" : false,
    "applyResponseCommonMapping" : false,
    "backendMeta" : {
      "serviceName" : "BBMockServices",
      "serviceVersion" : "1.0",
      "operationName" : "ACHVendorMockService"
    },
    "relationshipHierarchyMapping" : {
      "children" : [ ],
      "name" : "ACHTransactions",
      "actions" : { },
      "selected" : true
    },
    "requestXmlMappingOverride" : true,
    "responseXmlMappingOverride" : true
  }
}