{
    "@class": "com.kony.gen.viz.model.component.KVizUserWidget",
    "DNDConfig": null,
    "__parentReadjusting__": false,
    "_children_": [],
    "_height_": {
        "type": "string",
        "value": "100%"
    },
    "_left_": {
        "type": "string",
        "value": "0dp"
    },
    "_margin_": [
        0,
        0,
        0,
        0
    ],
    "_orientation_": 1,
    "_padding_": [
        0,
        0,
        0,
        0
    ],
    "_percent_": true,
    "_render_": true,
    "_skin_": "s966eaf1ea1441148b4828270a782f8b",
    "_top_": {
        "type": "string",
        "value": "0dp"
    },
    "_width_": {
        "type": "string",
        "value": "100%"
    },
    "areflexpropsreferenced": false,
    "autogrowmode": 0,
    "canUpdateUI": true,
    "clipbounds": true,
    "containerweight": 0,
    "dataDiffs": {
        "customPopup": {
            "__events__": {},
            "__info__": {
                "isRoot": true,
                "kuid": "ca7abb8132774fc69445c4a2cbd6dd19",
                "srcKUID": "ie413e7d00ff441480a402d8b73f47f4",
                "wType": "FlexContainer"
            }
        },
        "flxPopupWrapper": {
            "__events__": {},
            "__info__": {
                "kuid": "ad8ddc6c5aec4f138bd0568688f3746c",
                "srcKUID": "f56145d08fa2451fb9475e5d2bc6a01d",
                "wType": "FlexContainer"
            }
        },
        "imgPopup": {
            "__events__": {},
            "__info__": {
                "kuid": "d5e10d48721f4a1c95a7b69414942f08",
                "srcKUID": "f4638082e0dc4d7c9a5f12dbb322786e",
                "wType": "Image"
            }
        },
        "lblPopup": {
            "__events__": {},
            "__info__": {
                "kuid": "e45ce46e505449eba04ea1d44fd8e7ac",
                "srcKUID": "gc00deb3138044cd9f219a4d21d5533c",
                "wType": "Label"
            }
        }
    },
    "id": "customPopup",
    "info": null,
    "iscustomlayout": false,
    "isdatareferenced": false,
    "isvisible": true,
    "kuid": "ca7abb8132774fc69445c4a2cbd6dd19",
    "layouttype": 3,
    "masterType": 0,
    "name": "kony.ui.UserWidgetInstance",
    "parent": "flxPopup",
    "pf": "frmAccountPrimaryLinking",
    "retaincontentalignment": false,
    "retainflexpositionproperties": false,
    "sourceUserWidget": "ie413e7d00ff441480a402d8b73f47f4",
    "wType": "UserWidgetInstance"
}