{
  "type" : "svcdriven",
  "custom" : false,
  "junction" : false,
  "customizable" : false,
  "verbs" : {
    "get" : "getMapping",
    "getRecentPayPerson" : "getRecentPayPersonMapping",
    "create" : "createMapping",
    "editPayPerson" : "editPayPersonMapping",
    "deletePayPerson" : "deletePayPersonMapping"
  },
  "entityProperties" : {
    "BatchMode" : "buffer",
    "backendMeta" : { },
    "designTimeBackendMeta" : { }
  }
}