{
    "@class": "com.kony.gen.viz.model.component.KVizButton",
    "DNDConfig": null,
    "__parentReadjusting__": false,
    "_bottom_": {
        "type": "string",
        "value": "20dp"
    },
    "_height_": {
        "type": "string",
        "value": "48dp"
    },
    "_left_": {
        "type": "string",
        "value": "20dp"
    },
    "_margin_": [
        6,
        6,
        6,
        6
    ],
    "_padding_": [
        0,
        0,
        0,
        0
    ],
    "_right_": {
        "type": "string",
        "value": "20dp"
    },
    "_skin_": "s11bab4ba90547b3a6920246a6d7aa3a",
    "_text_": "Send",
    "canUpdateUI": true,
    "centerx": {
        "type": "string",
        "value": "50%"
    },
    "containerweight": 100,
    "contentalignment": 5,
    "displaytext": true,
    "focusskin": "s382c0769eb94361b31e48ce3f2c617b",
    "id": "btnSend",
    "info": null,
    "iscustomlayout": false,
    "isvisible": true,
    "kuid": "i9df398e35624d7c8c5b9830e88451a9",
    "name": "kony.ui.Button",
    "parent": "flxButtons",
    "pf": "frmMFAOption1",
    "retaincontentalignment": false,
    "retainflexpositionproperties": false,
    "texti18n": "kony.mb.Messages.send",
    "wType": "Button",
    "zindex": 8
}