{
  "operationConfig" : {
    "name" : "getActiveCards8542",
    "type" : "MappedToBackend",
    "cachable" : false,
    "smsEnabled" : false,
    "security" : "authorized_app_user",
    "responseEncoding" : "UTF-8",
    "httpMethod" : "GET",
    "decodeResponseBody" : false,
    "oMapping" : "<?xml version=\"1.0\" encoding=\"UTF-8\" standalone=\"yes\"?><mapper xmlns=\"http://www.kony.com/ns/mapper\">          <map inputpath=\"response_in\" outputpath=\"response_out\">                    <map inputpath=\"card\" outputpath=\"Cards\">                              <set-param inputpath=\"action\" outputpath=\"Action\"/>                              <set-param inputpath=\"cardHolderName\" outputpath=\"cardHolderName\"/>                              <set-param inputpath=\"Id\" outputpath=\"cardId\"/>                              <set-param inputpath=\"cardNumber\" outputpath=\"cardNumber\"/>                              <set-param inputpath=\"card_Status\" outputpath=\"cardStatus\"/>                              <set-param inputpath=\"cardType\" outputpath=\"cardType\"/>                              <set-param inputpath=\"expirationDate\" outputpath=\"expiryDate\"/>                              <set-param inputpath=\"reason\" outputpath=\"Reason\"/>                              <set-param inputpath=\"User_id\" outputpath=\"userId\"/>                              <set-param inputpath=\"creditLimit\" outputpath=\"creditLimit\"/>                              <set-param inputpath=\"availableCredit\" outputpath=\"availableCredit\"/>                              <set-param inputpath=\"serviceProvider\" outputpath=\"serviceProvider\"/>                              <set-param inputpath=\"billingAddress\" outputpath=\"billingAddress\"/>                              <set-param inputpath=\"cardProductName\" outputpath=\"cardProductName\"/>                              <set-param inputpath=\"secondaryCardHolder\" outputpath=\"secondaryCardHolder\"/>                              <set-param inputpath=\"withdrawlLimit\" outputpath=\"withdrawlLimit\"/>                              <set-param inputpath=\"account_id\" outputpath=\"accountNumber\"/>                              <set-param inputpath=\"accountName\" outputpath=\"accountName\"/>                              <set-param inputpath=\"maskedAccountNumber\" outputpath=\"maskedAccountNumber\"/>                              <set-param inputpath=\"maskedCardNumber\" outputpath=\"maskedCardNumber\"/>                            <set-param inputpath=\"isInternational\" outputpath=\"isInternational\"/>             <set-param inputpath=\"bankName\" outputpath=\"bankName\"/>        </map>          </map></mapper>",
    "oVisualMappingData" : "{\"nodeDataArray\":[{\"isGroup\":true,\"key\":\"response_out\",\"text\":\"Cards\",\"xy\":\"770 100\",\"__gohashid\":430},{\"isGroup\":true,\"key\":\"response_in\",\"text\":\"dbpRbLocalServicesJava (1.0).getActiveCards\",\"xy\":\"150 100\",\"__gohashid\":431}],\"linkDataArray\":[{\"from\":\"target\",\"to\":\"target:Cards\",\"fromPort\":\"target\",\"toPort\":\"target:Cards\",\"visible\":true,\"common\":false,\"__gohashid\":2271},{\"from\":\"target:Cards\",\"to\":\"target:Cards:fields\",\"fromPort\":\"target:Cards\",\"toPort\":\"target:Cards:fields\",\"visible\":true,\"common\":false,\"__gohashid\":2272},{\"from\":\"target:Cards:fields\",\"to\":\"target:Cards:accountId:\",\"fromPort\":\"target:Cards:fields\",\"toPort\":\"target:Cards:accountId:\",\"visible\":true,\"common\":false,\"__gohashid\":2273},{\"from\":\"target:Cards:fields\",\"to\":\"target:Cards:Action:\",\"fromPort\":\"target:Cards:fields\",\"toPort\":\"target:Cards:Action:\",\"visible\":true,\"common\":false,\"__gohashid\":2274},{\"from\":\"target:Cards:fields\",\"to\":\"target:Cards:cardHolderName:\",\"fromPort\":\"target:Cards:fields\",\"toPort\":\"target:Cards:cardHolderName:\",\"visible\":true,\"common\":false,\"__gohashid\":2275},{\"from\":\"target:Cards:fields\",\"to\":\"target:Cards:cardId:\",\"fromPort\":\"target:Cards:fields\",\"toPort\":\"target:Cards:cardId:\",\"visible\":true,\"common\":false,\"__gohashid\":2276},{\"from\":\"target:Cards:fields\",\"to\":\"target:Cards:cardNumber:\",\"fromPort\":\"target:Cards:fields\",\"toPort\":\"target:Cards:cardNumber:\",\"visible\":true,\"common\":false,\"__gohashid\":2277},{\"from\":\"target:Cards:fields\",\"to\":\"target:Cards:cardStatus:\",\"fromPort\":\"target:Cards:fields\",\"toPort\":\"target:Cards:cardStatus:\",\"visible\":true,\"common\":false,\"__gohashid\":2278},{\"from\":\"target:Cards:fields\",\"to\":\"target:Cards:cardType:\",\"fromPort\":\"target:Cards:fields\",\"toPort\":\"target:Cards:cardType:\",\"visible\":true,\"common\":false,\"__gohashid\":2279},{\"from\":\"target:Cards:fields\",\"to\":\"target:Cards:errmsg:\",\"fromPort\":\"target:Cards:fields\",\"toPort\":\"target:Cards:errmsg:\",\"visible\":true,\"common\":false,\"__gohashid\":2280},{\"from\":\"target:Cards:fields\",\"to\":\"target:Cards:expiryDate:\",\"fromPort\":\"target:Cards:fields\",\"toPort\":\"target:Cards:expiryDate:\",\"visible\":true,\"common\":false,\"__gohashid\":2281},{\"from\":\"target:Cards:fields\",\"to\":\"target:Cards:Reason:\",\"fromPort\":\"target:Cards:fields\",\"toPort\":\"target:Cards:Reason:\",\"visible\":true,\"common\":false,\"__gohashid\":2282},{\"from\":\"target:Cards:fields\",\"to\":\"target:Cards:success:\",\"fromPort\":\"target:Cards:fields\",\"toPort\":\"target:Cards:success:\",\"visible\":true,\"common\":false,\"__gohashid\":2283},{\"from\":\"target:Cards:fields\",\"to\":\"target:Cards:userId:\",\"fromPort\":\"target:Cards:fields\",\"toPort\":\"target:Cards:userId:\",\"visible\":true,\"common\":false,\"__gohashid\":2284},{\"from\":\"target:Cards:fields\",\"to\":\"target:Cards:userName:\",\"fromPort\":\"target:Cards:fields\",\"toPort\":\"target:Cards:userName:\",\"visible\":true,\"common\":false,\"__gohashid\":2285},{\"from\":\"target:Cards:fields\",\"to\":\"target:Cards:creditLimit:\",\"fromPort\":\"target:Cards:fields\",\"toPort\":\"target:Cards:creditLimit:\",\"visible\":true,\"common\":false,\"__gohashid\":2286},{\"from\":\"target:Cards:fields\",\"to\":\"target:Cards:availableCredit:\",\"fromPort\":\"target:Cards:fields\",\"toPort\":\"target:Cards:availableCredit:\",\"visible\":true,\"common\":false,\"__gohashid\":2287},{\"from\":\"target:Cards:fields\",\"to\":\"target:Cards:serviceProvider:\",\"fromPort\":\"target:Cards:fields\",\"toPort\":\"target:Cards:serviceProvider:\",\"visible\":true,\"common\":false,\"__gohashid\":2288},{\"from\":\"target:Cards:fields\",\"to\":\"target:Cards:billingAddress:\",\"fromPort\":\"target:Cards:fields\",\"toPort\":\"target:Cards:billingAddress:\",\"visible\":true,\"common\":false,\"__gohashid\":2289},{\"from\":\"target:Cards:fields\",\"to\":\"target:Cards:cardProductName:\",\"fromPort\":\"target:Cards:fields\",\"toPort\":\"target:Cards:cardProductName:\",\"visible\":true,\"common\":false,\"__gohashid\":2290},{\"from\":\"target:Cards:fields\",\"to\":\"target:Cards:secondaryCardHolder:\",\"fromPort\":\"target:Cards:fields\",\"toPort\":\"target:Cards:secondaryCardHolder:\",\"visible\":true,\"common\":false,\"__gohashid\":2291},{\"from\":\"target:Cards:fields\",\"to\":\"target:Cards:withdrawlLimit:\",\"fromPort\":\"target:Cards:fields\",\"toPort\":\"target:Cards:withdrawlLimit:\",\"visible\":true,\"common\":false,\"__gohashid\":2292},{\"from\":\"target:Cards:fields\",\"to\":\"target:Cards:accountNumber:\",\"fromPort\":\"target:Cards:fields\",\"toPort\":\"target:Cards:accountNumber:\",\"visible\":true,\"common\":false,\"__gohashid\":2293},{\"from\":\"target:Cards:fields\",\"to\":\"target:Cards:accountName:\",\"fromPort\":\"target:Cards:fields\",\"toPort\":\"target:Cards:accountName:\",\"visible\":true,\"common\":false,\"__gohashid\":2294},{\"from\":\"target:Cards:fields\",\"to\":\"target:Cards:maskedAccountNumber:\",\"fromPort\":\"target:Cards:fields\",\"toPort\":\"target:Cards:maskedAccountNumber:\",\"visible\":true,\"common\":false,\"__gohashid\":2295},{\"from\":\"target:Cards:fields\",\"to\":\"target:Cards:maskedCardNumber:\",\"fromPort\":\"target:Cards:fields\",\"toPort\":\"target:Cards:maskedCardNumber:\",\"visible\":true,\"common\":false,\"__gohashid\":2296},{\"from\":\"target:Cards:fields\",\"to\":\"target:Cards:isInternational:\",\"fromPort\":\"target:Cards:fields\",\"toPort\":\"target:Cards:isInternational:\",\"visible\":true,\"common\":false,\"__gohashid\":2297},{\"from\":\"target:Cards:fields\",\"to\":\"target:Cards:ids:\",\"fromPort\":\"target:Cards:fields\",\"toPort\":\"target:Cards:ids:\",\"visible\":true,\"common\":false,\"__gohashid\":2298},{\"from\":\"target:Cards:fields\",\"to\":\"target:Cards:Destinations:\",\"fromPort\":\"target:Cards:fields\",\"toPort\":\"target:Cards:Destinations:\",\"visible\":true,\"common\":false,\"__gohashid\":2299},{\"from\":\"target:Cards:fields\",\"to\":\"target:Cards:Cards:\",\"fromPort\":\"target:Cards:fields\",\"toPort\":\"target:Cards:Cards:\",\"visible\":true,\"common\":false,\"__gohashid\":2300},{\"from\":\"target:Cards:fields\",\"to\":\"target:Cards:Channel_id:\",\"fromPort\":\"target:Cards:fields\",\"toPort\":\"target:Cards:Channel_id:\",\"visible\":true,\"common\":false,\"__gohashid\":2301},{\"from\":\"target:Cards:fields\",\"to\":\"target:Cards:StartDate:\",\"fromPort\":\"target:Cards:fields\",\"toPort\":\"target:Cards:StartDate:\",\"visible\":true,\"common\":false,\"__gohashid\":2302},{\"from\":\"target:Cards:fields\",\"to\":\"target:Cards:EndDate:\",\"fromPort\":\"target:Cards:fields\",\"toPort\":\"target:Cards:EndDate:\",\"visible\":true,\"common\":false,\"__gohashid\":2303},{\"from\":\"target:Cards:fields\",\"to\":\"target:Cards:additionNotes:\",\"fromPort\":\"target:Cards:fields\",\"toPort\":\"target:Cards:additionNotes:\",\"visible\":true,\"common\":false,\"__gohashid\":2304},{\"from\":\"target:Cards:fields\",\"to\":\"target:Cards:phonenumber:\",\"fromPort\":\"target:Cards:fields\",\"toPort\":\"target:Cards:phonenumber:\",\"visible\":true,\"common\":false,\"__gohashid\":2305},{\"from\":\"target:Cards:fields\",\"to\":\"target:Cards:request_id:\",\"fromPort\":\"target:Cards:fields\",\"toPort\":\"target:Cards:request_id:\",\"visible\":true,\"common\":false,\"__gohashid\":2306},{\"from\":\"target:Cards:fields\",\"to\":\"target:Cards:bankName:\",\"fromPort\":\"target:Cards:fields\",\"toPort\":\"target:Cards:bankName:\",\"visible\":true,\"common\":false,\"__gohashid\":2307},{\"from\":\"target:Cards:fields\",\"to\":\"target:Cards:AccountType:\",\"fromPort\":\"target:Cards:fields\",\"toPort\":\"target:Cards:AccountType:\",\"visible\":true,\"common\":false,\"__gohashid\":2308},{\"from\":\"target:Cards:fields\",\"to\":\"target:Cards:RequestCode:\",\"fromPort\":\"target:Cards:fields\",\"toPort\":\"target:Cards:RequestCode:\",\"visible\":true,\"common\":false,\"__gohashid\":2309},{\"from\":\"target:Cards:fields\",\"to\":\"target:Cards:RequestReason:\",\"fromPort\":\"target:Cards:fields\",\"toPort\":\"target:Cards:RequestReason:\",\"visible\":true,\"common\":false,\"__gohashid\":2310},{\"from\":\"target:Cards:fields\",\"to\":\"target:Cards:Channel:\",\"fromPort\":\"target:Cards:fields\",\"toPort\":\"target:Cards:Channel:\",\"visible\":true,\"common\":false,\"__gohashid\":2311},{\"from\":\"target:Cards:fields\",\"to\":\"target:Cards:Address_id:\",\"fromPort\":\"target:Cards:fields\",\"toPort\":\"target:Cards:Address_id:\",\"visible\":true,\"common\":false,\"__gohashid\":2312},{\"from\":\"target:Cards:fields\",\"to\":\"target:Cards:communication_id:\",\"fromPort\":\"target:Cards:fields\",\"toPort\":\"target:Cards:communication_id:\",\"visible\":true,\"common\":false,\"__gohashid\":2313},{\"from\":\"target:Cards:fields\",\"to\":\"target:Cards:CardNumbers:\",\"fromPort\":\"target:Cards:fields\",\"toPort\":\"target:Cards:CardNumbers:\",\"visible\":true,\"common\":false,\"__gohashid\":2314},{\"from\":\"target:Cards:fields\",\"to\":\"target:Cards:lastNinetyDays:\",\"fromPort\":\"target:Cards:fields\",\"toPort\":\"target:Cards:lastNinetyDays:\",\"visible\":true,\"common\":false,\"__gohashid\":2315},{\"from\":\"source\",\"to\":\"source:parameters\",\"fromPort\":\"source\",\"toPort\":\"source:parameters\",\"visible\":true,\"common\":false,\"__gohashid\":2316},{\"from\":\"source:parameters\",\"to\":\"source:errmsg:\",\"fromPort\":\"source:parameters\",\"toPort\":\"source:errmsg:\",\"visible\":true,\"common\":false,\"__gohashid\":2317},{\"from\":\"source:parameters\",\"to\":\"source:success:\",\"fromPort\":\"source:parameters\",\"toPort\":\"source:success:\",\"visible\":true,\"common\":false,\"__gohashid\":2318}],\"blockCount\":{\"variableCount\":0},\"variableMap\":{},\"xmlMappingOverride\":true}",
    "applyCommonMapping" : false,
    "applyRequestCommonMapping" : true,
    "applyResponseCommonMapping" : false,
    "backendMeta" : {
      "serviceName" : "dbpRbLocalServicesJava",
      "serviceVersion" : "1.0",
      "operationName" : "getActiveCards"
    },
    "relationshipHierarchyMapping" : {
      "children" : [ ],
      "name" : "Cards",
      "actions" : { },
      "selected" : true
    },
    "requestXmlMappingOverride" : false,
    "responseXmlMappingOverride" : true
  }
}