{
  "customCode" : {
    "requestProcessorName" : "com.kony.dbputilities.objpreprocessors.MFAPreProcessor"
  },
  "operationConfig" : {
    "name" : "createBulkBillPay1765",
    "type" : "MappedToBackend",
    "cachable" : false,
    "smsEnabled" : false,
    "security" : "authorized_app_user",
    "responseEncoding" : "UTF-8",
    "httpMethod" : "GET",
    "decodeResponseBody" : false,
    "iMapping" : "<?xml version=\"1.0\" encoding=\"UTF-8\" standalone=\"yes\"?><mapper xmlns=\"http://www.kony.com/ns/mapper\"><map inputpath=\"request_in\" outputpath=\"request_out\"><set-param inputpath=\"bulkPayString\" outputpath=\"bulkPayString\"/><set-param inputpath=\"MFAAttributes\" outputpath=\"MFAAttributes\"/></map></mapper>",
    "oMapping" : "<?xml version=\"1.0\" encoding=\"UTF-8\" standalone=\"yes\"?><mapper xmlns=\"http://www.kony.com/ns/mapper\">    <map inputpath=\"response_in\" outputpath=\"response_out\">        <map inputpath=\"transaction\" outputpath=\"Transactions\">            <set-param inputpath=\"amount\" outputpath=\"amount\"/>            <set-param inputpath=\"Bill_id\" outputpath=\"billid\"/>            <set-param inputpath=\"deliverBy\" outputpath=\"deliverBy\"/>            <set-param inputpath=\"fromAccountBalance\" outputpath=\"fromAccountBalance\"/>            <set-param inputpath=\"fromAccountName\" outputpath=\"fromAccountName\"/>            <set-param inputpath=\"isScheduled\" outputpath=\"isScheduled\"/>            <set-param inputpath=\"payeeAddressLine1\" outputpath=\"payeeAddressLine1\"/>            <set-param inputpath=\"Payee_id\" outputpath=\"payeeId\"/>            <set-param inputpath=\"payeeName\" outputpath=\"payeeName\"/>            <set-param inputpath=\"payeeNickName\" outputpath=\"payeeNickName\"/>            <set-param inputpath=\"scheduledDate\" outputpath=\"scheduledDate\"/>            <set-param inputpath=\"transactionDate\" outputpath=\"transactionDate\"/>            <set-param inputpath=\"Id\" outputpath=\"transactionId\"/>        </map>\t<set-param inputpath=\"MFAAttributes\" outputpath=\"MFAAttributes\"/>    <set-param inputpath=\"errmsg\" outputpath=\"errmsg\"/>\t  </map></mapper>",
    "oVisualMappingData" : "{\"nodeDataArray\":[{\"isGroup\":true,\"key\":\"response_out\",\"text\":\"Transactions\",\"xy\":\"770 100\",\"__gohashid\":91460},{\"isGroup\":true,\"key\":\"response_in\",\"text\":\"dbpRbLocalServicesJava (1.0).createBulkBillPay\",\"xy\":\"150 100\",\"__gohashid\":91461}],\"linkDataArray\":[{\"from\":\"target\",\"to\":\"target:Transactions\",\"fromPort\":\"target\",\"toPort\":\"target:Transactions\",\"visible\":true,\"common\":false,\"__gohashid\":91728},{\"from\":\"target:Transactions\",\"to\":\"target:Transactions:fields\",\"fromPort\":\"target:Transactions\",\"toPort\":\"target:Transactions:fields\",\"visible\":true,\"common\":false,\"__gohashid\":91729},{\"from\":\"target:Transactions:fields\",\"to\":\"target:Transactions:accountID:\",\"fromPort\":\"target:Transactions:fields\",\"toPort\":\"target:Transactions:accountID:\",\"visible\":true,\"common\":false,\"__gohashid\":91730},{\"from\":\"target:Transactions:fields\",\"to\":\"target:Transactions:accountNumber:\",\"fromPort\":\"target:Transactions:fields\",\"toPort\":\"target:Transactions:accountNumber:\",\"visible\":true,\"common\":false,\"__gohashid\":91731},{\"from\":\"target:Transactions:fields\",\"to\":\"target:Transactions:amount:\",\"fromPort\":\"target:Transactions:fields\",\"toPort\":\"target:Transactions:amount:\",\"visible\":true,\"common\":false,\"__gohashid\":91732},{\"from\":\"target:Transactions:fields\",\"to\":\"target:Transactions:amountTransferedTillNow:\",\"fromPort\":\"target:Transactions:fields\",\"toPort\":\"target:Transactions:amountTransferedTillNow:\",\"visible\":true,\"common\":false,\"__gohashid\":91733},{\"from\":\"target:Transactions:fields\",\"to\":\"target:Transactions:authenticationRequired:\",\"fromPort\":\"target:Transactions:fields\",\"toPort\":\"target:Transactions:authenticationRequired:\",\"visible\":true,\"common\":false,\"__gohashid\":91734},{\"from\":\"target:Transactions:fields\",\"to\":\"target:Transactions:billCategory:\",\"fromPort\":\"target:Transactions:fields\",\"toPort\":\"target:Transactions:billCategory:\",\"visible\":true,\"common\":false,\"__gohashid\":91735},{\"from\":\"target:Transactions:fields\",\"to\":\"target:Transactions:billCategoryId:\",\"fromPort\":\"target:Transactions:fields\",\"toPort\":\"target:Transactions:billCategoryId:\",\"visible\":true,\"common\":false,\"__gohashid\":91736},{\"from\":\"target:Transactions:fields\",\"to\":\"target:Transactions:billDueAmount:\",\"fromPort\":\"target:Transactions:fields\",\"toPort\":\"target:Transactions:billDueAmount:\",\"visible\":true,\"common\":false,\"__gohashid\":91737},{\"from\":\"target:Transactions:fields\",\"to\":\"target:Transactions:billDueDate:\",\"fromPort\":\"target:Transactions:fields\",\"toPort\":\"target:Transactions:billDueDate:\",\"visible\":true,\"common\":false,\"__gohashid\":91738},{\"from\":\"target:Transactions:fields\",\"to\":\"target:Transactions:billerCategoryName:\",\"fromPort\":\"target:Transactions:fields\",\"toPort\":\"target:Transactions:billerCategoryName:\",\"visible\":true,\"common\":false,\"__gohashid\":91739},{\"from\":\"target:Transactions:fields\",\"to\":\"target:Transactions:billGeneratedDate:\",\"fromPort\":\"target:Transactions:fields\",\"toPort\":\"target:Transactions:billGeneratedDate:\",\"visible\":true,\"common\":false,\"__gohashid\":91740},{\"from\":\"target:Transactions:fields\",\"to\":\"target:Transactions:billid:\",\"fromPort\":\"target:Transactions:fields\",\"toPort\":\"target:Transactions:billid:\",\"visible\":true,\"common\":false,\"__gohashid\":91741},{\"from\":\"target:Transactions:fields\",\"to\":\"target:Transactions:billPaidAmount:\",\"fromPort\":\"target:Transactions:fields\",\"toPort\":\"target:Transactions:billPaidAmount:\",\"visible\":true,\"common\":false,\"__gohashid\":91742},{\"from\":\"target:Transactions:fields\",\"to\":\"target:Transactions:billPaidDate:\",\"fromPort\":\"target:Transactions:fields\",\"toPort\":\"target:Transactions:billPaidDate:\",\"visible\":true,\"common\":false,\"__gohashid\":91743},{\"from\":\"target:Transactions:fields\",\"to\":\"target:Transactions:bulkPayString:\",\"fromPort\":\"target:Transactions:fields\",\"toPort\":\"target:Transactions:bulkPayString:\",\"visible\":true,\"common\":false,\"__gohashid\":91744},{\"from\":\"target:Transactions:fields\",\"to\":\"target:Transactions:cashlessEmail:\",\"fromPort\":\"target:Transactions:fields\",\"toPort\":\"target:Transactions:cashlessEmail:\",\"visible\":true,\"common\":false,\"__gohashid\":91745},{\"from\":\"target:Transactions:fields\",\"to\":\"target:Transactions:cashlessMode:\",\"fromPort\":\"target:Transactions:fields\",\"toPort\":\"target:Transactions:cashlessMode:\",\"visible\":true,\"common\":false,\"__gohashid\":91746},{\"from\":\"target:Transactions:fields\",\"to\":\"target:Transactions:cashlessOTP:\",\"fromPort\":\"target:Transactions:fields\",\"toPort\":\"target:Transactions:cashlessOTP:\",\"visible\":true,\"common\":false,\"__gohashid\":91747},{\"from\":\"target:Transactions:fields\",\"to\":\"target:Transactions:cashlessOTPValidDate:\",\"fromPort\":\"target:Transactions:fields\",\"toPort\":\"target:Transactions:cashlessOTPValidDate:\",\"visible\":true,\"common\":false,\"__gohashid\":91748},{\"from\":\"target:Transactions:fields\",\"to\":\"target:Transactions:cashlessPersonName:\",\"fromPort\":\"target:Transactions:fields\",\"toPort\":\"target:Transactions:cashlessPersonName:\",\"visible\":true,\"common\":false,\"__gohashid\":91749},{\"from\":\"target:Transactions:fields\",\"to\":\"target:Transactions:cashlessPhone:\",\"fromPort\":\"target:Transactions:fields\",\"toPort\":\"target:Transactions:cashlessPhone:\",\"visible\":true,\"common\":false,\"__gohashid\":91750},{\"from\":\"target:Transactions:fields\",\"to\":\"target:Transactions:cashlessPin:\",\"fromPort\":\"target:Transactions:fields\",\"toPort\":\"target:Transactions:cashlessPin:\",\"visible\":true,\"common\":false,\"__gohashid\":91751},{\"from\":\"target:Transactions:fields\",\"to\":\"target:Transactions:cashlessSecurityCode:\",\"fromPort\":\"target:Transactions:fields\",\"toPort\":\"target:Transactions:cashlessSecurityCode:\",\"visible\":true,\"common\":false,\"__gohashid\":91752},{\"from\":\"target:Transactions:fields\",\"to\":\"target:Transactions:cashWithdrawalTransactionStatus:\",\"fromPort\":\"target:Transactions:fields\",\"toPort\":\"target:Transactions:cashWithdrawalTransactionStatus:\",\"visible\":true,\"common\":false,\"__gohashid\":91753},{\"from\":\"target:Transactions:fields\",\"to\":\"target:Transactions:category:\",\"fromPort\":\"target:Transactions:fields\",\"toPort\":\"target:Transactions:category:\",\"visible\":true,\"common\":false,\"__gohashid\":91754},{\"from\":\"target:Transactions:fields\",\"to\":\"target:Transactions:checkImage:\",\"fromPort\":\"target:Transactions:fields\",\"toPort\":\"target:Transactions:checkImage:\",\"visible\":true,\"common\":false,\"__gohashid\":91755},{\"from\":\"target:Transactions:fields\",\"to\":\"target:Transactions:checkImageBack:\",\"fromPort\":\"target:Transactions:fields\",\"toPort\":\"target:Transactions:checkImageBack:\",\"visible\":true,\"common\":false,\"__gohashid\":91756},{\"from\":\"target:Transactions:fields\",\"to\":\"target:Transactions:checkNumber:\",\"fromPort\":\"target:Transactions:fields\",\"toPort\":\"target:Transactions:checkNumber:\",\"visible\":true,\"common\":false,\"__gohashid\":91757},{\"from\":\"target:Transactions:fields\",\"to\":\"target:Transactions:deliverBy:\",\"fromPort\":\"target:Transactions:fields\",\"toPort\":\"target:Transactions:deliverBy:\",\"visible\":true,\"common\":false,\"__gohashid\":91758},{\"from\":\"target:Transactions:fields\",\"to\":\"target:Transactions:description:\",\"fromPort\":\"target:Transactions:fields\",\"toPort\":\"target:Transactions:description:\",\"visible\":true,\"common\":false,\"__gohashid\":91759},{\"from\":\"target:Transactions:fields\",\"to\":\"target:Transactions:eBillEnable:\",\"fromPort\":\"target:Transactions:fields\",\"toPort\":\"target:Transactions:eBillEnable:\",\"visible\":true,\"common\":false,\"__gohashid\":91760},{\"from\":\"target:Transactions:fields\",\"to\":\"target:Transactions:eBillSupport:\",\"fromPort\":\"target:Transactions:fields\",\"toPort\":\"target:Transactions:eBillSupport:\",\"visible\":true,\"common\":false,\"__gohashid\":91761},{\"from\":\"target:Transactions:fields\",\"to\":\"target:Transactions:ebillURL:\",\"fromPort\":\"target:Transactions:fields\",\"toPort\":\"target:Transactions:ebillURL:\",\"visible\":true,\"common\":false,\"__gohashid\":91762},{\"from\":\"target:Transactions:fields\",\"to\":\"target:Transactions:errmsg:\",\"fromPort\":\"target:Transactions:fields\",\"toPort\":\"target:Transactions:errmsg:\",\"visible\":true,\"common\":false,\"__gohashid\":91763},{\"from\":\"target:Transactions:fields\",\"to\":\"target:Transactions:ExternalAccountNumber:\",\"fromPort\":\"target:Transactions:fields\",\"toPort\":\"target:Transactions:ExternalAccountNumber:\",\"visible\":true,\"common\":false,\"__gohashid\":91764},{\"from\":\"target:Transactions:fields\",\"to\":\"target:Transactions:firstDeposit:\",\"fromPort\":\"target:Transactions:fields\",\"toPort\":\"target:Transactions:firstDeposit:\",\"visible\":true,\"common\":false,\"__gohashid\":91765},{\"from\":\"target:Transactions:fields\",\"to\":\"target:Transactions:firstRecordNumber:\",\"fromPort\":\"target:Transactions:fields\",\"toPort\":\"target:Transactions:firstRecordNumber:\",\"visible\":true,\"common\":false,\"__gohashid\":91766},{\"from\":\"target:Transactions:fields\",\"to\":\"target:Transactions:frequencyEndDate:\",\"fromPort\":\"target:Transactions:fields\",\"toPort\":\"target:Transactions:frequencyEndDate:\",\"visible\":true,\"common\":false,\"__gohashid\":91767},{\"from\":\"target:Transactions:fields\",\"to\":\"target:Transactions:frequencyStartDate:\",\"fromPort\":\"target:Transactions:fields\",\"toPort\":\"target:Transactions:frequencyStartDate:\",\"visible\":true,\"common\":false,\"__gohashid\":91768},{\"from\":\"target:Transactions:fields\",\"to\":\"target:Transactions:frequencyType:\",\"fromPort\":\"target:Transactions:fields\",\"toPort\":\"target:Transactions:frequencyType:\",\"visible\":true,\"common\":false,\"__gohashid\":91769},{\"from\":\"target:Transactions:fields\",\"to\":\"target:Transactions:fromAccountBalance:\",\"fromPort\":\"target:Transactions:fields\",\"toPort\":\"target:Transactions:fromAccountBalance:\",\"visible\":true,\"common\":false,\"__gohashid\":91770},{\"from\":\"target:Transactions:fields\",\"to\":\"target:Transactions:fromAccountName:\",\"fromPort\":\"target:Transactions:fields\",\"toPort\":\"target:Transactions:fromAccountName:\",\"visible\":true,\"common\":false,\"__gohashid\":91771},{\"from\":\"target:Transactions:fields\",\"to\":\"target:Transactions:fromAccountNumber:\",\"fromPort\":\"target:Transactions:fields\",\"toPort\":\"target:Transactions:fromAccountNumber:\",\"visible\":true,\"common\":false,\"__gohashid\":91772},{\"from\":\"target:Transactions:fields\",\"to\":\"target:Transactions:fromAccountType:\",\"fromPort\":\"target:Transactions:fields\",\"toPort\":\"target:Transactions:fromAccountType:\",\"visible\":true,\"common\":false,\"__gohashid\":91773},{\"from\":\"target:Transactions:fields\",\"to\":\"target:Transactions:fromCheckNumber:\",\"fromPort\":\"target:Transactions:fields\",\"toPort\":\"target:Transactions:fromCheckNumber:\",\"visible\":true,\"common\":false,\"__gohashid\":91774},{\"from\":\"target:Transactions:fields\",\"to\":\"target:Transactions:fromNickName:\",\"fromPort\":\"target:Transactions:fields\",\"toPort\":\"target:Transactions:fromNickName:\",\"visible\":true,\"common\":false,\"__gohashid\":91775},{\"from\":\"target:Transactions:fields\",\"to\":\"target:Transactions:hasDepositImage:\",\"fromPort\":\"target:Transactions:fields\",\"toPort\":\"target:Transactions:hasDepositImage:\",\"visible\":true,\"common\":false,\"__gohashid\":91776},{\"from\":\"target:Transactions:fields\",\"to\":\"target:Transactions:isScheduled:\",\"fromPort\":\"target:Transactions:fields\",\"toPort\":\"target:Transactions:isScheduled:\",\"visible\":true,\"common\":false,\"__gohashid\":91777},{\"from\":\"target:Transactions:fields\",\"to\":\"target:Transactions:lastRecordNumber:\",\"fromPort\":\"target:Transactions:fields\",\"toPort\":\"target:Transactions:lastRecordNumber:\",\"visible\":true,\"common\":false,\"__gohashid\":91778},{\"from\":\"target:Transactions:fields\",\"to\":\"target:Transactions:limit:\",\"fromPort\":\"target:Transactions:fields\",\"toPort\":\"target:Transactions:limit:\",\"visible\":true,\"common\":false,\"__gohashid\":91779},{\"from\":\"target:Transactions:fields\",\"to\":\"target:Transactions:numberOfRecurrences:\",\"fromPort\":\"target:Transactions:fields\",\"toPort\":\"target:Transactions:numberOfRecurrences:\",\"visible\":true,\"common\":false,\"__gohashid\":91780},{\"from\":\"target:Transactions:fields\",\"to\":\"target:Transactions:offset:\",\"fromPort\":\"target:Transactions:fields\",\"toPort\":\"target:Transactions:offset:\",\"visible\":true,\"common\":false,\"__gohashid\":91781},{\"from\":\"target:Transactions:fields\",\"to\":\"target:Transactions:order:\",\"fromPort\":\"target:Transactions:fields\",\"toPort\":\"target:Transactions:order:\",\"visible\":true,\"common\":false,\"__gohashid\":91782},{\"from\":\"target:Transactions:fields\",\"to\":\"target:Transactions:otp:\",\"fromPort\":\"target:Transactions:fields\",\"toPort\":\"target:Transactions:otp:\",\"visible\":true,\"common\":false,\"__gohashid\":91783},{\"from\":\"target:Transactions:fields\",\"to\":\"target:Transactions:p2pContact:\",\"fromPort\":\"target:Transactions:fields\",\"toPort\":\"target:Transactions:p2pContact:\",\"visible\":true,\"common\":false,\"__gohashid\":91784},{\"from\":\"target:Transactions:fields\",\"to\":\"target:Transactions:p2pRequiredDate:\",\"fromPort\":\"target:Transactions:fields\",\"toPort\":\"target:Transactions:p2pRequiredDate:\",\"visible\":true,\"common\":false,\"__gohashid\":91785},{\"from\":\"target:Transactions:fields\",\"to\":\"target:Transactions:payeeAccountNumber:\",\"fromPort\":\"target:Transactions:fields\",\"toPort\":\"target:Transactions:payeeAccountNumber:\",\"visible\":true,\"common\":false,\"__gohashid\":91786},{\"from\":\"target:Transactions:fields\",\"to\":\"target:Transactions:payeeAddressLine1:\",\"fromPort\":\"target:Transactions:fields\",\"toPort\":\"target:Transactions:payeeAddressLine1:\",\"visible\":true,\"common\":false,\"__gohashid\":91787},{\"from\":\"target:Transactions:fields\",\"to\":\"target:Transactions:payeeId:\",\"fromPort\":\"target:Transactions:fields\",\"toPort\":\"target:Transactions:payeeId:\",\"visible\":true,\"common\":false,\"__gohashid\":91788},{\"from\":\"target:Transactions:fields\",\"to\":\"target:Transactions:payeeName:\",\"fromPort\":\"target:Transactions:fields\",\"toPort\":\"target:Transactions:payeeName:\",\"visible\":true,\"common\":false,\"__gohashid\":91789},{\"from\":\"target:Transactions:fields\",\"to\":\"target:Transactions:payeeNickName:\",\"fromPort\":\"target:Transactions:fields\",\"toPort\":\"target:Transactions:payeeNickName:\",\"visible\":true,\"common\":false,\"__gohashid\":91790},{\"from\":\"target:Transactions:fields\",\"to\":\"target:Transactions:payoffFlag:\",\"fromPort\":\"target:Transactions:fields\",\"toPort\":\"target:Transactions:payoffFlag:\",\"visible\":true,\"common\":false,\"__gohashid\":91791},{\"from\":\"target:Transactions:fields\",\"to\":\"target:Transactions:payPersonEmail:\",\"fromPort\":\"target:Transactions:fields\",\"toPort\":\"target:Transactions:payPersonEmail:\",\"visible\":true,\"common\":false,\"__gohashid\":91792},{\"from\":\"target:Transactions:fields\",\"to\":\"target:Transactions:payPersonName:\",\"fromPort\":\"target:Transactions:fields\",\"toPort\":\"target:Transactions:payPersonName:\",\"visible\":true,\"common\":false,\"__gohashid\":91793},{\"from\":\"target:Transactions:fields\",\"to\":\"target:Transactions:payPersonPhone:\",\"fromPort\":\"target:Transactions:fields\",\"toPort\":\"target:Transactions:payPersonPhone:\",\"visible\":true,\"common\":false,\"__gohashid\":91794},{\"from\":\"target:Transactions:fields\",\"to\":\"target:Transactions:penaltyFlag:\",\"fromPort\":\"target:Transactions:fields\",\"toPort\":\"target:Transactions:penaltyFlag:\",\"visible\":true,\"common\":false,\"__gohashid\":91795},{\"from\":\"target:Transactions:fields\",\"to\":\"target:Transactions:personId:\",\"fromPort\":\"target:Transactions:fields\",\"toPort\":\"target:Transactions:personId:\",\"visible\":true,\"common\":false,\"__gohashid\":91796},{\"from\":\"target:Transactions:fields\",\"to\":\"target:Transactions:recurrenceDesc:\",\"fromPort\":\"target:Transactions:fields\",\"toPort\":\"target:Transactions:recurrenceDesc:\",\"visible\":true,\"common\":false,\"__gohashid\":91797},{\"from\":\"target:Transactions:fields\",\"to\":\"target:Transactions:referenceId:\",\"fromPort\":\"target:Transactions:fields\",\"toPort\":\"target:Transactions:referenceId:\",\"visible\":true,\"common\":false,\"__gohashid\":91798},{\"from\":\"target:Transactions:fields\",\"to\":\"target:Transactions:scheduledDate:\",\"fromPort\":\"target:Transactions:fields\",\"toPort\":\"target:Transactions:scheduledDate:\",\"visible\":true,\"common\":false,\"__gohashid\":91799},{\"from\":\"target:Transactions:fields\",\"to\":\"target:Transactions:searchAmount:\",\"fromPort\":\"target:Transactions:fields\",\"toPort\":\"target:Transactions:searchAmount:\",\"visible\":true,\"common\":false,\"__gohashid\":91800},{\"from\":\"target:Transactions:fields\",\"to\":\"target:Transactions:searchDateRange:\",\"fromPort\":\"target:Transactions:fields\",\"toPort\":\"target:Transactions:searchDateRange:\",\"visible\":true,\"common\":false,\"__gohashid\":91801},{\"from\":\"target:Transactions:fields\",\"to\":\"target:Transactions:searchDescription:\",\"fromPort\":\"target:Transactions:fields\",\"toPort\":\"target:Transactions:searchDescription:\",\"visible\":true,\"common\":false,\"__gohashid\":91802},{\"from\":\"target:Transactions:fields\",\"to\":\"target:Transactions:searchEndDate:\",\"fromPort\":\"target:Transactions:fields\",\"toPort\":\"target:Transactions:searchEndDate:\",\"visible\":true,\"common\":false,\"__gohashid\":91803},{\"from\":\"target:Transactions:fields\",\"to\":\"target:Transactions:searchMaxAmount:\",\"fromPort\":\"target:Transactions:fields\",\"toPort\":\"target:Transactions:searchMaxAmount:\",\"visible\":true,\"common\":false,\"__gohashid\":91804},{\"from\":\"target:Transactions:fields\",\"to\":\"target:Transactions:searchMinAmount:\",\"fromPort\":\"target:Transactions:fields\",\"toPort\":\"target:Transactions:searchMinAmount:\",\"visible\":true,\"common\":false,\"__gohashid\":91805},{\"from\":\"target:Transactions:fields\",\"to\":\"target:Transactions:searchStartDate:\",\"fromPort\":\"target:Transactions:fields\",\"toPort\":\"target:Transactions:searchStartDate:\",\"visible\":true,\"common\":false,\"__gohashid\":91806},{\"from\":\"target:Transactions:fields\",\"to\":\"target:Transactions:searchTransactionType:\",\"fromPort\":\"target:Transactions:fields\",\"toPort\":\"target:Transactions:searchTransactionType:\",\"visible\":true,\"common\":false,\"__gohashid\":91807},{\"from\":\"target:Transactions:fields\",\"to\":\"target:Transactions:searchType:\",\"fromPort\":\"target:Transactions:fields\",\"toPort\":\"target:Transactions:searchType:\",\"visible\":true,\"common\":false,\"__gohashid\":91808},{\"from\":\"target:Transactions:fields\",\"to\":\"target:Transactions:secondaryEmail:\",\"fromPort\":\"target:Transactions:fields\",\"toPort\":\"target:Transactions:secondaryEmail:\",\"visible\":true,\"common\":false,\"__gohashid\":91809},{\"from\":\"target:Transactions:fields\",\"to\":\"target:Transactions:secondaryEmail2:\",\"fromPort\":\"target:Transactions:fields\",\"toPort\":\"target:Transactions:secondaryEmail2:\",\"visible\":true,\"common\":false,\"__gohashid\":91810},{\"from\":\"target:Transactions:fields\",\"to\":\"target:Transactions:secondaryPhoneNumber2:\",\"fromPort\":\"target:Transactions:fields\",\"toPort\":\"target:Transactions:secondaryPhoneNumber2:\",\"visible\":true,\"common\":false,\"__gohashid\":91811},{\"from\":\"target:Transactions:fields\",\"to\":\"target:Transactions:secondDeposit:\",\"fromPort\":\"target:Transactions:fields\",\"toPort\":\"target:Transactions:secondDeposit:\",\"visible\":true,\"common\":false,\"__gohashid\":91812},{\"from\":\"target:Transactions:fields\",\"to\":\"target:Transactions:secondoryPhoneNumber:\",\"fromPort\":\"target:Transactions:fields\",\"toPort\":\"target:Transactions:secondoryPhoneNumber:\",\"visible\":true,\"common\":false,\"__gohashid\":91813},{\"from\":\"target:Transactions:fields\",\"to\":\"target:Transactions:sortBy:\",\"fromPort\":\"target:Transactions:fields\",\"toPort\":\"target:Transactions:sortBy:\",\"visible\":true,\"common\":false,\"__gohashid\":91814},{\"from\":\"target:Transactions:fields\",\"to\":\"target:Transactions:statusDescription:\",\"fromPort\":\"target:Transactions:fields\",\"toPort\":\"target:Transactions:statusDescription:\",\"visible\":true,\"common\":false,\"__gohashid\":91815},{\"from\":\"target:Transactions:fields\",\"to\":\"target:Transactions:success:\",\"fromPort\":\"target:Transactions:fields\",\"toPort\":\"target:Transactions:success:\",\"visible\":true,\"common\":false,\"__gohashid\":91816},{\"from\":\"target:Transactions:fields\",\"to\":\"target:Transactions:toAccountName:\",\"fromPort\":\"target:Transactions:fields\",\"toPort\":\"target:Transactions:toAccountName:\",\"visible\":true,\"common\":false,\"__gohashid\":91817},{\"from\":\"target:Transactions:fields\",\"to\":\"target:Transactions:toAccountNumber:\",\"fromPort\":\"target:Transactions:fields\",\"toPort\":\"target:Transactions:toAccountNumber:\",\"visible\":true,\"common\":false,\"__gohashid\":91818},{\"from\":\"target:Transactions:fields\",\"to\":\"target:Transactions:toAccountType:\",\"fromPort\":\"target:Transactions:fields\",\"toPort\":\"target:Transactions:toAccountType:\",\"visible\":true,\"common\":false,\"__gohashid\":91819},{\"from\":\"target:Transactions:fields\",\"to\":\"target:Transactions:toCheckNumber:\",\"fromPort\":\"target:Transactions:fields\",\"toPort\":\"target:Transactions:toCheckNumber:\",\"visible\":true,\"common\":false,\"__gohashid\":91820},{\"from\":\"target:Transactions:fields\",\"to\":\"target:Transactions:totalAmount:\",\"fromPort\":\"target:Transactions:fields\",\"toPort\":\"target:Transactions:totalAmount:\",\"visible\":true,\"common\":false,\"__gohashid\":91821},{\"from\":\"target:Transactions:fields\",\"to\":\"target:Transactions:transactionComments:\",\"fromPort\":\"target:Transactions:fields\",\"toPort\":\"target:Transactions:transactionComments:\",\"visible\":true,\"common\":false,\"__gohashid\":91822},{\"from\":\"target:Transactions:fields\",\"to\":\"target:Transactions:transactionDate:\",\"fromPort\":\"target:Transactions:fields\",\"toPort\":\"target:Transactions:transactionDate:\",\"visible\":true,\"common\":false,\"__gohashid\":91823},{\"from\":\"target:Transactions:fields\",\"to\":\"target:Transactions:transactionId:\",\"fromPort\":\"target:Transactions:fields\",\"toPort\":\"target:Transactions:transactionId:\",\"visible\":true,\"common\":false,\"__gohashid\":91824},{\"from\":\"target:Transactions:fields\",\"to\":\"target:Transactions:transactionsNotes:\",\"fromPort\":\"target:Transactions:fields\",\"toPort\":\"target:Transactions:transactionsNotes:\",\"visible\":true,\"common\":false,\"__gohashid\":91825},{\"from\":\"target:Transactions:fields\",\"to\":\"target:Transactions:transactionType:\",\"fromPort\":\"target:Transactions:fields\",\"toPort\":\"target:Transactions:transactionType:\",\"visible\":true,\"common\":false,\"__gohashid\":91826},{\"from\":\"target:Transactions:fields\",\"to\":\"target:Transactions:validDate:\",\"fromPort\":\"target:Transactions:fields\",\"toPort\":\"target:Transactions:validDate:\",\"visible\":true,\"common\":false,\"__gohashid\":91827},{\"from\":\"target:Transactions:fields\",\"to\":\"target:Transactions:viewReportLink:\",\"fromPort\":\"target:Transactions:fields\",\"toPort\":\"target:Transactions:viewReportLink:\",\"visible\":true,\"common\":false,\"__gohashid\":91828},{\"from\":\"target:Transactions:fields\",\"to\":\"target:Transactions:overdraft:\",\"fromPort\":\"target:Transactions:fields\",\"toPort\":\"target:Transactions:overdraft:\",\"visible\":true,\"common\":false,\"__gohashid\":91829},{\"from\":\"target:Transactions:fields\",\"to\":\"target:Transactions:isPaypersonDeleted:\",\"fromPort\":\"target:Transactions:fields\",\"toPort\":\"target:Transactions:isPaypersonDeleted:\",\"visible\":true,\"common\":false,\"__gohashid\":91830},{\"from\":\"target:Transactions:fields\",\"to\":\"target:Transactions:fee:\",\"fromPort\":\"target:Transactions:fields\",\"toPort\":\"target:Transactions:fee:\",\"visible\":true,\"common\":false,\"__gohashid\":91831},{\"from\":\"target:Transactions:fields\",\"to\":\"target:Transactions:frontImage1:\",\"fromPort\":\"target:Transactions:fields\",\"toPort\":\"target:Transactions:frontImage1:\",\"visible\":true,\"common\":false,\"__gohashid\":91832},{\"from\":\"target:Transactions:fields\",\"to\":\"target:Transactions:frontImage2:\",\"fromPort\":\"target:Transactions:fields\",\"toPort\":\"target:Transactions:frontImage2:\",\"visible\":true,\"common\":false,\"__gohashid\":91833},{\"from\":\"target:Transactions:fields\",\"to\":\"target:Transactions:backImage1:\",\"fromPort\":\"target:Transactions:fields\",\"toPort\":\"target:Transactions:backImage1:\",\"visible\":true,\"common\":false,\"__gohashid\":91834},{\"from\":\"target:Transactions:fields\",\"to\":\"target:Transactions:backImage2:\",\"fromPort\":\"target:Transactions:fields\",\"toPort\":\"target:Transactions:backImage2:\",\"visible\":true,\"common\":false,\"__gohashid\":91835},{\"from\":\"target:Transactions:fields\",\"to\":\"target:Transactions:checkDesc:\",\"fromPort\":\"target:Transactions:fields\",\"toPort\":\"target:Transactions:checkDesc:\",\"visible\":true,\"common\":false,\"__gohashid\":91836},{\"from\":\"target:Transactions:fields\",\"to\":\"target:Transactions:checkNumber1:\",\"fromPort\":\"target:Transactions:fields\",\"toPort\":\"target:Transactions:checkNumber1:\",\"visible\":true,\"common\":false,\"__gohashid\":91837},{\"from\":\"target:Transactions:fields\",\"to\":\"target:Transactions:checkNumber2:\",\"fromPort\":\"target:Transactions:fields\",\"toPort\":\"target:Transactions:checkNumber2:\",\"visible\":true,\"common\":false,\"__gohashid\":91838},{\"from\":\"target:Transactions:fields\",\"to\":\"target:Transactions:bankName1:\",\"fromPort\":\"target:Transactions:fields\",\"toPort\":\"target:Transactions:bankName1:\",\"visible\":true,\"common\":false,\"__gohashid\":91839},{\"from\":\"target:Transactions:fields\",\"to\":\"target:Transactions:bankName2:\",\"fromPort\":\"target:Transactions:fields\",\"toPort\":\"target:Transactions:bankName2:\",\"visible\":true,\"common\":false,\"__gohashid\":91840},{\"from\":\"target:Transactions:fields\",\"to\":\"target:Transactions:withdrawlAmount1:\",\"fromPort\":\"target:Transactions:fields\",\"toPort\":\"target:Transactions:withdrawlAmount1:\",\"visible\":true,\"common\":false,\"__gohashid\":91841},{\"from\":\"target:Transactions:fields\",\"to\":\"target:Transactions:withdrawlAmount2:\",\"fromPort\":\"target:Transactions:fields\",\"toPort\":\"target:Transactions:withdrawlAmount2:\",\"visible\":true,\"common\":false,\"__gohashid\":91842},{\"from\":\"target:Transactions:fields\",\"to\":\"target:Transactions:totalCheckAmount:\",\"fromPort\":\"target:Transactions:fields\",\"toPort\":\"target:Transactions:totalCheckAmount:\",\"visible\":true,\"common\":false,\"__gohashid\":91843},{\"from\":\"target:Transactions:fields\",\"to\":\"target:Transactions:cashAmount:\",\"fromPort\":\"target:Transactions:fields\",\"toPort\":\"target:Transactions:cashAmount:\",\"visible\":true,\"common\":false,\"__gohashid\":91844},{\"from\":\"target:Transactions:fields\",\"to\":\"target:Transactions:payeeCurrency:\",\"fromPort\":\"target:Transactions:fields\",\"toPort\":\"target:Transactions:payeeCurrency:\",\"visible\":true,\"common\":false,\"__gohashid\":91845},{\"from\":\"target:Transactions:fields\",\"to\":\"target:Transactions:swiftCode:\",\"fromPort\":\"target:Transactions:fields\",\"toPort\":\"target:Transactions:swiftCode:\",\"visible\":true,\"common\":false,\"__gohashid\":91846},{\"from\":\"target:Transactions:fields\",\"to\":\"target:Transactions:wireAccountType:\",\"fromPort\":\"target:Transactions:fields\",\"toPort\":\"target:Transactions:wireAccountType:\",\"visible\":true,\"common\":false,\"__gohashid\":91847},{\"from\":\"target:Transactions:fields\",\"to\":\"target:Transactions:country:\",\"fromPort\":\"target:Transactions:fields\",\"toPort\":\"target:Transactions:country:\",\"visible\":true,\"common\":false,\"__gohashid\":91848},{\"from\":\"target:Transactions:fields\",\"to\":\"target:Transactions:IBAN:\",\"fromPort\":\"target:Transactions:fields\",\"toPort\":\"target:Transactions:IBAN:\",\"visible\":true,\"common\":false,\"__gohashid\":91849},{\"from\":\"target:Transactions:fields\",\"to\":\"target:Transactions:bankName:\",\"fromPort\":\"target:Transactions:fields\",\"toPort\":\"target:Transactions:bankName:\",\"visible\":true,\"common\":false,\"__gohashid\":91850},{\"from\":\"target:Transactions:fields\",\"to\":\"target:Transactions:routingNumber:\",\"fromPort\":\"target:Transactions:fields\",\"toPort\":\"target:Transactions:routingNumber:\",\"visible\":true,\"common\":false,\"__gohashid\":91851},{\"from\":\"target:Transactions:fields\",\"to\":\"target:Transactions:internationalRoutingCode:\",\"fromPort\":\"target:Transactions:fields\",\"toPort\":\"target:Transactions:internationalRoutingCode:\",\"visible\":true,\"common\":false,\"__gohashid\":91852},{\"from\":\"target:Transactions:fields\",\"to\":\"target:Transactions:zipCode:\",\"fromPort\":\"target:Transactions:fields\",\"toPort\":\"target:Transactions:zipCode:\",\"visible\":true,\"common\":false,\"__gohashid\":91853},{\"from\":\"target:Transactions:fields\",\"to\":\"target:Transactions:cityName:\",\"fromPort\":\"target:Transactions:fields\",\"toPort\":\"target:Transactions:cityName:\",\"visible\":true,\"common\":false,\"__gohashid\":91854},{\"from\":\"target:Transactions:fields\",\"to\":\"target:Transactions:state:\",\"fromPort\":\"target:Transactions:fields\",\"toPort\":\"target:Transactions:state:\",\"visible\":true,\"common\":false,\"__gohashid\":91855},{\"from\":\"target:Transactions:fields\",\"to\":\"target:Transactions:bankAddressLine1:\",\"fromPort\":\"target:Transactions:fields\",\"toPort\":\"target:Transactions:bankAddressLine1:\",\"visible\":true,\"common\":false,\"__gohashid\":91856},{\"from\":\"target:Transactions:fields\",\"to\":\"target:Transactions:bankAddressLine2:\",\"fromPort\":\"target:Transactions:fields\",\"toPort\":\"target:Transactions:bankAddressLine2:\",\"visible\":true,\"common\":false,\"__gohashid\":91857},{\"from\":\"target:Transactions:fields\",\"to\":\"target:Transactions:bankCity:\",\"fromPort\":\"target:Transactions:fields\",\"toPort\":\"target:Transactions:bankCity:\",\"visible\":true,\"common\":false,\"__gohashid\":91858},{\"from\":\"target:Transactions:fields\",\"to\":\"target:Transactions:bankState:\",\"fromPort\":\"target:Transactions:fields\",\"toPort\":\"target:Transactions:bankState:\",\"visible\":true,\"common\":false,\"__gohashid\":91859},{\"from\":\"target:Transactions:fields\",\"to\":\"target:Transactions:bankZip:\",\"fromPort\":\"target:Transactions:fields\",\"toPort\":\"target:Transactions:bankZip:\",\"visible\":true,\"common\":false,\"__gohashid\":91860},{\"from\":\"target:Transactions:fields\",\"to\":\"target:Transactions:payeeType:\",\"fromPort\":\"target:Transactions:fields\",\"toPort\":\"target:Transactions:payeeType:\",\"visible\":true,\"common\":false,\"__gohashid\":91861},{\"from\":\"target:Transactions:fields\",\"to\":\"target:Transactions:disputeReason:\",\"fromPort\":\"target:Transactions:fields\",\"toPort\":\"target:Transactions:disputeReason:\",\"visible\":true,\"common\":false,\"__gohashid\":91862},{\"from\":\"target:Transactions:fields\",\"to\":\"target:Transactions:disputeDescription:\",\"fromPort\":\"target:Transactions:fields\",\"toPort\":\"target:Transactions:disputeDescription:\",\"visible\":true,\"common\":false,\"__gohashid\":91863},{\"from\":\"target:Transactions:fields\",\"to\":\"target:Transactions:checkDateOfIssue:\",\"fromPort\":\"target:Transactions:fields\",\"toPort\":\"target:Transactions:checkDateOfIssue:\",\"visible\":true,\"common\":false,\"__gohashid\":91864},{\"from\":\"target:Transactions:fields\",\"to\":\"target:Transactions:checkReason:\",\"fromPort\":\"target:Transactions:fields\",\"toPort\":\"target:Transactions:checkReason:\",\"visible\":true,\"common\":false,\"__gohashid\":91865},{\"from\":\"target:Transactions:fields\",\"to\":\"target:Transactions:isPayeeDeleted:\",\"fromPort\":\"target:Transactions:fields\",\"toPort\":\"target:Transactions:isPayeeDeleted:\",\"visible\":true,\"common\":false,\"__gohashid\":91866},{\"from\":\"target:Transactions:fields\",\"to\":\"target:Transactions:payeeAddressLine2:\",\"fromPort\":\"target:Transactions:fields\",\"toPort\":\"target:Transactions:payeeAddressLine2:\",\"visible\":true,\"common\":false,\"__gohashid\":91867},{\"from\":\"target:Transactions:fields\",\"to\":\"target:Transactions:amountRecieved:\",\"fromPort\":\"target:Transactions:fields\",\"toPort\":\"target:Transactions:amountRecieved:\",\"visible\":true,\"common\":false,\"__gohashid\":91868},{\"from\":\"target:Transactions:fields\",\"to\":\"target:Transactions:requestValidityInMonths:\",\"fromPort\":\"target:Transactions:fields\",\"toPort\":\"target:Transactions:requestValidityInMonths:\",\"visible\":true,\"common\":false,\"__gohashid\":91869},{\"from\":\"target:Transactions:fields\",\"to\":\"target:Transactions:requestValidity:\",\"fromPort\":\"target:Transactions:fields\",\"toPort\":\"target:Transactions:requestValidity:\",\"visible\":true,\"common\":false,\"__gohashid\":91870},{\"from\":\"target:Transactions:fields\",\"to\":\"target:Transactions:requestType:\",\"fromPort\":\"target:Transactions:fields\",\"toPort\":\"target:Transactions:requestType:\",\"visible\":true,\"common\":false,\"__gohashid\":91871},{\"from\":\"target:Transactions:fields\",\"to\":\"target:Transactions:disputeDate:\",\"fromPort\":\"target:Transactions:fields\",\"toPort\":\"target:Transactions:disputeDate:\",\"visible\":true,\"common\":false,\"__gohashid\":91872},{\"from\":\"target:Transactions:fields\",\"to\":\"target:Transactions:disputeStatus:\",\"fromPort\":\"target:Transactions:fields\",\"toPort\":\"target:Transactions:disputeStatus:\",\"visible\":true,\"common\":false,\"__gohashid\":91873},{\"from\":\"target:Transactions:fields\",\"to\":\"target:Transactions:isDisputed:\",\"fromPort\":\"target:Transactions:fields\",\"toPort\":\"target:Transactions:isDisputed:\",\"visible\":true,\"common\":false,\"__gohashid\":91874},{\"from\":\"target:Transactions:fields\",\"to\":\"target:Transactions:cardId:\",\"fromPort\":\"target:Transactions:fields\",\"toPort\":\"target:Transactions:cardId:\",\"visible\":true,\"common\":false,\"__gohashid\":91875},{\"from\":\"target:Transactions:fields\",\"to\":\"target:Transactions:isOverdraft:\",\"fromPort\":\"target:Transactions:fields\",\"toPort\":\"target:Transactions:isOverdraft:\",\"visible\":true,\"common\":false,\"__gohashid\":91876},{\"from\":\"target:Transactions:fields\",\"to\":\"target:Transactions:title:\",\"fromPort\":\"target:Transactions:fields\",\"toPort\":\"target:Transactions:title:\",\"visible\":true,\"common\":false,\"__gohashid\":91877},{\"from\":\"target:Transactions:fields\",\"to\":\"target:Transactions:generatedBy:\",\"fromPort\":\"target:Transactions:fields\",\"toPort\":\"target:Transactions:generatedBy:\",\"visible\":true,\"common\":false,\"__gohashid\":91878},{\"from\":\"target:Transactions:fields\",\"to\":\"target:Transactions:filters:\",\"fromPort\":\"target:Transactions:fields\",\"toPort\":\"target:Transactions:filters:\",\"visible\":true,\"common\":false,\"__gohashid\":91879},{\"from\":\"target:Transactions:fields\",\"to\":\"target:Transactions:statementReference:\",\"fromPort\":\"target:Transactions:fields\",\"toPort\":\"target:Transactions:statementReference:\",\"visible\":true,\"common\":false,\"__gohashid\":91880},{\"from\":\"target:Transactions:fields\",\"to\":\"target:Transactions:transCreditDebitIndicator:\",\"fromPort\":\"target:Transactions:fields\",\"toPort\":\"target:Transactions:transCreditDebitIndicator:\",\"visible\":true,\"common\":false,\"__gohashid\":91881},{\"from\":\"target:Transactions:fields\",\"to\":\"target:Transactions:bookingDateTime:\",\"fromPort\":\"target:Transactions:fields\",\"toPort\":\"target:Transactions:bookingDateTime:\",\"visible\":true,\"common\":false,\"__gohashid\":91882},{\"from\":\"target:Transactions:fields\",\"to\":\"target:Transactions:valueDateTime:\",\"fromPort\":\"target:Transactions:fields\",\"toPort\":\"target:Transactions:valueDateTime:\",\"visible\":true,\"common\":false,\"__gohashid\":91883},{\"from\":\"target:Transactions:fields\",\"to\":\"target:Transactions:transactionInformation:\",\"fromPort\":\"target:Transactions:fields\",\"toPort\":\"target:Transactions:transactionInformation:\",\"visible\":true,\"common\":false,\"__gohashid\":91884},{\"from\":\"target:Transactions:fields\",\"to\":\"target:Transactions:addressLine:\",\"fromPort\":\"target:Transactions:fields\",\"toPort\":\"target:Transactions:addressLine:\",\"visible\":true,\"common\":false,\"__gohashid\":91885},{\"from\":\"target:Transactions:fields\",\"to\":\"target:Transactions:transactionAmount:\",\"fromPort\":\"target:Transactions:fields\",\"toPort\":\"target:Transactions:transactionAmount:\",\"visible\":true,\"common\":false,\"__gohashid\":91886},{\"from\":\"target:Transactions:fields\",\"to\":\"target:Transactions:transactionCurrency:\",\"fromPort\":\"target:Transactions:fields\",\"toPort\":\"target:Transactions:transactionCurrency:\",\"visible\":true,\"common\":false,\"__gohashid\":91887},{\"from\":\"target:Transactions:fields\",\"to\":\"target:Transactions:chargeAmount:\",\"fromPort\":\"target:Transactions:fields\",\"toPort\":\"target:Transactions:chargeAmount:\",\"visible\":true,\"common\":false,\"__gohashid\":91888},{\"from\":\"target:Transactions:fields\",\"to\":\"target:Transactions:chargeCurrency:\",\"fromPort\":\"target:Transactions:fields\",\"toPort\":\"target:Transactions:chargeCurrency:\",\"visible\":true,\"common\":false,\"__gohashid\":91889},{\"from\":\"target:Transactions:fields\",\"to\":\"target:Transactions:sourceCurrency:\",\"fromPort\":\"target:Transactions:fields\",\"toPort\":\"target:Transactions:sourceCurrency:\",\"visible\":true,\"common\":false,\"__gohashid\":91890},{\"from\":\"target:Transactions:fields\",\"to\":\"target:Transactions:targetCurrency:\",\"fromPort\":\"target:Transactions:fields\",\"toPort\":\"target:Transactions:targetCurrency:\",\"visible\":true,\"common\":false,\"__gohashid\":91891},{\"from\":\"target:Transactions:fields\",\"to\":\"target:Transactions:unitCurrency:\",\"fromPort\":\"target:Transactions:fields\",\"toPort\":\"target:Transactions:unitCurrency:\",\"visible\":true,\"common\":false,\"__gohashid\":91892},{\"from\":\"target:Transactions:fields\",\"to\":\"target:Transactions:exchangeRate:\",\"fromPort\":\"target:Transactions:fields\",\"toPort\":\"target:Transactions:exchangeRate:\",\"visible\":true,\"common\":false,\"__gohashid\":91893},{\"from\":\"target:Transactions:fields\",\"to\":\"target:Transactions:contractIdentification:\",\"fromPort\":\"target:Transactions:fields\",\"toPort\":\"target:Transactions:contractIdentification:\",\"visible\":true,\"common\":false,\"__gohashid\":91894},{\"from\":\"target:Transactions:fields\",\"to\":\"target:Transactions:quotationDate:\",\"fromPort\":\"target:Transactions:fields\",\"toPort\":\"target:Transactions:quotationDate:\",\"visible\":true,\"common\":false,\"__gohashid\":91895},{\"from\":\"target:Transactions:fields\",\"to\":\"target:Transactions:instructedAmount:\",\"fromPort\":\"target:Transactions:fields\",\"toPort\":\"target:Transactions:instructedAmount:\",\"visible\":true,\"common\":false,\"__gohashid\":91896},{\"from\":\"target:Transactions:fields\",\"to\":\"target:Transactions:transactionCode:\",\"fromPort\":\"target:Transactions:fields\",\"toPort\":\"target:Transactions:transactionCode:\",\"visible\":true,\"common\":false,\"__gohashid\":91897},{\"from\":\"target:Transactions:fields\",\"to\":\"target:Transactions:transactionSubCode:\",\"fromPort\":\"target:Transactions:fields\",\"toPort\":\"target:Transactions:transactionSubCode:\",\"visible\":true,\"common\":false,\"__gohashid\":91898},{\"from\":\"target:Transactions:fields\",\"to\":\"target:Transactions:proprietaryTransactionCode:\",\"fromPort\":\"target:Transactions:fields\",\"toPort\":\"target:Transactions:proprietaryTransactionCode:\",\"visible\":true,\"common\":false,\"__gohashid\":91899},{\"from\":\"target:Transactions:fields\",\"to\":\"target:Transactions:proprietaryTransactionIssuer:\",\"fromPort\":\"target:Transactions:fields\",\"toPort\":\"target:Transactions:proprietaryTransactionIssuer:\",\"visible\":true,\"common\":false,\"__gohashid\":91900},{\"from\":\"target:Transactions:fields\",\"to\":\"target:Transactions:balanceCreditDebitIndicator:\",\"fromPort\":\"target:Transactions:fields\",\"toPort\":\"target:Transactions:balanceCreditDebitIndicator:\",\"visible\":true,\"common\":false,\"__gohashid\":91901},{\"from\":\"target:Transactions:fields\",\"to\":\"target:Transactions:balanceType:\",\"fromPort\":\"target:Transactions:fields\",\"toPort\":\"target:Transactions:balanceType:\",\"visible\":true,\"common\":false,\"__gohashid\":91902},{\"from\":\"target:Transactions:fields\",\"to\":\"target:Transactions:balanceAmount:\",\"fromPort\":\"target:Transactions:fields\",\"toPort\":\"target:Transactions:balanceAmount:\",\"visible\":true,\"common\":false,\"__gohashid\":91903},{\"from\":\"target:Transactions:fields\",\"to\":\"target:Transactions:balanceCurrency:\",\"fromPort\":\"target:Transactions:fields\",\"toPort\":\"target:Transactions:balanceCurrency:\",\"visible\":true,\"common\":false,\"__gohashid\":91904},{\"from\":\"target:Transactions:fields\",\"to\":\"target:Transactions:merchantName:\",\"fromPort\":\"target:Transactions:fields\",\"toPort\":\"target:Transactions:merchantName:\",\"visible\":true,\"common\":false,\"__gohashid\":91905},{\"from\":\"target:Transactions:fields\",\"to\":\"target:Transactions:merchantCategoryCode:\",\"fromPort\":\"target:Transactions:fields\",\"toPort\":\"target:Transactions:merchantCategoryCode:\",\"visible\":true,\"common\":false,\"__gohashid\":91906},{\"from\":\"target:Transactions:fields\",\"to\":\"target:Transactions:creditorAgentSchemeName:\",\"fromPort\":\"target:Transactions:fields\",\"toPort\":\"target:Transactions:creditorAgentSchemeName:\",\"visible\":true,\"common\":false,\"__gohashid\":91907},{\"from\":\"target:Transactions:fields\",\"to\":\"target:Transactions:creditorAgentIdentification:\",\"fromPort\":\"target:Transactions:fields\",\"toPort\":\"target:Transactions:creditorAgentIdentification:\",\"visible\":true,\"common\":false,\"__gohashid\":91908},{\"from\":\"target:Transactions:fields\",\"to\":\"target:Transactions:creditorAgentName:\",\"fromPort\":\"target:Transactions:fields\",\"toPort\":\"target:Transactions:creditorAgentName:\",\"visible\":true,\"common\":false,\"__gohashid\":91909},{\"from\":\"target:Transactions:fields\",\"to\":\"target:Transactions:creditorAgentaddressType:\",\"fromPort\":\"target:Transactions:fields\",\"toPort\":\"target:Transactions:creditorAgentaddressType:\",\"visible\":true,\"common\":false,\"__gohashid\":91910},{\"from\":\"target:Transactions:fields\",\"to\":\"target:Transactions:creditorAgentDepartment:\",\"fromPort\":\"target:Transactions:fields\",\"toPort\":\"target:Transactions:creditorAgentDepartment:\",\"visible\":true,\"common\":false,\"__gohashid\":91911},{\"from\":\"target:Transactions:fields\",\"to\":\"target:Transactions:creditorAgentSubDepartment:\",\"fromPort\":\"target:Transactions:fields\",\"toPort\":\"target:Transactions:creditorAgentSubDepartment:\",\"visible\":true,\"common\":false,\"__gohashid\":91912},{\"from\":\"target:Transactions:fields\",\"to\":\"target:Transactions:creditorAgentStreetName:\",\"fromPort\":\"target:Transactions:fields\",\"toPort\":\"target:Transactions:creditorAgentStreetName:\",\"visible\":true,\"common\":false,\"__gohashid\":91913},{\"from\":\"target:Transactions:fields\",\"to\":\"target:Transactions:creditorAgentBuildingNumber:\",\"fromPort\":\"target:Transactions:fields\",\"toPort\":\"target:Transactions:creditorAgentBuildingNumber:\",\"visible\":true,\"common\":false,\"__gohashid\":91914},{\"from\":\"target:Transactions:fields\",\"to\":\"target:Transactions:creditorAgentPostCode:\",\"fromPort\":\"target:Transactions:fields\",\"toPort\":\"target:Transactions:creditorAgentPostCode:\",\"visible\":true,\"common\":false,\"__gohashid\":91915},{\"from\":\"target:Transactions:fields\",\"to\":\"target:Transactions:creditorAgentTownName:\",\"fromPort\":\"target:Transactions:fields\",\"toPort\":\"target:Transactions:creditorAgentTownName:\",\"visible\":true,\"common\":false,\"__gohashid\":91916},{\"from\":\"target:Transactions:fields\",\"to\":\"target:Transactions:creditorAgentCountrySubDivision:\",\"fromPort\":\"target:Transactions:fields\",\"toPort\":\"target:Transactions:creditorAgentCountrySubDivision:\",\"visible\":true,\"common\":false,\"__gohashid\":91917},{\"from\":\"target:Transactions:fields\",\"to\":\"target:Transactions:creditorAgentCountry:\",\"fromPort\":\"target:Transactions:fields\",\"toPort\":\"target:Transactions:creditorAgentCountry:\",\"visible\":true,\"common\":false,\"__gohashid\":91918},{\"from\":\"target:Transactions:fields\",\"to\":\"target:Transactions:creditorAgentAddressLine:\",\"fromPort\":\"target:Transactions:fields\",\"toPort\":\"target:Transactions:creditorAgentAddressLine:\",\"visible\":true,\"common\":false,\"__gohashid\":91919},{\"from\":\"target:Transactions:fields\",\"to\":\"target:Transactions:creditorAccountSchemeName:\",\"fromPort\":\"target:Transactions:fields\",\"toPort\":\"target:Transactions:creditorAccountSchemeName:\",\"visible\":true,\"common\":false,\"__gohashid\":91920},{\"from\":\"target:Transactions:fields\",\"to\":\"target:Transactions:creditorAccountSeconIdentification:\",\"fromPort\":\"target:Transactions:fields\",\"toPort\":\"target:Transactions:creditorAccountSeconIdentification:\",\"visible\":true,\"common\":false,\"__gohashid\":91921},{\"from\":\"target:Transactions:fields\",\"to\":\"target:Transactions:debtorAgentSchemeName:\",\"fromPort\":\"target:Transactions:fields\",\"toPort\":\"target:Transactions:debtorAgentSchemeName:\",\"visible\":true,\"common\":false,\"__gohashid\":91922},{\"from\":\"target:Transactions:fields\",\"to\":\"target:Transactions:debtorAgentIdentification:\",\"fromPort\":\"target:Transactions:fields\",\"toPort\":\"target:Transactions:debtorAgentIdentification:\",\"visible\":true,\"common\":false,\"__gohashid\":91923},{\"from\":\"target:Transactions:fields\",\"to\":\"target:Transactions:debtorAgentName:\",\"fromPort\":\"target:Transactions:fields\",\"toPort\":\"target:Transactions:debtorAgentName:\",\"visible\":true,\"common\":false,\"__gohashid\":91924},{\"from\":\"target:Transactions:fields\",\"to\":\"target:Transactions:debtorAgentAddressType:\",\"fromPort\":\"target:Transactions:fields\",\"toPort\":\"target:Transactions:debtorAgentAddressType:\",\"visible\":true,\"common\":false,\"__gohashid\":91925},{\"from\":\"target:Transactions:fields\",\"to\":\"target:Transactions:debtorAgentDepartment:\",\"fromPort\":\"target:Transactions:fields\",\"toPort\":\"target:Transactions:debtorAgentDepartment:\",\"visible\":true,\"common\":false,\"__gohashid\":91926},{\"from\":\"target:Transactions:fields\",\"to\":\"target:Transactions:debtorAgentSubDepartment:\",\"fromPort\":\"target:Transactions:fields\",\"toPort\":\"target:Transactions:debtorAgentSubDepartment:\",\"visible\":true,\"common\":false,\"__gohashid\":91927},{\"from\":\"target:Transactions:fields\",\"to\":\"target:Transactions:debtorAgentStreetName:\",\"fromPort\":\"target:Transactions:fields\",\"toPort\":\"target:Transactions:debtorAgentStreetName:\",\"visible\":true,\"common\":false,\"__gohashid\":91928},{\"from\":\"target:Transactions:fields\",\"to\":\"target:Transactions:debtorAgentBuildingNumber:\",\"fromPort\":\"target:Transactions:fields\",\"toPort\":\"target:Transactions:debtorAgentBuildingNumber:\",\"visible\":true,\"common\":false,\"__gohashid\":91929},{\"from\":\"target:Transactions:fields\",\"to\":\"target:Transactions:dedtorAgentPostCode:\",\"fromPort\":\"target:Transactions:fields\",\"toPort\":\"target:Transactions:dedtorAgentPostCode:\",\"visible\":true,\"common\":false,\"__gohashid\":91930},{\"from\":\"target:Transactions:fields\",\"to\":\"target:Transactions:debtorAgentTownName:\",\"fromPort\":\"target:Transactions:fields\",\"toPort\":\"target:Transactions:debtorAgentTownName:\",\"visible\":true,\"common\":false,\"__gohashid\":91931},{\"from\":\"target:Transactions:fields\",\"to\":\"target:Transactions:debtorAgentCountrySubDivision:\",\"fromPort\":\"target:Transactions:fields\",\"toPort\":\"target:Transactions:debtorAgentCountrySubDivision:\",\"visible\":true,\"common\":false,\"__gohashid\":91932},{\"from\":\"target:Transactions:fields\",\"to\":\"target:Transactions:debtorAgentCountry:\",\"fromPort\":\"target:Transactions:fields\",\"toPort\":\"target:Transactions:debtorAgentCountry:\",\"visible\":true,\"common\":false,\"__gohashid\":91933},{\"from\":\"target:Transactions:fields\",\"to\":\"target:Transactions:debtorAgentAddressLine:\",\"fromPort\":\"target:Transactions:fields\",\"toPort\":\"target:Transactions:debtorAgentAddressLine:\",\"visible\":true,\"common\":false,\"__gohashid\":91934},{\"from\":\"target:Transactions:fields\",\"to\":\"target:Transactions:debtorAccountSchemeName:\",\"fromPort\":\"target:Transactions:fields\",\"toPort\":\"target:Transactions:debtorAccountSchemeName:\",\"visible\":true,\"common\":false,\"__gohashid\":91935},{\"from\":\"target:Transactions:fields\",\"to\":\"target:Transactions:debtorAccountName:\",\"fromPort\":\"target:Transactions:fields\",\"toPort\":\"target:Transactions:debtorAccountName:\",\"visible\":true,\"common\":false,\"__gohashid\":91936},{\"from\":\"target:Transactions:fields\",\"to\":\"target:Transactions:debtorAccountSeconIdentification:\",\"fromPort\":\"target:Transactions:fields\",\"toPort\":\"target:Transactions:debtorAccountSeconIdentification:\",\"visible\":true,\"common\":false,\"__gohashid\":91937},{\"from\":\"target:Transactions:fields\",\"to\":\"target:Transactions:cardInstrumentSchemeName:\",\"fromPort\":\"target:Transactions:fields\",\"toPort\":\"target:Transactions:cardInstrumentSchemeName:\",\"visible\":true,\"common\":false,\"__gohashid\":91938},{\"from\":\"target:Transactions:fields\",\"to\":\"target:Transactions:cardInstrumentAuthorisationType:\",\"fromPort\":\"target:Transactions:fields\",\"toPort\":\"target:Transactions:cardInstrumentAuthorisationType:\",\"visible\":true,\"common\":false,\"__gohashid\":91939},{\"from\":\"target:Transactions:fields\",\"to\":\"target:Transactions:cardInstrumentName:\",\"fromPort\":\"target:Transactions:fields\",\"toPort\":\"target:Transactions:cardInstrumentName:\",\"visible\":true,\"common\":false,\"__gohashid\":91940},{\"from\":\"target:Transactions:fields\",\"to\":\"target:Transactions:cardInstrumentIdentification:\",\"fromPort\":\"target:Transactions:fields\",\"toPort\":\"target:Transactions:cardInstrumentIdentification:\",\"visible\":true,\"common\":false,\"__gohashid\":91941},{\"from\":\"target:Transactions:fields\",\"to\":\"target:Transactions:sortCode:\",\"fromPort\":\"target:Transactions:fields\",\"toPort\":\"target:Transactions:sortCode:\",\"visible\":true,\"common\":false,\"__gohashid\":91942},{\"from\":\"target:Transactions:fields\",\"to\":\"target:Transactions:feeCurrency:\",\"fromPort\":\"target:Transactions:fields\",\"toPort\":\"target:Transactions:feeCurrency:\",\"visible\":true,\"common\":false,\"__gohashid\":91943},{\"from\":\"target:Transactions:fields\",\"to\":\"target:Transactions:feePaidByReceipent:\",\"fromPort\":\"target:Transactions:fields\",\"toPort\":\"target:Transactions:feePaidByReceipent:\",\"visible\":true,\"common\":false,\"__gohashid\":91944},{\"from\":\"target:Transactions:fields\",\"to\":\"target:Transactions:convertedAmount:\",\"fromPort\":\"target:Transactions:fields\",\"toPort\":\"target:Transactions:convertedAmount:\",\"visible\":true,\"common\":false,\"__gohashid\":91945},{\"from\":\"target:Transactions:fields\",\"to\":\"target:Transactions:baseCurrency:\",\"fromPort\":\"target:Transactions:fields\",\"toPort\":\"target:Transactions:baseCurrency:\",\"visible\":true,\"common\":false,\"__gohashid\":91946},{\"from\":\"target:Transactions:fields\",\"to\":\"target:Transactions:FirstPaymentDateTime:\",\"fromPort\":\"target:Transactions:fields\",\"toPort\":\"target:Transactions:FirstPaymentDateTime:\",\"visible\":true,\"common\":false,\"__gohashid\":91947},{\"from\":\"target:Transactions:fields\",\"to\":\"target:Transactions:NextPaymentDateTime:\",\"fromPort\":\"target:Transactions:fields\",\"toPort\":\"target:Transactions:NextPaymentDateTime:\",\"visible\":true,\"common\":false,\"__gohashid\":91948},{\"from\":\"target:Transactions:fields\",\"to\":\"target:Transactions:FinalPaymentDateTime:\",\"fromPort\":\"target:Transactions:fields\",\"toPort\":\"target:Transactions:FinalPaymentDateTime:\",\"visible\":true,\"common\":false,\"__gohashid\":91949},{\"from\":\"target:Transactions:fields\",\"to\":\"target:Transactions:StandingOrderStatusCode:\",\"fromPort\":\"target:Transactions:fields\",\"toPort\":\"target:Transactions:StandingOrderStatusCode:\",\"visible\":true,\"common\":false,\"__gohashid\":91950},{\"from\":\"target:Transactions:fields\",\"to\":\"target:Transactions:FP_Amount:\",\"fromPort\":\"target:Transactions:fields\",\"toPort\":\"target:Transactions:FP_Amount:\",\"visible\":true,\"common\":false,\"__gohashid\":91951},{\"from\":\"target:Transactions:fields\",\"to\":\"target:Transactions:FP_Currency:\",\"fromPort\":\"target:Transactions:fields\",\"toPort\":\"target:Transactions:FP_Currency:\",\"visible\":true,\"common\":false,\"__gohashid\":91952},{\"from\":\"target:Transactions:fields\",\"to\":\"target:Transactions:NP_Amount:\",\"fromPort\":\"target:Transactions:fields\",\"toPort\":\"target:Transactions:NP_Amount:\",\"visible\":true,\"common\":false,\"__gohashid\":91953},{\"from\":\"target:Transactions:fields\",\"to\":\"target:Transactions:NP_Currency:\",\"fromPort\":\"target:Transactions:fields\",\"toPort\":\"target:Transactions:NP_Currency:\",\"visible\":true,\"common\":false,\"__gohashid\":91954},{\"from\":\"target:Transactions:fields\",\"to\":\"target:Transactions:FPA_Amount:\",\"fromPort\":\"target:Transactions:fields\",\"toPort\":\"target:Transactions:FPA_Amount:\",\"visible\":true,\"common\":false,\"__gohashid\":91955},{\"from\":\"target:Transactions:fields\",\"to\":\"target:Transactions:FPA_Currency:\",\"fromPort\":\"target:Transactions:fields\",\"toPort\":\"target:Transactions:FPA_Currency:\",\"visible\":true,\"common\":false,\"__gohashid\":91956},{\"from\":\"target:Transactions:fields\",\"to\":\"target:Transactions:beneficiaryName:\",\"fromPort\":\"target:Transactions:fields\",\"toPort\":\"target:Transactions:beneficiaryName:\",\"visible\":true,\"common\":false,\"__gohashid\":91957},{\"from\":\"target:Transactions:fields\",\"to\":\"target:Transactions:isInternationalAccount:\",\"fromPort\":\"target:Transactions:fields\",\"toPort\":\"target:Transactions:isInternationalAccount:\",\"visible\":true,\"common\":false,\"__gohashid\":91958},{\"from\":\"target:Transactions:fields\",\"to\":\"target:Transactions:ConsentId:\",\"fromPort\":\"target:Transactions:fields\",\"toPort\":\"target:Transactions:ConsentId:\",\"visible\":true,\"common\":false,\"__gohashid\":91959},{\"from\":\"target:Transactions:fields\",\"to\":\"target:Transactions:Initiation_InstructionIdentification:\",\"fromPort\":\"target:Transactions:fields\",\"toPort\":\"target:Transactions:Initiation_InstructionIdentification:\",\"visible\":true,\"common\":false,\"__gohashid\":91960},{\"from\":\"target:Transactions:fields\",\"to\":\"target:Transactions:RI_Unstructured:\",\"fromPort\":\"target:Transactions:fields\",\"toPort\":\"target:Transactions:RI_Unstructured:\",\"visible\":true,\"common\":false,\"__gohashid\":91961},{\"from\":\"target:Transactions:fields\",\"to\":\"target:Transactions:RI_Reference:\",\"fromPort\":\"target:Transactions:fields\",\"toPort\":\"target:Transactions:RI_Reference:\",\"visible\":true,\"common\":false,\"__gohashid\":91962},{\"from\":\"target:Transactions:fields\",\"to\":\"target:Transactions:Initiation_EndToEndIdentification:\",\"fromPort\":\"target:Transactions:fields\",\"toPort\":\"target:Transactions:Initiation_EndToEndIdentification:\",\"visible\":true,\"common\":false,\"__gohashid\":91963},{\"from\":\"target:Transactions:fields\",\"to\":\"target:Transactions:RiskPaymentContextCode:\",\"fromPort\":\"target:Transactions:fields\",\"toPort\":\"target:Transactions:RiskPaymentContextCode:\",\"visible\":true,\"common\":false,\"__gohashid\":91964},{\"from\":\"target:Transactions:fields\",\"to\":\"target:Transactions:linkSelf:\",\"fromPort\":\"target:Transactions:fields\",\"toPort\":\"target:Transactions:linkSelf:\",\"visible\":true,\"common\":false,\"__gohashid\":91965},{\"from\":\"target:Transactions:fields\",\"to\":\"target:Transactions:StatusUpdateDateTime:\",\"fromPort\":\"target:Transactions:fields\",\"toPort\":\"target:Transactions:StatusUpdateDateTime:\",\"visible\":true,\"common\":false,\"__gohashid\":91966},{\"from\":\"target:Transactions:fields\",\"to\":\"target:Transactions:createdDate:\",\"fromPort\":\"target:Transactions:fields\",\"toPort\":\"target:Transactions:createdDate:\",\"visible\":true,\"common\":false,\"__gohashid\":91967},{\"from\":\"target:Transactions:fields\",\"to\":\"target:Transactions:DomesticPaymentId:\",\"fromPort\":\"target:Transactions:fields\",\"toPort\":\"target:Transactions:DomesticPaymentId:\",\"visible\":true,\"common\":false,\"__gohashid\":91968},{\"from\":\"target:Transactions:fields\",\"to\":\"target:Transactions:dataStatus:\",\"fromPort\":\"target:Transactions:fields\",\"toPort\":\"target:Transactions:dataStatus:\",\"visible\":true,\"common\":false,\"__gohashid\":91969},{\"from\":\"target:Transactions:fields\",\"to\":\"target:Transactions:Auth_Token:\",\"fromPort\":\"target:Transactions:fields\",\"toPort\":\"target:Transactions:Auth_Token:\",\"visible\":true,\"common\":false,\"__gohashid\":91970},{\"from\":\"target:Transactions:fields\",\"to\":\"target:Transactions:fileType:\",\"fromPort\":\"target:Transactions:fields\",\"toPort\":\"target:Transactions:fileType:\",\"visible\":true,\"common\":false,\"__gohashid\":91971},{\"from\":\"target:Transactions:fields\",\"to\":\"target:Transactions:MFAAttributes:\",\"fromPort\":\"target:Transactions:fields\",\"toPort\":\"target:Transactions:MFAAttributes:\",\"visible\":true,\"common\":false,\"__gohashid\":91972},{\"from\":\"source\",\"to\":\"source:parameters\",\"fromPort\":\"source\",\"toPort\":\"source:parameters\",\"visible\":true,\"common\":false,\"__gohashid\":91973},{\"from\":\"source:parameters\",\"to\":\"source:errmsg:\",\"fromPort\":\"source:parameters\",\"toPort\":\"source:errmsg:\",\"visible\":true,\"common\":false,\"__gohashid\":91974},{\"from\":\"source:parameters\",\"to\":\"source:MFAAttributes:\",\"fromPort\":\"source:parameters\",\"toPort\":\"source:MFAAttributes:\",\"visible\":true,\"common\":false,\"__gohashid\":91975},{\"from\":\"source\",\"to\":\"source:Transactions\",\"fromPort\":\"source\",\"toPort\":\"source:Transactions\",\"visible\":true,\"common\":false,\"__gohashid\":91976},{\"from\":\"source:Transactions\",\"to\":\"source:Transactions:parameters\",\"fromPort\":\"source:Transactions\",\"toPort\":\"source:Transactions:parameters\",\"visible\":true,\"common\":false,\"__gohashid\":91977},{\"from\":\"source:Transactions:parameters\",\"to\":\"source:Transactions:amount:\",\"fromPort\":\"source:Transactions:parameters\",\"toPort\":\"source:Transactions:amount:\",\"visible\":true,\"common\":false,\"__gohashid\":91978},{\"from\":\"source:Transactions:parameters\",\"to\":\"source:Transactions:billid:\",\"fromPort\":\"source:Transactions:parameters\",\"toPort\":\"source:Transactions:billid:\",\"visible\":true,\"common\":false,\"__gohashid\":91979},{\"from\":\"source:Transactions:parameters\",\"to\":\"source:Transactions:deliverBy:\",\"fromPort\":\"source:Transactions:parameters\",\"toPort\":\"source:Transactions:deliverBy:\",\"visible\":true,\"common\":false,\"__gohashid\":91980},{\"from\":\"source:Transactions:parameters\",\"to\":\"source:Transactions:fromAccountBalance:\",\"fromPort\":\"source:Transactions:parameters\",\"toPort\":\"source:Transactions:fromAccountBalance:\",\"visible\":true,\"common\":false,\"__gohashid\":91981},{\"from\":\"source:Transactions:parameters\",\"to\":\"source:Transactions:fromAccountName:\",\"fromPort\":\"source:Transactions:parameters\",\"toPort\":\"source:Transactions:fromAccountName:\",\"visible\":true,\"common\":false,\"__gohashid\":91982},{\"from\":\"source:Transactions:parameters\",\"to\":\"source:Transactions:isScheduled:\",\"fromPort\":\"source:Transactions:parameters\",\"toPort\":\"source:Transactions:isScheduled:\",\"visible\":true,\"common\":false,\"__gohashid\":91983},{\"from\":\"source:Transactions:parameters\",\"to\":\"source:Transactions:payeeAddressLine1:\",\"fromPort\":\"source:Transactions:parameters\",\"toPort\":\"source:Transactions:payeeAddressLine1:\",\"visible\":true,\"common\":false,\"__gohashid\":91984},{\"from\":\"source:Transactions:parameters\",\"to\":\"source:Transactions:payeeId:\",\"fromPort\":\"source:Transactions:parameters\",\"toPort\":\"source:Transactions:payeeId:\",\"visible\":true,\"common\":false,\"__gohashid\":91985},{\"from\":\"source:Transactions:parameters\",\"to\":\"source:Transactions:payeeName:\",\"fromPort\":\"source:Transactions:parameters\",\"toPort\":\"source:Transactions:payeeName:\",\"visible\":true,\"common\":false,\"__gohashid\":91986},{\"from\":\"source:Transactions:parameters\",\"to\":\"source:Transactions:payeeNickName:\",\"fromPort\":\"source:Transactions:parameters\",\"toPort\":\"source:Transactions:payeeNickName:\",\"visible\":true,\"common\":false,\"__gohashid\":91987},{\"from\":\"source:Transactions:parameters\",\"to\":\"source:Transactions:scheduledDate:\",\"fromPort\":\"source:Transactions:parameters\",\"toPort\":\"source:Transactions:scheduledDate:\",\"visible\":true,\"common\":false,\"__gohashid\":91988},{\"from\":\"source:Transactions:parameters\",\"to\":\"source:Transactions:transactionDate:\",\"fromPort\":\"source:Transactions:parameters\",\"toPort\":\"source:Transactions:transactionDate:\",\"visible\":true,\"common\":false,\"__gohashid\":91989},{\"from\":\"source:Transactions:parameters\",\"to\":\"source:Transactions:transactionId:\",\"fromPort\":\"source:Transactions:parameters\",\"toPort\":\"source:Transactions:transactionId:\",\"visible\":true,\"common\":false,\"__gohashid\":91990},{\"category\":\"Mapping\",\"from\":\"source:Transactions:amount:\",\"to\":\"target:Transactions:amount:\",\"fromPort\":\"source:Transactions:amount:\",\"toPort\":\"target:Transactions:amount:\",\"visible\":true,\"common\":true,\"__gohashid\":98147},{\"category\":\"Mapping\",\"from\":\"source:Transactions:billid:\",\"to\":\"target:Transactions:billid:\",\"fromPort\":\"source:Transactions:billid:\",\"toPort\":\"target:Transactions:billid:\",\"visible\":true,\"common\":true,\"__gohashid\":98154},{\"category\":\"Mapping\",\"from\":\"source:Transactions:deliverBy:\",\"to\":\"target:Transactions:deliverBy:\",\"fromPort\":\"source:Transactions:deliverBy:\",\"toPort\":\"target:Transactions:deliverBy:\",\"visible\":true,\"common\":true,\"__gohashid\":98161},{\"category\":\"Mapping\",\"from\":\"source:Transactions:fromAccountBalance:\",\"to\":\"target:Transactions:fromAccountBalance:\",\"fromPort\":\"source:Transactions:fromAccountBalance:\",\"toPort\":\"target:Transactions:fromAccountBalance:\",\"visible\":true,\"common\":true,\"__gohashid\":98168},{\"category\":\"Mapping\",\"from\":\"source:Transactions:fromAccountName:\",\"to\":\"target:Transactions:fromAccountName:\",\"fromPort\":\"source:Transactions:fromAccountName:\",\"toPort\":\"target:Transactions:fromAccountName:\",\"visible\":true,\"common\":true,\"__gohashid\":98175},{\"category\":\"Mapping\",\"from\":\"source:Transactions:isScheduled:\",\"to\":\"target:Transactions:isScheduled:\",\"fromPort\":\"source:Transactions:isScheduled:\",\"toPort\":\"target:Transactions:isScheduled:\",\"visible\":true,\"common\":true,\"__gohashid\":98182},{\"category\":\"Mapping\",\"from\":\"source:Transactions:payeeAddressLine1:\",\"to\":\"target:Transactions:payeeAddressLine1:\",\"fromPort\":\"source:Transactions:payeeAddressLine1:\",\"toPort\":\"target:Transactions:payeeAddressLine1:\",\"visible\":true,\"common\":true,\"__gohashid\":98189},{\"category\":\"Mapping\",\"from\":\"source:Transactions:payeeId:\",\"to\":\"target:Transactions:payeeId:\",\"fromPort\":\"source:Transactions:payeeId:\",\"toPort\":\"target:Transactions:payeeId:\",\"visible\":true,\"common\":true,\"__gohashid\":98196},{\"category\":\"Mapping\",\"from\":\"source:Transactions:payeeName:\",\"to\":\"target:Transactions:payeeName:\",\"fromPort\":\"source:Transactions:payeeName:\",\"toPort\":\"target:Transactions:payeeName:\",\"visible\":true,\"common\":true,\"__gohashid\":98203},{\"category\":\"Mapping\",\"from\":\"source:Transactions:payeeNickName:\",\"to\":\"target:Transactions:payeeNickName:\",\"fromPort\":\"source:Transactions:payeeNickName:\",\"toPort\":\"target:Transactions:payeeNickName:\",\"visible\":true,\"common\":true,\"__gohashid\":98210},{\"category\":\"Mapping\",\"from\":\"source:Transactions:scheduledDate:\",\"to\":\"target:Transactions:scheduledDate:\",\"fromPort\":\"source:Transactions:scheduledDate:\",\"toPort\":\"target:Transactions:scheduledDate:\",\"visible\":true,\"common\":true,\"__gohashid\":98217},{\"category\":\"Mapping\",\"from\":\"source:Transactions:transactionDate:\",\"to\":\"target:Transactions:transactionDate:\",\"fromPort\":\"source:Transactions:transactionDate:\",\"toPort\":\"target:Transactions:transactionDate:\",\"visible\":true,\"common\":true,\"__gohashid\":98224},{\"category\":\"Mapping\",\"from\":\"source:Transactions:transactionId:\",\"to\":\"target:Transactions:transactionId:\",\"fromPort\":\"source:Transactions:transactionId:\",\"toPort\":\"target:Transactions:transactionId:\",\"visible\":true,\"common\":true,\"__gohashid\":98231}],\"blockCount\":{\"variableCount\":0},\"variableMap\":{},\"xmlMappingOverride\":true}",
    "applyCommonMapping" : false,
    "applyRequestCommonMapping" : true,
    "applyResponseCommonMapping" : false,
    "backendMeta" : {
      "serviceName" : "dbpRbLocalServicesJava",
      "serviceVersion" : "1.0",
      "operationName" : "createBulkBillPay"
    },
    "relationshipHierarchyMapping" : {
      "children" : [ ],
      "name" : "Transactions",
      "actions" : { },
      "selected" : true
    },
    "requestXmlMappingOverride" : false,
    "responseXmlMappingOverride" : true
  }
}