{
  "operationConfig" : {
    "name" : "getExternalTransactions6873",
    "type" : "MappedToBackend",
    "cachable" : false,
    "smsEnabled" : false,
    "security" : "authorized_app_user",
    "responseEncoding" : "UTF-8",
    "httpMethod" : "GET",
    "decodeResponseBody" : false,
    "iMapping" : "<?xml version=\"1.0\" encoding=\"UTF-8\" standalone=\"yes\"?><mapper xmlns=\"http://www.kony.com/ns/mapper\"><map inputpath=\"request_in\" outputpath=\"request_out\"><set-param inputpath=\"accountID\" outputpath=\"accountID\"/><set-param inputpath=\"lastRecordNumber\" outputpath=\"lastRecordNumber\"/><set-param inputpath=\"firstRecordNumber\" outputpath=\"firstRecordNumber\"/><set-param inputpath=\"sortBy\" outputpath=\"sortBy\"/><set-param inputpath=\"order\" outputpath=\"order\"/></map></mapper>",
    "oMapping" : "<?xml version=\"1.0\" encoding=\"UTF-8\" standalone=\"yes\"?><mapper xmlns=\"http://www.kony.com/ns/mapper\">        <map inputpath=\"response_in\" outputpath=\"response_out\">                <map inputpath=\"transaction\" outputpath=\"Transactions\">                        <set-param inputpath=\"amount\" outputpath=\"amount\"/>                        <set-param inputpath=\"category\" outputpath=\"category\"/>                        <set-param inputpath=\"description\" outputpath=\"description\"/>                        <set-param inputpath=\"ExternalAccountNumber\" outputpath=\"ExternalAccountNumber\"/>                        <set-param inputpath=\"frequencyEndDate\" outputpath=\"frequencyEndDate\"/>                        <set-param inputpath=\"frequencyStartDate\" outputpath=\"frequencyStartDate\"/>                        <set-param inputpath=\"frequencyType\" outputpath=\"frequencyType\"/>                        <set-param inputpath=\"fromAccountBalance\" outputpath=\"fromAccountBalance\"/>                        <set-param inputpath=\"fromAccountName\" outputpath=\"fromAccountName\"/>                        <set-param inputpath=\"fromAccountNumber\" outputpath=\"fromAccountNumber\"/>                        <set-param inputpath=\"fromAccountType\" outputpath=\"fromAccountType\"/>                        <set-param inputpath=\"fromAccountNickName\" outputpath=\"fromNickName\"/>                        <set-param inputpath=\"hasDepositImage\" outputpath=\"hasDepositImage\"/>                        <set-param inputpath=\"isScheduled\" outputpath=\"isScheduled\"/>                        <set-param inputpath=\"numberOfRecurrences\" outputpath=\"numberOfRecurrences\"/>                        <set-param inputpath=\"Payee_id\" outputpath=\"payeeId\"/>                        <set-param inputpath=\"payeeNickName\" outputpath=\"payeeNickName\"/>                        <set-param inputpath=\"payPersonEmail\" outputpath=\"payPersonEmail\"/>                        <set-param inputpath=\"payPersonName\" outputpath=\"payPersonName\"/>                        <set-param inputpath=\"payPersonPhone\" outputpath=\"payPersonPhone\"/>                        <set-param inputpath=\"scheduledDate\" outputpath=\"scheduledDate\"/>                        <set-param inputpath=\"statusDesc\" outputpath=\"statusDescription\"/>                        <set-param inputpath=\"toAccountName\" outputpath=\"toAccountName\"/>                        <set-param inputpath=\"toAccountNumber\" outputpath=\"toAccountNumber\"/>                        <set-param inputpath=\"toAccountType\" outputpath=\"toAccountType\"/>                        <set-param inputpath=\"transactionComments\" outputpath=\"transactionComments\"/>                        <set-param inputpath=\"transactionDate\" outputpath=\"transactionDate\"/>                        <set-param inputpath=\"Id\" outputpath=\"transactionId\"/>                        <set-param inputpath=\"notes\" outputpath=\"transactionsNotes\"/>                        <set-param inputpath=\"transactiontype\" outputpath=\"transactionType\"/>                      <set-param inputpath=\"IBAN\" outputpath=\"IBAN\"/>                                                                  <set-param inputpath=\"sortCode\" outputpath=\"sortCode\"/>                              <set-param inputpath=\"fee\" outputpath=\"fee\"/>                                      <set-param inputpath=\"feeCurrency\" outputpath=\"feeCurrency\"/>                                                                  <set-param inputpath=\"feePaidByReceipent\" outputpath=\"feePaidByReceipent\"/>                                                                  <set-param inputpath=\"convertedAmount\" outputpath=\"convertedAmount\"/>                                                            <set-param inputpath=\"transactionCurrency\" outputpath=\"transactionCurrency\"/>                                                                  <set-param inputpath=\"baseCurrency\" outputpath=\"baseCurrency\"/>                          <set-param inputpath=\"isInternationalAccount\" outputpath=\"isInternationalAccount\"/>        <set-param inputpath=\"serviceName\" outputpath=\"serviceName\"/>                        </map>        </map></mapper>",
    "oVisualMappingData" : "{\"nodeDataArray\":[{\"isGroup\":true,\"key\":\"response_out\",\"text\":\"Transactions\",\"xy\":\"770 100\",\"__gohashid\":647576},{\"isGroup\":true,\"key\":\"response_in\",\"text\":\"dbpRbLocalServicesJava (1.0).getExternalTransactions\",\"xy\":\"150 100\",\"__gohashid\":647577}],\"linkDataArray\":[{\"category\":\"Mapping\",\"from\":\"source:Transactions:amount:\",\"to\":\"target:Transactions:amount:\",\"fromPort\":\"source:Transactions:amount:\",\"toPort\":\"target:Transactions:amount:\",\"visible\":true,\"common\":true,\"__gohashid\":655176},{\"category\":\"Mapping\",\"from\":\"source:Transactions:category:\",\"to\":\"target:Transactions:category:\",\"fromPort\":\"source:Transactions:category:\",\"toPort\":\"target:Transactions:category:\",\"visible\":true,\"common\":true,\"__gohashid\":655183},{\"category\":\"Mapping\",\"from\":\"source:Transactions:description:\",\"to\":\"target:Transactions:description:\",\"fromPort\":\"source:Transactions:description:\",\"toPort\":\"target:Transactions:description:\",\"visible\":true,\"common\":true,\"__gohashid\":655190},{\"category\":\"Mapping\",\"from\":\"source:Transactions:ExternalAccountNumber:\",\"to\":\"target:Transactions:ExternalAccountNumber:\",\"fromPort\":\"source:Transactions:ExternalAccountNumber:\",\"toPort\":\"target:Transactions:ExternalAccountNumber:\",\"visible\":true,\"common\":true,\"__gohashid\":655197},{\"category\":\"Mapping\",\"from\":\"source:Transactions:frequencyEndDate:\",\"to\":\"target:Transactions:frequencyEndDate:\",\"fromPort\":\"source:Transactions:frequencyEndDate:\",\"toPort\":\"target:Transactions:frequencyEndDate:\",\"visible\":true,\"common\":true,\"__gohashid\":655204},{\"category\":\"Mapping\",\"from\":\"source:Transactions:frequencyStartDate:\",\"to\":\"target:Transactions:frequencyStartDate:\",\"fromPort\":\"source:Transactions:frequencyStartDate:\",\"toPort\":\"target:Transactions:frequencyStartDate:\",\"visible\":true,\"common\":true,\"__gohashid\":655211},{\"category\":\"Mapping\",\"from\":\"source:Transactions:frequencyType:\",\"to\":\"target:Transactions:frequencyType:\",\"fromPort\":\"source:Transactions:frequencyType:\",\"toPort\":\"target:Transactions:frequencyType:\",\"visible\":true,\"common\":true,\"__gohashid\":655218},{\"category\":\"Mapping\",\"from\":\"source:Transactions:fromAccountBalance:\",\"to\":\"target:Transactions:fromAccountBalance:\",\"fromPort\":\"source:Transactions:fromAccountBalance:\",\"toPort\":\"target:Transactions:fromAccountBalance:\",\"visible\":true,\"common\":true,\"__gohashid\":655225},{\"category\":\"Mapping\",\"from\":\"source:Transactions:fromAccountName:\",\"to\":\"target:Transactions:fromAccountName:\",\"fromPort\":\"source:Transactions:fromAccountName:\",\"toPort\":\"target:Transactions:fromAccountName:\",\"visible\":true,\"common\":true,\"__gohashid\":655232},{\"category\":\"Mapping\",\"from\":\"source:Transactions:fromAccountNumber:\",\"to\":\"target:Transactions:fromAccountNumber:\",\"fromPort\":\"source:Transactions:fromAccountNumber:\",\"toPort\":\"target:Transactions:fromAccountNumber:\",\"visible\":true,\"common\":true,\"__gohashid\":655239},{\"category\":\"Mapping\",\"from\":\"source:Transactions:fromAccountType:\",\"to\":\"target:Transactions:fromAccountType:\",\"fromPort\":\"source:Transactions:fromAccountType:\",\"toPort\":\"target:Transactions:fromAccountType:\",\"visible\":true,\"common\":true,\"__gohashid\":655246},{\"category\":\"Mapping\",\"from\":\"source:Transactions:fromNickName:\",\"to\":\"target:Transactions:fromNickName:\",\"fromPort\":\"source:Transactions:fromNickName:\",\"toPort\":\"target:Transactions:fromNickName:\",\"visible\":true,\"common\":true,\"__gohashid\":655253},{\"category\":\"Mapping\",\"from\":\"source:Transactions:hasDepositImage:\",\"to\":\"target:Transactions:hasDepositImage:\",\"fromPort\":\"source:Transactions:hasDepositImage:\",\"toPort\":\"target:Transactions:hasDepositImage:\",\"visible\":true,\"common\":true,\"__gohashid\":655260},{\"category\":\"Mapping\",\"from\":\"source:Transactions:isScheduled:\",\"to\":\"target:Transactions:isScheduled:\",\"fromPort\":\"source:Transactions:isScheduled:\",\"toPort\":\"target:Transactions:isScheduled:\",\"visible\":true,\"common\":true,\"__gohashid\":655267},{\"category\":\"Mapping\",\"from\":\"source:Transactions:numberOfRecurrences:\",\"to\":\"target:Transactions:numberOfRecurrences:\",\"fromPort\":\"source:Transactions:numberOfRecurrences:\",\"toPort\":\"target:Transactions:numberOfRecurrences:\",\"visible\":true,\"common\":true,\"__gohashid\":655274},{\"category\":\"Mapping\",\"from\":\"source:Transactions:payeeId:\",\"to\":\"target:Transactions:payeeId:\",\"fromPort\":\"source:Transactions:payeeId:\",\"toPort\":\"target:Transactions:payeeId:\",\"visible\":true,\"common\":true,\"__gohashid\":655281},{\"category\":\"Mapping\",\"from\":\"source:Transactions:payeeNickName:\",\"to\":\"target:Transactions:payeeNickName:\",\"fromPort\":\"source:Transactions:payeeNickName:\",\"toPort\":\"target:Transactions:payeeNickName:\",\"visible\":true,\"common\":true,\"__gohashid\":655288},{\"category\":\"Mapping\",\"from\":\"source:Transactions:payPersonEmail:\",\"to\":\"target:Transactions:payPersonEmail:\",\"fromPort\":\"source:Transactions:payPersonEmail:\",\"toPort\":\"target:Transactions:payPersonEmail:\",\"visible\":true,\"common\":true,\"__gohashid\":655295},{\"category\":\"Mapping\",\"from\":\"source:Transactions:payPersonName:\",\"to\":\"target:Transactions:payPersonName:\",\"fromPort\":\"source:Transactions:payPersonName:\",\"toPort\":\"target:Transactions:payPersonName:\",\"visible\":true,\"common\":true,\"__gohashid\":655302},{\"category\":\"Mapping\",\"from\":\"source:Transactions:payPersonPhone:\",\"to\":\"target:Transactions:payPersonPhone:\",\"fromPort\":\"source:Transactions:payPersonPhone:\",\"toPort\":\"target:Transactions:payPersonPhone:\",\"visible\":true,\"common\":true,\"__gohashid\":655309},{\"category\":\"Mapping\",\"from\":\"source:Transactions:scheduledDate:\",\"to\":\"target:Transactions:scheduledDate:\",\"fromPort\":\"source:Transactions:scheduledDate:\",\"toPort\":\"target:Transactions:scheduledDate:\",\"visible\":true,\"common\":true,\"__gohashid\":655316},{\"category\":\"Mapping\",\"from\":\"source:Transactions:statusDescription:\",\"to\":\"target:Transactions:statusDescription:\",\"fromPort\":\"source:Transactions:statusDescription:\",\"toPort\":\"target:Transactions:statusDescription:\",\"visible\":true,\"common\":true,\"__gohashid\":655323},{\"category\":\"Mapping\",\"from\":\"source:Transactions:toAccountName:\",\"to\":\"target:Transactions:toAccountName:\",\"fromPort\":\"source:Transactions:toAccountName:\",\"toPort\":\"target:Transactions:toAccountName:\",\"visible\":true,\"common\":true,\"__gohashid\":655330},{\"category\":\"Mapping\",\"from\":\"source:Transactions:toAccountNumber:\",\"to\":\"target:Transactions:toAccountNumber:\",\"fromPort\":\"source:Transactions:toAccountNumber:\",\"toPort\":\"target:Transactions:toAccountNumber:\",\"visible\":true,\"common\":true,\"__gohashid\":655337},{\"category\":\"Mapping\",\"from\":\"source:Transactions:toAccountType:\",\"to\":\"target:Transactions:toAccountType:\",\"fromPort\":\"source:Transactions:toAccountType:\",\"toPort\":\"target:Transactions:toAccountType:\",\"visible\":true,\"common\":true,\"__gohashid\":655344},{\"category\":\"Mapping\",\"from\":\"source:Transactions:transactionComments:\",\"to\":\"target:Transactions:transactionComments:\",\"fromPort\":\"source:Transactions:transactionComments:\",\"toPort\":\"target:Transactions:transactionComments:\",\"visible\":true,\"common\":true,\"__gohashid\":655351},{\"category\":\"Mapping\",\"from\":\"source:Transactions:transactionDate:\",\"to\":\"target:Transactions:transactionDate:\",\"fromPort\":\"source:Transactions:transactionDate:\",\"toPort\":\"target:Transactions:transactionDate:\",\"visible\":true,\"common\":true,\"__gohashid\":655358},{\"category\":\"Mapping\",\"from\":\"source:Transactions:transactionId:\",\"to\":\"target:Transactions:transactionId:\",\"fromPort\":\"source:Transactions:transactionId:\",\"toPort\":\"target:Transactions:transactionId:\",\"visible\":true,\"common\":true,\"__gohashid\":655365},{\"category\":\"Mapping\",\"from\":\"source:Transactions:transactionsNotes:\",\"to\":\"target:Transactions:transactionsNotes:\",\"fromPort\":\"source:Transactions:transactionsNotes:\",\"toPort\":\"target:Transactions:transactionsNotes:\",\"visible\":true,\"common\":true,\"__gohashid\":655372},{\"category\":\"Mapping\",\"from\":\"source:Transactions:transactiontype:\",\"to\":\"target:Transactions:transactionType:\",\"fromPort\":\"source:Transactions:transactiontype:\",\"toPort\":\"target:Transactions:transactionType:\",\"visible\":true,\"common\":true,\"__gohashid\":655379},{\"from\":\"target\",\"to\":\"target:Transactions\",\"fromPort\":\"target\",\"toPort\":\"target:Transactions\",\"visible\":true,\"common\":false,\"__gohashid\":11916},{\"from\":\"target:Transactions\",\"to\":\"target:Transactions:fields\",\"fromPort\":\"target:Transactions\",\"toPort\":\"target:Transactions:fields\",\"visible\":true,\"common\":false,\"__gohashid\":11917},{\"from\":\"target:Transactions:fields\",\"to\":\"target:Transactions:accountID:\",\"fromPort\":\"target:Transactions:fields\",\"toPort\":\"target:Transactions:accountID:\",\"visible\":true,\"common\":false,\"__gohashid\":11918},{\"from\":\"target:Transactions:fields\",\"to\":\"target:Transactions:accountNumber:\",\"fromPort\":\"target:Transactions:fields\",\"toPort\":\"target:Transactions:accountNumber:\",\"visible\":true,\"common\":false,\"__gohashid\":11919},{\"from\":\"target:Transactions:fields\",\"to\":\"target:Transactions:amount:\",\"fromPort\":\"target:Transactions:fields\",\"toPort\":\"target:Transactions:amount:\",\"visible\":true,\"common\":false,\"__gohashid\":11920},{\"from\":\"target:Transactions:fields\",\"to\":\"target:Transactions:amountTransferedTillNow:\",\"fromPort\":\"target:Transactions:fields\",\"toPort\":\"target:Transactions:amountTransferedTillNow:\",\"visible\":true,\"common\":false,\"__gohashid\":11921},{\"from\":\"target:Transactions:fields\",\"to\":\"target:Transactions:authenticationRequired:\",\"fromPort\":\"target:Transactions:fields\",\"toPort\":\"target:Transactions:authenticationRequired:\",\"visible\":true,\"common\":false,\"__gohashid\":11922},{\"from\":\"target:Transactions:fields\",\"to\":\"target:Transactions:billCategory:\",\"fromPort\":\"target:Transactions:fields\",\"toPort\":\"target:Transactions:billCategory:\",\"visible\":true,\"common\":false,\"__gohashid\":11923},{\"from\":\"target:Transactions:fields\",\"to\":\"target:Transactions:billCategoryId:\",\"fromPort\":\"target:Transactions:fields\",\"toPort\":\"target:Transactions:billCategoryId:\",\"visible\":true,\"common\":false,\"__gohashid\":11924},{\"from\":\"target:Transactions:fields\",\"to\":\"target:Transactions:billDueAmount:\",\"fromPort\":\"target:Transactions:fields\",\"toPort\":\"target:Transactions:billDueAmount:\",\"visible\":true,\"common\":false,\"__gohashid\":11925},{\"from\":\"target:Transactions:fields\",\"to\":\"target:Transactions:billDueDate:\",\"fromPort\":\"target:Transactions:fields\",\"toPort\":\"target:Transactions:billDueDate:\",\"visible\":true,\"common\":false,\"__gohashid\":11926},{\"from\":\"target:Transactions:fields\",\"to\":\"target:Transactions:billerCategoryName:\",\"fromPort\":\"target:Transactions:fields\",\"toPort\":\"target:Transactions:billerCategoryName:\",\"visible\":true,\"common\":false,\"__gohashid\":11927},{\"from\":\"target:Transactions:fields\",\"to\":\"target:Transactions:billGeneratedDate:\",\"fromPort\":\"target:Transactions:fields\",\"toPort\":\"target:Transactions:billGeneratedDate:\",\"visible\":true,\"common\":false,\"__gohashid\":11928},{\"from\":\"target:Transactions:fields\",\"to\":\"target:Transactions:billid:\",\"fromPort\":\"target:Transactions:fields\",\"toPort\":\"target:Transactions:billid:\",\"visible\":true,\"common\":false,\"__gohashid\":11929},{\"from\":\"target:Transactions:fields\",\"to\":\"target:Transactions:billPaidAmount:\",\"fromPort\":\"target:Transactions:fields\",\"toPort\":\"target:Transactions:billPaidAmount:\",\"visible\":true,\"common\":false,\"__gohashid\":11930},{\"from\":\"target:Transactions:fields\",\"to\":\"target:Transactions:billPaidDate:\",\"fromPort\":\"target:Transactions:fields\",\"toPort\":\"target:Transactions:billPaidDate:\",\"visible\":true,\"common\":false,\"__gohashid\":11931},{\"from\":\"target:Transactions:fields\",\"to\":\"target:Transactions:bulkPayString:\",\"fromPort\":\"target:Transactions:fields\",\"toPort\":\"target:Transactions:bulkPayString:\",\"visible\":true,\"common\":false,\"__gohashid\":11932},{\"from\":\"target:Transactions:fields\",\"to\":\"target:Transactions:cashlessEmail:\",\"fromPort\":\"target:Transactions:fields\",\"toPort\":\"target:Transactions:cashlessEmail:\",\"visible\":true,\"common\":false,\"__gohashid\":11933},{\"from\":\"target:Transactions:fields\",\"to\":\"target:Transactions:cashlessMode:\",\"fromPort\":\"target:Transactions:fields\",\"toPort\":\"target:Transactions:cashlessMode:\",\"visible\":true,\"common\":false,\"__gohashid\":11934},{\"from\":\"target:Transactions:fields\",\"to\":\"target:Transactions:cashlessOTP:\",\"fromPort\":\"target:Transactions:fields\",\"toPort\":\"target:Transactions:cashlessOTP:\",\"visible\":true,\"common\":false,\"__gohashid\":11935},{\"from\":\"target:Transactions:fields\",\"to\":\"target:Transactions:cashlessOTPValidDate:\",\"fromPort\":\"target:Transactions:fields\",\"toPort\":\"target:Transactions:cashlessOTPValidDate:\",\"visible\":true,\"common\":false,\"__gohashid\":11936},{\"from\":\"target:Transactions:fields\",\"to\":\"target:Transactions:cashlessPersonName:\",\"fromPort\":\"target:Transactions:fields\",\"toPort\":\"target:Transactions:cashlessPersonName:\",\"visible\":true,\"common\":false,\"__gohashid\":11937},{\"from\":\"target:Transactions:fields\",\"to\":\"target:Transactions:cashlessPhone:\",\"fromPort\":\"target:Transactions:fields\",\"toPort\":\"target:Transactions:cashlessPhone:\",\"visible\":true,\"common\":false,\"__gohashid\":11938},{\"from\":\"target:Transactions:fields\",\"to\":\"target:Transactions:cashlessPin:\",\"fromPort\":\"target:Transactions:fields\",\"toPort\":\"target:Transactions:cashlessPin:\",\"visible\":true,\"common\":false,\"__gohashid\":11939},{\"from\":\"target:Transactions:fields\",\"to\":\"target:Transactions:cashlessSecurityCode:\",\"fromPort\":\"target:Transactions:fields\",\"toPort\":\"target:Transactions:cashlessSecurityCode:\",\"visible\":true,\"common\":false,\"__gohashid\":11940},{\"from\":\"target:Transactions:fields\",\"to\":\"target:Transactions:cashWithdrawalTransactionStatus:\",\"fromPort\":\"target:Transactions:fields\",\"toPort\":\"target:Transactions:cashWithdrawalTransactionStatus:\",\"visible\":true,\"common\":false,\"__gohashid\":11941},{\"from\":\"target:Transactions:fields\",\"to\":\"target:Transactions:category:\",\"fromPort\":\"target:Transactions:fields\",\"toPort\":\"target:Transactions:category:\",\"visible\":true,\"common\":false,\"__gohashid\":11942},{\"from\":\"target:Transactions:fields\",\"to\":\"target:Transactions:checkImage:\",\"fromPort\":\"target:Transactions:fields\",\"toPort\":\"target:Transactions:checkImage:\",\"visible\":true,\"common\":false,\"__gohashid\":11943},{\"from\":\"target:Transactions:fields\",\"to\":\"target:Transactions:checkImageBack:\",\"fromPort\":\"target:Transactions:fields\",\"toPort\":\"target:Transactions:checkImageBack:\",\"visible\":true,\"common\":false,\"__gohashid\":11944},{\"from\":\"target:Transactions:fields\",\"to\":\"target:Transactions:checkNumber:\",\"fromPort\":\"target:Transactions:fields\",\"toPort\":\"target:Transactions:checkNumber:\",\"visible\":true,\"common\":false,\"__gohashid\":11945},{\"from\":\"target:Transactions:fields\",\"to\":\"target:Transactions:deliverBy:\",\"fromPort\":\"target:Transactions:fields\",\"toPort\":\"target:Transactions:deliverBy:\",\"visible\":true,\"common\":false,\"__gohashid\":11946},{\"from\":\"target:Transactions:fields\",\"to\":\"target:Transactions:description:\",\"fromPort\":\"target:Transactions:fields\",\"toPort\":\"target:Transactions:description:\",\"visible\":true,\"common\":false,\"__gohashid\":11947},{\"from\":\"target:Transactions:fields\",\"to\":\"target:Transactions:eBillEnable:\",\"fromPort\":\"target:Transactions:fields\",\"toPort\":\"target:Transactions:eBillEnable:\",\"visible\":true,\"common\":false,\"__gohashid\":11948},{\"from\":\"target:Transactions:fields\",\"to\":\"target:Transactions:eBillSupport:\",\"fromPort\":\"target:Transactions:fields\",\"toPort\":\"target:Transactions:eBillSupport:\",\"visible\":true,\"common\":false,\"__gohashid\":11949},{\"from\":\"target:Transactions:fields\",\"to\":\"target:Transactions:ebillURL:\",\"fromPort\":\"target:Transactions:fields\",\"toPort\":\"target:Transactions:ebillURL:\",\"visible\":true,\"common\":false,\"__gohashid\":11950},{\"from\":\"target:Transactions:fields\",\"to\":\"target:Transactions:errmsg:\",\"fromPort\":\"target:Transactions:fields\",\"toPort\":\"target:Transactions:errmsg:\",\"visible\":true,\"common\":false,\"__gohashid\":11951},{\"from\":\"target:Transactions:fields\",\"to\":\"target:Transactions:ExternalAccountNumber:\",\"fromPort\":\"target:Transactions:fields\",\"toPort\":\"target:Transactions:ExternalAccountNumber:\",\"visible\":true,\"common\":false,\"__gohashid\":11952},{\"from\":\"target:Transactions:fields\",\"to\":\"target:Transactions:firstDeposit:\",\"fromPort\":\"target:Transactions:fields\",\"toPort\":\"target:Transactions:firstDeposit:\",\"visible\":true,\"common\":false,\"__gohashid\":11953},{\"from\":\"target:Transactions:fields\",\"to\":\"target:Transactions:firstRecordNumber:\",\"fromPort\":\"target:Transactions:fields\",\"toPort\":\"target:Transactions:firstRecordNumber:\",\"visible\":true,\"common\":false,\"__gohashid\":11954},{\"from\":\"target:Transactions:fields\",\"to\":\"target:Transactions:frequencyEndDate:\",\"fromPort\":\"target:Transactions:fields\",\"toPort\":\"target:Transactions:frequencyEndDate:\",\"visible\":true,\"common\":false,\"__gohashid\":11955},{\"from\":\"target:Transactions:fields\",\"to\":\"target:Transactions:frequencyStartDate:\",\"fromPort\":\"target:Transactions:fields\",\"toPort\":\"target:Transactions:frequencyStartDate:\",\"visible\":true,\"common\":false,\"__gohashid\":11956},{\"from\":\"target:Transactions:fields\",\"to\":\"target:Transactions:frequencyType:\",\"fromPort\":\"target:Transactions:fields\",\"toPort\":\"target:Transactions:frequencyType:\",\"visible\":true,\"common\":false,\"__gohashid\":11957},{\"from\":\"target:Transactions:fields\",\"to\":\"target:Transactions:fromAccountBalance:\",\"fromPort\":\"target:Transactions:fields\",\"toPort\":\"target:Transactions:fromAccountBalance:\",\"visible\":true,\"common\":false,\"__gohashid\":11958},{\"from\":\"target:Transactions:fields\",\"to\":\"target:Transactions:fromAccountName:\",\"fromPort\":\"target:Transactions:fields\",\"toPort\":\"target:Transactions:fromAccountName:\",\"visible\":true,\"common\":false,\"__gohashid\":11959},{\"from\":\"target:Transactions:fields\",\"to\":\"target:Transactions:fromAccountNumber:\",\"fromPort\":\"target:Transactions:fields\",\"toPort\":\"target:Transactions:fromAccountNumber:\",\"visible\":true,\"common\":false,\"__gohashid\":11960},{\"from\":\"target:Transactions:fields\",\"to\":\"target:Transactions:fromAccountType:\",\"fromPort\":\"target:Transactions:fields\",\"toPort\":\"target:Transactions:fromAccountType:\",\"visible\":true,\"common\":false,\"__gohashid\":11961},{\"from\":\"target:Transactions:fields\",\"to\":\"target:Transactions:fromCheckNumber:\",\"fromPort\":\"target:Transactions:fields\",\"toPort\":\"target:Transactions:fromCheckNumber:\",\"visible\":true,\"common\":false,\"__gohashid\":11962},{\"from\":\"target:Transactions:fields\",\"to\":\"target:Transactions:fromNickName:\",\"fromPort\":\"target:Transactions:fields\",\"toPort\":\"target:Transactions:fromNickName:\",\"visible\":true,\"common\":false,\"__gohashid\":11963},{\"from\":\"target:Transactions:fields\",\"to\":\"target:Transactions:hasDepositImage:\",\"fromPort\":\"target:Transactions:fields\",\"toPort\":\"target:Transactions:hasDepositImage:\",\"visible\":true,\"common\":false,\"__gohashid\":11964},{\"from\":\"target:Transactions:fields\",\"to\":\"target:Transactions:isScheduled:\",\"fromPort\":\"target:Transactions:fields\",\"toPort\":\"target:Transactions:isScheduled:\",\"visible\":true,\"common\":false,\"__gohashid\":11965},{\"from\":\"target:Transactions:fields\",\"to\":\"target:Transactions:lastRecordNumber:\",\"fromPort\":\"target:Transactions:fields\",\"toPort\":\"target:Transactions:lastRecordNumber:\",\"visible\":true,\"common\":false,\"__gohashid\":11966},{\"from\":\"target:Transactions:fields\",\"to\":\"target:Transactions:limit:\",\"fromPort\":\"target:Transactions:fields\",\"toPort\":\"target:Transactions:limit:\",\"visible\":true,\"common\":false,\"__gohashid\":11967},{\"from\":\"target:Transactions:fields\",\"to\":\"target:Transactions:numberOfRecurrences:\",\"fromPort\":\"target:Transactions:fields\",\"toPort\":\"target:Transactions:numberOfRecurrences:\",\"visible\":true,\"common\":false,\"__gohashid\":11968},{\"from\":\"target:Transactions:fields\",\"to\":\"target:Transactions:offset:\",\"fromPort\":\"target:Transactions:fields\",\"toPort\":\"target:Transactions:offset:\",\"visible\":true,\"common\":false,\"__gohashid\":11969},{\"from\":\"target:Transactions:fields\",\"to\":\"target:Transactions:order:\",\"fromPort\":\"target:Transactions:fields\",\"toPort\":\"target:Transactions:order:\",\"visible\":true,\"common\":false,\"__gohashid\":11970},{\"from\":\"target:Transactions:fields\",\"to\":\"target:Transactions:otp:\",\"fromPort\":\"target:Transactions:fields\",\"toPort\":\"target:Transactions:otp:\",\"visible\":true,\"common\":false,\"__gohashid\":11971},{\"from\":\"target:Transactions:fields\",\"to\":\"target:Transactions:p2pContact:\",\"fromPort\":\"target:Transactions:fields\",\"toPort\":\"target:Transactions:p2pContact:\",\"visible\":true,\"common\":false,\"__gohashid\":11972},{\"from\":\"target:Transactions:fields\",\"to\":\"target:Transactions:p2pRequiredDate:\",\"fromPort\":\"target:Transactions:fields\",\"toPort\":\"target:Transactions:p2pRequiredDate:\",\"visible\":true,\"common\":false,\"__gohashid\":11973},{\"from\":\"target:Transactions:fields\",\"to\":\"target:Transactions:payeeAccountNumber:\",\"fromPort\":\"target:Transactions:fields\",\"toPort\":\"target:Transactions:payeeAccountNumber:\",\"visible\":true,\"common\":false,\"__gohashid\":11974},{\"from\":\"target:Transactions:fields\",\"to\":\"target:Transactions:payeeAddressLine1:\",\"fromPort\":\"target:Transactions:fields\",\"toPort\":\"target:Transactions:payeeAddressLine1:\",\"visible\":true,\"common\":false,\"__gohashid\":11975},{\"from\":\"target:Transactions:fields\",\"to\":\"target:Transactions:payeeId:\",\"fromPort\":\"target:Transactions:fields\",\"toPort\":\"target:Transactions:payeeId:\",\"visible\":true,\"common\":false,\"__gohashid\":11976},{\"from\":\"target:Transactions:fields\",\"to\":\"target:Transactions:payeeName:\",\"fromPort\":\"target:Transactions:fields\",\"toPort\":\"target:Transactions:payeeName:\",\"visible\":true,\"common\":false,\"__gohashid\":11977},{\"from\":\"target:Transactions:fields\",\"to\":\"target:Transactions:payeeNickName:\",\"fromPort\":\"target:Transactions:fields\",\"toPort\":\"target:Transactions:payeeNickName:\",\"visible\":true,\"common\":false,\"__gohashid\":11978},{\"from\":\"target:Transactions:fields\",\"to\":\"target:Transactions:payoffFlag:\",\"fromPort\":\"target:Transactions:fields\",\"toPort\":\"target:Transactions:payoffFlag:\",\"visible\":true,\"common\":false,\"__gohashid\":11979},{\"from\":\"target:Transactions:fields\",\"to\":\"target:Transactions:payPersonEmail:\",\"fromPort\":\"target:Transactions:fields\",\"toPort\":\"target:Transactions:payPersonEmail:\",\"visible\":true,\"common\":false,\"__gohashid\":11980},{\"from\":\"target:Transactions:fields\",\"to\":\"target:Transactions:payPersonName:\",\"fromPort\":\"target:Transactions:fields\",\"toPort\":\"target:Transactions:payPersonName:\",\"visible\":true,\"common\":false,\"__gohashid\":11981},{\"from\":\"target:Transactions:fields\",\"to\":\"target:Transactions:payPersonPhone:\",\"fromPort\":\"target:Transactions:fields\",\"toPort\":\"target:Transactions:payPersonPhone:\",\"visible\":true,\"common\":false,\"__gohashid\":11982},{\"from\":\"target:Transactions:fields\",\"to\":\"target:Transactions:penaltyFlag:\",\"fromPort\":\"target:Transactions:fields\",\"toPort\":\"target:Transactions:penaltyFlag:\",\"visible\":true,\"common\":false,\"__gohashid\":11983},{\"from\":\"target:Transactions:fields\",\"to\":\"target:Transactions:personId:\",\"fromPort\":\"target:Transactions:fields\",\"toPort\":\"target:Transactions:personId:\",\"visible\":true,\"common\":false,\"__gohashid\":11984},{\"from\":\"target:Transactions:fields\",\"to\":\"target:Transactions:recurrenceDesc:\",\"fromPort\":\"target:Transactions:fields\",\"toPort\":\"target:Transactions:recurrenceDesc:\",\"visible\":true,\"common\":false,\"__gohashid\":11985},{\"from\":\"target:Transactions:fields\",\"to\":\"target:Transactions:referenceId:\",\"fromPort\":\"target:Transactions:fields\",\"toPort\":\"target:Transactions:referenceId:\",\"visible\":true,\"common\":false,\"__gohashid\":11986},{\"from\":\"target:Transactions:fields\",\"to\":\"target:Transactions:scheduledDate:\",\"fromPort\":\"target:Transactions:fields\",\"toPort\":\"target:Transactions:scheduledDate:\",\"visible\":true,\"common\":false,\"__gohashid\":11987},{\"from\":\"target:Transactions:fields\",\"to\":\"target:Transactions:searchAmount:\",\"fromPort\":\"target:Transactions:fields\",\"toPort\":\"target:Transactions:searchAmount:\",\"visible\":true,\"common\":false,\"__gohashid\":11988},{\"from\":\"target:Transactions:fields\",\"to\":\"target:Transactions:searchDateRange:\",\"fromPort\":\"target:Transactions:fields\",\"toPort\":\"target:Transactions:searchDateRange:\",\"visible\":true,\"common\":false,\"__gohashid\":11989},{\"from\":\"target:Transactions:fields\",\"to\":\"target:Transactions:searchDescription:\",\"fromPort\":\"target:Transactions:fields\",\"toPort\":\"target:Transactions:searchDescription:\",\"visible\":true,\"common\":false,\"__gohashid\":11990},{\"from\":\"target:Transactions:fields\",\"to\":\"target:Transactions:searchEndDate:\",\"fromPort\":\"target:Transactions:fields\",\"toPort\":\"target:Transactions:searchEndDate:\",\"visible\":true,\"common\":false,\"__gohashid\":11991},{\"from\":\"target:Transactions:fields\",\"to\":\"target:Transactions:searchMaxAmount:\",\"fromPort\":\"target:Transactions:fields\",\"toPort\":\"target:Transactions:searchMaxAmount:\",\"visible\":true,\"common\":false,\"__gohashid\":11992},{\"from\":\"target:Transactions:fields\",\"to\":\"target:Transactions:searchMinAmount:\",\"fromPort\":\"target:Transactions:fields\",\"toPort\":\"target:Transactions:searchMinAmount:\",\"visible\":true,\"common\":false,\"__gohashid\":11993},{\"from\":\"target:Transactions:fields\",\"to\":\"target:Transactions:searchStartDate:\",\"fromPort\":\"target:Transactions:fields\",\"toPort\":\"target:Transactions:searchStartDate:\",\"visible\":true,\"common\":false,\"__gohashid\":11994},{\"from\":\"target:Transactions:fields\",\"to\":\"target:Transactions:searchTransactionType:\",\"fromPort\":\"target:Transactions:fields\",\"toPort\":\"target:Transactions:searchTransactionType:\",\"visible\":true,\"common\":false,\"__gohashid\":11995},{\"from\":\"target:Transactions:fields\",\"to\":\"target:Transactions:searchType:\",\"fromPort\":\"target:Transactions:fields\",\"toPort\":\"target:Transactions:searchType:\",\"visible\":true,\"common\":false,\"__gohashid\":11996},{\"from\":\"target:Transactions:fields\",\"to\":\"target:Transactions:secondaryEmail:\",\"fromPort\":\"target:Transactions:fields\",\"toPort\":\"target:Transactions:secondaryEmail:\",\"visible\":true,\"common\":false,\"__gohashid\":11997},{\"from\":\"target:Transactions:fields\",\"to\":\"target:Transactions:secondaryEmail2:\",\"fromPort\":\"target:Transactions:fields\",\"toPort\":\"target:Transactions:secondaryEmail2:\",\"visible\":true,\"common\":false,\"__gohashid\":11998},{\"from\":\"target:Transactions:fields\",\"to\":\"target:Transactions:secondaryPhoneNumber2:\",\"fromPort\":\"target:Transactions:fields\",\"toPort\":\"target:Transactions:secondaryPhoneNumber2:\",\"visible\":true,\"common\":false,\"__gohashid\":11999},{\"from\":\"target:Transactions:fields\",\"to\":\"target:Transactions:secondDeposit:\",\"fromPort\":\"target:Transactions:fields\",\"toPort\":\"target:Transactions:secondDeposit:\",\"visible\":true,\"common\":false,\"__gohashid\":12000},{\"from\":\"target:Transactions:fields\",\"to\":\"target:Transactions:secondoryPhoneNumber:\",\"fromPort\":\"target:Transactions:fields\",\"toPort\":\"target:Transactions:secondoryPhoneNumber:\",\"visible\":true,\"common\":false,\"__gohashid\":12001},{\"from\":\"target:Transactions:fields\",\"to\":\"target:Transactions:sortBy:\",\"fromPort\":\"target:Transactions:fields\",\"toPort\":\"target:Transactions:sortBy:\",\"visible\":true,\"common\":false,\"__gohashid\":12002},{\"from\":\"target:Transactions:fields\",\"to\":\"target:Transactions:statusDescription:\",\"fromPort\":\"target:Transactions:fields\",\"toPort\":\"target:Transactions:statusDescription:\",\"visible\":true,\"common\":false,\"__gohashid\":12003},{\"from\":\"target:Transactions:fields\",\"to\":\"target:Transactions:success:\",\"fromPort\":\"target:Transactions:fields\",\"toPort\":\"target:Transactions:success:\",\"visible\":true,\"common\":false,\"__gohashid\":12004},{\"from\":\"target:Transactions:fields\",\"to\":\"target:Transactions:toAccountName:\",\"fromPort\":\"target:Transactions:fields\",\"toPort\":\"target:Transactions:toAccountName:\",\"visible\":true,\"common\":false,\"__gohashid\":12005},{\"from\":\"target:Transactions:fields\",\"to\":\"target:Transactions:toAccountNumber:\",\"fromPort\":\"target:Transactions:fields\",\"toPort\":\"target:Transactions:toAccountNumber:\",\"visible\":true,\"common\":false,\"__gohashid\":12006},{\"from\":\"target:Transactions:fields\",\"to\":\"target:Transactions:toAccountType:\",\"fromPort\":\"target:Transactions:fields\",\"toPort\":\"target:Transactions:toAccountType:\",\"visible\":true,\"common\":false,\"__gohashid\":12007},{\"from\":\"target:Transactions:fields\",\"to\":\"target:Transactions:toCheckNumber:\",\"fromPort\":\"target:Transactions:fields\",\"toPort\":\"target:Transactions:toCheckNumber:\",\"visible\":true,\"common\":false,\"__gohashid\":12008},{\"from\":\"target:Transactions:fields\",\"to\":\"target:Transactions:totalAmount:\",\"fromPort\":\"target:Transactions:fields\",\"toPort\":\"target:Transactions:totalAmount:\",\"visible\":true,\"common\":false,\"__gohashid\":12009},{\"from\":\"target:Transactions:fields\",\"to\":\"target:Transactions:transactionComments:\",\"fromPort\":\"target:Transactions:fields\",\"toPort\":\"target:Transactions:transactionComments:\",\"visible\":true,\"common\":false,\"__gohashid\":12010},{\"from\":\"target:Transactions:fields\",\"to\":\"target:Transactions:transactionDate:\",\"fromPort\":\"target:Transactions:fields\",\"toPort\":\"target:Transactions:transactionDate:\",\"visible\":true,\"common\":false,\"__gohashid\":12011},{\"from\":\"target:Transactions:fields\",\"to\":\"target:Transactions:transactionId:\",\"fromPort\":\"target:Transactions:fields\",\"toPort\":\"target:Transactions:transactionId:\",\"visible\":true,\"common\":false,\"__gohashid\":12012},{\"from\":\"target:Transactions:fields\",\"to\":\"target:Transactions:transactionsNotes:\",\"fromPort\":\"target:Transactions:fields\",\"toPort\":\"target:Transactions:transactionsNotes:\",\"visible\":true,\"common\":false,\"__gohashid\":12013},{\"from\":\"target:Transactions:fields\",\"to\":\"target:Transactions:transactionType:\",\"fromPort\":\"target:Transactions:fields\",\"toPort\":\"target:Transactions:transactionType:\",\"visible\":true,\"common\":false,\"__gohashid\":12014},{\"from\":\"target:Transactions:fields\",\"to\":\"target:Transactions:validDate:\",\"fromPort\":\"target:Transactions:fields\",\"toPort\":\"target:Transactions:validDate:\",\"visible\":true,\"common\":false,\"__gohashid\":12015},{\"from\":\"target:Transactions:fields\",\"to\":\"target:Transactions:viewReportLink:\",\"fromPort\":\"target:Transactions:fields\",\"toPort\":\"target:Transactions:viewReportLink:\",\"visible\":true,\"common\":false,\"__gohashid\":12016},{\"from\":\"target:Transactions:fields\",\"to\":\"target:Transactions:overdraft:\",\"fromPort\":\"target:Transactions:fields\",\"toPort\":\"target:Transactions:overdraft:\",\"visible\":true,\"common\":false,\"__gohashid\":12017},{\"from\":\"target:Transactions:fields\",\"to\":\"target:Transactions:isPaypersonDeleted:\",\"fromPort\":\"target:Transactions:fields\",\"toPort\":\"target:Transactions:isPaypersonDeleted:\",\"visible\":true,\"common\":false,\"__gohashid\":12018},{\"from\":\"target:Transactions:fields\",\"to\":\"target:Transactions:fee:\",\"fromPort\":\"target:Transactions:fields\",\"toPort\":\"target:Transactions:fee:\",\"visible\":true,\"common\":false,\"__gohashid\":12019},{\"from\":\"target:Transactions:fields\",\"to\":\"target:Transactions:frontImage1:\",\"fromPort\":\"target:Transactions:fields\",\"toPort\":\"target:Transactions:frontImage1:\",\"visible\":true,\"common\":false,\"__gohashid\":12020},{\"from\":\"target:Transactions:fields\",\"to\":\"target:Transactions:frontImage2:\",\"fromPort\":\"target:Transactions:fields\",\"toPort\":\"target:Transactions:frontImage2:\",\"visible\":true,\"common\":false,\"__gohashid\":12021},{\"from\":\"target:Transactions:fields\",\"to\":\"target:Transactions:backImage1:\",\"fromPort\":\"target:Transactions:fields\",\"toPort\":\"target:Transactions:backImage1:\",\"visible\":true,\"common\":false,\"__gohashid\":12022},{\"from\":\"target:Transactions:fields\",\"to\":\"target:Transactions:backImage2:\",\"fromPort\":\"target:Transactions:fields\",\"toPort\":\"target:Transactions:backImage2:\",\"visible\":true,\"common\":false,\"__gohashid\":12023},{\"from\":\"target:Transactions:fields\",\"to\":\"target:Transactions:checkDesc:\",\"fromPort\":\"target:Transactions:fields\",\"toPort\":\"target:Transactions:checkDesc:\",\"visible\":true,\"common\":false,\"__gohashid\":12024},{\"from\":\"target:Transactions:fields\",\"to\":\"target:Transactions:checkNumber1:\",\"fromPort\":\"target:Transactions:fields\",\"toPort\":\"target:Transactions:checkNumber1:\",\"visible\":true,\"common\":false,\"__gohashid\":12025},{\"from\":\"target:Transactions:fields\",\"to\":\"target:Transactions:checkNumber2:\",\"fromPort\":\"target:Transactions:fields\",\"toPort\":\"target:Transactions:checkNumber2:\",\"visible\":true,\"common\":false,\"__gohashid\":12026},{\"from\":\"target:Transactions:fields\",\"to\":\"target:Transactions:bankName1:\",\"fromPort\":\"target:Transactions:fields\",\"toPort\":\"target:Transactions:bankName1:\",\"visible\":true,\"common\":false,\"__gohashid\":12027},{\"from\":\"target:Transactions:fields\",\"to\":\"target:Transactions:bankName2:\",\"fromPort\":\"target:Transactions:fields\",\"toPort\":\"target:Transactions:bankName2:\",\"visible\":true,\"common\":false,\"__gohashid\":12028},{\"from\":\"target:Transactions:fields\",\"to\":\"target:Transactions:withdrawlAmount1:\",\"fromPort\":\"target:Transactions:fields\",\"toPort\":\"target:Transactions:withdrawlAmount1:\",\"visible\":true,\"common\":false,\"__gohashid\":12029},{\"from\":\"target:Transactions:fields\",\"to\":\"target:Transactions:withdrawlAmount2:\",\"fromPort\":\"target:Transactions:fields\",\"toPort\":\"target:Transactions:withdrawlAmount2:\",\"visible\":true,\"common\":false,\"__gohashid\":12030},{\"from\":\"target:Transactions:fields\",\"to\":\"target:Transactions:totalCheckAmount:\",\"fromPort\":\"target:Transactions:fields\",\"toPort\":\"target:Transactions:totalCheckAmount:\",\"visible\":true,\"common\":false,\"__gohashid\":12031},{\"from\":\"target:Transactions:fields\",\"to\":\"target:Transactions:cashAmount:\",\"fromPort\":\"target:Transactions:fields\",\"toPort\":\"target:Transactions:cashAmount:\",\"visible\":true,\"common\":false,\"__gohashid\":12032},{\"from\":\"target:Transactions:fields\",\"to\":\"target:Transactions:payeeCurrency:\",\"fromPort\":\"target:Transactions:fields\",\"toPort\":\"target:Transactions:payeeCurrency:\",\"visible\":true,\"common\":false,\"__gohashid\":12033},{\"from\":\"target:Transactions:fields\",\"to\":\"target:Transactions:swiftCode:\",\"fromPort\":\"target:Transactions:fields\",\"toPort\":\"target:Transactions:swiftCode:\",\"visible\":true,\"common\":false,\"__gohashid\":12034},{\"from\":\"target:Transactions:fields\",\"to\":\"target:Transactions:wireAccountType:\",\"fromPort\":\"target:Transactions:fields\",\"toPort\":\"target:Transactions:wireAccountType:\",\"visible\":true,\"common\":false,\"__gohashid\":12035},{\"from\":\"target:Transactions:fields\",\"to\":\"target:Transactions:country:\",\"fromPort\":\"target:Transactions:fields\",\"toPort\":\"target:Transactions:country:\",\"visible\":true,\"common\":false,\"__gohashid\":12036},{\"from\":\"target:Transactions:fields\",\"to\":\"target:Transactions:IBAN:\",\"fromPort\":\"target:Transactions:fields\",\"toPort\":\"target:Transactions:IBAN:\",\"visible\":true,\"common\":false,\"__gohashid\":12037},{\"from\":\"target:Transactions:fields\",\"to\":\"target:Transactions:bankName:\",\"fromPort\":\"target:Transactions:fields\",\"toPort\":\"target:Transactions:bankName:\",\"visible\":true,\"common\":false,\"__gohashid\":12038},{\"from\":\"target:Transactions:fields\",\"to\":\"target:Transactions:routingNumber:\",\"fromPort\":\"target:Transactions:fields\",\"toPort\":\"target:Transactions:routingNumber:\",\"visible\":true,\"common\":false,\"__gohashid\":12039},{\"from\":\"target:Transactions:fields\",\"to\":\"target:Transactions:internationalRoutingCode:\",\"fromPort\":\"target:Transactions:fields\",\"toPort\":\"target:Transactions:internationalRoutingCode:\",\"visible\":true,\"common\":false,\"__gohashid\":12040},{\"from\":\"target:Transactions:fields\",\"to\":\"target:Transactions:zipCode:\",\"fromPort\":\"target:Transactions:fields\",\"toPort\":\"target:Transactions:zipCode:\",\"visible\":true,\"common\":false,\"__gohashid\":12041},{\"from\":\"target:Transactions:fields\",\"to\":\"target:Transactions:cityName:\",\"fromPort\":\"target:Transactions:fields\",\"toPort\":\"target:Transactions:cityName:\",\"visible\":true,\"common\":false,\"__gohashid\":12042},{\"from\":\"target:Transactions:fields\",\"to\":\"target:Transactions:state:\",\"fromPort\":\"target:Transactions:fields\",\"toPort\":\"target:Transactions:state:\",\"visible\":true,\"common\":false,\"__gohashid\":12043},{\"from\":\"target:Transactions:fields\",\"to\":\"target:Transactions:bankAddressLine1:\",\"fromPort\":\"target:Transactions:fields\",\"toPort\":\"target:Transactions:bankAddressLine1:\",\"visible\":true,\"common\":false,\"__gohashid\":12044},{\"from\":\"target:Transactions:fields\",\"to\":\"target:Transactions:bankAddressLine2:\",\"fromPort\":\"target:Transactions:fields\",\"toPort\":\"target:Transactions:bankAddressLine2:\",\"visible\":true,\"common\":false,\"__gohashid\":12045},{\"from\":\"target:Transactions:fields\",\"to\":\"target:Transactions:bankCity:\",\"fromPort\":\"target:Transactions:fields\",\"toPort\":\"target:Transactions:bankCity:\",\"visible\":true,\"common\":false,\"__gohashid\":12046},{\"from\":\"target:Transactions:fields\",\"to\":\"target:Transactions:bankState:\",\"fromPort\":\"target:Transactions:fields\",\"toPort\":\"target:Transactions:bankState:\",\"visible\":true,\"common\":false,\"__gohashid\":12047},{\"from\":\"target:Transactions:fields\",\"to\":\"target:Transactions:bankZip:\",\"fromPort\":\"target:Transactions:fields\",\"toPort\":\"target:Transactions:bankZip:\",\"visible\":true,\"common\":false,\"__gohashid\":12048},{\"from\":\"target:Transactions:fields\",\"to\":\"target:Transactions:payeeType:\",\"fromPort\":\"target:Transactions:fields\",\"toPort\":\"target:Transactions:payeeType:\",\"visible\":true,\"common\":false,\"__gohashid\":12049},{\"from\":\"target:Transactions:fields\",\"to\":\"target:Transactions:disputeReason:\",\"fromPort\":\"target:Transactions:fields\",\"toPort\":\"target:Transactions:disputeReason:\",\"visible\":true,\"common\":false,\"__gohashid\":12050},{\"from\":\"target:Transactions:fields\",\"to\":\"target:Transactions:disputeDescription:\",\"fromPort\":\"target:Transactions:fields\",\"toPort\":\"target:Transactions:disputeDescription:\",\"visible\":true,\"common\":false,\"__gohashid\":12051},{\"from\":\"target:Transactions:fields\",\"to\":\"target:Transactions:checkDateOfIssue:\",\"fromPort\":\"target:Transactions:fields\",\"toPort\":\"target:Transactions:checkDateOfIssue:\",\"visible\":true,\"common\":false,\"__gohashid\":12052},{\"from\":\"target:Transactions:fields\",\"to\":\"target:Transactions:checkReason:\",\"fromPort\":\"target:Transactions:fields\",\"toPort\":\"target:Transactions:checkReason:\",\"visible\":true,\"common\":false,\"__gohashid\":12053},{\"from\":\"target:Transactions:fields\",\"to\":\"target:Transactions:isPayeeDeleted:\",\"fromPort\":\"target:Transactions:fields\",\"toPort\":\"target:Transactions:isPayeeDeleted:\",\"visible\":true,\"common\":false,\"__gohashid\":12054},{\"from\":\"target:Transactions:fields\",\"to\":\"target:Transactions:payeeAddressLine2:\",\"fromPort\":\"target:Transactions:fields\",\"toPort\":\"target:Transactions:payeeAddressLine2:\",\"visible\":true,\"common\":false,\"__gohashid\":12055},{\"from\":\"target:Transactions:fields\",\"to\":\"target:Transactions:amountRecieved:\",\"fromPort\":\"target:Transactions:fields\",\"toPort\":\"target:Transactions:amountRecieved:\",\"visible\":true,\"common\":false,\"__gohashid\":12056},{\"from\":\"target:Transactions:fields\",\"to\":\"target:Transactions:requestValidityInMonths:\",\"fromPort\":\"target:Transactions:fields\",\"toPort\":\"target:Transactions:requestValidityInMonths:\",\"visible\":true,\"common\":false,\"__gohashid\":12057},{\"from\":\"target:Transactions:fields\",\"to\":\"target:Transactions:requestValidity:\",\"fromPort\":\"target:Transactions:fields\",\"toPort\":\"target:Transactions:requestValidity:\",\"visible\":true,\"common\":false,\"__gohashid\":12058},{\"from\":\"target:Transactions:fields\",\"to\":\"target:Transactions:requestType:\",\"fromPort\":\"target:Transactions:fields\",\"toPort\":\"target:Transactions:requestType:\",\"visible\":true,\"common\":false,\"__gohashid\":12059},{\"from\":\"target:Transactions:fields\",\"to\":\"target:Transactions:disputeDate:\",\"fromPort\":\"target:Transactions:fields\",\"toPort\":\"target:Transactions:disputeDate:\",\"visible\":true,\"common\":false,\"__gohashid\":12060},{\"from\":\"target:Transactions:fields\",\"to\":\"target:Transactions:disputeStatus:\",\"fromPort\":\"target:Transactions:fields\",\"toPort\":\"target:Transactions:disputeStatus:\",\"visible\":true,\"common\":false,\"__gohashid\":12061},{\"from\":\"target:Transactions:fields\",\"to\":\"target:Transactions:isDisputed:\",\"fromPort\":\"target:Transactions:fields\",\"toPort\":\"target:Transactions:isDisputed:\",\"visible\":true,\"common\":false,\"__gohashid\":12062},{\"from\":\"target:Transactions:fields\",\"to\":\"target:Transactions:cardId:\",\"fromPort\":\"target:Transactions:fields\",\"toPort\":\"target:Transactions:cardId:\",\"visible\":true,\"common\":false,\"__gohashid\":12063},{\"from\":\"target:Transactions:fields\",\"to\":\"target:Transactions:isOverdraft:\",\"fromPort\":\"target:Transactions:fields\",\"toPort\":\"target:Transactions:isOverdraft:\",\"visible\":true,\"common\":false,\"__gohashid\":12064},{\"from\":\"target:Transactions:fields\",\"to\":\"target:Transactions:title:\",\"fromPort\":\"target:Transactions:fields\",\"toPort\":\"target:Transactions:title:\",\"visible\":true,\"common\":false,\"__gohashid\":12065},{\"from\":\"target:Transactions:fields\",\"to\":\"target:Transactions:generatedBy:\",\"fromPort\":\"target:Transactions:fields\",\"toPort\":\"target:Transactions:generatedBy:\",\"visible\":true,\"common\":false,\"__gohashid\":12066},{\"from\":\"target:Transactions:fields\",\"to\":\"target:Transactions:filters:\",\"fromPort\":\"target:Transactions:fields\",\"toPort\":\"target:Transactions:filters:\",\"visible\":true,\"common\":false,\"__gohashid\":12067},{\"from\":\"target:Transactions:fields\",\"to\":\"target:Transactions:statementReference:\",\"fromPort\":\"target:Transactions:fields\",\"toPort\":\"target:Transactions:statementReference:\",\"visible\":true,\"common\":false,\"__gohashid\":12068},{\"from\":\"target:Transactions:fields\",\"to\":\"target:Transactions:transCreditDebitIndicator:\",\"fromPort\":\"target:Transactions:fields\",\"toPort\":\"target:Transactions:transCreditDebitIndicator:\",\"visible\":true,\"common\":false,\"__gohashid\":12069},{\"from\":\"target:Transactions:fields\",\"to\":\"target:Transactions:bookingDateTime:\",\"fromPort\":\"target:Transactions:fields\",\"toPort\":\"target:Transactions:bookingDateTime:\",\"visible\":true,\"common\":false,\"__gohashid\":12070},{\"from\":\"target:Transactions:fields\",\"to\":\"target:Transactions:valueDateTime:\",\"fromPort\":\"target:Transactions:fields\",\"toPort\":\"target:Transactions:valueDateTime:\",\"visible\":true,\"common\":false,\"__gohashid\":12071},{\"from\":\"target:Transactions:fields\",\"to\":\"target:Transactions:transactionInformation:\",\"fromPort\":\"target:Transactions:fields\",\"toPort\":\"target:Transactions:transactionInformation:\",\"visible\":true,\"common\":false,\"__gohashid\":12072},{\"from\":\"target:Transactions:fields\",\"to\":\"target:Transactions:addressLine:\",\"fromPort\":\"target:Transactions:fields\",\"toPort\":\"target:Transactions:addressLine:\",\"visible\":true,\"common\":false,\"__gohashid\":12073},{\"from\":\"target:Transactions:fields\",\"to\":\"target:Transactions:transactionAmount:\",\"fromPort\":\"target:Transactions:fields\",\"toPort\":\"target:Transactions:transactionAmount:\",\"visible\":true,\"common\":false,\"__gohashid\":12074},{\"from\":\"target:Transactions:fields\",\"to\":\"target:Transactions:transactionCurrency:\",\"fromPort\":\"target:Transactions:fields\",\"toPort\":\"target:Transactions:transactionCurrency:\",\"visible\":true,\"common\":false,\"__gohashid\":12075},{\"from\":\"target:Transactions:fields\",\"to\":\"target:Transactions:chargeAmount:\",\"fromPort\":\"target:Transactions:fields\",\"toPort\":\"target:Transactions:chargeAmount:\",\"visible\":true,\"common\":false,\"__gohashid\":12076},{\"from\":\"target:Transactions:fields\",\"to\":\"target:Transactions:chargeCurrency:\",\"fromPort\":\"target:Transactions:fields\",\"toPort\":\"target:Transactions:chargeCurrency:\",\"visible\":true,\"common\":false,\"__gohashid\":12077},{\"from\":\"target:Transactions:fields\",\"to\":\"target:Transactions:sourceCurrency:\",\"fromPort\":\"target:Transactions:fields\",\"toPort\":\"target:Transactions:sourceCurrency:\",\"visible\":true,\"common\":false,\"__gohashid\":12078},{\"from\":\"target:Transactions:fields\",\"to\":\"target:Transactions:targetCurrency:\",\"fromPort\":\"target:Transactions:fields\",\"toPort\":\"target:Transactions:targetCurrency:\",\"visible\":true,\"common\":false,\"__gohashid\":12079},{\"from\":\"target:Transactions:fields\",\"to\":\"target:Transactions:unitCurrency:\",\"fromPort\":\"target:Transactions:fields\",\"toPort\":\"target:Transactions:unitCurrency:\",\"visible\":true,\"common\":false,\"__gohashid\":12080},{\"from\":\"target:Transactions:fields\",\"to\":\"target:Transactions:exchangeRate:\",\"fromPort\":\"target:Transactions:fields\",\"toPort\":\"target:Transactions:exchangeRate:\",\"visible\":true,\"common\":false,\"__gohashid\":12081},{\"from\":\"target:Transactions:fields\",\"to\":\"target:Transactions:contractIdentification:\",\"fromPort\":\"target:Transactions:fields\",\"toPort\":\"target:Transactions:contractIdentification:\",\"visible\":true,\"common\":false,\"__gohashid\":12082},{\"from\":\"target:Transactions:fields\",\"to\":\"target:Transactions:quotationDate:\",\"fromPort\":\"target:Transactions:fields\",\"toPort\":\"target:Transactions:quotationDate:\",\"visible\":true,\"common\":false,\"__gohashid\":12083},{\"from\":\"target:Transactions:fields\",\"to\":\"target:Transactions:instructedAmount:\",\"fromPort\":\"target:Transactions:fields\",\"toPort\":\"target:Transactions:instructedAmount:\",\"visible\":true,\"common\":false,\"__gohashid\":12084},{\"from\":\"target:Transactions:fields\",\"to\":\"target:Transactions:transactionCode:\",\"fromPort\":\"target:Transactions:fields\",\"toPort\":\"target:Transactions:transactionCode:\",\"visible\":true,\"common\":false,\"__gohashid\":12085},{\"from\":\"target:Transactions:fields\",\"to\":\"target:Transactions:transactionSubCode:\",\"fromPort\":\"target:Transactions:fields\",\"toPort\":\"target:Transactions:transactionSubCode:\",\"visible\":true,\"common\":false,\"__gohashid\":12086},{\"from\":\"target:Transactions:fields\",\"to\":\"target:Transactions:proprietaryTransactionCode:\",\"fromPort\":\"target:Transactions:fields\",\"toPort\":\"target:Transactions:proprietaryTransactionCode:\",\"visible\":true,\"common\":false,\"__gohashid\":12087},{\"from\":\"target:Transactions:fields\",\"to\":\"target:Transactions:proprietaryTransactionIssuer:\",\"fromPort\":\"target:Transactions:fields\",\"toPort\":\"target:Transactions:proprietaryTransactionIssuer:\",\"visible\":true,\"common\":false,\"__gohashid\":12088},{\"from\":\"target:Transactions:fields\",\"to\":\"target:Transactions:balanceCreditDebitIndicator:\",\"fromPort\":\"target:Transactions:fields\",\"toPort\":\"target:Transactions:balanceCreditDebitIndicator:\",\"visible\":true,\"common\":false,\"__gohashid\":12089},{\"from\":\"target:Transactions:fields\",\"to\":\"target:Transactions:balanceType:\",\"fromPort\":\"target:Transactions:fields\",\"toPort\":\"target:Transactions:balanceType:\",\"visible\":true,\"common\":false,\"__gohashid\":12090},{\"from\":\"target:Transactions:fields\",\"to\":\"target:Transactions:balanceAmount:\",\"fromPort\":\"target:Transactions:fields\",\"toPort\":\"target:Transactions:balanceAmount:\",\"visible\":true,\"common\":false,\"__gohashid\":12091},{\"from\":\"target:Transactions:fields\",\"to\":\"target:Transactions:balanceCurrency:\",\"fromPort\":\"target:Transactions:fields\",\"toPort\":\"target:Transactions:balanceCurrency:\",\"visible\":true,\"common\":false,\"__gohashid\":12092},{\"from\":\"target:Transactions:fields\",\"to\":\"target:Transactions:merchantName:\",\"fromPort\":\"target:Transactions:fields\",\"toPort\":\"target:Transactions:merchantName:\",\"visible\":true,\"common\":false,\"__gohashid\":12093},{\"from\":\"target:Transactions:fields\",\"to\":\"target:Transactions:merchantCategoryCode:\",\"fromPort\":\"target:Transactions:fields\",\"toPort\":\"target:Transactions:merchantCategoryCode:\",\"visible\":true,\"common\":false,\"__gohashid\":12094},{\"from\":\"target:Transactions:fields\",\"to\":\"target:Transactions:creditorAgentSchemeName:\",\"fromPort\":\"target:Transactions:fields\",\"toPort\":\"target:Transactions:creditorAgentSchemeName:\",\"visible\":true,\"common\":false,\"__gohashid\":12095},{\"from\":\"target:Transactions:fields\",\"to\":\"target:Transactions:creditorAgentIdentification:\",\"fromPort\":\"target:Transactions:fields\",\"toPort\":\"target:Transactions:creditorAgentIdentification:\",\"visible\":true,\"common\":false,\"__gohashid\":12096},{\"from\":\"target:Transactions:fields\",\"to\":\"target:Transactions:creditorAgentName:\",\"fromPort\":\"target:Transactions:fields\",\"toPort\":\"target:Transactions:creditorAgentName:\",\"visible\":true,\"common\":false,\"__gohashid\":12097},{\"from\":\"target:Transactions:fields\",\"to\":\"target:Transactions:creditorAgentaddressType:\",\"fromPort\":\"target:Transactions:fields\",\"toPort\":\"target:Transactions:creditorAgentaddressType:\",\"visible\":true,\"common\":false,\"__gohashid\":12098},{\"from\":\"target:Transactions:fields\",\"to\":\"target:Transactions:creditorAgentDepartment:\",\"fromPort\":\"target:Transactions:fields\",\"toPort\":\"target:Transactions:creditorAgentDepartment:\",\"visible\":true,\"common\":false,\"__gohashid\":12099},{\"from\":\"target:Transactions:fields\",\"to\":\"target:Transactions:creditorAgentSubDepartment:\",\"fromPort\":\"target:Transactions:fields\",\"toPort\":\"target:Transactions:creditorAgentSubDepartment:\",\"visible\":true,\"common\":false,\"__gohashid\":12100},{\"from\":\"target:Transactions:fields\",\"to\":\"target:Transactions:creditorAgentStreetName:\",\"fromPort\":\"target:Transactions:fields\",\"toPort\":\"target:Transactions:creditorAgentStreetName:\",\"visible\":true,\"common\":false,\"__gohashid\":12101},{\"from\":\"target:Transactions:fields\",\"to\":\"target:Transactions:creditorAgentBuildingNumber:\",\"fromPort\":\"target:Transactions:fields\",\"toPort\":\"target:Transactions:creditorAgentBuildingNumber:\",\"visible\":true,\"common\":false,\"__gohashid\":12102},{\"from\":\"target:Transactions:fields\",\"to\":\"target:Transactions:creditorAgentPostCode:\",\"fromPort\":\"target:Transactions:fields\",\"toPort\":\"target:Transactions:creditorAgentPostCode:\",\"visible\":true,\"common\":false,\"__gohashid\":12103},{\"from\":\"target:Transactions:fields\",\"to\":\"target:Transactions:creditorAgentTownName:\",\"fromPort\":\"target:Transactions:fields\",\"toPort\":\"target:Transactions:creditorAgentTownName:\",\"visible\":true,\"common\":false,\"__gohashid\":12104},{\"from\":\"target:Transactions:fields\",\"to\":\"target:Transactions:creditorAgentCountrySubDivision:\",\"fromPort\":\"target:Transactions:fields\",\"toPort\":\"target:Transactions:creditorAgentCountrySubDivision:\",\"visible\":true,\"common\":false,\"__gohashid\":12105},{\"from\":\"target:Transactions:fields\",\"to\":\"target:Transactions:creditorAgentCountry:\",\"fromPort\":\"target:Transactions:fields\",\"toPort\":\"target:Transactions:creditorAgentCountry:\",\"visible\":true,\"common\":false,\"__gohashid\":12106},{\"from\":\"target:Transactions:fields\",\"to\":\"target:Transactions:creditorAgentAddressLine:\",\"fromPort\":\"target:Transactions:fields\",\"toPort\":\"target:Transactions:creditorAgentAddressLine:\",\"visible\":true,\"common\":false,\"__gohashid\":12107},{\"from\":\"target:Transactions:fields\",\"to\":\"target:Transactions:creditorAccountSchemeName:\",\"fromPort\":\"target:Transactions:fields\",\"toPort\":\"target:Transactions:creditorAccountSchemeName:\",\"visible\":true,\"common\":false,\"__gohashid\":12108},{\"from\":\"target:Transactions:fields\",\"to\":\"target:Transactions:creditorAccountSeconIdentification:\",\"fromPort\":\"target:Transactions:fields\",\"toPort\":\"target:Transactions:creditorAccountSeconIdentification:\",\"visible\":true,\"common\":false,\"__gohashid\":12109},{\"from\":\"target:Transactions:fields\",\"to\":\"target:Transactions:debtorAgentSchemeName:\",\"fromPort\":\"target:Transactions:fields\",\"toPort\":\"target:Transactions:debtorAgentSchemeName:\",\"visible\":true,\"common\":false,\"__gohashid\":12110},{\"from\":\"target:Transactions:fields\",\"to\":\"target:Transactions:debtorAgentIdentification:\",\"fromPort\":\"target:Transactions:fields\",\"toPort\":\"target:Transactions:debtorAgentIdentification:\",\"visible\":true,\"common\":false,\"__gohashid\":12111},{\"from\":\"target:Transactions:fields\",\"to\":\"target:Transactions:debtorAgentName:\",\"fromPort\":\"target:Transactions:fields\",\"toPort\":\"target:Transactions:debtorAgentName:\",\"visible\":true,\"common\":false,\"__gohashid\":12112},{\"from\":\"target:Transactions:fields\",\"to\":\"target:Transactions:debtorAgentAddressType:\",\"fromPort\":\"target:Transactions:fields\",\"toPort\":\"target:Transactions:debtorAgentAddressType:\",\"visible\":true,\"common\":false,\"__gohashid\":12113},{\"from\":\"target:Transactions:fields\",\"to\":\"target:Transactions:debtorAgentDepartment:\",\"fromPort\":\"target:Transactions:fields\",\"toPort\":\"target:Transactions:debtorAgentDepartment:\",\"visible\":true,\"common\":false,\"__gohashid\":12114},{\"from\":\"target:Transactions:fields\",\"to\":\"target:Transactions:debtorAgentSubDepartment:\",\"fromPort\":\"target:Transactions:fields\",\"toPort\":\"target:Transactions:debtorAgentSubDepartment:\",\"visible\":true,\"common\":false,\"__gohashid\":12115},{\"from\":\"target:Transactions:fields\",\"to\":\"target:Transactions:debtorAgentStreetName:\",\"fromPort\":\"target:Transactions:fields\",\"toPort\":\"target:Transactions:debtorAgentStreetName:\",\"visible\":true,\"common\":false,\"__gohashid\":12116},{\"from\":\"target:Transactions:fields\",\"to\":\"target:Transactions:debtorAgentBuildingNumber:\",\"fromPort\":\"target:Transactions:fields\",\"toPort\":\"target:Transactions:debtorAgentBuildingNumber:\",\"visible\":true,\"common\":false,\"__gohashid\":12117},{\"from\":\"target:Transactions:fields\",\"to\":\"target:Transactions:dedtorAgentPostCode:\",\"fromPort\":\"target:Transactions:fields\",\"toPort\":\"target:Transactions:dedtorAgentPostCode:\",\"visible\":true,\"common\":false,\"__gohashid\":12118},{\"from\":\"target:Transactions:fields\",\"to\":\"target:Transactions:debtorAgentTownName:\",\"fromPort\":\"target:Transactions:fields\",\"toPort\":\"target:Transactions:debtorAgentTownName:\",\"visible\":true,\"common\":false,\"__gohashid\":12119},{\"from\":\"target:Transactions:fields\",\"to\":\"target:Transactions:debtorAgentCountrySubDivision:\",\"fromPort\":\"target:Transactions:fields\",\"toPort\":\"target:Transactions:debtorAgentCountrySubDivision:\",\"visible\":true,\"common\":false,\"__gohashid\":12120},{\"from\":\"target:Transactions:fields\",\"to\":\"target:Transactions:debtorAgentCountry:\",\"fromPort\":\"target:Transactions:fields\",\"toPort\":\"target:Transactions:debtorAgentCountry:\",\"visible\":true,\"common\":false,\"__gohashid\":12121},{\"from\":\"target:Transactions:fields\",\"to\":\"target:Transactions:debtorAgentAddressLine:\",\"fromPort\":\"target:Transactions:fields\",\"toPort\":\"target:Transactions:debtorAgentAddressLine:\",\"visible\":true,\"common\":false,\"__gohashid\":12122},{\"from\":\"target:Transactions:fields\",\"to\":\"target:Transactions:debtorAccountSchemeName:\",\"fromPort\":\"target:Transactions:fields\",\"toPort\":\"target:Transactions:debtorAccountSchemeName:\",\"visible\":true,\"common\":false,\"__gohashid\":12123},{\"from\":\"target:Transactions:fields\",\"to\":\"target:Transactions:debtorAccountName:\",\"fromPort\":\"target:Transactions:fields\",\"toPort\":\"target:Transactions:debtorAccountName:\",\"visible\":true,\"common\":false,\"__gohashid\":12124},{\"from\":\"target:Transactions:fields\",\"to\":\"target:Transactions:debtorAccountSeconIdentification:\",\"fromPort\":\"target:Transactions:fields\",\"toPort\":\"target:Transactions:debtorAccountSeconIdentification:\",\"visible\":true,\"common\":false,\"__gohashid\":12125},{\"from\":\"target:Transactions:fields\",\"to\":\"target:Transactions:cardInstrumentSchemeName:\",\"fromPort\":\"target:Transactions:fields\",\"toPort\":\"target:Transactions:cardInstrumentSchemeName:\",\"visible\":true,\"common\":false,\"__gohashid\":12126},{\"from\":\"target:Transactions:fields\",\"to\":\"target:Transactions:cardInstrumentAuthorisationType:\",\"fromPort\":\"target:Transactions:fields\",\"toPort\":\"target:Transactions:cardInstrumentAuthorisationType:\",\"visible\":true,\"common\":false,\"__gohashid\":12127},{\"from\":\"target:Transactions:fields\",\"to\":\"target:Transactions:cardInstrumentName:\",\"fromPort\":\"target:Transactions:fields\",\"toPort\":\"target:Transactions:cardInstrumentName:\",\"visible\":true,\"common\":false,\"__gohashid\":12128},{\"from\":\"target:Transactions:fields\",\"to\":\"target:Transactions:cardInstrumentIdentification:\",\"fromPort\":\"target:Transactions:fields\",\"toPort\":\"target:Transactions:cardInstrumentIdentification:\",\"visible\":true,\"common\":false,\"__gohashid\":12129},{\"from\":\"target:Transactions:fields\",\"to\":\"target:Transactions:sortCode:\",\"fromPort\":\"target:Transactions:fields\",\"toPort\":\"target:Transactions:sortCode:\",\"visible\":true,\"common\":false,\"__gohashid\":12130},{\"from\":\"target:Transactions:fields\",\"to\":\"target:Transactions:feeCurrency:\",\"fromPort\":\"target:Transactions:fields\",\"toPort\":\"target:Transactions:feeCurrency:\",\"visible\":true,\"common\":false,\"__gohashid\":12131},{\"from\":\"target:Transactions:fields\",\"to\":\"target:Transactions:feePaidByReceipent:\",\"fromPort\":\"target:Transactions:fields\",\"toPort\":\"target:Transactions:feePaidByReceipent:\",\"visible\":true,\"common\":false,\"__gohashid\":12132},{\"from\":\"target:Transactions:fields\",\"to\":\"target:Transactions:convertedAmount:\",\"fromPort\":\"target:Transactions:fields\",\"toPort\":\"target:Transactions:convertedAmount:\",\"visible\":true,\"common\":false,\"__gohashid\":12133},{\"from\":\"target:Transactions:fields\",\"to\":\"target:Transactions:baseCurrency:\",\"fromPort\":\"target:Transactions:fields\",\"toPort\":\"target:Transactions:baseCurrency:\",\"visible\":true,\"common\":false,\"__gohashid\":12134},{\"from\":\"target:Transactions:fields\",\"to\":\"target:Transactions:FirstPaymentDateTime:\",\"fromPort\":\"target:Transactions:fields\",\"toPort\":\"target:Transactions:FirstPaymentDateTime:\",\"visible\":true,\"common\":false,\"__gohashid\":12135},{\"from\":\"target:Transactions:fields\",\"to\":\"target:Transactions:NextPaymentDateTime:\",\"fromPort\":\"target:Transactions:fields\",\"toPort\":\"target:Transactions:NextPaymentDateTime:\",\"visible\":true,\"common\":false,\"__gohashid\":12136},{\"from\":\"target:Transactions:fields\",\"to\":\"target:Transactions:FinalPaymentDateTime:\",\"fromPort\":\"target:Transactions:fields\",\"toPort\":\"target:Transactions:FinalPaymentDateTime:\",\"visible\":true,\"common\":false,\"__gohashid\":12137},{\"from\":\"target:Transactions:fields\",\"to\":\"target:Transactions:StandingOrderStatusCode:\",\"fromPort\":\"target:Transactions:fields\",\"toPort\":\"target:Transactions:StandingOrderStatusCode:\",\"visible\":true,\"common\":false,\"__gohashid\":12138},{\"from\":\"target:Transactions:fields\",\"to\":\"target:Transactions:FP_Amount:\",\"fromPort\":\"target:Transactions:fields\",\"toPort\":\"target:Transactions:FP_Amount:\",\"visible\":true,\"common\":false,\"__gohashid\":12139},{\"from\":\"target:Transactions:fields\",\"to\":\"target:Transactions:FP_Currency:\",\"fromPort\":\"target:Transactions:fields\",\"toPort\":\"target:Transactions:FP_Currency:\",\"visible\":true,\"common\":false,\"__gohashid\":12140},{\"from\":\"target:Transactions:fields\",\"to\":\"target:Transactions:NP_Amount:\",\"fromPort\":\"target:Transactions:fields\",\"toPort\":\"target:Transactions:NP_Amount:\",\"visible\":true,\"common\":false,\"__gohashid\":12141},{\"from\":\"target:Transactions:fields\",\"to\":\"target:Transactions:NP_Currency:\",\"fromPort\":\"target:Transactions:fields\",\"toPort\":\"target:Transactions:NP_Currency:\",\"visible\":true,\"common\":false,\"__gohashid\":12142},{\"from\":\"target:Transactions:fields\",\"to\":\"target:Transactions:FPA_Amount:\",\"fromPort\":\"target:Transactions:fields\",\"toPort\":\"target:Transactions:FPA_Amount:\",\"visible\":true,\"common\":false,\"__gohashid\":12143},{\"from\":\"target:Transactions:fields\",\"to\":\"target:Transactions:FPA_Currency:\",\"fromPort\":\"target:Transactions:fields\",\"toPort\":\"target:Transactions:FPA_Currency:\",\"visible\":true,\"common\":false,\"__gohashid\":12144},{\"from\":\"target:Transactions:fields\",\"to\":\"target:Transactions:beneficiaryName:\",\"fromPort\":\"target:Transactions:fields\",\"toPort\":\"target:Transactions:beneficiaryName:\",\"visible\":true,\"common\":false,\"__gohashid\":12145},{\"from\":\"target:Transactions:fields\",\"to\":\"target:Transactions:isInternationalAccount:\",\"fromPort\":\"target:Transactions:fields\",\"toPort\":\"target:Transactions:isInternationalAccount:\",\"visible\":true,\"common\":false,\"__gohashid\":12146},{\"from\":\"target:Transactions:fields\",\"to\":\"target:Transactions:ConsentId:\",\"fromPort\":\"target:Transactions:fields\",\"toPort\":\"target:Transactions:ConsentId:\",\"visible\":true,\"common\":false,\"__gohashid\":12147},{\"from\":\"target:Transactions:fields\",\"to\":\"target:Transactions:Initiation_InstructionIdentification:\",\"fromPort\":\"target:Transactions:fields\",\"toPort\":\"target:Transactions:Initiation_InstructionIdentification:\",\"visible\":true,\"common\":false,\"__gohashid\":12148},{\"from\":\"target:Transactions:fields\",\"to\":\"target:Transactions:RI_Unstructured:\",\"fromPort\":\"target:Transactions:fields\",\"toPort\":\"target:Transactions:RI_Unstructured:\",\"visible\":true,\"common\":false,\"__gohashid\":12149},{\"from\":\"target:Transactions:fields\",\"to\":\"target:Transactions:RI_Reference:\",\"fromPort\":\"target:Transactions:fields\",\"toPort\":\"target:Transactions:RI_Reference:\",\"visible\":true,\"common\":false,\"__gohashid\":12150},{\"from\":\"target:Transactions:fields\",\"to\":\"target:Transactions:Initiation_EndToEndIdentification:\",\"fromPort\":\"target:Transactions:fields\",\"toPort\":\"target:Transactions:Initiation_EndToEndIdentification:\",\"visible\":true,\"common\":false,\"__gohashid\":12151},{\"from\":\"target:Transactions:fields\",\"to\":\"target:Transactions:RiskPaymentContextCode:\",\"fromPort\":\"target:Transactions:fields\",\"toPort\":\"target:Transactions:RiskPaymentContextCode:\",\"visible\":true,\"common\":false,\"__gohashid\":12152},{\"from\":\"target:Transactions:fields\",\"to\":\"target:Transactions:linkSelf:\",\"fromPort\":\"target:Transactions:fields\",\"toPort\":\"target:Transactions:linkSelf:\",\"visible\":true,\"common\":false,\"__gohashid\":12153},{\"from\":\"target:Transactions:fields\",\"to\":\"target:Transactions:StatusUpdateDateTime:\",\"fromPort\":\"target:Transactions:fields\",\"toPort\":\"target:Transactions:StatusUpdateDateTime:\",\"visible\":true,\"common\":false,\"__gohashid\":12154},{\"from\":\"target:Transactions:fields\",\"to\":\"target:Transactions:createdDate:\",\"fromPort\":\"target:Transactions:fields\",\"toPort\":\"target:Transactions:createdDate:\",\"visible\":true,\"common\":false,\"__gohashid\":12155},{\"from\":\"target:Transactions:fields\",\"to\":\"target:Transactions:DomesticPaymentId:\",\"fromPort\":\"target:Transactions:fields\",\"toPort\":\"target:Transactions:DomesticPaymentId:\",\"visible\":true,\"common\":false,\"__gohashid\":12156},{\"from\":\"target:Transactions:fields\",\"to\":\"target:Transactions:dataStatus:\",\"fromPort\":\"target:Transactions:fields\",\"toPort\":\"target:Transactions:dataStatus:\",\"visible\":true,\"common\":false,\"__gohashid\":12157},{\"from\":\"target:Transactions:fields\",\"to\":\"target:Transactions:Auth_Token:\",\"fromPort\":\"target:Transactions:fields\",\"toPort\":\"target:Transactions:Auth_Token:\",\"visible\":true,\"common\":false,\"__gohashid\":12158},{\"from\":\"target:Transactions:fields\",\"to\":\"target:Transactions:fileType:\",\"fromPort\":\"target:Transactions:fields\",\"toPort\":\"target:Transactions:fileType:\",\"visible\":true,\"common\":false,\"__gohashid\":12159},{\"from\":\"target:Transactions:fields\",\"to\":\"target:Transactions:MFAAttributes:\",\"fromPort\":\"target:Transactions:fields\",\"toPort\":\"target:Transactions:MFAAttributes:\",\"visible\":true,\"common\":false,\"__gohashid\":12160},{\"from\":\"target:Transactions:fields\",\"to\":\"target:Transactions:serviceName:\",\"fromPort\":\"target:Transactions:fields\",\"toPort\":\"target:Transactions:serviceName:\",\"visible\":true,\"common\":false,\"__gohashid\":12161},{\"from\":\"source\",\"to\":\"source:parameters\",\"fromPort\":\"source\",\"toPort\":\"source:parameters\",\"visible\":true,\"common\":false,\"__gohashid\":12162},{\"from\":\"source:parameters\",\"to\":\"source:errmsg:\",\"fromPort\":\"source:parameters\",\"toPort\":\"source:errmsg:\",\"visible\":true,\"common\":false,\"__gohashid\":12163},{\"from\":\"source:parameters\",\"to\":\"source:personId:\",\"fromPort\":\"source:parameters\",\"toPort\":\"source:personId:\",\"visible\":true,\"common\":false,\"__gohashid\":12164},{\"from\":\"source:parameters\",\"to\":\"source:referenceId:\",\"fromPort\":\"source:parameters\",\"toPort\":\"source:referenceId:\",\"visible\":true,\"common\":false,\"__gohashid\":12165},{\"from\":\"source:parameters\",\"to\":\"source:success:\",\"fromPort\":\"source:parameters\",\"toPort\":\"source:success:\",\"visible\":true,\"common\":false,\"__gohashid\":12166},{\"from\":\"source\",\"to\":\"source:Transactions\",\"fromPort\":\"source\",\"toPort\":\"source:Transactions\",\"visible\":true,\"common\":false,\"__gohashid\":12167},{\"from\":\"source:Transactions\",\"to\":\"source:Transactions:parameters\",\"fromPort\":\"source:Transactions\",\"toPort\":\"source:Transactions:parameters\",\"visible\":true,\"common\":false,\"__gohashid\":12168},{\"from\":\"source:Transactions:parameters\",\"to\":\"source:Transactions:amount:\",\"fromPort\":\"source:Transactions:parameters\",\"toPort\":\"source:Transactions:amount:\",\"visible\":true,\"common\":false,\"__gohashid\":12169},{\"from\":\"source:Transactions:parameters\",\"to\":\"source:Transactions:category:\",\"fromPort\":\"source:Transactions:parameters\",\"toPort\":\"source:Transactions:category:\",\"visible\":true,\"common\":false,\"__gohashid\":12170},{\"from\":\"source:Transactions:parameters\",\"to\":\"source:Transactions:description:\",\"fromPort\":\"source:Transactions:parameters\",\"toPort\":\"source:Transactions:description:\",\"visible\":true,\"common\":false,\"__gohashid\":12171},{\"from\":\"source:Transactions:parameters\",\"to\":\"source:Transactions:ExternalAccountNumber:\",\"fromPort\":\"source:Transactions:parameters\",\"toPort\":\"source:Transactions:ExternalAccountNumber:\",\"visible\":true,\"common\":false,\"__gohashid\":12172},{\"from\":\"source:Transactions:parameters\",\"to\":\"source:Transactions:frequencyEndDate:\",\"fromPort\":\"source:Transactions:parameters\",\"toPort\":\"source:Transactions:frequencyEndDate:\",\"visible\":true,\"common\":false,\"__gohashid\":12173},{\"from\":\"source:Transactions:parameters\",\"to\":\"source:Transactions:frequencyStartDate:\",\"fromPort\":\"source:Transactions:parameters\",\"toPort\":\"source:Transactions:frequencyStartDate:\",\"visible\":true,\"common\":false,\"__gohashid\":12174},{\"from\":\"source:Transactions:parameters\",\"to\":\"source:Transactions:frequencyType:\",\"fromPort\":\"source:Transactions:parameters\",\"toPort\":\"source:Transactions:frequencyType:\",\"visible\":true,\"common\":false,\"__gohashid\":12175},{\"from\":\"source:Transactions:parameters\",\"to\":\"source:Transactions:fromAccountBalance:\",\"fromPort\":\"source:Transactions:parameters\",\"toPort\":\"source:Transactions:fromAccountBalance:\",\"visible\":true,\"common\":false,\"__gohashid\":12176},{\"from\":\"source:Transactions:parameters\",\"to\":\"source:Transactions:fromAccountName:\",\"fromPort\":\"source:Transactions:parameters\",\"toPort\":\"source:Transactions:fromAccountName:\",\"visible\":true,\"common\":false,\"__gohashid\":12177},{\"from\":\"source:Transactions:parameters\",\"to\":\"source:Transactions:fromAccountNumber:\",\"fromPort\":\"source:Transactions:parameters\",\"toPort\":\"source:Transactions:fromAccountNumber:\",\"visible\":true,\"common\":false,\"__gohashid\":12178},{\"from\":\"source:Transactions:parameters\",\"to\":\"source:Transactions:fromAccountType:\",\"fromPort\":\"source:Transactions:parameters\",\"toPort\":\"source:Transactions:fromAccountType:\",\"visible\":true,\"common\":false,\"__gohashid\":12179},{\"from\":\"source:Transactions:parameters\",\"to\":\"source:Transactions:fromNickName:\",\"fromPort\":\"source:Transactions:parameters\",\"toPort\":\"source:Transactions:fromNickName:\",\"visible\":true,\"common\":false,\"__gohashid\":12180},{\"from\":\"source:Transactions:parameters\",\"to\":\"source:Transactions:hasDepositImage:\",\"fromPort\":\"source:Transactions:parameters\",\"toPort\":\"source:Transactions:hasDepositImage:\",\"visible\":true,\"common\":false,\"__gohashid\":12181},{\"from\":\"source:Transactions:parameters\",\"to\":\"source:Transactions:isScheduled:\",\"fromPort\":\"source:Transactions:parameters\",\"toPort\":\"source:Transactions:isScheduled:\",\"visible\":true,\"common\":false,\"__gohashid\":12182},{\"from\":\"source:Transactions:parameters\",\"to\":\"source:Transactions:numberOfRecurrences:\",\"fromPort\":\"source:Transactions:parameters\",\"toPort\":\"source:Transactions:numberOfRecurrences:\",\"visible\":true,\"common\":false,\"__gohashid\":12183},{\"from\":\"source:Transactions:parameters\",\"to\":\"source:Transactions:payeeId:\",\"fromPort\":\"source:Transactions:parameters\",\"toPort\":\"source:Transactions:payeeId:\",\"visible\":true,\"common\":false,\"__gohashid\":12184},{\"from\":\"source:Transactions:parameters\",\"to\":\"source:Transactions:payeeNickName:\",\"fromPort\":\"source:Transactions:parameters\",\"toPort\":\"source:Transactions:payeeNickName:\",\"visible\":true,\"common\":false,\"__gohashid\":12185},{\"from\":\"source:Transactions:parameters\",\"to\":\"source:Transactions:payPersonEmail:\",\"fromPort\":\"source:Transactions:parameters\",\"toPort\":\"source:Transactions:payPersonEmail:\",\"visible\":true,\"common\":false,\"__gohashid\":12186},{\"from\":\"source:Transactions:parameters\",\"to\":\"source:Transactions:payPersonName:\",\"fromPort\":\"source:Transactions:parameters\",\"toPort\":\"source:Transactions:payPersonName:\",\"visible\":true,\"common\":false,\"__gohashid\":12187},{\"from\":\"source:Transactions:parameters\",\"to\":\"source:Transactions:payPersonPhone:\",\"fromPort\":\"source:Transactions:parameters\",\"toPort\":\"source:Transactions:payPersonPhone:\",\"visible\":true,\"common\":false,\"__gohashid\":12188},{\"from\":\"source:Transactions:parameters\",\"to\":\"source:Transactions:scheduledDate:\",\"fromPort\":\"source:Transactions:parameters\",\"toPort\":\"source:Transactions:scheduledDate:\",\"visible\":true,\"common\":false,\"__gohashid\":12189},{\"from\":\"source:Transactions:parameters\",\"to\":\"source:Transactions:statusDescription:\",\"fromPort\":\"source:Transactions:parameters\",\"toPort\":\"source:Transactions:statusDescription:\",\"visible\":true,\"common\":false,\"__gohashid\":12190},{\"from\":\"source:Transactions:parameters\",\"to\":\"source:Transactions:toAccountName:\",\"fromPort\":\"source:Transactions:parameters\",\"toPort\":\"source:Transactions:toAccountName:\",\"visible\":true,\"common\":false,\"__gohashid\":12191},{\"from\":\"source:Transactions:parameters\",\"to\":\"source:Transactions:toAccountNumber:\",\"fromPort\":\"source:Transactions:parameters\",\"toPort\":\"source:Transactions:toAccountNumber:\",\"visible\":true,\"common\":false,\"__gohashid\":12192},{\"from\":\"source:Transactions:parameters\",\"to\":\"source:Transactions:toAccountType:\",\"fromPort\":\"source:Transactions:parameters\",\"toPort\":\"source:Transactions:toAccountType:\",\"visible\":true,\"common\":false,\"__gohashid\":12193},{\"from\":\"source:Transactions:parameters\",\"to\":\"source:Transactions:transactionComments:\",\"fromPort\":\"source:Transactions:parameters\",\"toPort\":\"source:Transactions:transactionComments:\",\"visible\":true,\"common\":false,\"__gohashid\":12194},{\"from\":\"source:Transactions:parameters\",\"to\":\"source:Transactions:transactionDate:\",\"fromPort\":\"source:Transactions:parameters\",\"toPort\":\"source:Transactions:transactionDate:\",\"visible\":true,\"common\":false,\"__gohashid\":12195},{\"from\":\"source:Transactions:parameters\",\"to\":\"source:Transactions:transactionId:\",\"fromPort\":\"source:Transactions:parameters\",\"toPort\":\"source:Transactions:transactionId:\",\"visible\":true,\"common\":false,\"__gohashid\":12196},{\"from\":\"source:Transactions:parameters\",\"to\":\"source:Transactions:transactionsNotes:\",\"fromPort\":\"source:Transactions:parameters\",\"toPort\":\"source:Transactions:transactionsNotes:\",\"visible\":true,\"common\":false,\"__gohashid\":12197},{\"from\":\"source:Transactions:parameters\",\"to\":\"source:Transactions:transactiontype:\",\"fromPort\":\"source:Transactions:parameters\",\"toPort\":\"source:Transactions:transactiontype:\",\"visible\":true,\"common\":false,\"__gohashid\":12198}],\"blockCount\":{\"variableCount\":0},\"variableMap\":{},\"xmlMappingOverride\":true}",
    "applyCommonMapping" : false,
    "applyRequestCommonMapping" : true,
    "applyResponseCommonMapping" : false,
    "backendMeta" : {
      "serviceName" : "dbpRbLocalServicesJava",
      "serviceVersion" : "1.0",
      "operationName" : "getExternalTransactions"
    },
    "relationshipHierarchyMapping" : {
      "children" : [ ],
      "name" : "Transactions",
      "actions" : { },
      "selected" : true
    },
    "requestXmlMappingOverride" : false,
    "responseXmlMappingOverride" : true
  }
}