{
  "operationConfig" : {
    "name" : "getAccountPendingTransactions3391",
    "type" : "MappedToBackend",
    "cachable" : false,
    "smsEnabled" : false,
    "security" : "authorized_app_user",
    "responseEncoding" : "UTF-8",
    "httpMethod" : "GET",
    "decodeResponseBody" : false,
    "iMapping" : "<?xml version=\"1.0\" encoding=\"UTF-8\" standalone=\"yes\"?><mapper xmlns=\"http://www.kony.com/ns/mapper\">    <map inputpath=\"request_in\" outputpath=\"request_out\">  \t    <set-param inputpath=\"accountNumber\" outputpath=\"accountId\"/>    </map></mapper>",
    "oMapping" : "<?xml version=\"1.0\" encoding=\"UTF-8\" standalone=\"yes\"?>\n<mapper xmlns=\"http://www.kony.com/ns/mapper\">\n    <map inputpath=\"response_in\" outputpath=\"response_out\">\n        <map inputpath=\"Transactions\" outputpath=\"Transactions\">\n            <set-param inputpath=\"amount\" outputpath=\"amount\"/>\n            <set-param inputpath=\"description\" outputpath=\"description\"/>\n            <set-param inputpath=\"referenceId\" outputpath=\"referenceId\"/>\n            <set-param inputpath=\"scheduledDate\" outputpath=\"scheduledDate\"/>\n            <set-param inputpath=\"success\" outputpath=\"success\"/>\n            <set-param inputpath=\"totalAmount\" outputpath=\"totalAmount\"/>\n            <set-param inputpath=\"transactionDate\" outputpath=\"transactionDate\"/>\n            <set-param inputpath=\"id\" outputpath=\"transactionId\"/>\n            <set-param inputpath=\"transactionType\" outputpath=\"transactionType\"/>\n            <set-param inputpath=\"validDate\" outputpath=\"validDate\"/>\n        </map>\n    </map>\n</mapper>\n",
    "iVisualMappingData" : "{\"nodeDataArray\":[{\"isGroup\":true,\"key\":\"request_in\",\"text\":\"Transactions\",\"xy\":\"150 100\",\"__gohashid\":24879},{\"isGroup\":true,\"key\":\"request_out\",\"text\":\"SymXchangeAccountServices (1.0).getAccountPendingTransactions\",\"xy\":\"770 100\",\"__gohashid\":24880}],\"linkDataArray\":[{\"from\":\"source\",\"to\":\"source:Transactions\",\"fromPort\":\"source\",\"toPort\":\"source:Transactions\",\"visible\":true,\"common\":false,\"__gohashid\":65281},{\"from\":\"source:Transactions\",\"to\":\"source:Transactions:fields\",\"fromPort\":\"source:Transactions\",\"toPort\":\"source:Transactions:fields\",\"visible\":true,\"common\":false,\"__gohashid\":65282},{\"from\":\"source:Transactions:fields\",\"to\":\"source:Transactions:accountID:\",\"fromPort\":\"source:Transactions:fields\",\"toPort\":\"source:Transactions:accountID:\",\"visible\":true,\"common\":false,\"__gohashid\":65283},{\"from\":\"source:Transactions:fields\",\"to\":\"source:Transactions:accountNumber:\",\"fromPort\":\"source:Transactions:fields\",\"toPort\":\"source:Transactions:accountNumber:\",\"visible\":true,\"common\":false,\"__gohashid\":65284},{\"from\":\"source:Transactions:fields\",\"to\":\"source:Transactions:amount:\",\"fromPort\":\"source:Transactions:fields\",\"toPort\":\"source:Transactions:amount:\",\"visible\":true,\"common\":false,\"__gohashid\":65285},{\"from\":\"source:Transactions:fields\",\"to\":\"source:Transactions:amountTransferedTillNow:\",\"fromPort\":\"source:Transactions:fields\",\"toPort\":\"source:Transactions:amountTransferedTillNow:\",\"visible\":true,\"common\":false,\"__gohashid\":65286},{\"from\":\"source:Transactions:fields\",\"to\":\"source:Transactions:authenticationRequired:\",\"fromPort\":\"source:Transactions:fields\",\"toPort\":\"source:Transactions:authenticationRequired:\",\"visible\":true,\"common\":false,\"__gohashid\":65287},{\"from\":\"source:Transactions:fields\",\"to\":\"source:Transactions:billCategory:\",\"fromPort\":\"source:Transactions:fields\",\"toPort\":\"source:Transactions:billCategory:\",\"visible\":true,\"common\":false,\"__gohashid\":65288},{\"from\":\"source:Transactions:fields\",\"to\":\"source:Transactions:billCategoryId:\",\"fromPort\":\"source:Transactions:fields\",\"toPort\":\"source:Transactions:billCategoryId:\",\"visible\":true,\"common\":false,\"__gohashid\":65289},{\"from\":\"source:Transactions:fields\",\"to\":\"source:Transactions:billDueAmount:\",\"fromPort\":\"source:Transactions:fields\",\"toPort\":\"source:Transactions:billDueAmount:\",\"visible\":true,\"common\":false,\"__gohashid\":65290},{\"from\":\"source:Transactions:fields\",\"to\":\"source:Transactions:billDueDate:\",\"fromPort\":\"source:Transactions:fields\",\"toPort\":\"source:Transactions:billDueDate:\",\"visible\":true,\"common\":false,\"__gohashid\":65291},{\"from\":\"source:Transactions:fields\",\"to\":\"source:Transactions:billerCategoryName:\",\"fromPort\":\"source:Transactions:fields\",\"toPort\":\"source:Transactions:billerCategoryName:\",\"visible\":true,\"common\":false,\"__gohashid\":65292},{\"from\":\"source:Transactions:fields\",\"to\":\"source:Transactions:billGeneratedDate:\",\"fromPort\":\"source:Transactions:fields\",\"toPort\":\"source:Transactions:billGeneratedDate:\",\"visible\":true,\"common\":false,\"__gohashid\":65293},{\"from\":\"source:Transactions:fields\",\"to\":\"source:Transactions:billid:\",\"fromPort\":\"source:Transactions:fields\",\"toPort\":\"source:Transactions:billid:\",\"visible\":true,\"common\":false,\"__gohashid\":65294},{\"from\":\"source:Transactions:fields\",\"to\":\"source:Transactions:billPaidAmount:\",\"fromPort\":\"source:Transactions:fields\",\"toPort\":\"source:Transactions:billPaidAmount:\",\"visible\":true,\"common\":false,\"__gohashid\":65295},{\"from\":\"source:Transactions:fields\",\"to\":\"source:Transactions:billPaidDate:\",\"fromPort\":\"source:Transactions:fields\",\"toPort\":\"source:Transactions:billPaidDate:\",\"visible\":true,\"common\":false,\"__gohashid\":65296},{\"from\":\"source:Transactions:fields\",\"to\":\"source:Transactions:bulkPayString:\",\"fromPort\":\"source:Transactions:fields\",\"toPort\":\"source:Transactions:bulkPayString:\",\"visible\":true,\"common\":false,\"__gohashid\":65297},{\"from\":\"source:Transactions:fields\",\"to\":\"source:Transactions:cashlessEmail:\",\"fromPort\":\"source:Transactions:fields\",\"toPort\":\"source:Transactions:cashlessEmail:\",\"visible\":true,\"common\":false,\"__gohashid\":65298},{\"from\":\"source:Transactions:fields\",\"to\":\"source:Transactions:cashlessMode:\",\"fromPort\":\"source:Transactions:fields\",\"toPort\":\"source:Transactions:cashlessMode:\",\"visible\":true,\"common\":false,\"__gohashid\":65299},{\"from\":\"source:Transactions:fields\",\"to\":\"source:Transactions:cashlessOTP:\",\"fromPort\":\"source:Transactions:fields\",\"toPort\":\"source:Transactions:cashlessOTP:\",\"visible\":true,\"common\":false,\"__gohashid\":65300},{\"from\":\"source:Transactions:fields\",\"to\":\"source:Transactions:cashlessOTPValidDate:\",\"fromPort\":\"source:Transactions:fields\",\"toPort\":\"source:Transactions:cashlessOTPValidDate:\",\"visible\":true,\"common\":false,\"__gohashid\":65301},{\"from\":\"source:Transactions:fields\",\"to\":\"source:Transactions:cashlessPersonName:\",\"fromPort\":\"source:Transactions:fields\",\"toPort\":\"source:Transactions:cashlessPersonName:\",\"visible\":true,\"common\":false,\"__gohashid\":65302},{\"from\":\"source:Transactions:fields\",\"to\":\"source:Transactions:cashlessPhone:\",\"fromPort\":\"source:Transactions:fields\",\"toPort\":\"source:Transactions:cashlessPhone:\",\"visible\":true,\"common\":false,\"__gohashid\":65303},{\"from\":\"source:Transactions:fields\",\"to\":\"source:Transactions:cashlessPin:\",\"fromPort\":\"source:Transactions:fields\",\"toPort\":\"source:Transactions:cashlessPin:\",\"visible\":true,\"common\":false,\"__gohashid\":65304},{\"from\":\"source:Transactions:fields\",\"to\":\"source:Transactions:cashlessSecurityCode:\",\"fromPort\":\"source:Transactions:fields\",\"toPort\":\"source:Transactions:cashlessSecurityCode:\",\"visible\":true,\"common\":false,\"__gohashid\":65305},{\"from\":\"source:Transactions:fields\",\"to\":\"source:Transactions:cashWithdrawalTransactionStatus:\",\"fromPort\":\"source:Transactions:fields\",\"toPort\":\"source:Transactions:cashWithdrawalTransactionStatus:\",\"visible\":true,\"common\":false,\"__gohashid\":65306},{\"from\":\"source:Transactions:fields\",\"to\":\"source:Transactions:category:\",\"fromPort\":\"source:Transactions:fields\",\"toPort\":\"source:Transactions:category:\",\"visible\":true,\"common\":false,\"__gohashid\":65307},{\"from\":\"source:Transactions:fields\",\"to\":\"source:Transactions:checkImage:\",\"fromPort\":\"source:Transactions:fields\",\"toPort\":\"source:Transactions:checkImage:\",\"visible\":true,\"common\":false,\"__gohashid\":65308},{\"from\":\"source:Transactions:fields\",\"to\":\"source:Transactions:checkImageBack:\",\"fromPort\":\"source:Transactions:fields\",\"toPort\":\"source:Transactions:checkImageBack:\",\"visible\":true,\"common\":false,\"__gohashid\":65309},{\"from\":\"source:Transactions:fields\",\"to\":\"source:Transactions:checkNumber:\",\"fromPort\":\"source:Transactions:fields\",\"toPort\":\"source:Transactions:checkNumber:\",\"visible\":true,\"common\":false,\"__gohashid\":65310},{\"from\":\"source:Transactions:fields\",\"to\":\"source:Transactions:deliverBy:\",\"fromPort\":\"source:Transactions:fields\",\"toPort\":\"source:Transactions:deliverBy:\",\"visible\":true,\"common\":false,\"__gohashid\":65311},{\"from\":\"source:Transactions:fields\",\"to\":\"source:Transactions:description:\",\"fromPort\":\"source:Transactions:fields\",\"toPort\":\"source:Transactions:description:\",\"visible\":true,\"common\":false,\"__gohashid\":65312},{\"from\":\"source:Transactions:fields\",\"to\":\"source:Transactions:eBillEnable:\",\"fromPort\":\"source:Transactions:fields\",\"toPort\":\"source:Transactions:eBillEnable:\",\"visible\":true,\"common\":false,\"__gohashid\":65313},{\"from\":\"source:Transactions:fields\",\"to\":\"source:Transactions:eBillSupport:\",\"fromPort\":\"source:Transactions:fields\",\"toPort\":\"source:Transactions:eBillSupport:\",\"visible\":true,\"common\":false,\"__gohashid\":65314},{\"from\":\"source:Transactions:fields\",\"to\":\"source:Transactions:ebillURL:\",\"fromPort\":\"source:Transactions:fields\",\"toPort\":\"source:Transactions:ebillURL:\",\"visible\":true,\"common\":false,\"__gohashid\":65315},{\"from\":\"source:Transactions:fields\",\"to\":\"source:Transactions:errmsg:\",\"fromPort\":\"source:Transactions:fields\",\"toPort\":\"source:Transactions:errmsg:\",\"visible\":true,\"common\":false,\"__gohashid\":65316},{\"from\":\"source:Transactions:fields\",\"to\":\"source:Transactions:ExternalAccountNumber:\",\"fromPort\":\"source:Transactions:fields\",\"toPort\":\"source:Transactions:ExternalAccountNumber:\",\"visible\":true,\"common\":false,\"__gohashid\":65317},{\"from\":\"source:Transactions:fields\",\"to\":\"source:Transactions:firstDeposit:\",\"fromPort\":\"source:Transactions:fields\",\"toPort\":\"source:Transactions:firstDeposit:\",\"visible\":true,\"common\":false,\"__gohashid\":65318},{\"from\":\"source:Transactions:fields\",\"to\":\"source:Transactions:firstRecordNumber:\",\"fromPort\":\"source:Transactions:fields\",\"toPort\":\"source:Transactions:firstRecordNumber:\",\"visible\":true,\"common\":false,\"__gohashid\":65319},{\"from\":\"source:Transactions:fields\",\"to\":\"source:Transactions:frequencyEndDate:\",\"fromPort\":\"source:Transactions:fields\",\"toPort\":\"source:Transactions:frequencyEndDate:\",\"visible\":true,\"common\":false,\"__gohashid\":65320},{\"from\":\"source:Transactions:fields\",\"to\":\"source:Transactions:frequencyStartDate:\",\"fromPort\":\"source:Transactions:fields\",\"toPort\":\"source:Transactions:frequencyStartDate:\",\"visible\":true,\"common\":false,\"__gohashid\":65321},{\"from\":\"source:Transactions:fields\",\"to\":\"source:Transactions:frequencyType:\",\"fromPort\":\"source:Transactions:fields\",\"toPort\":\"source:Transactions:frequencyType:\",\"visible\":true,\"common\":false,\"__gohashid\":65322},{\"from\":\"source:Transactions:fields\",\"to\":\"source:Transactions:fromAccountBalance:\",\"fromPort\":\"source:Transactions:fields\",\"toPort\":\"source:Transactions:fromAccountBalance:\",\"visible\":true,\"common\":false,\"__gohashid\":65323},{\"from\":\"source:Transactions:fields\",\"to\":\"source:Transactions:fromAccountName:\",\"fromPort\":\"source:Transactions:fields\",\"toPort\":\"source:Transactions:fromAccountName:\",\"visible\":true,\"common\":false,\"__gohashid\":65324},{\"from\":\"source:Transactions:fields\",\"to\":\"source:Transactions:fromAccountNumber:\",\"fromPort\":\"source:Transactions:fields\",\"toPort\":\"source:Transactions:fromAccountNumber:\",\"visible\":true,\"common\":false,\"__gohashid\":65325},{\"from\":\"source:Transactions:fields\",\"to\":\"source:Transactions:fromAccountType:\",\"fromPort\":\"source:Transactions:fields\",\"toPort\":\"source:Transactions:fromAccountType:\",\"visible\":true,\"common\":false,\"__gohashid\":65326},{\"from\":\"source:Transactions:fields\",\"to\":\"source:Transactions:fromCheckNumber:\",\"fromPort\":\"source:Transactions:fields\",\"toPort\":\"source:Transactions:fromCheckNumber:\",\"visible\":true,\"common\":false,\"__gohashid\":65327},{\"from\":\"source:Transactions:fields\",\"to\":\"source:Transactions:fromNickName:\",\"fromPort\":\"source:Transactions:fields\",\"toPort\":\"source:Transactions:fromNickName:\",\"visible\":true,\"common\":false,\"__gohashid\":65328},{\"from\":\"source:Transactions:fields\",\"to\":\"source:Transactions:hasDepositImage:\",\"fromPort\":\"source:Transactions:fields\",\"toPort\":\"source:Transactions:hasDepositImage:\",\"visible\":true,\"common\":false,\"__gohashid\":65329},{\"from\":\"source:Transactions:fields\",\"to\":\"source:Transactions:isScheduled:\",\"fromPort\":\"source:Transactions:fields\",\"toPort\":\"source:Transactions:isScheduled:\",\"visible\":true,\"common\":false,\"__gohashid\":65330},{\"from\":\"source:Transactions:fields\",\"to\":\"source:Transactions:lastRecordNumber:\",\"fromPort\":\"source:Transactions:fields\",\"toPort\":\"source:Transactions:lastRecordNumber:\",\"visible\":true,\"common\":false,\"__gohashid\":65331},{\"from\":\"source:Transactions:fields\",\"to\":\"source:Transactions:limit:\",\"fromPort\":\"source:Transactions:fields\",\"toPort\":\"source:Transactions:limit:\",\"visible\":true,\"common\":false,\"__gohashid\":65332},{\"from\":\"source:Transactions:fields\",\"to\":\"source:Transactions:numberOfRecurrences:\",\"fromPort\":\"source:Transactions:fields\",\"toPort\":\"source:Transactions:numberOfRecurrences:\",\"visible\":true,\"common\":false,\"__gohashid\":65333},{\"from\":\"source:Transactions:fields\",\"to\":\"source:Transactions:offset:\",\"fromPort\":\"source:Transactions:fields\",\"toPort\":\"source:Transactions:offset:\",\"visible\":true,\"common\":false,\"__gohashid\":65334},{\"from\":\"source:Transactions:fields\",\"to\":\"source:Transactions:order:\",\"fromPort\":\"source:Transactions:fields\",\"toPort\":\"source:Transactions:order:\",\"visible\":true,\"common\":false,\"__gohashid\":65335},{\"from\":\"source:Transactions:fields\",\"to\":\"source:Transactions:otp:\",\"fromPort\":\"source:Transactions:fields\",\"toPort\":\"source:Transactions:otp:\",\"visible\":true,\"common\":false,\"__gohashid\":65336},{\"from\":\"source:Transactions:fields\",\"to\":\"source:Transactions:p2pContact:\",\"fromPort\":\"source:Transactions:fields\",\"toPort\":\"source:Transactions:p2pContact:\",\"visible\":true,\"common\":false,\"__gohashid\":65337},{\"from\":\"source:Transactions:fields\",\"to\":\"source:Transactions:p2pRequiredDate:\",\"fromPort\":\"source:Transactions:fields\",\"toPort\":\"source:Transactions:p2pRequiredDate:\",\"visible\":true,\"common\":false,\"__gohashid\":65338},{\"from\":\"source:Transactions:fields\",\"to\":\"source:Transactions:payeeAccountNumber:\",\"fromPort\":\"source:Transactions:fields\",\"toPort\":\"source:Transactions:payeeAccountNumber:\",\"visible\":true,\"common\":false,\"__gohashid\":65339},{\"from\":\"source:Transactions:fields\",\"to\":\"source:Transactions:payeeAddressLine1:\",\"fromPort\":\"source:Transactions:fields\",\"toPort\":\"source:Transactions:payeeAddressLine1:\",\"visible\":true,\"common\":false,\"__gohashid\":65340},{\"from\":\"source:Transactions:fields\",\"to\":\"source:Transactions:payeeId:\",\"fromPort\":\"source:Transactions:fields\",\"toPort\":\"source:Transactions:payeeId:\",\"visible\":true,\"common\":false,\"__gohashid\":65341},{\"from\":\"source:Transactions:fields\",\"to\":\"source:Transactions:payeeName:\",\"fromPort\":\"source:Transactions:fields\",\"toPort\":\"source:Transactions:payeeName:\",\"visible\":true,\"common\":false,\"__gohashid\":65342},{\"from\":\"source:Transactions:fields\",\"to\":\"source:Transactions:payeeNickName:\",\"fromPort\":\"source:Transactions:fields\",\"toPort\":\"source:Transactions:payeeNickName:\",\"visible\":true,\"common\":false,\"__gohashid\":65343},{\"from\":\"source:Transactions:fields\",\"to\":\"source:Transactions:payoffFlag:\",\"fromPort\":\"source:Transactions:fields\",\"toPort\":\"source:Transactions:payoffFlag:\",\"visible\":true,\"common\":false,\"__gohashid\":65344},{\"from\":\"source:Transactions:fields\",\"to\":\"source:Transactions:payPersonEmail:\",\"fromPort\":\"source:Transactions:fields\",\"toPort\":\"source:Transactions:payPersonEmail:\",\"visible\":true,\"common\":false,\"__gohashid\":65345},{\"from\":\"source:Transactions:fields\",\"to\":\"source:Transactions:payPersonName:\",\"fromPort\":\"source:Transactions:fields\",\"toPort\":\"source:Transactions:payPersonName:\",\"visible\":true,\"common\":false,\"__gohashid\":65346},{\"from\":\"source:Transactions:fields\",\"to\":\"source:Transactions:payPersonPhone:\",\"fromPort\":\"source:Transactions:fields\",\"toPort\":\"source:Transactions:payPersonPhone:\",\"visible\":true,\"common\":false,\"__gohashid\":65347},{\"from\":\"source:Transactions:fields\",\"to\":\"source:Transactions:penaltyFlag:\",\"fromPort\":\"source:Transactions:fields\",\"toPort\":\"source:Transactions:penaltyFlag:\",\"visible\":true,\"common\":false,\"__gohashid\":65348},{\"from\":\"source:Transactions:fields\",\"to\":\"source:Transactions:personId:\",\"fromPort\":\"source:Transactions:fields\",\"toPort\":\"source:Transactions:personId:\",\"visible\":true,\"common\":false,\"__gohashid\":65349},{\"from\":\"source:Transactions:fields\",\"to\":\"source:Transactions:recurrenceDesc:\",\"fromPort\":\"source:Transactions:fields\",\"toPort\":\"source:Transactions:recurrenceDesc:\",\"visible\":true,\"common\":false,\"__gohashid\":65350},{\"from\":\"source:Transactions:fields\",\"to\":\"source:Transactions:referenceId:\",\"fromPort\":\"source:Transactions:fields\",\"toPort\":\"source:Transactions:referenceId:\",\"visible\":true,\"common\":false,\"__gohashid\":65351},{\"from\":\"source:Transactions:fields\",\"to\":\"source:Transactions:scheduledDate:\",\"fromPort\":\"source:Transactions:fields\",\"toPort\":\"source:Transactions:scheduledDate:\",\"visible\":true,\"common\":false,\"__gohashid\":65352},{\"from\":\"source:Transactions:fields\",\"to\":\"source:Transactions:searchAmount:\",\"fromPort\":\"source:Transactions:fields\",\"toPort\":\"source:Transactions:searchAmount:\",\"visible\":true,\"common\":false,\"__gohashid\":65353},{\"from\":\"source:Transactions:fields\",\"to\":\"source:Transactions:searchDateRange:\",\"fromPort\":\"source:Transactions:fields\",\"toPort\":\"source:Transactions:searchDateRange:\",\"visible\":true,\"common\":false,\"__gohashid\":65354},{\"from\":\"source:Transactions:fields\",\"to\":\"source:Transactions:searchDescription:\",\"fromPort\":\"source:Transactions:fields\",\"toPort\":\"source:Transactions:searchDescription:\",\"visible\":true,\"common\":false,\"__gohashid\":65355},{\"from\":\"source:Transactions:fields\",\"to\":\"source:Transactions:searchEndDate:\",\"fromPort\":\"source:Transactions:fields\",\"toPort\":\"source:Transactions:searchEndDate:\",\"visible\":true,\"common\":false,\"__gohashid\":65356},{\"from\":\"source:Transactions:fields\",\"to\":\"source:Transactions:searchMaxAmount:\",\"fromPort\":\"source:Transactions:fields\",\"toPort\":\"source:Transactions:searchMaxAmount:\",\"visible\":true,\"common\":false,\"__gohashid\":65357},{\"from\":\"source:Transactions:fields\",\"to\":\"source:Transactions:searchMinAmount:\",\"fromPort\":\"source:Transactions:fields\",\"toPort\":\"source:Transactions:searchMinAmount:\",\"visible\":true,\"common\":false,\"__gohashid\":65358},{\"from\":\"source:Transactions:fields\",\"to\":\"source:Transactions:searchStartDate:\",\"fromPort\":\"source:Transactions:fields\",\"toPort\":\"source:Transactions:searchStartDate:\",\"visible\":true,\"common\":false,\"__gohashid\":65359},{\"from\":\"source:Transactions:fields\",\"to\":\"source:Transactions:searchTransactionType:\",\"fromPort\":\"source:Transactions:fields\",\"toPort\":\"source:Transactions:searchTransactionType:\",\"visible\":true,\"common\":false,\"__gohashid\":65360},{\"from\":\"source:Transactions:fields\",\"to\":\"source:Transactions:searchType:\",\"fromPort\":\"source:Transactions:fields\",\"toPort\":\"source:Transactions:searchType:\",\"visible\":true,\"common\":false,\"__gohashid\":65361},{\"from\":\"source:Transactions:fields\",\"to\":\"source:Transactions:secondaryEmail:\",\"fromPort\":\"source:Transactions:fields\",\"toPort\":\"source:Transactions:secondaryEmail:\",\"visible\":true,\"common\":false,\"__gohashid\":65362},{\"from\":\"source:Transactions:fields\",\"to\":\"source:Transactions:secondaryEmail2:\",\"fromPort\":\"source:Transactions:fields\",\"toPort\":\"source:Transactions:secondaryEmail2:\",\"visible\":true,\"common\":false,\"__gohashid\":65363},{\"from\":\"source:Transactions:fields\",\"to\":\"source:Transactions:secondaryPhoneNumber2:\",\"fromPort\":\"source:Transactions:fields\",\"toPort\":\"source:Transactions:secondaryPhoneNumber2:\",\"visible\":true,\"common\":false,\"__gohashid\":65364},{\"from\":\"source:Transactions:fields\",\"to\":\"source:Transactions:secondDeposit:\",\"fromPort\":\"source:Transactions:fields\",\"toPort\":\"source:Transactions:secondDeposit:\",\"visible\":true,\"common\":false,\"__gohashid\":65365},{\"from\":\"source:Transactions:fields\",\"to\":\"source:Transactions:secondoryPhoneNumber:\",\"fromPort\":\"source:Transactions:fields\",\"toPort\":\"source:Transactions:secondoryPhoneNumber:\",\"visible\":true,\"common\":false,\"__gohashid\":65366},{\"from\":\"source:Transactions:fields\",\"to\":\"source:Transactions:sortBy:\",\"fromPort\":\"source:Transactions:fields\",\"toPort\":\"source:Transactions:sortBy:\",\"visible\":true,\"common\":false,\"__gohashid\":65367},{\"from\":\"source:Transactions:fields\",\"to\":\"source:Transactions:statusDescription:\",\"fromPort\":\"source:Transactions:fields\",\"toPort\":\"source:Transactions:statusDescription:\",\"visible\":true,\"common\":false,\"__gohashid\":65368},{\"from\":\"source:Transactions:fields\",\"to\":\"source:Transactions:success:\",\"fromPort\":\"source:Transactions:fields\",\"toPort\":\"source:Transactions:success:\",\"visible\":true,\"common\":false,\"__gohashid\":65369},{\"from\":\"source:Transactions:fields\",\"to\":\"source:Transactions:toAccountName:\",\"fromPort\":\"source:Transactions:fields\",\"toPort\":\"source:Transactions:toAccountName:\",\"visible\":true,\"common\":false,\"__gohashid\":65370},{\"from\":\"source:Transactions:fields\",\"to\":\"source:Transactions:toAccountNumber:\",\"fromPort\":\"source:Transactions:fields\",\"toPort\":\"source:Transactions:toAccountNumber:\",\"visible\":true,\"common\":false,\"__gohashid\":65371},{\"from\":\"source:Transactions:fields\",\"to\":\"source:Transactions:toAccountType:\",\"fromPort\":\"source:Transactions:fields\",\"toPort\":\"source:Transactions:toAccountType:\",\"visible\":true,\"common\":false,\"__gohashid\":65372},{\"from\":\"source:Transactions:fields\",\"to\":\"source:Transactions:toCheckNumber:\",\"fromPort\":\"source:Transactions:fields\",\"toPort\":\"source:Transactions:toCheckNumber:\",\"visible\":true,\"common\":false,\"__gohashid\":65373},{\"from\":\"source:Transactions:fields\",\"to\":\"source:Transactions:totalAmount:\",\"fromPort\":\"source:Transactions:fields\",\"toPort\":\"source:Transactions:totalAmount:\",\"visible\":true,\"common\":false,\"__gohashid\":65374},{\"from\":\"source:Transactions:fields\",\"to\":\"source:Transactions:transactionComments:\",\"fromPort\":\"source:Transactions:fields\",\"toPort\":\"source:Transactions:transactionComments:\",\"visible\":true,\"common\":false,\"__gohashid\":65375},{\"from\":\"source:Transactions:fields\",\"to\":\"source:Transactions:transactionDate:\",\"fromPort\":\"source:Transactions:fields\",\"toPort\":\"source:Transactions:transactionDate:\",\"visible\":true,\"common\":false,\"__gohashid\":65376},{\"from\":\"source:Transactions:fields\",\"to\":\"source:Transactions:transactionId:\",\"fromPort\":\"source:Transactions:fields\",\"toPort\":\"source:Transactions:transactionId:\",\"visible\":true,\"common\":false,\"__gohashid\":65377},{\"from\":\"source:Transactions:fields\",\"to\":\"source:Transactions:transactionsNotes:\",\"fromPort\":\"source:Transactions:fields\",\"toPort\":\"source:Transactions:transactionsNotes:\",\"visible\":true,\"common\":false,\"__gohashid\":65378},{\"from\":\"source:Transactions:fields\",\"to\":\"source:Transactions:transactionType:\",\"fromPort\":\"source:Transactions:fields\",\"toPort\":\"source:Transactions:transactionType:\",\"visible\":true,\"common\":false,\"__gohashid\":65379},{\"from\":\"source:Transactions:fields\",\"to\":\"source:Transactions:validDate:\",\"fromPort\":\"source:Transactions:fields\",\"toPort\":\"source:Transactions:validDate:\",\"visible\":true,\"common\":false,\"__gohashid\":65380},{\"from\":\"source:Transactions:fields\",\"to\":\"source:Transactions:viewReportLink:\",\"fromPort\":\"source:Transactions:fields\",\"toPort\":\"source:Transactions:viewReportLink:\",\"visible\":true,\"common\":false,\"__gohashid\":65381},{\"from\":\"source:Transactions:fields\",\"to\":\"source:Transactions:overdraft:\",\"fromPort\":\"source:Transactions:fields\",\"toPort\":\"source:Transactions:overdraft:\",\"visible\":true,\"common\":false,\"__gohashid\":65382},{\"from\":\"source:Transactions:fields\",\"to\":\"source:Transactions:isPaypersonDeleted:\",\"fromPort\":\"source:Transactions:fields\",\"toPort\":\"source:Transactions:isPaypersonDeleted:\",\"visible\":true,\"common\":false,\"__gohashid\":65383},{\"from\":\"source:Transactions:fields\",\"to\":\"source:Transactions:fee:\",\"fromPort\":\"source:Transactions:fields\",\"toPort\":\"source:Transactions:fee:\",\"visible\":true,\"common\":false,\"__gohashid\":65384},{\"from\":\"source:Transactions:fields\",\"to\":\"source:Transactions:frontImage1:\",\"fromPort\":\"source:Transactions:fields\",\"toPort\":\"source:Transactions:frontImage1:\",\"visible\":true,\"common\":false,\"__gohashid\":65385},{\"from\":\"source:Transactions:fields\",\"to\":\"source:Transactions:frontImage2:\",\"fromPort\":\"source:Transactions:fields\",\"toPort\":\"source:Transactions:frontImage2:\",\"visible\":true,\"common\":false,\"__gohashid\":65386},{\"from\":\"source:Transactions:fields\",\"to\":\"source:Transactions:backImage1:\",\"fromPort\":\"source:Transactions:fields\",\"toPort\":\"source:Transactions:backImage1:\",\"visible\":true,\"common\":false,\"__gohashid\":65387},{\"from\":\"source:Transactions:fields\",\"to\":\"source:Transactions:backImage2:\",\"fromPort\":\"source:Transactions:fields\",\"toPort\":\"source:Transactions:backImage2:\",\"visible\":true,\"common\":false,\"__gohashid\":65388},{\"from\":\"source:Transactions:fields\",\"to\":\"source:Transactions:checkDesc:\",\"fromPort\":\"source:Transactions:fields\",\"toPort\":\"source:Transactions:checkDesc:\",\"visible\":true,\"common\":false,\"__gohashid\":65389},{\"from\":\"source:Transactions:fields\",\"to\":\"source:Transactions:checkNumber1:\",\"fromPort\":\"source:Transactions:fields\",\"toPort\":\"source:Transactions:checkNumber1:\",\"visible\":true,\"common\":false,\"__gohashid\":65390},{\"from\":\"source:Transactions:fields\",\"to\":\"source:Transactions:checkNumber2:\",\"fromPort\":\"source:Transactions:fields\",\"toPort\":\"source:Transactions:checkNumber2:\",\"visible\":true,\"common\":false,\"__gohashid\":65391},{\"from\":\"source:Transactions:fields\",\"to\":\"source:Transactions:bankName1:\",\"fromPort\":\"source:Transactions:fields\",\"toPort\":\"source:Transactions:bankName1:\",\"visible\":true,\"common\":false,\"__gohashid\":65392},{\"from\":\"source:Transactions:fields\",\"to\":\"source:Transactions:bankName2:\",\"fromPort\":\"source:Transactions:fields\",\"toPort\":\"source:Transactions:bankName2:\",\"visible\":true,\"common\":false,\"__gohashid\":65393},{\"from\":\"source:Transactions:fields\",\"to\":\"source:Transactions:withdrawlAmount1:\",\"fromPort\":\"source:Transactions:fields\",\"toPort\":\"source:Transactions:withdrawlAmount1:\",\"visible\":true,\"common\":false,\"__gohashid\":65394},{\"from\":\"source:Transactions:fields\",\"to\":\"source:Transactions:withdrawlAmount2:\",\"fromPort\":\"source:Transactions:fields\",\"toPort\":\"source:Transactions:withdrawlAmount2:\",\"visible\":true,\"common\":false,\"__gohashid\":65395},{\"from\":\"source:Transactions:fields\",\"to\":\"source:Transactions:totalCheckAmount:\",\"fromPort\":\"source:Transactions:fields\",\"toPort\":\"source:Transactions:totalCheckAmount:\",\"visible\":true,\"common\":false,\"__gohashid\":65396},{\"from\":\"source:Transactions:fields\",\"to\":\"source:Transactions:cashAmount:\",\"fromPort\":\"source:Transactions:fields\",\"toPort\":\"source:Transactions:cashAmount:\",\"visible\":true,\"common\":false,\"__gohashid\":65397},{\"from\":\"source:Transactions:fields\",\"to\":\"source:Transactions:payeeCurrency:\",\"fromPort\":\"source:Transactions:fields\",\"toPort\":\"source:Transactions:payeeCurrency:\",\"visible\":true,\"common\":false,\"__gohashid\":65398},{\"from\":\"source:Transactions:fields\",\"to\":\"source:Transactions:swiftCode:\",\"fromPort\":\"source:Transactions:fields\",\"toPort\":\"source:Transactions:swiftCode:\",\"visible\":true,\"common\":false,\"__gohashid\":65399},{\"from\":\"source:Transactions:fields\",\"to\":\"source:Transactions:wireAccountType:\",\"fromPort\":\"source:Transactions:fields\",\"toPort\":\"source:Transactions:wireAccountType:\",\"visible\":true,\"common\":false,\"__gohashid\":65400},{\"from\":\"source:Transactions:fields\",\"to\":\"source:Transactions:country:\",\"fromPort\":\"source:Transactions:fields\",\"toPort\":\"source:Transactions:country:\",\"visible\":true,\"common\":false,\"__gohashid\":65401},{\"from\":\"source:Transactions:fields\",\"to\":\"source:Transactions:IBAN:\",\"fromPort\":\"source:Transactions:fields\",\"toPort\":\"source:Transactions:IBAN:\",\"visible\":true,\"common\":false,\"__gohashid\":65402},{\"from\":\"source:Transactions:fields\",\"to\":\"source:Transactions:bankName:\",\"fromPort\":\"source:Transactions:fields\",\"toPort\":\"source:Transactions:bankName:\",\"visible\":true,\"common\":false,\"__gohashid\":65403},{\"from\":\"source:Transactions:fields\",\"to\":\"source:Transactions:routingNumber:\",\"fromPort\":\"source:Transactions:fields\",\"toPort\":\"source:Transactions:routingNumber:\",\"visible\":true,\"common\":false,\"__gohashid\":65404},{\"from\":\"source:Transactions:fields\",\"to\":\"source:Transactions:internationalRoutingCode:\",\"fromPort\":\"source:Transactions:fields\",\"toPort\":\"source:Transactions:internationalRoutingCode:\",\"visible\":true,\"common\":false,\"__gohashid\":65405},{\"from\":\"source:Transactions:fields\",\"to\":\"source:Transactions:zipCode:\",\"fromPort\":\"source:Transactions:fields\",\"toPort\":\"source:Transactions:zipCode:\",\"visible\":true,\"common\":false,\"__gohashid\":65406},{\"from\":\"source:Transactions:fields\",\"to\":\"source:Transactions:cityName:\",\"fromPort\":\"source:Transactions:fields\",\"toPort\":\"source:Transactions:cityName:\",\"visible\":true,\"common\":false,\"__gohashid\":65407},{\"from\":\"source:Transactions:fields\",\"to\":\"source:Transactions:state:\",\"fromPort\":\"source:Transactions:fields\",\"toPort\":\"source:Transactions:state:\",\"visible\":true,\"common\":false,\"__gohashid\":65408},{\"from\":\"source:Transactions:fields\",\"to\":\"source:Transactions:bankAddressLine1:\",\"fromPort\":\"source:Transactions:fields\",\"toPort\":\"source:Transactions:bankAddressLine1:\",\"visible\":true,\"common\":false,\"__gohashid\":65409},{\"from\":\"source:Transactions:fields\",\"to\":\"source:Transactions:bankAddressLine2:\",\"fromPort\":\"source:Transactions:fields\",\"toPort\":\"source:Transactions:bankAddressLine2:\",\"visible\":true,\"common\":false,\"__gohashid\":65410},{\"from\":\"source:Transactions:fields\",\"to\":\"source:Transactions:bankCity:\",\"fromPort\":\"source:Transactions:fields\",\"toPort\":\"source:Transactions:bankCity:\",\"visible\":true,\"common\":false,\"__gohashid\":65411},{\"from\":\"source:Transactions:fields\",\"to\":\"source:Transactions:bankState:\",\"fromPort\":\"source:Transactions:fields\",\"toPort\":\"source:Transactions:bankState:\",\"visible\":true,\"common\":false,\"__gohashid\":65412},{\"from\":\"source:Transactions:fields\",\"to\":\"source:Transactions:bankZip:\",\"fromPort\":\"source:Transactions:fields\",\"toPort\":\"source:Transactions:bankZip:\",\"visible\":true,\"common\":false,\"__gohashid\":65413},{\"from\":\"source:Transactions:fields\",\"to\":\"source:Transactions:payeeType:\",\"fromPort\":\"source:Transactions:fields\",\"toPort\":\"source:Transactions:payeeType:\",\"visible\":true,\"common\":false,\"__gohashid\":65414},{\"from\":\"source:Transactions:fields\",\"to\":\"source:Transactions:disputeReason:\",\"fromPort\":\"source:Transactions:fields\",\"toPort\":\"source:Transactions:disputeReason:\",\"visible\":true,\"common\":false,\"__gohashid\":65415},{\"from\":\"source:Transactions:fields\",\"to\":\"source:Transactions:disputeDescription:\",\"fromPort\":\"source:Transactions:fields\",\"toPort\":\"source:Transactions:disputeDescription:\",\"visible\":true,\"common\":false,\"__gohashid\":65416},{\"from\":\"source:Transactions:fields\",\"to\":\"source:Transactions:checkDateOfIssue:\",\"fromPort\":\"source:Transactions:fields\",\"toPort\":\"source:Transactions:checkDateOfIssue:\",\"visible\":true,\"common\":false,\"__gohashid\":65417},{\"from\":\"source:Transactions:fields\",\"to\":\"source:Transactions:checkReason:\",\"fromPort\":\"source:Transactions:fields\",\"toPort\":\"source:Transactions:checkReason:\",\"visible\":true,\"common\":false,\"__gohashid\":65418},{\"from\":\"source:Transactions:fields\",\"to\":\"source:Transactions:isPayeeDeleted:\",\"fromPort\":\"source:Transactions:fields\",\"toPort\":\"source:Transactions:isPayeeDeleted:\",\"visible\":true,\"common\":false,\"__gohashid\":65419},{\"from\":\"source:Transactions:fields\",\"to\":\"source:Transactions:payeeAddressLine2:\",\"fromPort\":\"source:Transactions:fields\",\"toPort\":\"source:Transactions:payeeAddressLine2:\",\"visible\":true,\"common\":false,\"__gohashid\":65420},{\"from\":\"source:Transactions:fields\",\"to\":\"source:Transactions:amountRecieved:\",\"fromPort\":\"source:Transactions:fields\",\"toPort\":\"source:Transactions:amountRecieved:\",\"visible\":true,\"common\":false,\"__gohashid\":65421},{\"from\":\"source:Transactions:fields\",\"to\":\"source:Transactions:requestValidityInMonths:\",\"fromPort\":\"source:Transactions:fields\",\"toPort\":\"source:Transactions:requestValidityInMonths:\",\"visible\":true,\"common\":false,\"__gohashid\":65422},{\"from\":\"source:Transactions:fields\",\"to\":\"source:Transactions:requestValidity:\",\"fromPort\":\"source:Transactions:fields\",\"toPort\":\"source:Transactions:requestValidity:\",\"visible\":true,\"common\":false,\"__gohashid\":65423},{\"from\":\"source:Transactions:fields\",\"to\":\"source:Transactions:requestType:\",\"fromPort\":\"source:Transactions:fields\",\"toPort\":\"source:Transactions:requestType:\",\"visible\":true,\"common\":false,\"__gohashid\":65424},{\"from\":\"source:Transactions:fields\",\"to\":\"source:Transactions:disputeDate:\",\"fromPort\":\"source:Transactions:fields\",\"toPort\":\"source:Transactions:disputeDate:\",\"visible\":true,\"common\":false,\"__gohashid\":65425},{\"from\":\"source:Transactions:fields\",\"to\":\"source:Transactions:disputeStatus:\",\"fromPort\":\"source:Transactions:fields\",\"toPort\":\"source:Transactions:disputeStatus:\",\"visible\":true,\"common\":false,\"__gohashid\":65426},{\"from\":\"source:Transactions:fields\",\"to\":\"source:Transactions:isDisputed:\",\"fromPort\":\"source:Transactions:fields\",\"toPort\":\"source:Transactions:isDisputed:\",\"visible\":true,\"common\":false,\"__gohashid\":65427},{\"from\":\"source:Transactions:fields\",\"to\":\"source:Transactions:cardId:\",\"fromPort\":\"source:Transactions:fields\",\"toPort\":\"source:Transactions:cardId:\",\"visible\":true,\"common\":false,\"__gohashid\":65428},{\"from\":\"source:Transactions:fields\",\"to\":\"source:Transactions:isOverdraft:\",\"fromPort\":\"source:Transactions:fields\",\"toPort\":\"source:Transactions:isOverdraft:\",\"visible\":true,\"common\":false,\"__gohashid\":65429},{\"from\":\"source:Transactions:fields\",\"to\":\"source:Transactions:title:\",\"fromPort\":\"source:Transactions:fields\",\"toPort\":\"source:Transactions:title:\",\"visible\":true,\"common\":false,\"__gohashid\":65430},{\"from\":\"source:Transactions:fields\",\"to\":\"source:Transactions:generatedBy:\",\"fromPort\":\"source:Transactions:fields\",\"toPort\":\"source:Transactions:generatedBy:\",\"visible\":true,\"common\":false,\"__gohashid\":65431},{\"from\":\"source:Transactions:fields\",\"to\":\"source:Transactions:filters:\",\"fromPort\":\"source:Transactions:fields\",\"toPort\":\"source:Transactions:filters:\",\"visible\":true,\"common\":false,\"__gohashid\":65432}],\"blockCount\":{\"variableCount\":0},\"variableMap\":{},\"xmlMappingOverride\":true}",
    "oVisualMappingData" : "{\"nodeDataArray\":[{\"isGroup\":true,\"key\":\"response_out\",\"text\":\"Transactions\",\"xy\":\"770 100\",\"__gohashid\":25220},{\"isGroup\":true,\"key\":\"response_in\",\"text\":\"SymXchangeAccountServices (1.0).getAccountPendingTransactions\",\"xy\":\"172 2012\",\"__gohashid\":25221}],\"linkDataArray\":[{\"category\":\"Mapping\",\"from\":\"source:Transactions:amount:\",\"to\":\"target:Transactions:amount:\",\"fromPort\":\"source:Transactions:amount:\",\"toPort\":\"target:Transactions:amount:\",\"visible\":true,\"common\":true,\"__gohashid\":30326},{\"category\":\"Mapping\",\"from\":\"source:Transactions:description:\",\"to\":\"target:Transactions:description:\",\"fromPort\":\"source:Transactions:description:\",\"toPort\":\"target:Transactions:description:\",\"visible\":true,\"common\":true,\"__gohashid\":30333},{\"category\":\"Mapping\",\"from\":\"source:Transactions:referenceId:\",\"to\":\"target:Transactions:referenceId:\",\"fromPort\":\"source:Transactions:referenceId:\",\"toPort\":\"target:Transactions:referenceId:\",\"visible\":true,\"common\":true,\"__gohashid\":30340},{\"category\":\"Mapping\",\"from\":\"source:Transactions:scheduledDate:\",\"to\":\"target:Transactions:scheduledDate:\",\"fromPort\":\"source:Transactions:scheduledDate:\",\"toPort\":\"target:Transactions:scheduledDate:\",\"visible\":true,\"common\":true,\"__gohashid\":30347},{\"category\":\"Mapping\",\"from\":\"source:Transactions:success:\",\"to\":\"target:Transactions:success:\",\"fromPort\":\"source:Transactions:success:\",\"toPort\":\"target:Transactions:success:\",\"visible\":true,\"common\":true,\"__gohashid\":30354},{\"category\":\"Mapping\",\"from\":\"source:Transactions:totalAmount:\",\"to\":\"target:Transactions:totalAmount:\",\"fromPort\":\"source:Transactions:totalAmount:\",\"toPort\":\"target:Transactions:totalAmount:\",\"visible\":true,\"common\":true,\"__gohashid\":30361},{\"category\":\"Mapping\",\"from\":\"source:Transactions:transactionDate:\",\"to\":\"target:Transactions:transactionDate:\",\"fromPort\":\"source:Transactions:transactionDate:\",\"toPort\":\"target:Transactions:transactionDate:\",\"visible\":true,\"common\":true,\"__gohashid\":30368},{\"category\":\"Mapping\",\"from\":\"source:Transactions:transactionType:\",\"to\":\"target:Transactions:transactionType:\",\"fromPort\":\"source:Transactions:transactionType:\",\"toPort\":\"target:Transactions:transactionType:\",\"visible\":true,\"common\":true,\"__gohashid\":30375},{\"category\":\"Mapping\",\"from\":\"source:Transactions:validDate:\",\"to\":\"target:Transactions:validDate:\",\"fromPort\":\"source:Transactions:validDate:\",\"toPort\":\"target:Transactions:validDate:\",\"visible\":true,\"common\":true,\"__gohashid\":30382},{\"category\":\"Mapping\",\"visible\":true,\"__gohashid\":54145,\"from\":\"source:Transactions:id:\",\"to\":\"target:Transactions:transactionId:\",\"fromPort\":\"source:Transactions:id:\",\"toPort\":\"target:Transactions:transactionId:\"}],\"blockCount\":{\"variableCount\":0},\"variableMap\":{},\"xmlMappingOverride\":false}",
    "applyCommonMapping" : false,
    "applyRequestCommonMapping" : false,
    "applyResponseCommonMapping" : false,
    "backendMeta" : {
      "serviceName" : "SymXchangeAccountServices",
      "serviceVersion" : "1.0",
      "operationName" : "getAccountPendingTransactions"
    },
    "relationshipHierarchyMapping" : {
      "children" : [ ],
      "name" : "Transactions",
      "actions" : { },
      "selected" : true
    },
    "requestXmlMappingOverride" : true,
    "responseXmlMappingOverride" : false
  }
}