{
  "operationConfig" : {
    "name" : "FetchBBGeneralTransactionDetails4563",
    "type" : "MappedToBackend",
    "cachable" : false,
    "smsEnabled" : false,
    "security" : "authorized_app_user",
    "responseEncoding" : "UTF-8",
    "httpMethod" : "GET",
    "decodeResponseBody" : false,
    "iMapping" : "<?xml version=\"1.0\" encoding=\"UTF-8\" standalone=\"yes\"?><mapper xmlns=\"http://www.kony.com/ns/mapper\">   <map inputpath=\"request_in\" outputpath=\"request_out\">    <set-param inputpath=\"Transaction_id\" outputpath=\"Transaction_id\"/>  </map></mapper>",
    "oMapping" : "<?xml version=\"1.0\" encoding=\"UTF-8\" standalone=\"yes\"?><mapper xmlns=\"http://www.kony.com/ns/mapper\">                  <map inputpath=\"response_in\" outputpath=\"response_out\">                                    <map inputpath=\"fetch_generaltransactions_Details_view\" outputpath=\"BBGeneralTransaction\">                                                      <set-param inputpath=\"Status\" outputpath=\"Status\"/>                                                      <set-param inputpath=\"TransactionType\" outputpath=\"TransactionType\"/>                                                      <set-param inputpath=\"DebitOrCreditAccount\" outputpath=\"DebitOrCreditAccount\"/>                                                      <set-param inputpath=\"companyName\" outputpath=\"companyName\"/>                                                      <set-param inputpath=\"Amount\" outputpath=\"Amount\"/>                                                      <set-param inputpath=\"createdts\" outputpath=\"CreatedOn\"/>                                                      <set-param inputpath=\"TransactionType_id\" outputpath=\"TransactionType_id\"/>                                                      <set-param inputpath=\"Company_id\" outputpath=\"Company_id\"/>                                                      <set-param inputpath=\"Reccurence\" outputpath=\"Reccurence\"/>                                                      <set-param inputpath=\"Frequency\" outputpath=\"Frequency\"/>                                                      <set-param inputpath=\"StatusValue\" outputpath=\"StatusValue\"/>                   <set-param inputpath=\"userName\" outputpath=\"userName\" />                  <set-param inputpath=\"Payee\" outputpath=\"Payee\"/>                                                      <set-param inputpath=\"ActedBy\" outputpath=\"CreatedBy\"/>                                                      <set-param inputpath=\"TransactionDate\" outputpath=\"TransactionDate\"/>                                                   <set-param inputpath=\"Transaction_id\" outputpath=\"Transaction_id\"/>                                                    <set-param inputpath=\"EffectiveDate\" outputpath=\"TransactionDate\"/>                                           <set-param inputpath=\"createdby\" outputpath=\"createdby\"/>                        <set-param inputpath=\"ActedBy\" outputpath=\"Approver\" />                </map>          <set-param outputpath=\"dbpErrCode\" inputpath=\"dbpErrCode\" />                    <set-param outputpath=\"dbpErrMsg\" inputpath=\"dbpErrMsg\" />            <set-param outputpath=\"opstatus\" inputpath=\"opstatus\" />            <set-param outputpath=\"httpStatusCode\" inputpath=\"httpStatusCode\" />      </map></mapper>",
    "iVisualMappingData" : "{\"nodeDataArray\":[{\"isGroup\":true,\"key\":\"request_in\",\"text\":\"BBGeneralTransaction\",\"xy\":\"150 100\",\"__gohashid\":5527},{\"isGroup\":true,\"key\":\"request_out\",\"text\":\"dbpBBJavaServices (1.0).FetchBBGeneralTransactionDetails\",\"xy\":\"770 100\",\"__gohashid\":5528}],\"linkDataArray\":[{\"from\":\"source\",\"to\":\"source:BBGeneralTransaction\",\"fromPort\":\"source\",\"toPort\":\"source:BBGeneralTransaction\",\"visible\":true,\"common\":false,\"__gohashid\":5560},{\"from\":\"source:BBGeneralTransaction\",\"to\":\"source:BBGeneralTransaction:fields\",\"fromPort\":\"source:BBGeneralTransaction\",\"toPort\":\"source:BBGeneralTransaction:fields\",\"visible\":true,\"common\":false,\"__gohashid\":5561},{\"from\":\"source:BBGeneralTransaction:fields\",\"to\":\"source:BBGeneralTransaction:Transaction_id:\",\"fromPort\":\"source:BBGeneralTransaction:fields\",\"toPort\":\"source:BBGeneralTransaction:Transaction_id:\",\"visible\":true,\"common\":false,\"__gohashid\":5562},{\"from\":\"source:BBGeneralTransaction:fields\",\"to\":\"source:BBGeneralTransaction:TransactionDate:\",\"fromPort\":\"source:BBGeneralTransaction:fields\",\"toPort\":\"source:BBGeneralTransaction:TransactionDate:\",\"visible\":true,\"common\":false,\"__gohashid\":5563},{\"from\":\"source:BBGeneralTransaction:fields\",\"to\":\"source:BBGeneralTransaction:CreatedBy:\",\"fromPort\":\"source:BBGeneralTransaction:fields\",\"toPort\":\"source:BBGeneralTransaction:CreatedBy:\",\"visible\":true,\"common\":false,\"__gohashid\":5564},{\"from\":\"source:BBGeneralTransaction:fields\",\"to\":\"source:BBGeneralTransaction:Payee:\",\"fromPort\":\"source:BBGeneralTransaction:fields\",\"toPort\":\"source:BBGeneralTransaction:Payee:\",\"visible\":true,\"common\":false,\"__gohashid\":5565},{\"from\":\"source:BBGeneralTransaction:fields\",\"to\":\"source:BBGeneralTransaction:StatusValue:\",\"fromPort\":\"source:BBGeneralTransaction:fields\",\"toPort\":\"source:BBGeneralTransaction:StatusValue:\",\"visible\":true,\"common\":false,\"__gohashid\":5566},{\"from\":\"source:BBGeneralTransaction:fields\",\"to\":\"source:BBGeneralTransaction:Reccurence:\",\"fromPort\":\"source:BBGeneralTransaction:fields\",\"toPort\":\"source:BBGeneralTransaction:Reccurence:\",\"visible\":true,\"common\":false,\"__gohashid\":5567},{\"from\":\"source:BBGeneralTransaction:fields\",\"to\":\"source:BBGeneralTransaction:Frequency:\",\"fromPort\":\"source:BBGeneralTransaction:fields\",\"toPort\":\"source:BBGeneralTransaction:Frequency:\",\"visible\":true,\"common\":false,\"__gohashid\":5568},{\"from\":\"source:BBGeneralTransaction:fields\",\"to\":\"source:BBGeneralTransaction:Company_id:\",\"fromPort\":\"source:BBGeneralTransaction:fields\",\"toPort\":\"source:BBGeneralTransaction:Company_id:\",\"visible\":true,\"common\":false,\"__gohashid\":5569},{\"from\":\"source:BBGeneralTransaction:fields\",\"to\":\"source:BBGeneralTransaction:TransactionType_id:\",\"fromPort\":\"source:BBGeneralTransaction:fields\",\"toPort\":\"source:BBGeneralTransaction:TransactionType_id:\",\"visible\":true,\"common\":false,\"__gohashid\":5570},{\"from\":\"source:BBGeneralTransaction:fields\",\"to\":\"source:BBGeneralTransaction:CreatedOn:\",\"fromPort\":\"source:BBGeneralTransaction:fields\",\"toPort\":\"source:BBGeneralTransaction:CreatedOn:\",\"visible\":true,\"common\":false,\"__gohashid\":5571},{\"from\":\"source:BBGeneralTransaction:fields\",\"to\":\"source:BBGeneralTransaction:Amount:\",\"fromPort\":\"source:BBGeneralTransaction:fields\",\"toPort\":\"source:BBGeneralTransaction:Amount:\",\"visible\":true,\"common\":false,\"__gohashid\":5572},{\"from\":\"source:BBGeneralTransaction:fields\",\"to\":\"source:BBGeneralTransaction:companyName:\",\"fromPort\":\"source:BBGeneralTransaction:fields\",\"toPort\":\"source:BBGeneralTransaction:companyName:\",\"visible\":true,\"common\":false,\"__gohashid\":5573},{\"from\":\"source:BBGeneralTransaction:fields\",\"to\":\"source:BBGeneralTransaction:DebitOrCreditAccount:\",\"fromPort\":\"source:BBGeneralTransaction:fields\",\"toPort\":\"source:BBGeneralTransaction:DebitOrCreditAccount:\",\"visible\":true,\"common\":false,\"__gohashid\":5574},{\"from\":\"source:BBGeneralTransaction:fields\",\"to\":\"source:BBGeneralTransaction:TransactionType:\",\"fromPort\":\"source:BBGeneralTransaction:fields\",\"toPort\":\"source:BBGeneralTransaction:TransactionType:\",\"visible\":true,\"common\":false,\"__gohashid\":5575},{\"from\":\"source:BBGeneralTransaction:fields\",\"to\":\"source:BBGeneralTransaction:Status:\",\"fromPort\":\"source:BBGeneralTransaction:fields\",\"toPort\":\"source:BBGeneralTransaction:Status:\",\"visible\":true,\"common\":false,\"__gohashid\":5576},{\"from\":\"source:BBGeneralTransaction:fields\",\"to\":\"source:BBGeneralTransaction:EffectiveDate:\",\"fromPort\":\"source:BBGeneralTransaction:fields\",\"toPort\":\"source:BBGeneralTransaction:EffectiveDate:\",\"visible\":true,\"common\":false,\"__gohashid\":5577},{\"from\":\"source:BBGeneralTransaction:fields\",\"to\":\"source:BBGeneralTransaction:BBGeneralTransactionType_id:\",\"fromPort\":\"source:BBGeneralTransaction:fields\",\"toPort\":\"source:BBGeneralTransaction:BBGeneralTransactionType_id:\",\"visible\":true,\"common\":false,\"__gohashid\":5578},{\"from\":\"source:BBGeneralTransaction:fields\",\"to\":\"source:BBGeneralTransaction:TransactionEntry:\",\"fromPort\":\"source:BBGeneralTransaction:fields\",\"toPort\":\"source:BBGeneralTransaction:TransactionEntry:\",\"visible\":true,\"common\":false,\"__gohashid\":5579},{\"from\":\"source:BBGeneralTransaction:fields\",\"to\":\"source:BBGeneralTransaction:Approver:\",\"fromPort\":\"source:BBGeneralTransaction:fields\",\"toPort\":\"source:BBGeneralTransaction:Approver:\",\"visible\":true,\"common\":false,\"__gohashid\":5580},{\"from\":\"source:BBGeneralTransaction:fields\",\"to\":\"source:BBGeneralTransaction:userName:\",\"fromPort\":\"source:BBGeneralTransaction:fields\",\"toPort\":\"source:BBGeneralTransaction:userName:\",\"visible\":true,\"common\":false,\"__gohashid\":5581},{\"from\":\"source:BBGeneralTransaction:fields\",\"to\":\"source:BBGeneralTransaction:dbpErrCode:\",\"fromPort\":\"source:BBGeneralTransaction:fields\",\"toPort\":\"source:BBGeneralTransaction:dbpErrCode:\",\"visible\":true,\"common\":false,\"__gohashid\":5582},{\"from\":\"source:BBGeneralTransaction:fields\",\"to\":\"source:BBGeneralTransaction:dbpErrMsg:\",\"fromPort\":\"source:BBGeneralTransaction:fields\",\"toPort\":\"source:BBGeneralTransaction:dbpErrMsg:\",\"visible\":true,\"common\":false,\"__gohashid\":5583},{\"from\":\"source:BBGeneralTransaction:fields\",\"to\":\"source:BBGeneralTransaction:opstatus:\",\"fromPort\":\"source:BBGeneralTransaction:fields\",\"toPort\":\"source:BBGeneralTransaction:opstatus:\",\"visible\":true,\"common\":false,\"__gohashid\":5584},{\"from\":\"source:BBGeneralTransaction:fields\",\"to\":\"source:BBGeneralTransaction:httpStatusCode:\",\"fromPort\":\"source:BBGeneralTransaction:fields\",\"toPort\":\"source:BBGeneralTransaction:httpStatusCode:\",\"visible\":true,\"common\":false,\"__gohashid\":5585},{\"from\":\"target\",\"to\":\"target:parameters\",\"fromPort\":\"target\",\"toPort\":\"target:parameters\",\"visible\":true,\"common\":false,\"__gohashid\":5586},{\"from\":\"target:parameters\",\"to\":\"target:Transaction_id:\",\"fromPort\":\"target:parameters\",\"toPort\":\"target:Transaction_id:\",\"visible\":true,\"common\":false,\"__gohashid\":5587}],\"blockCount\":{\"variableCount\":0},\"variableMap\":{},\"xmlMappingOverride\":true}",
    "oVisualMappingData" : "{\"nodeDataArray\":[{\"isGroup\":true,\"key\":\"response_out\",\"text\":\"BBGeneralTransaction\",\"xy\":\"770 100\",\"__gohashid\":10640},{\"isGroup\":true,\"key\":\"response_in\",\"text\":\"dbpBBJavaServices (1.0).FetchBBGeneralTransactionDetails\",\"xy\":\"150 100\",\"__gohashid\":10641}],\"linkDataArray\":[{\"from\":\"target\",\"to\":\"target:BBGeneralTransaction\",\"fromPort\":\"target\",\"toPort\":\"target:BBGeneralTransaction\",\"visible\":true,\"common\":false,\"__gohashid\":10671},{\"from\":\"target:BBGeneralTransaction\",\"to\":\"target:BBGeneralTransaction:fields\",\"fromPort\":\"target:BBGeneralTransaction\",\"toPort\":\"target:BBGeneralTransaction:fields\",\"visible\":true,\"common\":false,\"__gohashid\":10672},{\"from\":\"target:BBGeneralTransaction:fields\",\"to\":\"target:BBGeneralTransaction:Transaction_id:\",\"fromPort\":\"target:BBGeneralTransaction:fields\",\"toPort\":\"target:BBGeneralTransaction:Transaction_id:\",\"visible\":true,\"common\":false,\"__gohashid\":10673},{\"from\":\"target:BBGeneralTransaction:fields\",\"to\":\"target:BBGeneralTransaction:TransactionDate:\",\"fromPort\":\"target:BBGeneralTransaction:fields\",\"toPort\":\"target:BBGeneralTransaction:TransactionDate:\",\"visible\":true,\"common\":false,\"__gohashid\":10674},{\"from\":\"target:BBGeneralTransaction:fields\",\"to\":\"target:BBGeneralTransaction:CreatedBy:\",\"fromPort\":\"target:BBGeneralTransaction:fields\",\"toPort\":\"target:BBGeneralTransaction:CreatedBy:\",\"visible\":true,\"common\":false,\"__gohashid\":10675},{\"from\":\"target:BBGeneralTransaction:fields\",\"to\":\"target:BBGeneralTransaction:Payee:\",\"fromPort\":\"target:BBGeneralTransaction:fields\",\"toPort\":\"target:BBGeneralTransaction:Payee:\",\"visible\":true,\"common\":false,\"__gohashid\":10676},{\"from\":\"target:BBGeneralTransaction:fields\",\"to\":\"target:BBGeneralTransaction:StatusValue:\",\"fromPort\":\"target:BBGeneralTransaction:fields\",\"toPort\":\"target:BBGeneralTransaction:StatusValue:\",\"visible\":true,\"common\":false,\"__gohashid\":10677},{\"from\":\"target:BBGeneralTransaction:fields\",\"to\":\"target:BBGeneralTransaction:Reccurence:\",\"fromPort\":\"target:BBGeneralTransaction:fields\",\"toPort\":\"target:BBGeneralTransaction:Reccurence:\",\"visible\":true,\"common\":false,\"__gohashid\":10678},{\"from\":\"target:BBGeneralTransaction:fields\",\"to\":\"target:BBGeneralTransaction:Frequency:\",\"fromPort\":\"target:BBGeneralTransaction:fields\",\"toPort\":\"target:BBGeneralTransaction:Frequency:\",\"visible\":true,\"common\":false,\"__gohashid\":10679},{\"from\":\"target:BBGeneralTransaction:fields\",\"to\":\"target:BBGeneralTransaction:Company_id:\",\"fromPort\":\"target:BBGeneralTransaction:fields\",\"toPort\":\"target:BBGeneralTransaction:Company_id:\",\"visible\":true,\"common\":false,\"__gohashid\":10680},{\"from\":\"target:BBGeneralTransaction:fields\",\"to\":\"target:BBGeneralTransaction:TransactionType_id:\",\"fromPort\":\"target:BBGeneralTransaction:fields\",\"toPort\":\"target:BBGeneralTransaction:TransactionType_id:\",\"visible\":true,\"common\":false,\"__gohashid\":10681},{\"from\":\"target:BBGeneralTransaction:fields\",\"to\":\"target:BBGeneralTransaction:CreatedOn:\",\"fromPort\":\"target:BBGeneralTransaction:fields\",\"toPort\":\"target:BBGeneralTransaction:CreatedOn:\",\"visible\":true,\"common\":false,\"__gohashid\":10682},{\"from\":\"target:BBGeneralTransaction:fields\",\"to\":\"target:BBGeneralTransaction:Amount:\",\"fromPort\":\"target:BBGeneralTransaction:fields\",\"toPort\":\"target:BBGeneralTransaction:Amount:\",\"visible\":true,\"common\":false,\"__gohashid\":10683},{\"from\":\"target:BBGeneralTransaction:fields\",\"to\":\"target:BBGeneralTransaction:companyName:\",\"fromPort\":\"target:BBGeneralTransaction:fields\",\"toPort\":\"target:BBGeneralTransaction:companyName:\",\"visible\":true,\"common\":false,\"__gohashid\":10684},{\"from\":\"target:BBGeneralTransaction:fields\",\"to\":\"target:BBGeneralTransaction:DebitOrCreditAccount:\",\"fromPort\":\"target:BBGeneralTransaction:fields\",\"toPort\":\"target:BBGeneralTransaction:DebitOrCreditAccount:\",\"visible\":true,\"common\":false,\"__gohashid\":10685},{\"from\":\"target:BBGeneralTransaction:fields\",\"to\":\"target:BBGeneralTransaction:TransactionType:\",\"fromPort\":\"target:BBGeneralTransaction:fields\",\"toPort\":\"target:BBGeneralTransaction:TransactionType:\",\"visible\":true,\"common\":false,\"__gohashid\":10686},{\"from\":\"target:BBGeneralTransaction:fields\",\"to\":\"target:BBGeneralTransaction:Status:\",\"fromPort\":\"target:BBGeneralTransaction:fields\",\"toPort\":\"target:BBGeneralTransaction:Status:\",\"visible\":true,\"common\":false,\"__gohashid\":10687},{\"from\":\"target:BBGeneralTransaction:fields\",\"to\":\"target:BBGeneralTransaction:EffectiveDate:\",\"fromPort\":\"target:BBGeneralTransaction:fields\",\"toPort\":\"target:BBGeneralTransaction:EffectiveDate:\",\"visible\":true,\"common\":false,\"__gohashid\":10688},{\"from\":\"target:BBGeneralTransaction:fields\",\"to\":\"target:BBGeneralTransaction:BBGeneralTransactionType_id:\",\"fromPort\":\"target:BBGeneralTransaction:fields\",\"toPort\":\"target:BBGeneralTransaction:BBGeneralTransactionType_id:\",\"visible\":true,\"common\":false,\"__gohashid\":10689},{\"from\":\"target:BBGeneralTransaction:fields\",\"to\":\"target:BBGeneralTransaction:TransactionEntry:\",\"fromPort\":\"target:BBGeneralTransaction:fields\",\"toPort\":\"target:BBGeneralTransaction:TransactionEntry:\",\"visible\":true,\"common\":false,\"__gohashid\":10690},{\"from\":\"target:BBGeneralTransaction:fields\",\"to\":\"target:BBGeneralTransaction:Approver:\",\"fromPort\":\"target:BBGeneralTransaction:fields\",\"toPort\":\"target:BBGeneralTransaction:Approver:\",\"visible\":true,\"common\":false,\"__gohashid\":10691},{\"from\":\"target:BBGeneralTransaction:fields\",\"to\":\"target:BBGeneralTransaction:userName:\",\"fromPort\":\"target:BBGeneralTransaction:fields\",\"toPort\":\"target:BBGeneralTransaction:userName:\",\"visible\":true,\"common\":false,\"__gohashid\":10692},{\"from\":\"target:BBGeneralTransaction:fields\",\"to\":\"target:BBGeneralTransaction:dbpErrCode:\",\"fromPort\":\"target:BBGeneralTransaction:fields\",\"toPort\":\"target:BBGeneralTransaction:dbpErrCode:\",\"visible\":true,\"common\":false,\"__gohashid\":10693},{\"from\":\"target:BBGeneralTransaction:fields\",\"to\":\"target:BBGeneralTransaction:dbpErrMsg:\",\"fromPort\":\"target:BBGeneralTransaction:fields\",\"toPort\":\"target:BBGeneralTransaction:dbpErrMsg:\",\"visible\":true,\"common\":false,\"__gohashid\":10694},{\"from\":\"target:BBGeneralTransaction:fields\",\"to\":\"target:BBGeneralTransaction:opstatus:\",\"fromPort\":\"target:BBGeneralTransaction:fields\",\"toPort\":\"target:BBGeneralTransaction:opstatus:\",\"visible\":true,\"common\":false,\"__gohashid\":10695},{\"from\":\"target:BBGeneralTransaction:fields\",\"to\":\"target:BBGeneralTransaction:httpStatusCode:\",\"fromPort\":\"target:BBGeneralTransaction:fields\",\"toPort\":\"target:BBGeneralTransaction:httpStatusCode:\",\"visible\":true,\"common\":false,\"__gohashid\":10696}],\"blockCount\":{\"variableCount\":0},\"variableMap\":{},\"xmlMappingOverride\":true}",
    "applyCommonMapping" : false,
    "applyRequestCommonMapping" : false,
    "applyResponseCommonMapping" : false,
    "backendMeta" : {
      "serviceName" : "dbpBBJavaServices",
      "serviceVersion" : "1.0",
      "operationName" : "FetchBBGeneralTransactionDetails"
    },
    "relationshipHierarchyMapping" : {
      "children" : [ ],
      "name" : "BBGeneralTransactions",
      "actions" : { },
      "selected" : true
    },
    "requestXmlMappingOverride" : true,
    "responseXmlMappingOverride" : true
  }
}