{
  "operationConfig" : {
    "name" : "BBGeneralTransactionRequestAction7988",
    "type" : "MappedToBackend",
    "cachable" : false,
    "smsEnabled" : false,
    "security" : "authorized_app_user",
    "responseEncoding" : "UTF-8",
    "httpMethod" : "GET",
    "decodeResponseBody" : false,
    "iMapping" : "<?xml version=\"1.0\" encoding=\"UTF-8\" standalone=\"yes\"?><mapper xmlns=\"http://www.kony.com/ns/mapper\">            <map inputpath=\"request_in\" outputpath=\"request_out\">                          <set-param outputpath=\"Action\" inputpath=\"Action\" />                                      <set-param outputpath=\"Comments\" inputpath=\"Comments\" />                                      <set-param outputpath=\"Request_id\" inputpath=\"Request_id\" />                    <map inputpath=\"MFAAttributes\" outputpath=\"MFAAttributes\">                                                      <set-param inputpath=\"securityKey\" outputpath=\"securityKey\"/>                                                      <set-param inputpath=\"sacMaxResendRequestsAllowed\" outputpath=\"sacMaxResendRequestsAllowed\"/>                                                      <set-param inputpath=\"remainingResendAttempts\" outputpath=\"remainingResendAttempts\"/>                                                      <set-param inputpath=\"sacCodeLength\" outputpath=\"sacCodeLength\"/>                                                      <set-param inputpath=\"communicationType\" outputpath=\"communicationType\"/>                                                      <set-param inputpath=\"sacPreferenceCriteria\" outputpath=\"sacPreferenceCriteria\"/>                                                      <set-param inputpath=\"isMFARequired\" outputpath=\"isMFARequired\"/>                                                      <set-param inputpath=\"MFAType\" outputpath=\"MFAType\"/>                                                      <set-param inputpath=\"serviceKey\" outputpath=\"serviceKey\"/>                                    <set-param inputpath=\"serviceName\" outputpath=\"serviceName\"/>                               <set-param inputpath=\"maxFailedAttemptsAllowed\" outputpath=\"maxFailedAttemptsAllowed\"/>                                  <set-param inputpath=\"remainingFailedAttempts\" outputpath=\"remainingFailedAttempts\"/>                                  <set-param inputpath=\"failedAttempts\" outputpath=\"failedAttempts\"/>                              <set-param inputpath=\"isOTPExpired\" outputpath=\"isOTPExpired\"/>                               <map inputpath=\"customerCommunication\" outputpath=\"customerCommunication\">      \t                                                                <map inputpath=\"phone\" outputpath=\"phone\">      \t\t                                                                                <set-param inputpath=\"masked\" outputpath=\"masked\"/>          \t                                                                                <set-param inputpath=\"unmasked\" outputpath=\"unmasked\"/>      \t                                                                </map>                                                                        <map inputpath=\"email\" outputpath=\"email\">      \t\t                                                                                <set-param inputpath=\"masked\" outputpath=\"masked\"/>          \t                                                                                <set-param inputpath=\"unmasked\" outputpath=\"unmasked\"/>       \t                                                                </map>                                                      </map>                                            <map inputpath=\"securityQuestions\" outputpath=\"securityQuestions\">      \t                                                                  <set-param inputpath=\"customerAnswer\" outputpath=\"customerAnswer\"/>                                                <set-param inputpath=\"questionId\" outputpath=\"questionId\"/>                                                <set-param inputpath=\"SecurityQuestion_id\" outputpath=\"SecurityQuestion_id\"/>                                                <set-param inputpath=\"Question\" outputpath=\"Question\"/>                                                           <set-param inputpath=\"QuestionStatus_id\" outputpath=\"QuestionStatus_id\"/>                                           </map>                                     <map inputpath=\"OTP\" outputpath=\"OTP\">      \t                                                                  <set-param inputpath=\"securityKey\" outputpath=\"securityKey\"/>                                                <set-param inputpath=\"otp\" outputpath=\"otp\"/>                 <set-param inputpath=\"email\" outputpath=\"email\"/>                         <set-param inputpath=\"phone\" outputpath=\"phone\"/>              </map>                        </map>                                                                  </map></mapper>",
    "oMapping" : "<?xml version=\"1.0\" encoding=\"UTF-8\" standalone=\"yes\"?><mapper xmlns=\"http://www.kony.com/ns/mapper\">                    <map inputpath=\"response_in\" outputpath=\"response_out\">                    <set-param inputpath=\"referenceId\" outputpath=\"referenceId\"/>                    <set-param inputpath=\"maxFailedAttemptsAllowed\" outputpath=\"maxFailedAttemptsAllowed\"/>                    <set-param inputpath=\"remainingFailedAttempts\" outputpath=\"remainingFailedAttempts\"/>                    <set-param inputpath=\"failedAttempts\" outputpath=\"failedAttempts\"/>                    <map inputpath=\"MFAAttributes\" outputpath=\"MFAAttributes\">                                                <set-param inputpath=\"securityKey\" outputpath=\"securityKey\"/>                                                <set-param inputpath=\"sacMaxResendRequestsAllowed\" outputpath=\"sacMaxResendRequestsAllowed\"/>                                                <set-param inputpath=\"remainingResendAttempts\" outputpath=\"remainingResendAttempts\"/>                                                <set-param inputpath=\"sacCodeLength\" outputpath=\"sacCodeLength\"/>                                                <set-param inputpath=\"communicationType\" outputpath=\"communicationType\"/>                                                <set-param inputpath=\"sacPreferenceCriteria\" outputpath=\"sacPreferenceCriteria\"/>                                                <set-param inputpath=\"isMFARequired\" outputpath=\"isMFARequired\"/>                                                <set-param inputpath=\"MFAType\" outputpath=\"MFAType\"/>                                                <set-param inputpath=\"serviceKey\" outputpath=\"serviceKey\"/>                              <set-param inputpath=\"serviceName\" outputpath=\"serviceName\"/>                         <set-param inputpath=\"maxFailedAttemptsAllowed\" outputpath=\"maxFailedAttemptsAllowed\"/>                            <set-param inputpath=\"remainingFailedAttempts\" outputpath=\"remainingFailedAttempts\"/>                            <set-param inputpath=\"failedAttempts\" outputpath=\"failedAttempts\"/>                        <set-param inputpath=\"isOTPExpired\" outputpath=\"isOTPExpired\"/>                         <map inputpath=\"customerCommunication\" outputpath=\"customerCommunication\">      \t                                                        <map inputpath=\"phone\" outputpath=\"phone\">      \t\t                                                                      <set-param inputpath=\"masked\" outputpath=\"masked\"/>          \t                                                                      <set-param inputpath=\"unmasked\" outputpath=\"unmasked\"/>      \t                                                        </map>                                                                <map inputpath=\"email\" outputpath=\"email\">      \t\t                                                                      <set-param inputpath=\"masked\" outputpath=\"masked\"/>          \t                                                                      <set-param inputpath=\"unmasked\" outputpath=\"unmasked\"/>       \t                                                        </map>                                                </map>                                      <map inputpath=\"securityQuestions\" outputpath=\"securityQuestions\">      \t                                                          <set-param inputpath=\"customerAnswer\" outputpath=\"customerAnswer\"/>                                        <set-param inputpath=\"questionId\" outputpath=\"questionId\"/>                                        <set-param inputpath=\"SecurityQuestion_id\" outputpath=\"SecurityQuestion_id\"/>                                        <set-param inputpath=\"Question\" outputpath=\"Question\"/>                                                   <set-param inputpath=\"QuestionStatus_id\" outputpath=\"QuestionStatus_id\"/>                                     </map>                               <map inputpath=\"OTP\" outputpath=\"OTP\">      \t                                                          <set-param inputpath=\"securityKey\" outputpath=\"securityKey\"/>                                        <set-param inputpath=\"otp\" outputpath=\"otp\"/>         <set-param inputpath=\"email\" outputpath=\"email\"/>                 <set-param inputpath=\"phone\" outputpath=\"phone\"/>        </map>                    </map>                <map inputpath=\"bbgeneraltransaction\" outputpath=\"MyApprovals\">    \t                                                                                                                                          <set-param outputpath=\"Status\" inputpath=\"Status\" />    \t                                                                                                                                          <set-param outputpath=\"Transaction_id\" inputpath=\"Transaction_id\" />    \t                                                                                                                                          <set-param outputpath=\"ActedBy\" inputpath=\"ActedBy\" />                                            </map>                     <set-param outputpath=\"dbpErrCode\" inputpath=\"dbpErrCode\" />                                        <set-param outputpath=\"dbpErrMsg\" inputpath=\"dbpErrMsg\" />                                <set-param outputpath=\"opstatus\" inputpath=\"opstatus\" />                                <set-param outputpath=\"httpStatusCode\" inputpath=\"httpStatusCode\" />                </map></mapper>",
    "iVisualMappingData" : "{\"nodeDataArray\":[{\"isGroup\":true,\"key\":\"request_in\",\"text\":\"MyApprovals\",\"xy\":\"150 100\",\"__gohashid\":68554},{\"isGroup\":true,\"key\":\"request_out\",\"text\":\"dbpBBJavaServices (1.0).BBGeneralTransactionRequestAction\",\"xy\":\"770 100\",\"__gohashid\":68555}],\"linkDataArray\":[{\"from\":\"source\",\"to\":\"source:MyApprovals\",\"fromPort\":\"source\",\"toPort\":\"source:MyApprovals\",\"visible\":true,\"common\":false,\"__gohashid\":3482},{\"from\":\"source:MyApprovals\",\"to\":\"source:MyApprovals:fields\",\"fromPort\":\"source:MyApprovals\",\"toPort\":\"source:MyApprovals:fields\",\"visible\":true,\"common\":false,\"__gohashid\":3483},{\"from\":\"source:MyApprovals:fields\",\"to\":\"source:MyApprovals:TransactionType:\",\"fromPort\":\"source:MyApprovals:fields\",\"toPort\":\"source:MyApprovals:TransactionType:\",\"visible\":true,\"common\":false,\"__gohashid\":3484},{\"from\":\"source:MyApprovals:fields\",\"to\":\"source:MyApprovals:Status:\",\"fromPort\":\"source:MyApprovals:fields\",\"toPort\":\"source:MyApprovals:Status:\",\"visible\":true,\"common\":false,\"__gohashid\":3485},{\"from\":\"source:MyApprovals:fields\",\"to\":\"source:MyApprovals:Request_id:\",\"fromPort\":\"source:MyApprovals:fields\",\"toPort\":\"source:MyApprovals:Request_id:\",\"visible\":true,\"common\":false,\"__gohashid\":3486},{\"from\":\"source:MyApprovals:fields\",\"to\":\"source:MyApprovals:CompanyName:\",\"fromPort\":\"source:MyApprovals:fields\",\"toPort\":\"source:MyApprovals:CompanyName:\",\"visible\":true,\"common\":false,\"__gohashid\":3487},{\"from\":\"source:MyApprovals:fields\",\"to\":\"source:MyApprovals:DebitAccount:\",\"fromPort\":\"source:MyApprovals:fields\",\"toPort\":\"source:MyApprovals:DebitAccount:\",\"visible\":true,\"common\":false,\"__gohashid\":3488},{\"from\":\"source:MyApprovals:fields\",\"to\":\"source:MyApprovals:Amount:\",\"fromPort\":\"source:MyApprovals:fields\",\"toPort\":\"source:MyApprovals:Amount:\",\"visible\":true,\"common\":false,\"__gohashid\":3489},{\"from\":\"source:MyApprovals:fields\",\"to\":\"source:MyApprovals:CreatedOn:\",\"fromPort\":\"source:MyApprovals:fields\",\"toPort\":\"source:MyApprovals:CreatedOn:\",\"visible\":true,\"common\":false,\"__gohashid\":3490},{\"from\":\"source:MyApprovals:fields\",\"to\":\"source:MyApprovals:CreatedBy:\",\"fromPort\":\"source:MyApprovals:fields\",\"toPort\":\"source:MyApprovals:CreatedBy:\",\"visible\":true,\"common\":false,\"__gohashid\":3491},{\"from\":\"source:MyApprovals:fields\",\"to\":\"source:MyApprovals:Company_id:\",\"fromPort\":\"source:MyApprovals:fields\",\"toPort\":\"source:MyApprovals:Company_id:\",\"visible\":true,\"common\":false,\"__gohashid\":3492},{\"from\":\"source:MyApprovals:fields\",\"to\":\"source:MyApprovals:RequestCreatedby:\",\"fromPort\":\"source:MyApprovals:fields\",\"toPort\":\"source:MyApprovals:RequestCreatedby:\",\"visible\":true,\"common\":false,\"__gohashid\":3493},{\"from\":\"source:MyApprovals:fields\",\"to\":\"source:MyApprovals:Payee:\",\"fromPort\":\"source:MyApprovals:fields\",\"toPort\":\"source:MyApprovals:Payee:\",\"visible\":true,\"common\":false,\"__gohashid\":3494},{\"from\":\"source:MyApprovals:fields\",\"to\":\"source:MyApprovals:Date:\",\"fromPort\":\"source:MyApprovals:fields\",\"toPort\":\"source:MyApprovals:Date:\",\"visible\":true,\"common\":false,\"__gohashid\":3495},{\"from\":\"source:MyApprovals:fields\",\"to\":\"source:MyApprovals:Transaction_id:\",\"fromPort\":\"source:MyApprovals:fields\",\"toPort\":\"source:MyApprovals:Transaction_id:\",\"visible\":true,\"common\":false,\"__gohashid\":3496},{\"from\":\"source:MyApprovals:fields\",\"to\":\"source:MyApprovals:Frequency:\",\"fromPort\":\"source:MyApprovals:fields\",\"toPort\":\"source:MyApprovals:Frequency:\",\"visible\":true,\"common\":false,\"__gohashid\":3497},{\"from\":\"source:MyApprovals:fields\",\"to\":\"source:MyApprovals:Reccurence:\",\"fromPort\":\"source:MyApprovals:fields\",\"toPort\":\"source:MyApprovals:Reccurence:\",\"visible\":true,\"common\":false,\"__gohashid\":3498},{\"from\":\"source:MyApprovals:fields\",\"to\":\"source:MyApprovals:BBGeneralTransactionType_id:\",\"fromPort\":\"source:MyApprovals:fields\",\"toPort\":\"source:MyApprovals:BBGeneralTransactionType_id:\",\"visible\":true,\"common\":false,\"__gohashid\":3499},{\"from\":\"source:MyApprovals:fields\",\"to\":\"source:MyApprovals:StatusId:\",\"fromPort\":\"source:MyApprovals:fields\",\"toPort\":\"source:MyApprovals:StatusId:\",\"visible\":true,\"common\":false,\"__gohashid\":3500},{\"from\":\"source:MyApprovals:fields\",\"to\":\"source:MyApprovals:TemplateRequestTypeId:\",\"fromPort\":\"source:MyApprovals:fields\",\"toPort\":\"source:MyApprovals:TemplateRequestTypeId:\",\"visible\":true,\"common\":false,\"__gohashid\":3501},{\"from\":\"source:MyApprovals:fields\",\"to\":\"source:MyApprovals:userName:\",\"fromPort\":\"source:MyApprovals:fields\",\"toPort\":\"source:MyApprovals:userName:\",\"visible\":true,\"common\":false,\"__gohashid\":3502},{\"from\":\"source:MyApprovals:fields\",\"to\":\"source:MyApprovals:TemplateTypeId:\",\"fromPort\":\"source:MyApprovals:fields\",\"toPort\":\"source:MyApprovals:TemplateTypeId:\",\"visible\":true,\"common\":false,\"__gohashid\":3503},{\"from\":\"source:MyApprovals:fields\",\"to\":\"source:MyApprovals:RequestType:\",\"fromPort\":\"source:MyApprovals:fields\",\"toPort\":\"source:MyApprovals:RequestType:\",\"visible\":true,\"common\":false,\"__gohashid\":3504},{\"from\":\"source:MyApprovals:fields\",\"to\":\"source:MyApprovals:TemplateTypeValue:\",\"fromPort\":\"source:MyApprovals:fields\",\"toPort\":\"source:MyApprovals:TemplateTypeValue:\",\"visible\":true,\"common\":false,\"__gohashid\":3505},{\"from\":\"source:MyApprovals:fields\",\"to\":\"source:MyApprovals:softDelete:\",\"fromPort\":\"source:MyApprovals:fields\",\"toPort\":\"source:MyApprovals:softDelete:\",\"visible\":true,\"common\":false,\"__gohashid\":3506},{\"from\":\"source:MyApprovals:fields\",\"to\":\"source:MyApprovals:TransactionType_id:\",\"fromPort\":\"source:MyApprovals:fields\",\"toPort\":\"source:MyApprovals:TransactionType_id:\",\"visible\":true,\"common\":false,\"__gohashid\":3507},{\"from\":\"source:MyApprovals:fields\",\"to\":\"source:MyApprovals:TemplateType:\",\"fromPort\":\"source:MyApprovals:fields\",\"toPort\":\"source:MyApprovals:TemplateType:\",\"visible\":true,\"common\":false,\"__gohashid\":3508},{\"from\":\"source:MyApprovals:fields\",\"to\":\"source:MyApprovals:TransmittedDate:\",\"fromPort\":\"source:MyApprovals:fields\",\"toPort\":\"source:MyApprovals:TransmittedDate:\",\"visible\":true,\"common\":false,\"__gohashid\":3509},{\"from\":\"source:MyApprovals:fields\",\"to\":\"source:MyApprovals:TransactionId:\",\"fromPort\":\"source:MyApprovals:fields\",\"toPort\":\"source:MyApprovals:TransactionId:\",\"visible\":true,\"common\":false,\"__gohashid\":3510},{\"from\":\"source:MyApprovals:fields\",\"to\":\"source:MyApprovals:UpdatedDateAndTime:\",\"fromPort\":\"source:MyApprovals:fields\",\"toPort\":\"source:MyApprovals:UpdatedDateAndTime:\",\"visible\":true,\"common\":false,\"__gohashid\":3511},{\"from\":\"source:MyApprovals:fields\",\"to\":\"source:MyApprovals:MaxAmount:\",\"fromPort\":\"source:MyApprovals:fields\",\"toPort\":\"source:MyApprovals:MaxAmount:\",\"visible\":true,\"common\":false,\"__gohashid\":3512},{\"from\":\"source:MyApprovals:fields\",\"to\":\"source:MyApprovals:FileName:\",\"fromPort\":\"source:MyApprovals:fields\",\"toPort\":\"source:MyApprovals:FileName:\",\"visible\":true,\"common\":false,\"__gohashid\":3513},{\"from\":\"source:MyApprovals:fields\",\"to\":\"source:MyApprovals:NumberOfDebits:\",\"fromPort\":\"source:MyApprovals:fields\",\"toPort\":\"source:MyApprovals:NumberOfDebits:\",\"visible\":true,\"common\":false,\"__gohashid\":3514},{\"from\":\"source:MyApprovals:fields\",\"to\":\"source:MyApprovals:NumberOfPrenotes:\",\"fromPort\":\"source:MyApprovals:fields\",\"toPort\":\"source:MyApprovals:NumberOfPrenotes:\",\"visible\":true,\"common\":false,\"__gohashid\":3515},{\"from\":\"source:MyApprovals:fields\",\"to\":\"source:MyApprovals:NumberOfCredits:\",\"fromPort\":\"source:MyApprovals:fields\",\"toPort\":\"source:MyApprovals:NumberOfCredits:\",\"visible\":true,\"common\":false,\"__gohashid\":3516},{\"from\":\"source:MyApprovals:fields\",\"to\":\"source:MyApprovals:formatType:\",\"fromPort\":\"source:MyApprovals:fields\",\"toPort\":\"source:MyApprovals:formatType:\",\"visible\":true,\"common\":false,\"__gohashid\":3517},{\"from\":\"source:MyApprovals:fields\",\"to\":\"source:MyApprovals:ACHFileFormatType_id:\",\"fromPort\":\"source:MyApprovals:fields\",\"toPort\":\"source:MyApprovals:ACHFileFormatType_id:\",\"visible\":true,\"common\":false,\"__gohashid\":3518},{\"from\":\"source:MyApprovals:fields\",\"to\":\"source:MyApprovals:ACHFile_id:\",\"fromPort\":\"source:MyApprovals:fields\",\"toPort\":\"source:MyApprovals:ACHFile_id:\",\"visible\":true,\"common\":false,\"__gohashid\":3519},{\"from\":\"source:MyApprovals:fields\",\"to\":\"source:MyApprovals:FileSize:\",\"fromPort\":\"source:MyApprovals:fields\",\"toPort\":\"source:MyApprovals:FileSize:\",\"visible\":true,\"common\":false,\"__gohashid\":3520},{\"from\":\"source:MyApprovals:fields\",\"to\":\"source:MyApprovals:TotalDebitAmount:\",\"fromPort\":\"source:MyApprovals:fields\",\"toPort\":\"source:MyApprovals:TotalDebitAmount:\",\"visible\":true,\"common\":false,\"__gohashid\":3521},{\"from\":\"source:MyApprovals:fields\",\"to\":\"source:MyApprovals:TotalCreditAmount:\",\"fromPort\":\"source:MyApprovals:fields\",\"toPort\":\"source:MyApprovals:TotalCreditAmount:\",\"visible\":true,\"common\":false,\"__gohashid\":3522},{\"from\":\"source:MyApprovals:fields\",\"to\":\"source:MyApprovals:FileRequestType:\",\"fromPort\":\"source:MyApprovals:fields\",\"toPort\":\"source:MyApprovals:FileRequestType:\",\"visible\":true,\"common\":false,\"__gohashid\":3523},{\"from\":\"source:MyApprovals:fields\",\"to\":\"source:MyApprovals:DebitOrCreditAccount:\",\"fromPort\":\"source:MyApprovals:fields\",\"toPort\":\"source:MyApprovals:DebitOrCreditAccount:\",\"visible\":true,\"common\":false,\"__gohashid\":3524},{\"from\":\"source:MyApprovals:fields\",\"to\":\"source:MyApprovals:TemplateType_id:\",\"fromPort\":\"source:MyApprovals:fields\",\"toPort\":\"source:MyApprovals:TemplateType_id:\",\"visible\":true,\"common\":false,\"__gohashid\":3525},{\"from\":\"source:MyApprovals:fields\",\"to\":\"source:MyApprovals:TransactionTypeValue:\",\"fromPort\":\"source:MyApprovals:fields\",\"toPort\":\"source:MyApprovals:TransactionTypeValue:\",\"visible\":true,\"common\":false,\"__gohashid\":3526},{\"from\":\"source:MyApprovals:fields\",\"to\":\"source:MyApprovals:TemplateName:\",\"fromPort\":\"source:MyApprovals:fields\",\"toPort\":\"source:MyApprovals:TemplateName:\",\"visible\":true,\"common\":false,\"__gohashid\":3527},{\"from\":\"source:MyApprovals:fields\",\"to\":\"source:MyApprovals:createdts:\",\"fromPort\":\"source:MyApprovals:fields\",\"toPort\":\"source:MyApprovals:createdts:\",\"visible\":true,\"common\":false,\"__gohashid\":3528},{\"from\":\"source:MyApprovals:fields\",\"to\":\"source:MyApprovals:ActedBy:\",\"fromPort\":\"source:MyApprovals:fields\",\"toPort\":\"source:MyApprovals:ActedBy:\",\"visible\":true,\"common\":false,\"__gohashid\":3529},{\"from\":\"source:MyApprovals:fields\",\"to\":\"source:MyApprovals:Action:\",\"fromPort\":\"source:MyApprovals:fields\",\"toPort\":\"source:MyApprovals:Action:\",\"visible\":true,\"common\":false,\"__gohashid\":3530},{\"from\":\"source:MyApprovals:fields\",\"to\":\"source:MyApprovals:Comments:\",\"fromPort\":\"source:MyApprovals:fields\",\"toPort\":\"source:MyApprovals:Comments:\",\"visible\":true,\"common\":false,\"__gohashid\":3531},{\"from\":\"source:MyApprovals:fields\",\"to\":\"source:MyApprovals:FileStatus:\",\"fromPort\":\"source:MyApprovals:fields\",\"toPort\":\"source:MyApprovals:FileStatus:\",\"visible\":true,\"common\":false,\"__gohashid\":3532},{\"from\":\"source:MyApprovals:fields\",\"to\":\"source:MyApprovals:TotalAmount:\",\"fromPort\":\"source:MyApprovals:fields\",\"toPort\":\"source:MyApprovals:TotalAmount:\",\"visible\":true,\"common\":false,\"__gohashid\":3533},{\"from\":\"source:MyApprovals:fields\",\"to\":\"source:MyApprovals:dbpErrCode:\",\"fromPort\":\"source:MyApprovals:fields\",\"toPort\":\"source:MyApprovals:dbpErrCode:\",\"visible\":true,\"common\":false,\"__gohashid\":3534},{\"from\":\"source:MyApprovals:fields\",\"to\":\"source:MyApprovals:dbpErrMsg:\",\"fromPort\":\"source:MyApprovals:fields\",\"toPort\":\"source:MyApprovals:dbpErrMsg:\",\"visible\":true,\"common\":false,\"__gohashid\":3535},{\"from\":\"source:MyApprovals:fields\",\"to\":\"source:MyApprovals:opstatus:\",\"fromPort\":\"source:MyApprovals:fields\",\"toPort\":\"source:MyApprovals:opstatus:\",\"visible\":true,\"common\":false,\"__gohashid\":3536},{\"from\":\"source:MyApprovals:fields\",\"to\":\"source:MyApprovals:httpStatusCode:\",\"fromPort\":\"source:MyApprovals:fields\",\"toPort\":\"source:MyApprovals:httpStatusCode:\",\"visible\":true,\"common\":false,\"__gohashid\":3537},{\"from\":\"source:MyApprovals:fields\",\"to\":\"source:MyApprovals:referenceId:\",\"fromPort\":\"source:MyApprovals:fields\",\"toPort\":\"source:MyApprovals:referenceId:\",\"visible\":true,\"common\":false,\"__gohashid\":3538},{\"from\":\"source:MyApprovals:fields\",\"to\":\"source:MyApprovals:MFAAttributes:\",\"fromPort\":\"source:MyApprovals:fields\",\"toPort\":\"source:MyApprovals:MFAAttributes:\",\"visible\":true,\"common\":false,\"__gohashid\":3539},{\"from\":\"source:MyApprovals:fields\",\"to\":\"source:MyApprovals:errmsg:\",\"fromPort\":\"source:MyApprovals:fields\",\"toPort\":\"source:MyApprovals:errmsg:\",\"visible\":true,\"common\":false,\"__gohashid\":3540},{\"from\":\"source:MyApprovals:fields\",\"to\":\"source:MyApprovals:securityKey:\",\"fromPort\":\"source:MyApprovals:fields\",\"toPort\":\"source:MyApprovals:securityKey:\",\"visible\":true,\"common\":false,\"__gohashid\":3541},{\"from\":\"source:MyApprovals:fields\",\"to\":\"source:MyApprovals:sacMaxResendRequestsAllowed:\",\"fromPort\":\"source:MyApprovals:fields\",\"toPort\":\"source:MyApprovals:sacMaxResendRequestsAllowed:\",\"visible\":true,\"common\":false,\"__gohashid\":3542},{\"from\":\"source:MyApprovals:fields\",\"to\":\"source:MyApprovals:remainingResendAttempts:\",\"fromPort\":\"source:MyApprovals:fields\",\"toPort\":\"source:MyApprovals:remainingResendAttempts:\",\"visible\":true,\"common\":false,\"__gohashid\":3543},{\"from\":\"source:MyApprovals:fields\",\"to\":\"source:MyApprovals:sacCodeLength:\",\"fromPort\":\"source:MyApprovals:fields\",\"toPort\":\"source:MyApprovals:sacCodeLength:\",\"visible\":true,\"common\":false,\"__gohashid\":3544},{\"from\":\"source:MyApprovals:fields\",\"to\":\"source:MyApprovals:communicationType:\",\"fromPort\":\"source:MyApprovals:fields\",\"toPort\":\"source:MyApprovals:communicationType:\",\"visible\":true,\"common\":false,\"__gohashid\":3545},{\"from\":\"source:MyApprovals:fields\",\"to\":\"source:MyApprovals:sacPreferenceCriteria:\",\"fromPort\":\"source:MyApprovals:fields\",\"toPort\":\"source:MyApprovals:sacPreferenceCriteria:\",\"visible\":true,\"common\":false,\"__gohashid\":3546},{\"from\":\"source:MyApprovals:fields\",\"to\":\"source:MyApprovals:customerCommunication:\",\"fromPort\":\"source:MyApprovals:fields\",\"toPort\":\"source:MyApprovals:customerCommunication:\",\"visible\":true,\"common\":false,\"__gohashid\":3547},{\"from\":\"source:MyApprovals:fields\",\"to\":\"source:MyApprovals:phone:\",\"fromPort\":\"source:MyApprovals:fields\",\"toPort\":\"source:MyApprovals:phone:\",\"visible\":true,\"common\":false,\"__gohashid\":3548},{\"from\":\"source:MyApprovals:fields\",\"to\":\"source:MyApprovals:masked:\",\"fromPort\":\"source:MyApprovals:fields\",\"toPort\":\"source:MyApprovals:masked:\",\"visible\":true,\"common\":false,\"__gohashid\":3549},{\"from\":\"source:MyApprovals:fields\",\"to\":\"source:MyApprovals:unmasked:\",\"fromPort\":\"source:MyApprovals:fields\",\"toPort\":\"source:MyApprovals:unmasked:\",\"visible\":true,\"common\":false,\"__gohashid\":3550},{\"from\":\"source:MyApprovals:fields\",\"to\":\"source:MyApprovals:email:\",\"fromPort\":\"source:MyApprovals:fields\",\"toPort\":\"source:MyApprovals:email:\",\"visible\":true,\"common\":false,\"__gohashid\":3551},{\"from\":\"source:MyApprovals:fields\",\"to\":\"source:MyApprovals:MFAType:\",\"fromPort\":\"source:MyApprovals:fields\",\"toPort\":\"source:MyApprovals:MFAType:\",\"visible\":true,\"common\":false,\"__gohashid\":3552},{\"from\":\"source:MyApprovals:fields\",\"to\":\"source:MyApprovals:isMFARequired:\",\"fromPort\":\"source:MyApprovals:fields\",\"toPort\":\"source:MyApprovals:isMFARequired:\",\"visible\":true,\"common\":false,\"__gohashid\":3553},{\"from\":\"source:MyApprovals:fields\",\"to\":\"source:MyApprovals:serviceKey:\",\"fromPort\":\"source:MyApprovals:fields\",\"toPort\":\"source:MyApprovals:serviceKey:\",\"visible\":true,\"common\":false,\"__gohashid\":3554},{\"from\":\"source:MyApprovals:fields\",\"to\":\"source:MyApprovals:securityQuestions:\",\"fromPort\":\"source:MyApprovals:fields\",\"toPort\":\"source:MyApprovals:securityQuestions:\",\"visible\":true,\"common\":false,\"__gohashid\":3555},{\"from\":\"source:MyApprovals:fields\",\"to\":\"source:MyApprovals:SecurityQuestion_id:\",\"fromPort\":\"source:MyApprovals:fields\",\"toPort\":\"source:MyApprovals:SecurityQuestion_id:\",\"visible\":true,\"common\":false,\"__gohashid\":3556},{\"from\":\"source:MyApprovals:fields\",\"to\":\"source:MyApprovals:Question:\",\"fromPort\":\"source:MyApprovals:fields\",\"toPort\":\"source:MyApprovals:Question:\",\"visible\":true,\"common\":false,\"__gohashid\":3557},{\"from\":\"source:MyApprovals:fields\",\"to\":\"source:MyApprovals:QuestionStatus_id:\",\"fromPort\":\"source:MyApprovals:fields\",\"toPort\":\"source:MyApprovals:QuestionStatus_id:\",\"visible\":true,\"common\":false,\"__gohashid\":3558},{\"from\":\"source:MyApprovals:fields\",\"to\":\"source:MyApprovals:serviceName:\",\"fromPort\":\"source:MyApprovals:fields\",\"toPort\":\"source:MyApprovals:serviceName:\",\"visible\":true,\"common\":false,\"__gohashid\":3559},{\"from\":\"source:MyApprovals:fields\",\"to\":\"source:MyApprovals:customerAnswer:\",\"fromPort\":\"source:MyApprovals:fields\",\"toPort\":\"source:MyApprovals:customerAnswer:\",\"visible\":true,\"common\":false,\"__gohashid\":3560},{\"from\":\"source:MyApprovals:fields\",\"to\":\"source:MyApprovals:questionId:\",\"fromPort\":\"source:MyApprovals:fields\",\"toPort\":\"source:MyApprovals:questionId:\",\"visible\":true,\"common\":false,\"__gohashid\":3561},{\"from\":\"source:MyApprovals:fields\",\"to\":\"source:MyApprovals:maxFailedAttemptsAllowed:\",\"fromPort\":\"source:MyApprovals:fields\",\"toPort\":\"source:MyApprovals:maxFailedAttemptsAllowed:\",\"visible\":true,\"common\":false,\"__gohashid\":3562},{\"from\":\"source:MyApprovals:fields\",\"to\":\"source:MyApprovals:remainingFailedAttempts:\",\"fromPort\":\"source:MyApprovals:fields\",\"toPort\":\"source:MyApprovals:remainingFailedAttempts:\",\"visible\":true,\"common\":false,\"__gohashid\":3563},{\"from\":\"source:MyApprovals:fields\",\"to\":\"source:MyApprovals:failedAttempts:\",\"fromPort\":\"source:MyApprovals:fields\",\"toPort\":\"source:MyApprovals:failedAttempts:\",\"visible\":true,\"common\":false,\"__gohashid\":3564},{\"from\":\"source:MyApprovals:fields\",\"to\":\"source:MyApprovals:isOTPExpired:\",\"fromPort\":\"source:MyApprovals:fields\",\"toPort\":\"source:MyApprovals:isOTPExpired:\",\"visible\":true,\"common\":false,\"__gohashid\":3565},{\"from\":\"target\",\"to\":\"target:parameters\",\"fromPort\":\"target\",\"toPort\":\"target:parameters\",\"visible\":true,\"common\":false,\"__gohashid\":3566},{\"from\":\"target:parameters\",\"to\":\"target:Action:\",\"fromPort\":\"target:parameters\",\"toPort\":\"target:Action:\",\"visible\":true,\"common\":false,\"__gohashid\":3567},{\"from\":\"target:parameters\",\"to\":\"target:Comments:\",\"fromPort\":\"target:parameters\",\"toPort\":\"target:Comments:\",\"visible\":true,\"common\":false,\"__gohashid\":3568},{\"from\":\"target:parameters\",\"to\":\"target:MFAAttributes:\",\"fromPort\":\"target:parameters\",\"toPort\":\"target:MFAAttributes:\",\"visible\":true,\"common\":false,\"__gohashid\":3569},{\"from\":\"target:parameters\",\"to\":\"target:Request_id:\",\"fromPort\":\"target:parameters\",\"toPort\":\"target:Request_id:\",\"visible\":true,\"common\":false,\"__gohashid\":3570}],\"blockCount\":{\"variableCount\":0},\"variableMap\":{},\"xmlMappingOverride\":true}",
    "oVisualMappingData" : "{\"nodeDataArray\":[{\"isGroup\":true,\"key\":\"response_out\",\"text\":\"MyApprovals\",\"xy\":\"770 100\",\"__gohashid\":80142},{\"isGroup\":true,\"key\":\"response_in\",\"text\":\"dbpBBJavaServices (1.0).BBGeneralTransactionRequestAction\",\"xy\":\"150 100\",\"__gohashid\":80143}],\"linkDataArray\":[{\"from\":\"target\",\"to\":\"target:MyApprovals\",\"fromPort\":\"target\",\"toPort\":\"target:MyApprovals\",\"visible\":true,\"common\":false,\"__gohashid\":1170},{\"from\":\"target:MyApprovals\",\"to\":\"target:MyApprovals:fields\",\"fromPort\":\"target:MyApprovals\",\"toPort\":\"target:MyApprovals:fields\",\"visible\":true,\"common\":false,\"__gohashid\":1171},{\"from\":\"target:MyApprovals:fields\",\"to\":\"target:MyApprovals:TransactionType:\",\"fromPort\":\"target:MyApprovals:fields\",\"toPort\":\"target:MyApprovals:TransactionType:\",\"visible\":true,\"common\":false,\"__gohashid\":1172},{\"from\":\"target:MyApprovals:fields\",\"to\":\"target:MyApprovals:Status:\",\"fromPort\":\"target:MyApprovals:fields\",\"toPort\":\"target:MyApprovals:Status:\",\"visible\":true,\"common\":false,\"__gohashid\":1173},{\"from\":\"target:MyApprovals:fields\",\"to\":\"target:MyApprovals:Request_id:\",\"fromPort\":\"target:MyApprovals:fields\",\"toPort\":\"target:MyApprovals:Request_id:\",\"visible\":true,\"common\":false,\"__gohashid\":1174},{\"from\":\"target:MyApprovals:fields\",\"to\":\"target:MyApprovals:CompanyName:\",\"fromPort\":\"target:MyApprovals:fields\",\"toPort\":\"target:MyApprovals:CompanyName:\",\"visible\":true,\"common\":false,\"__gohashid\":1175},{\"from\":\"target:MyApprovals:fields\",\"to\":\"target:MyApprovals:DebitAccount:\",\"fromPort\":\"target:MyApprovals:fields\",\"toPort\":\"target:MyApprovals:DebitAccount:\",\"visible\":true,\"common\":false,\"__gohashid\":1176},{\"from\":\"target:MyApprovals:fields\",\"to\":\"target:MyApprovals:Amount:\",\"fromPort\":\"target:MyApprovals:fields\",\"toPort\":\"target:MyApprovals:Amount:\",\"visible\":true,\"common\":false,\"__gohashid\":1177},{\"from\":\"target:MyApprovals:fields\",\"to\":\"target:MyApprovals:CreatedOn:\",\"fromPort\":\"target:MyApprovals:fields\",\"toPort\":\"target:MyApprovals:CreatedOn:\",\"visible\":true,\"common\":false,\"__gohashid\":1178},{\"from\":\"target:MyApprovals:fields\",\"to\":\"target:MyApprovals:CreatedBy:\",\"fromPort\":\"target:MyApprovals:fields\",\"toPort\":\"target:MyApprovals:CreatedBy:\",\"visible\":true,\"common\":false,\"__gohashid\":1179},{\"from\":\"target:MyApprovals:fields\",\"to\":\"target:MyApprovals:Company_id:\",\"fromPort\":\"target:MyApprovals:fields\",\"toPort\":\"target:MyApprovals:Company_id:\",\"visible\":true,\"common\":false,\"__gohashid\":1180},{\"from\":\"target:MyApprovals:fields\",\"to\":\"target:MyApprovals:RequestCreatedby:\",\"fromPort\":\"target:MyApprovals:fields\",\"toPort\":\"target:MyApprovals:RequestCreatedby:\",\"visible\":true,\"common\":false,\"__gohashid\":1181},{\"from\":\"target:MyApprovals:fields\",\"to\":\"target:MyApprovals:Payee:\",\"fromPort\":\"target:MyApprovals:fields\",\"toPort\":\"target:MyApprovals:Payee:\",\"visible\":true,\"common\":false,\"__gohashid\":1182},{\"from\":\"target:MyApprovals:fields\",\"to\":\"target:MyApprovals:Date:\",\"fromPort\":\"target:MyApprovals:fields\",\"toPort\":\"target:MyApprovals:Date:\",\"visible\":true,\"common\":false,\"__gohashid\":1183},{\"from\":\"target:MyApprovals:fields\",\"to\":\"target:MyApprovals:Transaction_id:\",\"fromPort\":\"target:MyApprovals:fields\",\"toPort\":\"target:MyApprovals:Transaction_id:\",\"visible\":true,\"common\":false,\"__gohashid\":1184},{\"from\":\"target:MyApprovals:fields\",\"to\":\"target:MyApprovals:Frequency:\",\"fromPort\":\"target:MyApprovals:fields\",\"toPort\":\"target:MyApprovals:Frequency:\",\"visible\":true,\"common\":false,\"__gohashid\":1185},{\"from\":\"target:MyApprovals:fields\",\"to\":\"target:MyApprovals:Reccurence:\",\"fromPort\":\"target:MyApprovals:fields\",\"toPort\":\"target:MyApprovals:Reccurence:\",\"visible\":true,\"common\":false,\"__gohashid\":1186},{\"from\":\"target:MyApprovals:fields\",\"to\":\"target:MyApprovals:BBGeneralTransactionType_id:\",\"fromPort\":\"target:MyApprovals:fields\",\"toPort\":\"target:MyApprovals:BBGeneralTransactionType_id:\",\"visible\":true,\"common\":false,\"__gohashid\":1187},{\"from\":\"target:MyApprovals:fields\",\"to\":\"target:MyApprovals:StatusId:\",\"fromPort\":\"target:MyApprovals:fields\",\"toPort\":\"target:MyApprovals:StatusId:\",\"visible\":true,\"common\":false,\"__gohashid\":1188},{\"from\":\"target:MyApprovals:fields\",\"to\":\"target:MyApprovals:TemplateRequestTypeId:\",\"fromPort\":\"target:MyApprovals:fields\",\"toPort\":\"target:MyApprovals:TemplateRequestTypeId:\",\"visible\":true,\"common\":false,\"__gohashid\":1189},{\"from\":\"target:MyApprovals:fields\",\"to\":\"target:MyApprovals:userName:\",\"fromPort\":\"target:MyApprovals:fields\",\"toPort\":\"target:MyApprovals:userName:\",\"visible\":true,\"common\":false,\"__gohashid\":1190},{\"from\":\"target:MyApprovals:fields\",\"to\":\"target:MyApprovals:TemplateTypeId:\",\"fromPort\":\"target:MyApprovals:fields\",\"toPort\":\"target:MyApprovals:TemplateTypeId:\",\"visible\":true,\"common\":false,\"__gohashid\":1191},{\"from\":\"target:MyApprovals:fields\",\"to\":\"target:MyApprovals:RequestType:\",\"fromPort\":\"target:MyApprovals:fields\",\"toPort\":\"target:MyApprovals:RequestType:\",\"visible\":true,\"common\":false,\"__gohashid\":1192},{\"from\":\"target:MyApprovals:fields\",\"to\":\"target:MyApprovals:TemplateTypeValue:\",\"fromPort\":\"target:MyApprovals:fields\",\"toPort\":\"target:MyApprovals:TemplateTypeValue:\",\"visible\":true,\"common\":false,\"__gohashid\":1193},{\"from\":\"target:MyApprovals:fields\",\"to\":\"target:MyApprovals:softDelete:\",\"fromPort\":\"target:MyApprovals:fields\",\"toPort\":\"target:MyApprovals:softDelete:\",\"visible\":true,\"common\":false,\"__gohashid\":1194},{\"from\":\"target:MyApprovals:fields\",\"to\":\"target:MyApprovals:TransactionType_id:\",\"fromPort\":\"target:MyApprovals:fields\",\"toPort\":\"target:MyApprovals:TransactionType_id:\",\"visible\":true,\"common\":false,\"__gohashid\":1195},{\"from\":\"target:MyApprovals:fields\",\"to\":\"target:MyApprovals:TemplateType:\",\"fromPort\":\"target:MyApprovals:fields\",\"toPort\":\"target:MyApprovals:TemplateType:\",\"visible\":true,\"common\":false,\"__gohashid\":1196},{\"from\":\"target:MyApprovals:fields\",\"to\":\"target:MyApprovals:TransmittedDate:\",\"fromPort\":\"target:MyApprovals:fields\",\"toPort\":\"target:MyApprovals:TransmittedDate:\",\"visible\":true,\"common\":false,\"__gohashid\":1197},{\"from\":\"target:MyApprovals:fields\",\"to\":\"target:MyApprovals:TransactionId:\",\"fromPort\":\"target:MyApprovals:fields\",\"toPort\":\"target:MyApprovals:TransactionId:\",\"visible\":true,\"common\":false,\"__gohashid\":1198},{\"from\":\"target:MyApprovals:fields\",\"to\":\"target:MyApprovals:UpdatedDateAndTime:\",\"fromPort\":\"target:MyApprovals:fields\",\"toPort\":\"target:MyApprovals:UpdatedDateAndTime:\",\"visible\":true,\"common\":false,\"__gohashid\":1199},{\"from\":\"target:MyApprovals:fields\",\"to\":\"target:MyApprovals:MaxAmount:\",\"fromPort\":\"target:MyApprovals:fields\",\"toPort\":\"target:MyApprovals:MaxAmount:\",\"visible\":true,\"common\":false,\"__gohashid\":1200},{\"from\":\"target:MyApprovals:fields\",\"to\":\"target:MyApprovals:FileName:\",\"fromPort\":\"target:MyApprovals:fields\",\"toPort\":\"target:MyApprovals:FileName:\",\"visible\":true,\"common\":false,\"__gohashid\":1201},{\"from\":\"target:MyApprovals:fields\",\"to\":\"target:MyApprovals:NumberOfDebits:\",\"fromPort\":\"target:MyApprovals:fields\",\"toPort\":\"target:MyApprovals:NumberOfDebits:\",\"visible\":true,\"common\":false,\"__gohashid\":1202},{\"from\":\"target:MyApprovals:fields\",\"to\":\"target:MyApprovals:NumberOfPrenotes:\",\"fromPort\":\"target:MyApprovals:fields\",\"toPort\":\"target:MyApprovals:NumberOfPrenotes:\",\"visible\":true,\"common\":false,\"__gohashid\":1203},{\"from\":\"target:MyApprovals:fields\",\"to\":\"target:MyApprovals:NumberOfCredits:\",\"fromPort\":\"target:MyApprovals:fields\",\"toPort\":\"target:MyApprovals:NumberOfCredits:\",\"visible\":true,\"common\":false,\"__gohashid\":1204},{\"from\":\"target:MyApprovals:fields\",\"to\":\"target:MyApprovals:formatType:\",\"fromPort\":\"target:MyApprovals:fields\",\"toPort\":\"target:MyApprovals:formatType:\",\"visible\":true,\"common\":false,\"__gohashid\":1205},{\"from\":\"target:MyApprovals:fields\",\"to\":\"target:MyApprovals:ACHFileFormatType_id:\",\"fromPort\":\"target:MyApprovals:fields\",\"toPort\":\"target:MyApprovals:ACHFileFormatType_id:\",\"visible\":true,\"common\":false,\"__gohashid\":1206},{\"from\":\"target:MyApprovals:fields\",\"to\":\"target:MyApprovals:ACHFile_id:\",\"fromPort\":\"target:MyApprovals:fields\",\"toPort\":\"target:MyApprovals:ACHFile_id:\",\"visible\":true,\"common\":false,\"__gohashid\":1207},{\"from\":\"target:MyApprovals:fields\",\"to\":\"target:MyApprovals:FileSize:\",\"fromPort\":\"target:MyApprovals:fields\",\"toPort\":\"target:MyApprovals:FileSize:\",\"visible\":true,\"common\":false,\"__gohashid\":1208},{\"from\":\"target:MyApprovals:fields\",\"to\":\"target:MyApprovals:TotalDebitAmount:\",\"fromPort\":\"target:MyApprovals:fields\",\"toPort\":\"target:MyApprovals:TotalDebitAmount:\",\"visible\":true,\"common\":false,\"__gohashid\":1209},{\"from\":\"target:MyApprovals:fields\",\"to\":\"target:MyApprovals:TotalCreditAmount:\",\"fromPort\":\"target:MyApprovals:fields\",\"toPort\":\"target:MyApprovals:TotalCreditAmount:\",\"visible\":true,\"common\":false,\"__gohashid\":1210},{\"from\":\"target:MyApprovals:fields\",\"to\":\"target:MyApprovals:FileRequestType:\",\"fromPort\":\"target:MyApprovals:fields\",\"toPort\":\"target:MyApprovals:FileRequestType:\",\"visible\":true,\"common\":false,\"__gohashid\":1211},{\"from\":\"target:MyApprovals:fields\",\"to\":\"target:MyApprovals:DebitOrCreditAccount:\",\"fromPort\":\"target:MyApprovals:fields\",\"toPort\":\"target:MyApprovals:DebitOrCreditAccount:\",\"visible\":true,\"common\":false,\"__gohashid\":1212},{\"from\":\"target:MyApprovals:fields\",\"to\":\"target:MyApprovals:TemplateType_id:\",\"fromPort\":\"target:MyApprovals:fields\",\"toPort\":\"target:MyApprovals:TemplateType_id:\",\"visible\":true,\"common\":false,\"__gohashid\":1213},{\"from\":\"target:MyApprovals:fields\",\"to\":\"target:MyApprovals:TransactionTypeValue:\",\"fromPort\":\"target:MyApprovals:fields\",\"toPort\":\"target:MyApprovals:TransactionTypeValue:\",\"visible\":true,\"common\":false,\"__gohashid\":1214},{\"from\":\"target:MyApprovals:fields\",\"to\":\"target:MyApprovals:TemplateName:\",\"fromPort\":\"target:MyApprovals:fields\",\"toPort\":\"target:MyApprovals:TemplateName:\",\"visible\":true,\"common\":false,\"__gohashid\":1215},{\"from\":\"target:MyApprovals:fields\",\"to\":\"target:MyApprovals:createdts:\",\"fromPort\":\"target:MyApprovals:fields\",\"toPort\":\"target:MyApprovals:createdts:\",\"visible\":true,\"common\":false,\"__gohashid\":1216},{\"from\":\"target:MyApprovals:fields\",\"to\":\"target:MyApprovals:ActedBy:\",\"fromPort\":\"target:MyApprovals:fields\",\"toPort\":\"target:MyApprovals:ActedBy:\",\"visible\":true,\"common\":false,\"__gohashid\":1217},{\"from\":\"target:MyApprovals:fields\",\"to\":\"target:MyApprovals:Action:\",\"fromPort\":\"target:MyApprovals:fields\",\"toPort\":\"target:MyApprovals:Action:\",\"visible\":true,\"common\":false,\"__gohashid\":1218},{\"from\":\"target:MyApprovals:fields\",\"to\":\"target:MyApprovals:Comments:\",\"fromPort\":\"target:MyApprovals:fields\",\"toPort\":\"target:MyApprovals:Comments:\",\"visible\":true,\"common\":false,\"__gohashid\":1219},{\"from\":\"target:MyApprovals:fields\",\"to\":\"target:MyApprovals:FileStatus:\",\"fromPort\":\"target:MyApprovals:fields\",\"toPort\":\"target:MyApprovals:FileStatus:\",\"visible\":true,\"common\":false,\"__gohashid\":1220},{\"from\":\"target:MyApprovals:fields\",\"to\":\"target:MyApprovals:TotalAmount:\",\"fromPort\":\"target:MyApprovals:fields\",\"toPort\":\"target:MyApprovals:TotalAmount:\",\"visible\":true,\"common\":false,\"__gohashid\":1221},{\"from\":\"target:MyApprovals:fields\",\"to\":\"target:MyApprovals:dbpErrCode:\",\"fromPort\":\"target:MyApprovals:fields\",\"toPort\":\"target:MyApprovals:dbpErrCode:\",\"visible\":true,\"common\":false,\"__gohashid\":1222},{\"from\":\"target:MyApprovals:fields\",\"to\":\"target:MyApprovals:dbpErrMsg:\",\"fromPort\":\"target:MyApprovals:fields\",\"toPort\":\"target:MyApprovals:dbpErrMsg:\",\"visible\":true,\"common\":false,\"__gohashid\":1223},{\"from\":\"target:MyApprovals:fields\",\"to\":\"target:MyApprovals:opstatus:\",\"fromPort\":\"target:MyApprovals:fields\",\"toPort\":\"target:MyApprovals:opstatus:\",\"visible\":true,\"common\":false,\"__gohashid\":1224},{\"from\":\"target:MyApprovals:fields\",\"to\":\"target:MyApprovals:httpStatusCode:\",\"fromPort\":\"target:MyApprovals:fields\",\"toPort\":\"target:MyApprovals:httpStatusCode:\",\"visible\":true,\"common\":false,\"__gohashid\":1225},{\"from\":\"target:MyApprovals:fields\",\"to\":\"target:MyApprovals:referenceId:\",\"fromPort\":\"target:MyApprovals:fields\",\"toPort\":\"target:MyApprovals:referenceId:\",\"visible\":true,\"common\":false,\"__gohashid\":1226},{\"from\":\"target:MyApprovals:fields\",\"to\":\"target:MyApprovals:MFAAttributes:\",\"fromPort\":\"target:MyApprovals:fields\",\"toPort\":\"target:MyApprovals:MFAAttributes:\",\"visible\":true,\"common\":false,\"__gohashid\":1227},{\"from\":\"target:MyApprovals:fields\",\"to\":\"target:MyApprovals:errmsg:\",\"fromPort\":\"target:MyApprovals:fields\",\"toPort\":\"target:MyApprovals:errmsg:\",\"visible\":true,\"common\":false,\"__gohashid\":1228},{\"from\":\"target:MyApprovals:fields\",\"to\":\"target:MyApprovals:securityKey:\",\"fromPort\":\"target:MyApprovals:fields\",\"toPort\":\"target:MyApprovals:securityKey:\",\"visible\":true,\"common\":false,\"__gohashid\":1229},{\"from\":\"target:MyApprovals:fields\",\"to\":\"target:MyApprovals:sacMaxResendRequestsAllowed:\",\"fromPort\":\"target:MyApprovals:fields\",\"toPort\":\"target:MyApprovals:sacMaxResendRequestsAllowed:\",\"visible\":true,\"common\":false,\"__gohashid\":1230},{\"from\":\"target:MyApprovals:fields\",\"to\":\"target:MyApprovals:remainingResendAttempts:\",\"fromPort\":\"target:MyApprovals:fields\",\"toPort\":\"target:MyApprovals:remainingResendAttempts:\",\"visible\":true,\"common\":false,\"__gohashid\":1231},{\"from\":\"target:MyApprovals:fields\",\"to\":\"target:MyApprovals:sacCodeLength:\",\"fromPort\":\"target:MyApprovals:fields\",\"toPort\":\"target:MyApprovals:sacCodeLength:\",\"visible\":true,\"common\":false,\"__gohashid\":1232},{\"from\":\"target:MyApprovals:fields\",\"to\":\"target:MyApprovals:communicationType:\",\"fromPort\":\"target:MyApprovals:fields\",\"toPort\":\"target:MyApprovals:communicationType:\",\"visible\":true,\"common\":false,\"__gohashid\":1233},{\"from\":\"target:MyApprovals:fields\",\"to\":\"target:MyApprovals:sacPreferenceCriteria:\",\"fromPort\":\"target:MyApprovals:fields\",\"toPort\":\"target:MyApprovals:sacPreferenceCriteria:\",\"visible\":true,\"common\":false,\"__gohashid\":1234},{\"from\":\"target:MyApprovals:fields\",\"to\":\"target:MyApprovals:customerCommunication:\",\"fromPort\":\"target:MyApprovals:fields\",\"toPort\":\"target:MyApprovals:customerCommunication:\",\"visible\":true,\"common\":false,\"__gohashid\":1235},{\"from\":\"target:MyApprovals:fields\",\"to\":\"target:MyApprovals:phone:\",\"fromPort\":\"target:MyApprovals:fields\",\"toPort\":\"target:MyApprovals:phone:\",\"visible\":true,\"common\":false,\"__gohashid\":1236},{\"from\":\"target:MyApprovals:fields\",\"to\":\"target:MyApprovals:masked:\",\"fromPort\":\"target:MyApprovals:fields\",\"toPort\":\"target:MyApprovals:masked:\",\"visible\":true,\"common\":false,\"__gohashid\":1237},{\"from\":\"target:MyApprovals:fields\",\"to\":\"target:MyApprovals:unmasked:\",\"fromPort\":\"target:MyApprovals:fields\",\"toPort\":\"target:MyApprovals:unmasked:\",\"visible\":true,\"common\":false,\"__gohashid\":1238},{\"from\":\"target:MyApprovals:fields\",\"to\":\"target:MyApprovals:email:\",\"fromPort\":\"target:MyApprovals:fields\",\"toPort\":\"target:MyApprovals:email:\",\"visible\":true,\"common\":false,\"__gohashid\":1239},{\"from\":\"target:MyApprovals:fields\",\"to\":\"target:MyApprovals:MFAType:\",\"fromPort\":\"target:MyApprovals:fields\",\"toPort\":\"target:MyApprovals:MFAType:\",\"visible\":true,\"common\":false,\"__gohashid\":1240},{\"from\":\"target:MyApprovals:fields\",\"to\":\"target:MyApprovals:isMFARequired:\",\"fromPort\":\"target:MyApprovals:fields\",\"toPort\":\"target:MyApprovals:isMFARequired:\",\"visible\":true,\"common\":false,\"__gohashid\":1241},{\"from\":\"target:MyApprovals:fields\",\"to\":\"target:MyApprovals:serviceKey:\",\"fromPort\":\"target:MyApprovals:fields\",\"toPort\":\"target:MyApprovals:serviceKey:\",\"visible\":true,\"common\":false,\"__gohashid\":1242},{\"from\":\"target:MyApprovals:fields\",\"to\":\"target:MyApprovals:securityQuestions:\",\"fromPort\":\"target:MyApprovals:fields\",\"toPort\":\"target:MyApprovals:securityQuestions:\",\"visible\":true,\"common\":false,\"__gohashid\":1243},{\"from\":\"target:MyApprovals:fields\",\"to\":\"target:MyApprovals:SecurityQuestion_id:\",\"fromPort\":\"target:MyApprovals:fields\",\"toPort\":\"target:MyApprovals:SecurityQuestion_id:\",\"visible\":true,\"common\":false,\"__gohashid\":1244},{\"from\":\"target:MyApprovals:fields\",\"to\":\"target:MyApprovals:Question:\",\"fromPort\":\"target:MyApprovals:fields\",\"toPort\":\"target:MyApprovals:Question:\",\"visible\":true,\"common\":false,\"__gohashid\":1245},{\"from\":\"target:MyApprovals:fields\",\"to\":\"target:MyApprovals:QuestionStatus_id:\",\"fromPort\":\"target:MyApprovals:fields\",\"toPort\":\"target:MyApprovals:QuestionStatus_id:\",\"visible\":true,\"common\":false,\"__gohashid\":1246},{\"from\":\"target:MyApprovals:fields\",\"to\":\"target:MyApprovals:serviceName:\",\"fromPort\":\"target:MyApprovals:fields\",\"toPort\":\"target:MyApprovals:serviceName:\",\"visible\":true,\"common\":false,\"__gohashid\":1247},{\"from\":\"target:MyApprovals:fields\",\"to\":\"target:MyApprovals:customerAnswer:\",\"fromPort\":\"target:MyApprovals:fields\",\"toPort\":\"target:MyApprovals:customerAnswer:\",\"visible\":true,\"common\":false,\"__gohashid\":1248},{\"from\":\"target:MyApprovals:fields\",\"to\":\"target:MyApprovals:questionId:\",\"fromPort\":\"target:MyApprovals:fields\",\"toPort\":\"target:MyApprovals:questionId:\",\"visible\":true,\"common\":false,\"__gohashid\":1249},{\"from\":\"target:MyApprovals:fields\",\"to\":\"target:MyApprovals:maxFailedAttemptsAllowed:\",\"fromPort\":\"target:MyApprovals:fields\",\"toPort\":\"target:MyApprovals:maxFailedAttemptsAllowed:\",\"visible\":true,\"common\":false,\"__gohashid\":1250},{\"from\":\"target:MyApprovals:fields\",\"to\":\"target:MyApprovals:remainingFailedAttempts:\",\"fromPort\":\"target:MyApprovals:fields\",\"toPort\":\"target:MyApprovals:remainingFailedAttempts:\",\"visible\":true,\"common\":false,\"__gohashid\":1251},{\"from\":\"target:MyApprovals:fields\",\"to\":\"target:MyApprovals:failedAttempts:\",\"fromPort\":\"target:MyApprovals:fields\",\"toPort\":\"target:MyApprovals:failedAttempts:\",\"visible\":true,\"common\":false,\"__gohashid\":1252},{\"from\":\"target:MyApprovals:fields\",\"to\":\"target:MyApprovals:isOTPExpired:\",\"fromPort\":\"target:MyApprovals:fields\",\"toPort\":\"target:MyApprovals:isOTPExpired:\",\"visible\":true,\"common\":false,\"__gohashid\":1253}],\"blockCount\":{\"variableCount\":0},\"variableMap\":{},\"xmlMappingOverride\":true}",
    "applyCommonMapping" : false,
    "applyRequestCommonMapping" : false,
    "applyResponseCommonMapping" : false,
    "backendMeta" : {
      "serviceName" : "dbpBBJavaServices",
      "serviceVersion" : "1.0",
      "operationName" : "BBGeneralTransactionRequestAction"
    },
    "relationshipHierarchyMapping" : {
      "children" : [ ],
      "name" : "MyApprovals",
      "actions" : { },
      "selected" : true
    },
    "requestXmlMappingOverride" : true,
    "responseXmlMappingOverride" : true
  }
}