{
  "operationConfig" : {
    "name" : "getAllPhones4259",
    "type" : "MappedToBackend",
    "cachable" : false,
    "smsEnabled" : false,
    "security" : "authorized_app_user",
    "responseEncoding" : "UTF-8",
    "httpMethod" : "GET",
    "decodeResponseBody" : false,
    "oMapping" : "<?xml version=\"1.0\" encoding=\"UTF-8\" standalone=\"yes\"?><mapper xmlns=\"http://www.kony.com/ns/mapper\">          <map inputpath=\"response_in\" outputpath=\"response_out\">                    <map inputpath=\"customercommunication\" outputpath=\"Phone\">                                                <set-param inputpath=\"Extension\" outputpath=\"extension\"/>                              <set-param inputpath=\"id\" outputpath=\"id\"/>                              <set-param inputpath=\"isPrimary\" outputpath=\"isPrimary\"/>                              <set-param inputpath=\"Value\" outputpath=\"phoneNumber\"/>                              <set-param inputpath=\"PreferredContactTime\" outputpath=\"PreferredContactTime\"/>                              <set-param inputpath=\"IsPreferredContactMethod\" outputpath=\"IsPreferredContactMethod\"/>                          <set-param inputpath=\"Description\" outputpath=\"Description\"/>      <set-param inputpath=\"receivePromotions\" outputpath=\"receivePromotions\"/>      <set-param inputpath=\"type\" outputpath=\"type\"/>      <set-param inputpath=\"countryType\" outputpath=\"countryType\"/>    </map>          </map></mapper>",
    "oVisualMappingData" : "{\"nodeDataArray\":[{\"isGroup\":true,\"key\":\"response_out\",\"text\":\"Phone\",\"xy\":\"770 100\",\"__gohashid\":49202},{\"isGroup\":true,\"key\":\"response_in\",\"text\":\"dbpRbLocalServicesJava (1.0).getAllPhones\",\"xy\":\"150 100\",\"__gohashid\":49203}],\"linkDataArray\":[{\"category\":\"Mapping\",\"from\":\"source:Phone:id:\",\"to\":\"target:Phone:id:\",\"fromPort\":\"source:Phone:id:\",\"toPort\":\"target:Phone:id:\",\"visible\":true,\"common\":true,\"__gohashid\":51772},{\"category\":\"Mapping\",\"from\":\"source:Phone:isPrimary:\",\"to\":\"target:Phone:isPrimary:\",\"fromPort\":\"source:Phone:isPrimary:\",\"toPort\":\"target:Phone:isPrimary:\",\"visible\":true,\"common\":true,\"__gohashid\":51779},{\"category\":\"Mapping\",\"from\":\"source:Phone:phoneNumber:\",\"to\":\"target:Phone:phoneNumber:\",\"fromPort\":\"source:Phone:phoneNumber:\",\"toPort\":\"target:Phone:phoneNumber:\",\"visible\":true,\"common\":true,\"__gohashid\":51786},{\"from\":\"target\",\"to\":\"target:Phone\",\"fromPort\":\"target\",\"toPort\":\"target:Phone\",\"visible\":true,\"common\":false,\"__gohashid\":22432},{\"from\":\"target:Phone\",\"to\":\"target:Phone:fields\",\"fromPort\":\"target:Phone\",\"toPort\":\"target:Phone:fields\",\"visible\":true,\"common\":false,\"__gohashid\":22433},{\"from\":\"target:Phone:fields\",\"to\":\"target:Phone:error:\",\"fromPort\":\"target:Phone:fields\",\"toPort\":\"target:Phone:error:\",\"visible\":true,\"common\":false,\"__gohashid\":22434},{\"from\":\"target:Phone:fields\",\"to\":\"target:Phone:Extension:\",\"fromPort\":\"target:Phone:fields\",\"toPort\":\"target:Phone:Extension:\",\"visible\":true,\"common\":false,\"__gohashid\":22435},{\"from\":\"target:Phone:fields\",\"to\":\"target:Phone:id:\",\"fromPort\":\"target:Phone:fields\",\"toPort\":\"target:Phone:id:\",\"visible\":true,\"common\":false,\"__gohashid\":22436},{\"from\":\"target:Phone:fields\",\"to\":\"target:Phone:isPrimary:\",\"fromPort\":\"target:Phone:fields\",\"toPort\":\"target:Phone:isPrimary:\",\"visible\":true,\"common\":false,\"__gohashid\":22437},{\"from\":\"target:Phone:fields\",\"to\":\"target:Phone:phoneNumber:\",\"fromPort\":\"target:Phone:fields\",\"toPort\":\"target:Phone:phoneNumber:\",\"visible\":true,\"common\":false,\"__gohashid\":22438},{\"from\":\"target:Phone:fields\",\"to\":\"target:Phone:Description:\",\"fromPort\":\"target:Phone:fields\",\"toPort\":\"target:Phone:Description:\",\"visible\":true,\"common\":false,\"__gohashid\":22439},{\"from\":\"target:Phone:fields\",\"to\":\"target:Phone:result:\",\"fromPort\":\"target:Phone:fields\",\"toPort\":\"target:Phone:result:\",\"visible\":true,\"common\":false,\"__gohashid\":22440},{\"from\":\"target:Phone:fields\",\"to\":\"target:Phone:IsPreferredContactMethod:\",\"fromPort\":\"target:Phone:fields\",\"toPort\":\"target:Phone:IsPreferredContactMethod:\",\"visible\":true,\"common\":false,\"__gohashid\":22441},{\"from\":\"target:Phone:fields\",\"to\":\"target:Phone:PreferredContactTime:\",\"fromPort\":\"target:Phone:fields\",\"toPort\":\"target:Phone:PreferredContactTime:\",\"visible\":true,\"common\":false,\"__gohashid\":22442},{\"from\":\"source\",\"to\":\"source:Phone\",\"fromPort\":\"source\",\"toPort\":\"source:Phone\",\"visible\":true,\"common\":false,\"__gohashid\":22443},{\"from\":\"source:Phone\",\"to\":\"source:Phone:parameters\",\"fromPort\":\"source:Phone\",\"toPort\":\"source:Phone:parameters\",\"visible\":true,\"common\":false,\"__gohashid\":22444},{\"from\":\"source:Phone:parameters\",\"to\":\"source:Phone:countryType:\",\"fromPort\":\"source:Phone:parameters\",\"toPort\":\"source:Phone:countryType:\",\"visible\":true,\"common\":false,\"__gohashid\":22445},{\"from\":\"source:Phone:parameters\",\"to\":\"source:Phone:extension:\",\"fromPort\":\"source:Phone:parameters\",\"toPort\":\"source:Phone:extension:\",\"visible\":true,\"common\":false,\"__gohashid\":22446},{\"from\":\"source:Phone:parameters\",\"to\":\"source:Phone:id:\",\"fromPort\":\"source:Phone:parameters\",\"toPort\":\"source:Phone:id:\",\"visible\":true,\"common\":false,\"__gohashid\":22447},{\"from\":\"source:Phone:parameters\",\"to\":\"source:Phone:isPrimary:\",\"fromPort\":\"source:Phone:parameters\",\"toPort\":\"source:Phone:isPrimary:\",\"visible\":true,\"common\":false,\"__gohashid\":22448},{\"from\":\"source:Phone:parameters\",\"to\":\"source:Phone:phoneNumber:\",\"fromPort\":\"source:Phone:parameters\",\"toPort\":\"source:Phone:phoneNumber:\",\"visible\":true,\"common\":false,\"__gohashid\":22449},{\"from\":\"source:Phone:parameters\",\"to\":\"source:Phone:receivePromotions:\",\"fromPort\":\"source:Phone:parameters\",\"toPort\":\"source:Phone:receivePromotions:\",\"visible\":true,\"common\":false,\"__gohashid\":22450},{\"from\":\"source:Phone:parameters\",\"to\":\"source:Phone:type:\",\"fromPort\":\"source:Phone:parameters\",\"toPort\":\"source:Phone:type:\",\"visible\":true,\"common\":false,\"__gohashid\":22451}],\"blockCount\":{\"variableCount\":0},\"variableMap\":{},\"xmlMappingOverride\":true}",
    "applyCommonMapping" : false,
    "applyRequestCommonMapping" : true,
    "applyResponseCommonMapping" : false,
    "backendMeta" : {
      "serviceName" : "dbpRbLocalServicesJava",
      "serviceVersion" : "1.0",
      "operationName" : "getAllPhones"
    },
    "relationshipHierarchyMapping" : {
      "children" : [ ],
      "name" : "Phone",
      "actions" : { },
      "selected" : true
    },
    "requestXmlMappingOverride" : false,
    "responseXmlMappingOverride" : true
  }
}