{
  "operationConfig" : {
    "name" : "getPayeeList5060",
    "type" : "MappedToBackend",
    "cachable" : false,
    "smsEnabled" : false,
    "security" : "authorized_app_user",
    "responseEncoding" : "UTF-8",
    "httpMethod" : "GET",
    "decodeResponseBody" : false,
    "odata" : [ {
      "id" : "$select",
      "dataType" : "string",
      "encode" : true,
      "accessType" : "readonly"
    }, {
      "id" : "$filter",
      "dataType" : "string",
      "encode" : true,
      "accessType" : "readonly"
    }, {
      "id" : "$orderby",
      "dataType" : "string",
      "encode" : true,
      "accessType" : "readonly"
    }, {
      "id" : "$top",
      "dataType" : "string",
      "encode" : true,
      "accessType" : "readonly"
    }, {
      "id" : "$skip",
      "dataType" : "string",
      "encode" : true,
      "accessType" : "readonly"
    }, {
      "id" : "$expand",
      "dataType" : "string",
      "encode" : true,
      "accessType" : "readonly"
    }, {
      "id" : "$batchsize",
      "dataType" : "string",
      "encode" : true,
      "accessType" : "readonly"
    }, {
      "id" : "$batchid",
      "dataType" : "string",
      "encode" : true,
      "accessType" : "readonly"
    } ],
    "iMapping" : "<?xml version=\"1.0\" encoding=\"UTF-8\" standalone=\"yes\"?><mapper xmlns=\"http://www.kony.com/ns/mapper\"><map inputpath=\"request_in\" outputpath=\"request_out\"><set-param inputpath=\"searchString\" outputpath=\"searchString\"/><set-param inputpath=\"cityName\" outputpath=\"cityName\"/><set-param inputpath=\"offset\" outputpath=\"offset\"/><set-param inputpath=\"street\" outputpath=\"street\"/><set-param inputpath=\"limit\" outputpath=\"limit\"/><set-param inputpath=\"addressLine2\" outputpath=\"addressLine2\"/><set-param inputpath=\"sortBy\" outputpath=\"sortBy\"/><set-param inputpath=\"state\" outputpath=\"state\"/><set-param inputpath=\"payeeId\" outputpath=\"payeeId\"/><set-param inputpath=\"order\" outputpath=\"order\"/></map></mapper>",
    "oMapping" : "<?xml version=\"1.0\" encoding=\"UTF-8\" standalone=\"yes\"?><mapper xmlns=\"http://www.kony.com/ns/mapper\">          <map inputpath=\"response_in\" outputpath=\"response_out\">                    <set-param inputpath=\"success\" outputpath=\"success\"/>\t        <set-param inputpath=\"errmsg\" outputpath=\"errmsg\"/>            <map inputpath=\"payee\" outputpath=\"Payee\">                              <set-param inputpath=\"accountNumber\" outputpath=\"accountNumber\"/>                              <set-param inputpath=\"addressLine1\" outputpath=\"addressLine1\"/>                              <set-param inputpath=\"addressLine2\" outputpath=\"addressLine2\"/>                              <set-param inputpath=\"billDescription\" outputpath=\"billDescription\"/>                              <set-param inputpath=\"billDueDate\" outputpath=\"billDueDate\"/>                              <set-param inputpath=\"billerCategory\" outputpath=\"billerCategory\"/>                              <set-param inputpath=\"billerId\" outputpath=\"billerId\"/>                              <set-param inputpath=\"billGeneratedDate\" outputpath=\"billGeneratedDate\"/>                              <set-param inputpath=\"billId\" outputpath=\"billid\"/>                              <set-param inputpath=\"cityName\" outputpath=\"cityName\"/>                              <set-param inputpath=\"companyName\" outputpath=\"companyName\"/>                              <set-param inputpath=\"dueAmount\" outputpath=\"dueAmount\"/>                              <set-param inputpath=\"eBillEnable\" outputpath=\"eBillStatus\"/>                              <set-param inputpath=\"ebillSupport\" outputpath=\"eBillSupport\"/>                              <set-param inputpath=\"ebillURL\" outputpath=\"ebillURL\"/>                              <set-param inputpath=\"email\" outputpath=\"email\"/>                              <set-param inputpath=\"lastPaidAmount\" outputpath=\"lastPaidAmount\"/>                              <set-param inputpath=\"lastPaidDate\" outputpath=\"lastPaidDate\"/>                              <set-param inputpath=\"nameOnBill\" outputpath=\"nameOnBill\"/>                              <set-param inputpath=\"notes\" outputpath=\"notes\"/>                              <set-param inputpath=\"paidAmount\" outputpath=\"paidAmount\"/>                              <set-param inputpath=\"accountNumber\" outputpath=\"payeeAccountNumber\"/>                              <set-param inputpath=\"Id\" outputpath=\"payeeId\"/>                              <set-param inputpath=\"name\" outputpath=\"payeeName\"/>                              <set-param inputpath=\"nickName\" outputpath=\"payeeNickName\"/>                              <set-param inputpath=\"phone\" outputpath=\"phone\"/>                              <set-param inputpath=\"state\" outputpath=\"state\"/>                              <set-param inputpath=\"zipCode\" outputpath=\"zipCode\"/>                            <set-param inputpath=\"isManuallyAdded\" outputpath=\"isManuallyAdded\"/>                </map>          </map></mapper>",
    "oVisualMappingData" : "{\"nodeDataArray\":[{\"isGroup\":true,\"key\":\"response_out\",\"text\":\"Payee\",\"xy\":\"770 100\",\"__gohashid\":14455},{\"isGroup\":true,\"key\":\"response_in\",\"text\":\"dbpRbLocalServicesJava.getPayeeList\",\"xy\":\"150 100\",\"__gohashid\":14456}],\"linkDataArray\":[{\"category\":\"Mapping\",\"from\":\"source:Payee:accountNumber:\",\"to\":\"target:Payee:accountNumber:\",\"fromPort\":\"source:Payee:accountNumber:\",\"toPort\":\"target:Payee:accountNumber:\",\"visible\":true,\"common\":true,\"__gohashid\":18167},{\"category\":\"Mapping\",\"from\":\"source:Payee:addressLine1:\",\"to\":\"target:Payee:addressLine1:\",\"fromPort\":\"source:Payee:addressLine1:\",\"toPort\":\"target:Payee:addressLine1:\",\"visible\":true,\"common\":true,\"__gohashid\":18174},{\"category\":\"Mapping\",\"from\":\"source:Payee:addressLine2:\",\"to\":\"target:Payee:addressLine2:\",\"fromPort\":\"source:Payee:addressLine2:\",\"toPort\":\"target:Payee:addressLine2:\",\"visible\":true,\"common\":true,\"__gohashid\":18181},{\"category\":\"Mapping\",\"from\":\"source:Payee:billDescription:\",\"to\":\"target:Payee:billDescription:\",\"fromPort\":\"source:Payee:billDescription:\",\"toPort\":\"target:Payee:billDescription:\",\"visible\":true,\"common\":true,\"__gohashid\":18188},{\"category\":\"Mapping\",\"from\":\"source:Payee:billDueDate:\",\"to\":\"target:Payee:billDueDate:\",\"fromPort\":\"source:Payee:billDueDate:\",\"toPort\":\"target:Payee:billDueDate:\",\"visible\":true,\"common\":true,\"__gohashid\":18195},{\"category\":\"Mapping\",\"from\":\"source:Payee:billerCategory:\",\"to\":\"target:Payee:billerCategory:\",\"fromPort\":\"source:Payee:billerCategory:\",\"toPort\":\"target:Payee:billerCategory:\",\"visible\":true,\"common\":true,\"__gohashid\":18202},{\"category\":\"Mapping\",\"from\":\"source:Payee:billerId:\",\"to\":\"target:Payee:billerId:\",\"fromPort\":\"source:Payee:billerId:\",\"toPort\":\"target:Payee:billerId:\",\"visible\":true,\"common\":true,\"__gohashid\":18209},{\"category\":\"Mapping\",\"from\":\"source:Payee:billGeneratedDate:\",\"to\":\"target:Payee:billGeneratedDate:\",\"fromPort\":\"source:Payee:billGeneratedDate:\",\"toPort\":\"target:Payee:billGeneratedDate:\",\"visible\":true,\"common\":true,\"__gohashid\":18216},{\"category\":\"Mapping\",\"from\":\"source:Payee:billid:\",\"to\":\"target:Payee:billid:\",\"fromPort\":\"source:Payee:billid:\",\"toPort\":\"target:Payee:billid:\",\"visible\":true,\"common\":true,\"__gohashid\":18223},{\"category\":\"Mapping\",\"from\":\"source:Payee:cityName:\",\"to\":\"target:Payee:cityName:\",\"fromPort\":\"source:Payee:cityName:\",\"toPort\":\"target:Payee:cityName:\",\"visible\":true,\"common\":true,\"__gohashid\":18230},{\"category\":\"Mapping\",\"from\":\"source:Payee:companyName:\",\"to\":\"target:Payee:companyName:\",\"fromPort\":\"source:Payee:companyName:\",\"toPort\":\"target:Payee:companyName:\",\"visible\":true,\"common\":true,\"__gohashid\":18237},{\"category\":\"Mapping\",\"from\":\"source:Payee:dueAmount:\",\"to\":\"target:Payee:dueAmount:\",\"fromPort\":\"source:Payee:dueAmount:\",\"toPort\":\"target:Payee:dueAmount:\",\"visible\":true,\"common\":true,\"__gohashid\":18244},{\"category\":\"Mapping\",\"from\":\"source:Payee:eBillStatus:\",\"to\":\"target:Payee:eBillStatus:\",\"fromPort\":\"source:Payee:eBillStatus:\",\"toPort\":\"target:Payee:eBillStatus:\",\"visible\":true,\"common\":true,\"__gohashid\":18251},{\"category\":\"Mapping\",\"from\":\"source:Payee:eBillSupport:\",\"to\":\"target:Payee:eBillSupport:\",\"fromPort\":\"source:Payee:eBillSupport:\",\"toPort\":\"target:Payee:eBillSupport:\",\"visible\":true,\"common\":true,\"__gohashid\":18258},{\"category\":\"Mapping\",\"from\":\"source:Payee:ebillURL:\",\"to\":\"target:Payee:ebillURL:\",\"fromPort\":\"source:Payee:ebillURL:\",\"toPort\":\"target:Payee:ebillURL:\",\"visible\":true,\"common\":true,\"__gohashid\":18265},{\"category\":\"Mapping\",\"from\":\"source:Payee:email:\",\"to\":\"target:Payee:email:\",\"fromPort\":\"source:Payee:email:\",\"toPort\":\"target:Payee:email:\",\"visible\":true,\"common\":true,\"__gohashid\":18272},{\"category\":\"Mapping\",\"from\":\"source:Payee:lastPaidAmount:\",\"to\":\"target:Payee:lastPaidAmount:\",\"fromPort\":\"source:Payee:lastPaidAmount:\",\"toPort\":\"target:Payee:lastPaidAmount:\",\"visible\":true,\"common\":true,\"__gohashid\":18279},{\"category\":\"Mapping\",\"from\":\"source:Payee:lastPaidDate:\",\"to\":\"target:Payee:lastPaidDate:\",\"fromPort\":\"source:Payee:lastPaidDate:\",\"toPort\":\"target:Payee:lastPaidDate:\",\"visible\":true,\"common\":true,\"__gohashid\":18286},{\"category\":\"Mapping\",\"from\":\"source:Payee:nameOnBill:\",\"to\":\"target:Payee:nameOnBill:\",\"fromPort\":\"source:Payee:nameOnBill:\",\"toPort\":\"target:Payee:nameOnBill:\",\"visible\":true,\"common\":true,\"__gohashid\":18293},{\"category\":\"Mapping\",\"from\":\"source:Payee:notes:\",\"to\":\"target:Payee:notes:\",\"fromPort\":\"source:Payee:notes:\",\"toPort\":\"target:Payee:notes:\",\"visible\":true,\"common\":true,\"__gohashid\":18300},{\"category\":\"Mapping\",\"from\":\"source:Payee:paidAmount:\",\"to\":\"target:Payee:paidAmount:\",\"fromPort\":\"source:Payee:paidAmount:\",\"toPort\":\"target:Payee:paidAmount:\",\"visible\":true,\"common\":true,\"__gohashid\":18307},{\"category\":\"Mapping\",\"from\":\"source:Payee:payeeAccountNumber:\",\"to\":\"target:Payee:payeeAccountNumber:\",\"fromPort\":\"source:Payee:payeeAccountNumber:\",\"toPort\":\"target:Payee:payeeAccountNumber:\",\"visible\":true,\"common\":true,\"__gohashid\":18314},{\"category\":\"Mapping\",\"from\":\"source:Payee:payeeId:\",\"to\":\"target:Payee:payeeId:\",\"fromPort\":\"source:Payee:payeeId:\",\"toPort\":\"target:Payee:payeeId:\",\"visible\":true,\"common\":true,\"__gohashid\":18321},{\"category\":\"Mapping\",\"from\":\"source:Payee:payeeName:\",\"to\":\"target:Payee:payeeName:\",\"fromPort\":\"source:Payee:payeeName:\",\"toPort\":\"target:Payee:payeeName:\",\"visible\":true,\"common\":true,\"__gohashid\":18328},{\"category\":\"Mapping\",\"from\":\"source:Payee:payeeNickName:\",\"to\":\"target:Payee:payeeNickName:\",\"fromPort\":\"source:Payee:payeeNickName:\",\"toPort\":\"target:Payee:payeeNickName:\",\"visible\":true,\"common\":true,\"__gohashid\":18335},{\"category\":\"Mapping\",\"from\":\"source:Payee:phone:\",\"to\":\"target:Payee:phone:\",\"fromPort\":\"source:Payee:phone:\",\"toPort\":\"target:Payee:phone:\",\"visible\":true,\"common\":true,\"__gohashid\":18342},{\"category\":\"Mapping\",\"from\":\"source:Payee:state:\",\"to\":\"target:Payee:state:\",\"fromPort\":\"source:Payee:state:\",\"toPort\":\"target:Payee:state:\",\"visible\":true,\"common\":true,\"__gohashid\":18349},{\"category\":\"Mapping\",\"from\":\"source:Payee:zipCode:\",\"to\":\"target:Payee:zipCode:\",\"fromPort\":\"source:Payee:zipCode:\",\"toPort\":\"target:Payee:zipCode:\",\"visible\":true,\"common\":true,\"__gohashid\":18356},{\"category\":\"Mapping\",\"from\":\"source:Payee:isManuallyAdded:\",\"to\":\"target:Payee:isManuallyAdded:\",\"fromPort\":\"source:Payee:isManuallyAdded:\",\"toPort\":\"target:Payee:isManuallyAdded:\",\"visible\":true,\"common\":true,\"__gohashid\":18363},{\"from\":\"target\",\"to\":\"target:Payee\",\"fromPort\":\"target\",\"toPort\":\"target:Payee\",\"visible\":true,\"common\":false,\"__gohashid\":7971},{\"from\":\"target:Payee\",\"to\":\"target:Payee:fields\",\"fromPort\":\"target:Payee\",\"toPort\":\"target:Payee:fields\",\"visible\":true,\"common\":false,\"__gohashid\":7972},{\"from\":\"target:Payee:fields\",\"to\":\"target:Payee:accountNumber:\",\"fromPort\":\"target:Payee:fields\",\"toPort\":\"target:Payee:accountNumber:\",\"visible\":true,\"common\":false,\"__gohashid\":7973},{\"from\":\"target:Payee:fields\",\"to\":\"target:Payee:addressLine1:\",\"fromPort\":\"target:Payee:fields\",\"toPort\":\"target:Payee:addressLine1:\",\"visible\":true,\"common\":false,\"__gohashid\":7974},{\"from\":\"target:Payee:fields\",\"to\":\"target:Payee:addressLine2:\",\"fromPort\":\"target:Payee:fields\",\"toPort\":\"target:Payee:addressLine2:\",\"visible\":true,\"common\":false,\"__gohashid\":7975},{\"from\":\"target:Payee:fields\",\"to\":\"target:Payee:billDescription:\",\"fromPort\":\"target:Payee:fields\",\"toPort\":\"target:Payee:billDescription:\",\"visible\":true,\"common\":false,\"__gohashid\":7976},{\"from\":\"target:Payee:fields\",\"to\":\"target:Payee:billDueDate:\",\"fromPort\":\"target:Payee:fields\",\"toPort\":\"target:Payee:billDueDate:\",\"visible\":true,\"common\":false,\"__gohashid\":7977},{\"from\":\"target:Payee:fields\",\"to\":\"target:Payee:billerCategory:\",\"fromPort\":\"target:Payee:fields\",\"toPort\":\"target:Payee:billerCategory:\",\"visible\":true,\"common\":false,\"__gohashid\":7978},{\"from\":\"target:Payee:fields\",\"to\":\"target:Payee:billerId:\",\"fromPort\":\"target:Payee:fields\",\"toPort\":\"target:Payee:billerId:\",\"visible\":true,\"common\":false,\"__gohashid\":7979},{\"from\":\"target:Payee:fields\",\"to\":\"target:Payee:billGeneratedDate:\",\"fromPort\":\"target:Payee:fields\",\"toPort\":\"target:Payee:billGeneratedDate:\",\"visible\":true,\"common\":false,\"__gohashid\":7980},{\"from\":\"target:Payee:fields\",\"to\":\"target:Payee:billid:\",\"fromPort\":\"target:Payee:fields\",\"toPort\":\"target:Payee:billid:\",\"visible\":true,\"common\":false,\"__gohashid\":7981},{\"from\":\"target:Payee:fields\",\"to\":\"target:Payee:cityName:\",\"fromPort\":\"target:Payee:fields\",\"toPort\":\"target:Payee:cityName:\",\"visible\":true,\"common\":false,\"__gohashid\":7982},{\"from\":\"target:Payee:fields\",\"to\":\"target:Payee:companyName:\",\"fromPort\":\"target:Payee:fields\",\"toPort\":\"target:Payee:companyName:\",\"visible\":true,\"common\":false,\"__gohashid\":7983},{\"from\":\"target:Payee:fields\",\"to\":\"target:Payee:dueAmount:\",\"fromPort\":\"target:Payee:fields\",\"toPort\":\"target:Payee:dueAmount:\",\"visible\":true,\"common\":false,\"__gohashid\":7984},{\"from\":\"target:Payee:fields\",\"to\":\"target:Payee:EBillEnable:\",\"fromPort\":\"target:Payee:fields\",\"toPort\":\"target:Payee:EBillEnable:\",\"visible\":true,\"common\":false,\"__gohashid\":7985},{\"from\":\"target:Payee:fields\",\"to\":\"target:Payee:eBillStatus:\",\"fromPort\":\"target:Payee:fields\",\"toPort\":\"target:Payee:eBillStatus:\",\"visible\":true,\"common\":false,\"__gohashid\":7986},{\"from\":\"target:Payee:fields\",\"to\":\"target:Payee:eBillSupport:\",\"fromPort\":\"target:Payee:fields\",\"toPort\":\"target:Payee:eBillSupport:\",\"visible\":true,\"common\":false,\"__gohashid\":7987},{\"from\":\"target:Payee:fields\",\"to\":\"target:Payee:ebillURL:\",\"fromPort\":\"target:Payee:fields\",\"toPort\":\"target:Payee:ebillURL:\",\"visible\":true,\"common\":false,\"__gohashid\":7988},{\"from\":\"target:Payee:fields\",\"to\":\"target:Payee:email:\",\"fromPort\":\"target:Payee:fields\",\"toPort\":\"target:Payee:email:\",\"visible\":true,\"common\":false,\"__gohashid\":7989},{\"from\":\"target:Payee:fields\",\"to\":\"target:Payee:errmsg:\",\"fromPort\":\"target:Payee:fields\",\"toPort\":\"target:Payee:errmsg:\",\"visible\":true,\"common\":false,\"__gohashid\":7990},{\"from\":\"target:Payee:fields\",\"to\":\"target:Payee:lastPaidAmount:\",\"fromPort\":\"target:Payee:fields\",\"toPort\":\"target:Payee:lastPaidAmount:\",\"visible\":true,\"common\":false,\"__gohashid\":7991},{\"from\":\"target:Payee:fields\",\"to\":\"target:Payee:lastPaidDate:\",\"fromPort\":\"target:Payee:fields\",\"toPort\":\"target:Payee:lastPaidDate:\",\"visible\":true,\"common\":false,\"__gohashid\":7992},{\"from\":\"target:Payee:fields\",\"to\":\"target:Payee:limit:\",\"fromPort\":\"target:Payee:fields\",\"toPort\":\"target:Payee:limit:\",\"visible\":true,\"common\":false,\"__gohashid\":7993},{\"from\":\"target:Payee:fields\",\"to\":\"target:Payee:nameOnBill:\",\"fromPort\":\"target:Payee:fields\",\"toPort\":\"target:Payee:nameOnBill:\",\"visible\":true,\"common\":false,\"__gohashid\":7994},{\"from\":\"target:Payee:fields\",\"to\":\"target:Payee:notes:\",\"fromPort\":\"target:Payee:fields\",\"toPort\":\"target:Payee:notes:\",\"visible\":true,\"common\":false,\"__gohashid\":7995},{\"from\":\"target:Payee:fields\",\"to\":\"target:Payee:offset:\",\"fromPort\":\"target:Payee:fields\",\"toPort\":\"target:Payee:offset:\",\"visible\":true,\"common\":false,\"__gohashid\":7996},{\"from\":\"target:Payee:fields\",\"to\":\"target:Payee:order:\",\"fromPort\":\"target:Payee:fields\",\"toPort\":\"target:Payee:order:\",\"visible\":true,\"common\":false,\"__gohashid\":7997},{\"from\":\"target:Payee:fields\",\"to\":\"target:Payee:paidAmount:\",\"fromPort\":\"target:Payee:fields\",\"toPort\":\"target:Payee:paidAmount:\",\"visible\":true,\"common\":false,\"__gohashid\":7998},{\"from\":\"target:Payee:fields\",\"to\":\"target:Payee:payeeAccountNumber:\",\"fromPort\":\"target:Payee:fields\",\"toPort\":\"target:Payee:payeeAccountNumber:\",\"visible\":true,\"common\":false,\"__gohashid\":7999},{\"from\":\"target:Payee:fields\",\"to\":\"target:Payee:payeeId:\",\"fromPort\":\"target:Payee:fields\",\"toPort\":\"target:Payee:payeeId:\",\"visible\":true,\"common\":false,\"__gohashid\":8000},{\"from\":\"target:Payee:fields\",\"to\":\"target:Payee:payeeName:\",\"fromPort\":\"target:Payee:fields\",\"toPort\":\"target:Payee:payeeName:\",\"visible\":true,\"common\":false,\"__gohashid\":8001},{\"from\":\"target:Payee:fields\",\"to\":\"target:Payee:payeeNickName:\",\"fromPort\":\"target:Payee:fields\",\"toPort\":\"target:Payee:payeeNickName:\",\"visible\":true,\"common\":false,\"__gohashid\":8002},{\"from\":\"target:Payee:fields\",\"to\":\"target:Payee:phone:\",\"fromPort\":\"target:Payee:fields\",\"toPort\":\"target:Payee:phone:\",\"visible\":true,\"common\":false,\"__gohashid\":8003},{\"from\":\"target:Payee:fields\",\"to\":\"target:Payee:searchString:\",\"fromPort\":\"target:Payee:fields\",\"toPort\":\"target:Payee:searchString:\",\"visible\":true,\"common\":false,\"__gohashid\":8004},{\"from\":\"target:Payee:fields\",\"to\":\"target:Payee:sortBy:\",\"fromPort\":\"target:Payee:fields\",\"toPort\":\"target:Payee:sortBy:\",\"visible\":true,\"common\":false,\"__gohashid\":8005},{\"from\":\"target:Payee:fields\",\"to\":\"target:Payee:state:\",\"fromPort\":\"target:Payee:fields\",\"toPort\":\"target:Payee:state:\",\"visible\":true,\"common\":false,\"__gohashid\":8006},{\"from\":\"target:Payee:fields\",\"to\":\"target:Payee:street:\",\"fromPort\":\"target:Payee:fields\",\"toPort\":\"target:Payee:street:\",\"visible\":true,\"common\":false,\"__gohashid\":8007},{\"from\":\"target:Payee:fields\",\"to\":\"target:Payee:success:\",\"fromPort\":\"target:Payee:fields\",\"toPort\":\"target:Payee:success:\",\"visible\":true,\"common\":false,\"__gohashid\":8008},{\"from\":\"target:Payee:fields\",\"to\":\"target:Payee:zipCode:\",\"fromPort\":\"target:Payee:fields\",\"toPort\":\"target:Payee:zipCode:\",\"visible\":true,\"common\":false,\"__gohashid\":8009},{\"from\":\"target:Payee:fields\",\"to\":\"target:Payee:type:\",\"fromPort\":\"target:Payee:fields\",\"toPort\":\"target:Payee:type:\",\"visible\":true,\"common\":false,\"__gohashid\":8010},{\"from\":\"target:Payee:fields\",\"to\":\"target:Payee:country:\",\"fromPort\":\"target:Payee:fields\",\"toPort\":\"target:Payee:country:\",\"visible\":true,\"common\":false,\"__gohashid\":8011},{\"from\":\"target:Payee:fields\",\"to\":\"target:Payee:swiftCode:\",\"fromPort\":\"target:Payee:fields\",\"toPort\":\"target:Payee:swiftCode:\",\"visible\":true,\"common\":false,\"__gohashid\":8012},{\"from\":\"target:Payee:fields\",\"to\":\"target:Payee:routingCode:\",\"fromPort\":\"target:Payee:fields\",\"toPort\":\"target:Payee:routingCode:\",\"visible\":true,\"common\":false,\"__gohashid\":8013},{\"from\":\"target:Payee:fields\",\"to\":\"target:Payee:bankName:\",\"fromPort\":\"target:Payee:fields\",\"toPort\":\"target:Payee:bankName:\",\"visible\":true,\"common\":false,\"__gohashid\":8014},{\"from\":\"target:Payee:fields\",\"to\":\"target:Payee:bankAddressLine1:\",\"fromPort\":\"target:Payee:fields\",\"toPort\":\"target:Payee:bankAddressLine1:\",\"visible\":true,\"common\":false,\"__gohashid\":8015},{\"from\":\"target:Payee:fields\",\"to\":\"target:Payee:bankAddressLine2:\",\"fromPort\":\"target:Payee:fields\",\"toPort\":\"target:Payee:bankAddressLine2:\",\"visible\":true,\"common\":false,\"__gohashid\":8016},{\"from\":\"target:Payee:fields\",\"to\":\"target:Payee:bankCity:\",\"fromPort\":\"target:Payee:fields\",\"toPort\":\"target:Payee:bankCity:\",\"visible\":true,\"common\":false,\"__gohashid\":8017},{\"from\":\"target:Payee:fields\",\"to\":\"target:Payee:bankState:\",\"fromPort\":\"target:Payee:fields\",\"toPort\":\"target:Payee:bankState:\",\"visible\":true,\"common\":false,\"__gohashid\":8018},{\"from\":\"target:Payee:fields\",\"to\":\"target:Payee:bankZip:\",\"fromPort\":\"target:Payee:fields\",\"toPort\":\"target:Payee:bankZip:\",\"visible\":true,\"common\":false,\"__gohashid\":8019},{\"from\":\"target:Payee:fields\",\"to\":\"target:Payee:IBAN:\",\"fromPort\":\"target:Payee:fields\",\"toPort\":\"target:Payee:IBAN:\",\"visible\":true,\"common\":false,\"__gohashid\":8020},{\"from\":\"target:Payee:fields\",\"to\":\"target:Payee:wireAccountType:\",\"fromPort\":\"target:Payee:fields\",\"toPort\":\"target:Payee:wireAccountType:\",\"visible\":true,\"common\":false,\"__gohashid\":8021},{\"from\":\"target:Payee:fields\",\"to\":\"target:Payee:internationalRoutingCode:\",\"fromPort\":\"target:Payee:fields\",\"toPort\":\"target:Payee:internationalRoutingCode:\",\"visible\":true,\"common\":false,\"__gohashid\":8022},{\"from\":\"target:Payee:fields\",\"to\":\"target:Payee:transactionId:\",\"fromPort\":\"target:Payee:fields\",\"toPort\":\"target:Payee:transactionId:\",\"visible\":true,\"common\":false,\"__gohashid\":8023},{\"from\":\"target:Payee:fields\",\"to\":\"target:Payee:isManuallyAdded:\",\"fromPort\":\"target:Payee:fields\",\"toPort\":\"target:Payee:isManuallyAdded:\",\"visible\":true,\"common\":false,\"__gohashid\":8024},{\"from\":\"source\",\"to\":\"source:parameters\",\"fromPort\":\"source\",\"toPort\":\"source:parameters\",\"visible\":true,\"common\":false,\"__gohashid\":8025},{\"from\":\"source:parameters\",\"to\":\"source:errmsg:\",\"fromPort\":\"source:parameters\",\"toPort\":\"source:errmsg:\",\"visible\":true,\"common\":false,\"__gohashid\":8026},{\"from\":\"source:parameters\",\"to\":\"source:success:\",\"fromPort\":\"source:parameters\",\"toPort\":\"source:success:\",\"visible\":true,\"common\":false,\"__gohashid\":8027},{\"from\":\"source\",\"to\":\"source:Payee\",\"fromPort\":\"source\",\"toPort\":\"source:Payee\",\"visible\":true,\"common\":false,\"__gohashid\":8028},{\"from\":\"source:Payee\",\"to\":\"source:Payee:parameters\",\"fromPort\":\"source:Payee\",\"toPort\":\"source:Payee:parameters\",\"visible\":true,\"common\":false,\"__gohashid\":8029},{\"from\":\"source:Payee:parameters\",\"to\":\"source:Payee:accountNumber:\",\"fromPort\":\"source:Payee:parameters\",\"toPort\":\"source:Payee:accountNumber:\",\"visible\":true,\"common\":false,\"__gohashid\":8030},{\"from\":\"source:Payee:parameters\",\"to\":\"source:Payee:addressLine1:\",\"fromPort\":\"source:Payee:parameters\",\"toPort\":\"source:Payee:addressLine1:\",\"visible\":true,\"common\":false,\"__gohashid\":8031},{\"from\":\"source:Payee:parameters\",\"to\":\"source:Payee:addressLine2:\",\"fromPort\":\"source:Payee:parameters\",\"toPort\":\"source:Payee:addressLine2:\",\"visible\":true,\"common\":false,\"__gohashid\":8032},{\"from\":\"source:Payee:parameters\",\"to\":\"source:Payee:billDescription:\",\"fromPort\":\"source:Payee:parameters\",\"toPort\":\"source:Payee:billDescription:\",\"visible\":true,\"common\":false,\"__gohashid\":8033},{\"from\":\"source:Payee:parameters\",\"to\":\"source:Payee:billDueDate:\",\"fromPort\":\"source:Payee:parameters\",\"toPort\":\"source:Payee:billDueDate:\",\"visible\":true,\"common\":false,\"__gohashid\":8034},{\"from\":\"source:Payee:parameters\",\"to\":\"source:Payee:billerCategory:\",\"fromPort\":\"source:Payee:parameters\",\"toPort\":\"source:Payee:billerCategory:\",\"visible\":true,\"common\":false,\"__gohashid\":8035},{\"from\":\"source:Payee:parameters\",\"to\":\"source:Payee:billerId:\",\"fromPort\":\"source:Payee:parameters\",\"toPort\":\"source:Payee:billerId:\",\"visible\":true,\"common\":false,\"__gohashid\":8036},{\"from\":\"source:Payee:parameters\",\"to\":\"source:Payee:billGeneratedDate:\",\"fromPort\":\"source:Payee:parameters\",\"toPort\":\"source:Payee:billGeneratedDate:\",\"visible\":true,\"common\":false,\"__gohashid\":8037},{\"from\":\"source:Payee:parameters\",\"to\":\"source:Payee:billid:\",\"fromPort\":\"source:Payee:parameters\",\"toPort\":\"source:Payee:billid:\",\"visible\":true,\"common\":false,\"__gohashid\":8038},{\"from\":\"source:Payee:parameters\",\"to\":\"source:Payee:cityName:\",\"fromPort\":\"source:Payee:parameters\",\"toPort\":\"source:Payee:cityName:\",\"visible\":true,\"common\":false,\"__gohashid\":8039},{\"from\":\"source:Payee:parameters\",\"to\":\"source:Payee:companyName:\",\"fromPort\":\"source:Payee:parameters\",\"toPort\":\"source:Payee:companyName:\",\"visible\":true,\"common\":false,\"__gohashid\":8040},{\"from\":\"source:Payee:parameters\",\"to\":\"source:Payee:dueAmount:\",\"fromPort\":\"source:Payee:parameters\",\"toPort\":\"source:Payee:dueAmount:\",\"visible\":true,\"common\":false,\"__gohashid\":8041},{\"from\":\"source:Payee:parameters\",\"to\":\"source:Payee:eBillStatus:\",\"fromPort\":\"source:Payee:parameters\",\"toPort\":\"source:Payee:eBillStatus:\",\"visible\":true,\"common\":false,\"__gohashid\":8042},{\"from\":\"source:Payee:parameters\",\"to\":\"source:Payee:eBillSupport:\",\"fromPort\":\"source:Payee:parameters\",\"toPort\":\"source:Payee:eBillSupport:\",\"visible\":true,\"common\":false,\"__gohashid\":8043},{\"from\":\"source:Payee:parameters\",\"to\":\"source:Payee:ebillURL:\",\"fromPort\":\"source:Payee:parameters\",\"toPort\":\"source:Payee:ebillURL:\",\"visible\":true,\"common\":false,\"__gohashid\":8044},{\"from\":\"source:Payee:parameters\",\"to\":\"source:Payee:email:\",\"fromPort\":\"source:Payee:parameters\",\"toPort\":\"source:Payee:email:\",\"visible\":true,\"common\":false,\"__gohashid\":8045},{\"from\":\"source:Payee:parameters\",\"to\":\"source:Payee:isManuallyAdded:\",\"fromPort\":\"source:Payee:parameters\",\"toPort\":\"source:Payee:isManuallyAdded:\",\"visible\":true,\"common\":false,\"__gohashid\":8046},{\"from\":\"source:Payee:parameters\",\"to\":\"source:Payee:lastPaidAmount:\",\"fromPort\":\"source:Payee:parameters\",\"toPort\":\"source:Payee:lastPaidAmount:\",\"visible\":true,\"common\":false,\"__gohashid\":8047},{\"from\":\"source:Payee:parameters\",\"to\":\"source:Payee:lastPaidDate:\",\"fromPort\":\"source:Payee:parameters\",\"toPort\":\"source:Payee:lastPaidDate:\",\"visible\":true,\"common\":false,\"__gohashid\":8048},{\"from\":\"source:Payee:parameters\",\"to\":\"source:Payee:nameOnBill:\",\"fromPort\":\"source:Payee:parameters\",\"toPort\":\"source:Payee:nameOnBill:\",\"visible\":true,\"common\":false,\"__gohashid\":8049},{\"from\":\"source:Payee:parameters\",\"to\":\"source:Payee:notes:\",\"fromPort\":\"source:Payee:parameters\",\"toPort\":\"source:Payee:notes:\",\"visible\":true,\"common\":false,\"__gohashid\":8050},{\"from\":\"source:Payee:parameters\",\"to\":\"source:Payee:paidAmount:\",\"fromPort\":\"source:Payee:parameters\",\"toPort\":\"source:Payee:paidAmount:\",\"visible\":true,\"common\":false,\"__gohashid\":8051},{\"from\":\"source:Payee:parameters\",\"to\":\"source:Payee:payeeAccountNumber:\",\"fromPort\":\"source:Payee:parameters\",\"toPort\":\"source:Payee:payeeAccountNumber:\",\"visible\":true,\"common\":false,\"__gohashid\":8052},{\"from\":\"source:Payee:parameters\",\"to\":\"source:Payee:payeeId:\",\"fromPort\":\"source:Payee:parameters\",\"toPort\":\"source:Payee:payeeId:\",\"visible\":true,\"common\":false,\"__gohashid\":8053},{\"from\":\"source:Payee:parameters\",\"to\":\"source:Payee:payeeName:\",\"fromPort\":\"source:Payee:parameters\",\"toPort\":\"source:Payee:payeeName:\",\"visible\":true,\"common\":false,\"__gohashid\":8054},{\"from\":\"source:Payee:parameters\",\"to\":\"source:Payee:payeeNickName:\",\"fromPort\":\"source:Payee:parameters\",\"toPort\":\"source:Payee:payeeNickName:\",\"visible\":true,\"common\":false,\"__gohashid\":8055},{\"from\":\"source:Payee:parameters\",\"to\":\"source:Payee:phone:\",\"fromPort\":\"source:Payee:parameters\",\"toPort\":\"source:Payee:phone:\",\"visible\":true,\"common\":false,\"__gohashid\":8056},{\"from\":\"source:Payee:parameters\",\"to\":\"source:Payee:state:\",\"fromPort\":\"source:Payee:parameters\",\"toPort\":\"source:Payee:state:\",\"visible\":true,\"common\":false,\"__gohashid\":8057},{\"from\":\"source:Payee:parameters\",\"to\":\"source:Payee:zipCode:\",\"fromPort\":\"source:Payee:parameters\",\"toPort\":\"source:Payee:zipCode:\",\"visible\":true,\"common\":false,\"__gohashid\":8058}],\"blockCount\":{\"variableCount\":0},\"variableMap\":{},\"xmlMappingOverride\":true}",
    "applyCommonMapping" : false,
    "applyRequestCommonMapping" : true,
    "applyResponseCommonMapping" : false,
    "backendMeta" : {
      "serviceName" : "dbpRbLocalServicesJava",
      "serviceVersion" : "1.0",
      "operationName" : "getPayeeList"
    },
    "relationshipHierarchyMapping" : {
      "children" : [ ],
      "name" : "Payee",
      "actions" : {
        "get" : true
      },
      "selected" : true
    },
    "requestXmlMappingOverride" : false,
    "responseXmlMappingOverride" : true
  }
}