{
    "@class": "com.kony.gen.viz.model.component.KVizRichText",
    "DNDConfig": null,
    "__parentReadjusting__": false,
    "_height_": {
        "type": "string",
        "value": "100%"
    },
    "_left_": {
        "type": "string",
        "value": "0dp"
    },
    "_margin_": [
        0,
        0,
        0,
        0
    ],
    "_padding_": [
        0,
        0,
        0,
        0
    ],
    "_skin_": "sc3e23d26b9b402383391371c93dff94",
    "_text_": "By checking this box I agree to the following <br> terms of service <a>Electronic  Fund Transfers <br> Agreement and  Disclosure</a> <a>Consent for <br> Electronic Disclosure </a>",
    "_top_": {
        "type": "string",
        "value": "0dp"
    },
    "_width_": {
        "type": "string",
        "value": "100%"
    },
    "_wrapping_": 2,
    "canUpdateUI": true,
    "containerweight": 100,
    "contentalignment": 4,
    "id": "richtxtTems",
    "info": null,
    "iscustomlayout": false,
    "isvisible": true,
    "kuid": "f19cd4df765d43eaa8e85f902cc06cd3",
    "linkskin": "sd78d487af1940088571e2e0df7535c1",
    "name": "kony.ui.RichText",
    "paddinginpixel": false,
    "parent": "flxTemsOfConditionText",
    "pf": "userwidgetmodel",
    "retaincontentalignment": false,
    "retainflexpositionproperties": false,
    "wType": "RichText",
    "widgetalignment": 5,
    "zindex": 1
}