{
  "BusinessControllerConfig": {
    "BusinessControllerClass": "TransferModule/BusinessControllers/BusinessController",
    "CommandHandler": []
  },
  "Forms": {
    "mobile": {
      "frmAddBenRoutNo": {
        "Controller": "TransferModule/frmAddBenRoutNoController",
        "ControllerExtensions": [],
        "FormController": "kony.mvc.MDAFormController",
        "FormName": "TransferModule/frmAddBenRoutNo",
        "friendlyName": "frmAddBenRoutNo"
      },
      "frmBenAccountType": {
        "Controller": "TransferModule/frmBenAccountTypeController",
        "ControllerExtensions": [],
        "FormController": "kony.mvc.MDAFormController",
        "FormName": "TransferModule/frmBenAccountType",
        "friendlyName": "frmBenAccountType"
      },
      "frmBenCountry": {
        "Controller": "TransferModule/frmBenCountryController",
        "ControllerExtensions": [],
        "FormController": "kony.mvc.MDAFormController",
        "FormName": "TransferModule/frmBenCountry",
        "friendlyName": "frmBenCountry"
      },
      "frmBenName": {
        "Controller": "TransferModule/frmBenNameController",
        "ControllerExtensions": [],
        "FormController": "kony.mvc.MDAFormController",
        "FormName": "TransferModule/frmBenName",
        "friendlyName": "frmBenName"
      },
      "frmBenSwiftCode": {
        "Controller": "TransferModule/frmBenSwiftCodeController",
        "ControllerExtensions": [],
        "FormController": "kony.mvc.MDAFormController",
        "FormName": "TransferModule/frmBenSwiftCode",
        "friendlyName": "frmBenSwiftCode"
      },
      "frmBenVerifyDetails": {
        "Controller": "TransferModule/frmBenVerifyDetailsController",
        "ControllerExtensions": [],
        "FormController": "kony.mvc.MDAFormController",
        "FormName": "TransferModule/frmBenVerifyDetails",
        "friendlyName": "frmBenVerifyDetails"
      },
      "frmEnterBenAccNo": {
        "Controller": "TransferModule/frmEnterBenAccNoController",
        "ControllerExtensions": [],
        "FormController": "kony.mvc.MDAFormController",
        "FormName": "TransferModule/frmEnterBenAccNo",
        "friendlyName": "frmEnterBenAccNo"
      },
      "frmManageEditRecipient": {
        "Controller": "PayAPersonModule/frmManageEditRecipientController",
        "ControllerExtensions": [],
        "FormController": "kony.mvc.MDAFormController",
        "FormName": "PayAPersonModule/frmManageEditRecipient",
        "friendlyName": "frmManageEditRecipient"
      },
      "frmManageRecipientList": {
        "Controller": "PayAPersonModule/frmManageRecipientListController",
        "ControllerExtensions": [],
        "FormController": "kony.mvc.MDAFormController",
        "FormName": "PayAPersonModule/frmManageRecipientList",
        "friendlyName": "frmManageRecipientList"
      },
      "frmManageRecipientType": {
        "Controller": "PayAPersonModule/frmManageRecipientTypeController",
        "ControllerExtensions": [],
        "FormController": "kony.mvc.MDAFormController",
        "FormName": "PayAPersonModule/frmManageRecipientType",
        "friendlyName": "frmManageRecipientType"
      },
      "frmManageTransferRecipient": {
        "Controller": "TransferModule/frmManageTransferRecipientController",
        "ControllerExtensions": [],
        "FormController": "kony.mvc.MDAFormController",
        "FormName": "TransferModule/frmManageTransferRecipient",
        "friendlyName": "frmManageTransferRecipient"
      },
      "frmManageTransferRecipientInfo": {
        "Controller": "TransferModule/frmManageTransferRecipientInfoController",
        "ControllerExtensions": [],
        "FormController": "kony.mvc.MDAFormController",
        "FormName": "TransferModule/frmManageTransferRecipientInfo",
        "friendlyName": "frmManageTransferRecipientInfo"
      },
      "frmReEnterBenAccNo": {
        "Controller": "TransferModule/frmReEnterBenAccNoController",
        "ControllerExtensions": [],
        "FormController": "kony.mvc.MDAFormController",
        "FormName": "TransferModule/frmReEnterBenAccNo",
        "friendlyName": "frmReEnterBenAccNo"
      },
      "frmTransactionDetails": {
        "Controller": "CheckDepositModule/frmTransactionDetailsController",
        "ControllerExtensions": [],
        "FormController": "kony.mvc.MDAFormController",
        "FormName": "CheckDepositModule/frmTransactionDetails",
        "friendlyName": "frmTransactionDetails"
      },
      "frmTransactionMode": {
        "Controller": "TransferModule/frmTransactionModeController",
        "ControllerExtensions": [],
        "FormController": "kony.mvc.MDAFormController",
        "FormName": "TransferModule/frmTransactionMode",
        "friendlyName": "frmTransactionMode"
      },
      "frmTransferAmount": {
        "Controller": "TransferModule/frmTransferAmountController",
        "ControllerExtensions": [],
        "FormController": "kony.mvc.MDAFormController",
        "FormName": "TransferModule/frmTransferAmount",
        "friendlyName": "frmTransferAmount"
      },
      "frmTransferConfirmation": {
        "Controller": "TransferModule/frmTransferConfirmationController",
        "ControllerExtensions": [],
        "FormController": "kony.mvc.MDAFormController",
        "FormName": "TransferModule/frmTransferConfirmation",
        "friendlyName": "frmTransferConfirmation"
      },
      "frmTransferFrequency": {
        "Controller": "TransferModule/frmTransferFrequencyController",
        "ControllerExtensions": [],
        "FormController": "kony.mvc.MDAFormController",
        "FormName": "TransferModule/frmTransferFrequency",
        "friendlyName": "frmTransferFrequency"
      },
      "frmTransfers": {
        "Controller": "TransactionModule/frmTransfersController",
        "ControllerExtensions": [],
        "FormController": "kony.mvc.MDAFormController",
        "FormName": "TransactionModule/frmTransfers",
        "friendlyName": "frmTransfers"
      },
      "frmTransfersDuration": {
        "Controller": "TransferModule/frmTransfersDurationController",
        "ControllerExtensions": [],
        "FormController": "kony.mvc.MDAFormController",
        "FormName": "TransferModule/frmTransfersDuration",
        "friendlyName": "frmTransfersDuration"
      },
      "frmTransfersEndDate": {
        "Controller": "TransferModule/frmTransfersEndDateController",
        "ControllerExtensions": [],
        "FormController": "kony.mvc.MDAFormController",
        "FormName": "TransferModule/frmTransfersEndDate",
        "friendlyName": "frmTransfersEndDate"
      },
      "frmTransfersFromAccount": {
        "Controller": "TransferModule/frmTransfersFromAccountController",
        "ControllerExtensions": [],
        "FormController": "kony.mvc.MDAFormController",
        "FormName": "TransferModule/frmTransfersFromAccount",
        "friendlyName": "frmTransfersFromAccount"
      },
      "frmTransfersRecurrence": {
        "Controller": "TransferModule/frmTransfersRecurrenceController",
        "ControllerExtensions": [],
        "FormController": "kony.mvc.MDAFormController",
        "FormName": "TransferModule/frmTransfersRecurrence",
        "friendlyName": "frmTransfersRecurrence"
      },
      "frmTransfersStartDate": {
        "Controller": "TransferModule/frmTransfersStartDateController",
        "ControllerExtensions": [],
        "FormController": "kony.mvc.MDAFormController",
        "FormName": "TransferModule/frmTransfersStartDate",
        "friendlyName": "frmTransfersStartDate"
      },
      "frmTransfersToAccount": {
        "Controller": "TransferModule/frmTransfersToAccountController",
        "ControllerExtensions": [],
        "FormController": "kony.mvc.MDAFormController",
        "FormName": "TransferModule/frmTransfersToAccount",
        "friendlyName": "frmTransfersToAccount"
      },
      "frmWireTransferToAccount": {
        "ControllerExtensions": [],
        "FormController": "kony.mvc.MDAFormController",
        "Controller": "TransferModule/frmWireTransferToAccountController",
        "FormName": "TransferModule/frmWireTransferToAccount"
      },
      "frmWireTransferAmount": {
        "ControllerExtensions": [],
        "FormController": "kony.mvc.MDAFormController",
        "Controller": "TransferModule/frmWireTransferAmountController",
        "FormName": "TransferModule/frmWireTransferAmount"
      },
      "frmWireTransferFromAccount": {
        "ControllerExtensions": [],
        "FormController": "kony.mvc.MDAFormController",
        "Controller": "TransferModule/frmWireTransferFromAccountController",
        "FormName": "TransferModule/frmWireTransferFromAccount"
      },
      "frmWireTransferConfirmation": {
        "ControllerExtensions": [],
        "FormController": "kony.mvc.MDAFormController",
        "Controller": "TransferModule/frmWireTransferConfirmationController",
        "FormName": "TransferModule/frmWireTransferConfirmation"
      },
      "frmWireTransferAccountCountry": {
        "ControllerExtensions": [],
        "FormController": "kony.mvc.MDAFormController",
        "Controller": "TransferModule/frmWireTransferAccountCountryController",
        "FormName": "TransferModule/frmWireTransferAccountCountry"
      },
      "frmWireTransferAccountType": {
        "ControllerExtensions": [],
        "FormController": "kony.mvc.MDAFormController",
        "Controller": "TransferModule/frmWireTransferAccountTypeController",
        "FormName": "TransferModule/frmWireTransferAccountType"
      },
      "frmWireTransferFirstAdLastName": {
        "ControllerExtensions": [],
        "FormController": "kony.mvc.MDAFormController",
        "Controller": "TransferModule/frmWireTransferFirstAdLastNameController",
        "FormName": "TransferModule/frmWireTransferFirstAdLastName"
      },
      "frmWireTransferEnterAddress": {
        "ControllerExtensions": [],
        "FormController": "kony.mvc.MDAFormController",
        "Controller": "TransferModule/frmWireTransferEnterAddressController",
        "FormName": "TransferModule/frmWireTransferEnterAddress"
      },
      "frmWireTransferSwiftCode": {
        "ControllerExtensions": [],
        "FormController": "kony.mvc.MDAFormController",
        "Controller": "TransferModule/frmWireTransferSwiftCodeController",
        "FormName": "TransferModule/frmWireTransferSwiftCode"
      },
      "frmWireTransferInternationalRoutingNo": {
        "ControllerExtensions": [],
        "FormController": "kony.mvc.MDAFormController",
        "Controller": "TransferModule/frmWireTransferInternationalRoutingNoController",
        "FormName": "TransferModule/frmWireTransferInternationalRoutingNo"
      },
      "frmWireTransferAccountNo": {
        "ControllerExtensions": [],
        "FormController": "kony.mvc.MDAFormController",
        "Controller": "TransferModule/frmWireTransferAccountNoController",
        "FormName": "TransferModule/frmWireTransferAccountNo"
      },
      "frmWireTransferReEnterAccountNo": {
        "ControllerExtensions": [],
        "FormController": "kony.mvc.MDAFormController",
        "Controller": "TransferModule/frmWireTransferReEnterAccountNoController",
        "FormName": "TransferModule/frmWireTransferReEnterAccountNo"
      },
      "frmWireTransferBankAddress": {
        "ControllerExtensions": [],
        "FormController": "kony.mvc.MDAFormController",
        "Controller": "TransferModule/frmWireTransferBankAddressController",
        "FormName": "TransferModule/frmWireTransferBankAddress"
      },
      "frmWireTransferVerifyDetails": {
        "ControllerExtensions": [],
        "FormController": "kony.mvc.MDAFormController",
        "Controller": "TransferModule/frmWireTransferVerifyDetailsController",
        "FormName": "TransferModule/frmWireTransferVerifyDetails"
      },
      "frmWireTransferRoutingNo": {
        "ControllerExtensions": [],
        "FormController": "kony.mvc.MDAFormController",
        "Controller": "TransferModule/frmWireTransferRoutingNoController",
        "FormName": "TransferModule/frmWireTransferRoutingNo"
      },
      "frmWireTransferRecipientList": {
        "ControllerExtensions": [],
        "FormController": "kony.mvc.MDAFormController",
        "Controller": "TransferModule/frmWireTransferRecipientListController",
        "FormName": "TransferModule/frmWireTransferRecipientList"
      },
      "frmWireTransferRecipientInfo": {
        "ControllerExtensions": [],
        "FormController": "kony.mvc.MDAFormController",
        "Controller": "TransferModule/frmWireTransferRecipientInfoController",
        "FormName": "TransferModule/frmWireTransferRecipientInfo"
      },
      "frmWireTransferNickName": {
        "ControllerExtensions": [],
        "FormController": "kony.mvc.MDAFormController",
        "Controller": "TransferModule/frmWireTransferNickNameController",
        "FormName": "TransferModule/frmWireTransferNickName"
      },
      "frmWireTransferActivate": {
        "ControllerExtensions": [],
        "FormController": "kony.mvc.MDAFormController",
        "Controller": "TransferModule/frmWireTransferActivateController",
        "FormName": "TransferModule/frmWireTransferActivate"
      },
      "frmWireTransferNoRecipient": {
        "ControllerExtensions": [],
        "FormController": "kony.mvc.MDAFormController",
        "Controller": "TransferModule/frmWireTransferNoRecipientController",
        "FormName": "TransferModule/frmWireTransferNoRecipient"
      },
      "frmWireTransferCurrency": {
        "ControllerExtensions": [],
        "FormController": "kony.mvc.MDAFormController",
        "Controller": "TransferModule/frmWireTransferCurrencyController",
        "FormName": "TransferModule/frmWireTransferCurrency"
      }
    },
    "tablet": {
      "frmAddBenRoutNo": {
        "Controller": "TransferModule/frmAddBenRoutNoController",
        "ControllerExtensions": [],
        "FormController": "kony.mvc.MDAFormController",
        "FormName": "TransferModule/frmAddBenRoutNo",
        "friendlyName": "frmAddBenRoutNo"
      },
      "frmBenAccountType": {
        "Controller": "TransferModule/frmBenAccountTypeController",
        "ControllerExtensions": [],
        "FormController": "kony.mvc.MDAFormController",
        "FormName": "TransferModule/frmBenAccountType",
        "friendlyName": "frmBenAccountType"
      },
      "frmBenCountry": {
        "Controller": "TransferModule/frmBenCountryController",
        "ControllerExtensions": [],
        "FormController": "kony.mvc.MDAFormController",
        "FormName": "TransferModule/frmBenCountry",
        "friendlyName": "frmBenCountry"
      },
      "frmBenName": {
        "Controller": "TransferModule/frmBenNameController",
        "ControllerExtensions": [],
        "FormController": "kony.mvc.MDAFormController",
        "FormName": "TransferModule/frmBenName",
        "friendlyName": "frmBenName"
      },
      "frmBenSwiftCode": {
        "Controller": "TransferModule/frmBenSwiftCodeController",
        "ControllerExtensions": [],
        "FormController": "kony.mvc.MDAFormController",
        "FormName": "TransferModule/frmBenSwiftCode",
        "friendlyName": "frmBenSwiftCode"
      },
      "frmBenVerifyDetails": {
        "Controller": "TransferModule/frmBenVerifyDetailsController",
        "ControllerExtensions": [],
        "FormController": "kony.mvc.MDAFormController",
        "FormName": "TransferModule/frmBenVerifyDetails",
        "friendlyName": "frmBenVerifyDetails"
      },
      "frmEnterBenAccNo": {
        "Controller": "TransferModule/frmEnterBenAccNoController",
        "ControllerExtensions": [],
        "FormController": "kony.mvc.MDAFormController",
        "FormName": "TransferModule/frmEnterBenAccNo",
        "friendlyName": "frmEnterBenAccNo"
      },
      "frmManageTransferRecipientInfo": {
        "Controller": "TransferModule/frmManageTransferRecipientInfoController",
        "ControllerExtensions": [],
        "FormController": "kony.mvc.MDAFormController",
        "FormName": "TransferModule/frmManageTransferRecipientInfo",
        "friendlyName": "frmManageTransferRecipientInfo"
      },
      "frmReEnterBenAccNo": {
        "Controller": "TransferModule/frmReEnterBenAccNoController",
        "ControllerExtensions": [],
        "FormController": "kony.mvc.MDAFormController",
        "FormName": "TransferModule/frmReEnterBenAccNo",
        "friendlyName": "frmReEnterBenAccNo"
      },
      "frmTransactionMode": {
        "Controller": "TransferModule/frmTransactionModeController",
        "ControllerExtensions": [],
        "FormController": "kony.mvc.MDAFormController",
        "FormName": "TransferModule/frmTransactionMode",
        "friendlyName": "frmTransactionMode"
      },
      "frmTransferAmount": {
        "Controller": "TransferModule/frmTransferAmountController",
        "ControllerExtensions": [],
        "FormController": "kony.mvc.MDAFormController",
        "FormName": "TransferModule/frmTransferAmount",
        "friendlyName": "frmTransferAmount"
      },
      "frmTransferConfirmation": {
        "Controller": "TransferModule/frmTransferConfirmationController",
        "ControllerExtensions": [],
        "FormController": "kony.mvc.MDAFormController",
        "FormName": "TransferModule/frmTransferConfirmation",
        "friendlyName": "frmTransferConfirmation"
      },
      "frmTransferRecipient": {
        "Controller": "TransferModule/frmTransferRecipientController",
        "ControllerExtensions": [],
        "FormController": "kony.mvc.MDAFormController",
        "FormName": "TransferModule/frmTransferRecipient",
        "friendlyName": "frmTransferRecipient"
      },
      "frmTransfersDuration": {
        "Controller": "TransferModule/frmTransfersDurationController",
        "ControllerExtensions": [],
        "FormController": "kony.mvc.MDAFormController",
        "FormName": "TransferModule/frmTransfersDuration",
        "friendlyName": "frmTransfersDuration"
      },
      "frmTransfersEndDate": {
        "Controller": "TransferModule/frmTransfersEndDateController",
        "ControllerExtensions": [],
        "FormController": "kony.mvc.MDAFormController",
        "FormName": "TransferModule/frmTransfersEndDate",
        "friendlyName": "frmTransfersEndDate"
      },
      "frmTransfersRecurrence": {
        "Controller": "TransferModule/frmTransfersRecurrenceController",
        "ControllerExtensions": [],
        "FormController": "kony.mvc.MDAFormController",
        "FormName": "TransferModule/frmTransfersRecurrence",
        "friendlyName": "frmTransfersRecurrence"
      },
      "frmTransfersStartDate": {
        "Controller": "TransferModule/frmTransfersStartDateController",
        "ControllerExtensions": [],
        "FormController": "kony.mvc.MDAFormController",
        "FormName": "TransferModule/frmTransfersStartDate",
        "friendlyName": "frmTransfersStartDate"
      },
      "frmTransfersToAccount": {
        "Controller": "TransferModule/frmTransfersToAccountController",
        "ControllerExtensions": [],
        "FormController": "kony.mvc.MDAFormController",
        "FormName": "TransferModule/frmTransfersToAccount",
        "friendlyName": "frmTransfersToAccount"
      },
      "frmTransferFrequency": {
        "Controller": "TransferModule/frmTransferFrequencyController",
        "ControllerExtensions": [],
        "FormController": "kony.mvc.MDAFormController",
        "FormName": "TransferModule/frmTransferFrequency",
        "friendlyName": "frmTransferFrequency"
      },
      "frmTransfersFromAccount": {
        "ControllerExtensions": [],
        "FormController": "kony.mvc.MDAFormController",
        "Controller": "TransferModule/frmTransfersFromAccountController",
        "FormName": "TransferModule/frmTransfersFromAccount",
        "friendlyName": "frmTransfersFromAccount"
      },
      "frmManageRecipientList": {
        "Controller": "PayAPersonModule/frmManageRecipientListController",
        "ControllerExtensions": [],
        "FormController": "kony.mvc.MDAFormController",
        "FormName": "PayAPersonModule/frmManageRecipientList",
        "friendlyName": "frmManageRecipientList"
      },
      "frmManageTransferRecipient": {
        "ControllerExtensions": [],
        "FormController": "kony.mvc.MDAFormController",
        "Controller": "TransferModule/frmManageTransferRecipientController",
        "FormName": "TransferModule/frmManageTransferRecipient",
        "friendlyName": "frmManageTransferRecipient"
      }
    }
  },
  "ModuleName": "TransferModule",
  "PresentationControllerConfig": {
    "Default": {
      "PresentationControllerClass": "TransferModule/PresentationControllers/PresentationController",
      "PresentationExtensions": [
        "TransferModule/PresentationControllers/Transfer_PC_Extsn"
      ]
    },
    "Tablet": {
      "PresentationControllerClass": "TransferModule/PresentationControllers/PresentationController_Tablet",
      "PresentationExtensions": []
    }
  },
  "EUROPE": {
    "BusinessControllerConfig": {
      "BusinessControllerClass": "TransferModule/BusinessControllers/BusinessController",
      "CommandHandler": []
    },
    "Forms": {
      "mobile": {
        "frmBenCountryEurope": {
          "ControllerExtensions": [],
          "FormController": "kony.mvc.MDAFormController",
          "Controller": "TransferModuleEurope/frmBenCountryEuropeController",
          "FormName": "TransferModuleEurope/frmBenCountryEurope",
          "friendlyName": "frmBenCountryEurope"
        },
        "frmBenNameEurope": {
          "ControllerExtensions": [],
          "FormController": "kony.mvc.MDAFormController",
          "Controller": "TransferModuleEurope/frmBenNameEuropeController",
          "FormName": "TransferModuleEurope/frmBenNameEurope",
          "friendlyName": "frmBenNameEurope"
        },
        "frmBenSwiftCodeEurope": {
          "ControllerExtensions": [],
          "FormController": "kony.mvc.MDAFormController",
          "Controller": "TransferModuleEurope/frmBenSwiftCodeEuropeController",
          "FormName": "TransferModuleEurope/frmBenSwiftCodeEurope",
          "friendlyName": "frmBenSwiftCodeEurope"
        },
        "frmBenVerifyDetailsEurope": {
          "ControllerExtensions": [],
          "FormController": "kony.mvc.MDAFormController",
          "Controller": "TransferModuleEurope/frmBenVerifyDetailsEuropeController",
          "FormName": "TransferModuleEurope/frmBenVerifyDetailsEurope",
          "friendlyName": "frmBenVerifyDetailsEurope"
        },
        "frmEnterBenAccNoEurope": {
          "ControllerExtensions": [],
          "FormController": "kony.mvc.MDAFormController",
          "Controller": "TransferModuleEurope/frmEnterBenAccNoEuropeController",
          "FormName": "TransferModuleEurope/frmEnterBenAccNoEurope",
          "friendlyName": "frmEnterBenAccNoEurope"
        },
        "frmReEnterBenAccNoEurope": {
          "ControllerExtensions": [],
          "FormController": "kony.mvc.MDAFormController",
          "Controller": "TransferModuleEurope/frmReEnterBenAccNoEuropeController",
          "FormName": "TransferModuleEurope/frmReEnterBenAccNoEurope",
          "friendlyName": "frmReEnterBenAccNoEurope"
        },
        "frmVerifyAccDetailsEurope": {
          "ControllerExtensions": [],
          "FormController": "kony.mvc.MDAFormController",
          "Controller": "TransferModuleEurope/frmVerifyAccDetailsEuropeController",
          "FormName": "TransferModuleEurope/frmVerifyAccDetailsEurope",
          "friendlyName": "frmVerifyAccDetailsEurope"
        },
        "frmTransfersManageRecipientList": {
          "ControllerExtensions": [],
          "FormController": "kony.mvc.MDAFormController",
          "Controller": "TransferModuleEurope/frmTransfersManageRecipientListController",
          "FormName": "TransferModuleEurope/frmTransfersManageRecipientList",
          "friendlyName": "frmTransfersManageRecipientList"
        },
        "frmManageTransferRecipientInfoEurope": {
          "ControllerExtensions": [],
          "FormController": "kony.mvc.MDAFormController",
          "Controller": "TransferModuleEurope/frmManageTransferRecipientInfoEuropeController",
          "FormName": "TransferModuleEurope/frmManageTransferRecipientInfoEurope",
          "friendlyName": "frmManageTransferRecipientInfoEurope"
        },
        "frmTransactionModeEurope": {
          "Controller": "TransferModuleEurope/frmTransactionModeEuropeController",
          "ControllerExtensions": [],
          "FormController": "kony.mvc.MDAFormController",
          "FormName": "TransferModuleEurope/frmTransactionModeEurope",
          "friendlyName": "frmTransactionModeEurope"
        },
        "frmManageRecipientTypeEurope": {
          "ControllerExtensions": [],
          "FormController": "kony.mvc.MDAFormController",
          "Controller": "TransferModuleEurope/frmManageRecipientTypeEuropeController",
          "FormName": "TransferModuleEurope/frmManageRecipientTypeEurope",
          "friendlyName": "frmManageRecipientTypeEurope"
        },
        "frmtransfersIBANEurope": {
          "ControllerExtensions": [],
          "FormController": "kony.mvc.MDAFormController",
          "Controller": "TransferModuleEurope/frmtransfersIBANEuropeController",
          "FormName": "TransferModuleEurope/frmtransfersIBANEurope",
          "friendlyName": "frmtransfersIBANEurope"
        },
        "frmTransfersToAccountDBXEurope": {
          "ControllerExtensions": [],
          "FormController": "kony.mvc.MDAFormController",
          "Controller": "TransferModuleEurope/frmTransfersToAccountDBXEuropeController",
          "FormName": "TransferModuleEurope/frmTransfersToAccountDBXEurope",
          "friendlyName": "frmTransfersToAccountDBXEurope"
        },
        "frmTransfersFromAccountEurope": {
          "ControllerExtensions": [],
          "FormController": "kony.mvc.MDAFormController",
          "Controller": "TransferModuleEurope/frmTransfersFromAccountEuropeController",
          "FormName": "TransferModuleEurope/frmTransfersFromAccountEurope",
          "friendlyName": "frmTransfersFromAccountEurope"
        },
        "frmTransferAmountEurope": {
          "ControllerExtensions": [],
          "FormController": "kony.mvc.MDAFormController",
          "Controller": "TransferModuleEurope/frmTransferAmountEuropeController",
          "FormName": "TransferModuleEurope/frmTransferAmountEurope",
          "friendlyName": "frmTransferAmountEurope"
        },
        "frmTransferFrequencyEurope": {
          "Controller": "TransferModuleEurope/frmTransferFrequencyEuropeController",
          "ControllerExtensions": [],
          "FormController": "kony.mvc.MDAFormController",
          "FormName": "TransferModuleEurope/frmTransferFrequencyEurope",
          "friendlyName": "frmTransferFrequencyEurope"
        },
        "frmTransfersToAccountEurope": {
          "Controller": "TransferModuleEurope/frmTransfersToAccountEuropeController",
          "ControllerExtensions": [],
          "FormController": "kony.mvc.MDAFormController",
          "FormName": "TransferModuleEurope/frmTransfersToAccountEurope",
          "friendlyName": "frmTransfersToAccountEurope"
        },
        "frmManageTransferRecipientEurope": {
          "ControllerExtensions": [],
          "FormController": "kony.mvc.MDAFormController",
          "Controller": "TransferModuleEurope/frmManageTransferRecipientEuropeController",
          "FormName": "TransferModuleEurope/frmManageTransferRecipientEurope",
          "friendlyName": "frmManageTransferRecipientEurope"
        },
        "frmManageEditRecipientEurope": {
          "ControllerExtensions": [],
          "FormController": "kony.mvc.MDAFormController",
          "Controller": "TransferModuleEurope/frmManageEditRecipientEuropeController",
          "FormName": "TransferModuleEurope/frmManageEditRecipientEurope",
          "friendlyName": "frmManageEditRecipientEurope"
        },
        "frmTransfersRecipientNameEurope": {
          "Controller": "TransferModuleEurope/frmTransfersRecipientNameEuropeController",
          "ControllerExtensions": [],
          "FormController": "kony.mvc.MDAFormController",
          "FormName": "TransferModuleEurope/frmTransfersRecipientNameEurope",
          "friendlyName": "frmTransfersRecipientNameEurope"
        },
        "frmTransfersSwiftCodeEurope": {
          "Controller": "TransferModuleEurope/frmTransfersSwiftCodeEuropeController",
          "ControllerExtensions": [],
          "FormController": "kony.mvc.MDAFormController",
          "FormName": "TransferModuleEurope/frmTransfersSwiftCodeEurope",
          "friendlyName": "frmTransfersSwiftCodeEurope"
        },
        "frmtransfersAccountNumberEurope": {
          "Controller": "TransferModuleEurope/frmtransfersAccountNumberEuropeController",
          "ControllerExtensions": [],
          "FormController": "kony.mvc.MDAFormController",
          "FormName": "TransferModuleEurope/frmtransfersAccountNumberEurope",
          "friendlyName": "frmtransfersAccountNumberEurope"
        },
        "frmTransfersDurationEurope": {
          "Controller": "TransferModuleEurope/frmTransfersDurationEuropeController",
          "ControllerExtensions": [],
          "FormController": "kony.mvc.MDAFormController",
          "FormName": "TransferModuleEurope/frmTransfersDurationEurope",
          "friendlyName": "frmTransfersDurationEurope"
        },
        "frmTransfersRecurrenceEurope": {
          "Controller": "TransferModuleEurope/frmTransfersRecurrenceEuropeController",
          "ControllerExtensions": [],
          "FormController": "kony.mvc.MDAFormController",
          "FormName": "TransferModuleEurope/frmTransfersRecurrenceEurope",
          "friendlyName": "frmTransfersRecurrenceEurope"
        },
        "frmTransfersStartDateEurope": {
          "Controller": "TransferModuleEurope/frmTransfersStartDateEuropeController",
          "ControllerExtensions": [],
          "FormController": "kony.mvc.MDAFormController",
          "FormName": "TransferModuleEurope/frmTransfersStartDateEurope",
          "friendlyName": "frmTransfersStartDateEurope"
        },
        "frmTransfersEndDateEurope": {
          "Controller": "TransferModuleEurope/frmTransfersEndDateEuropeController",
          "ControllerExtensions": [],
          "FormController": "kony.mvc.MDAFormController",
          "FormName": "TransferModuleEurope/frmTransfersEndDateEurope",
          "friendlyName": "frmTransfersEndDateEurope"
        },
        "frmTransferConfirmationEurope": {
          "Controller": "TransferModuleEurope/frmTransferConfirmationEuropeController",
          "ControllerExtensions": [],
          "FormController": "kony.mvc.MDAFormController",
          "FormName": "TransferModuleEurope/frmTransferConfirmationEurope",
          "friendlyName": "frmTransferConfirmationEurope"
        }
      }
    },
    "PresentationControllerConfig": {
      "Default": {
        "PresentationControllerClass": "TransferModule/EUROPE/PresentationControllers/PresentationController",
        "PresentationExtensions": []
      }
    }
  }
}