{
  "background_color": "ffffffc9",
  "bg_type": "one",
  "border_color": "000000ff",
  "border_style": "plain",
  "border_type": 0,
  "border_width": 0,
  "isDefaultSkin": false,
  "kuid": "sc7b19439f004f4889308da27af3dcc7",
  "wType": "FlexContainer"
}