{
  "background_color": "1a98ffff",
  "bg_type": "one",
  "font_color": "333333",
  "font_name": "Arial, Helvetica, sans-serif",
  "font_size": "100",
  "font_weight": "normal",
  "isDefaultSkin": false,
  "kuid": "sa757e6f0f1f49a4b667dfdb3c1fa6b9",
  "wType": "TitleBar"
}