{
  "background_color": "f9f9f9ff",
  "bg_type": "one",
  "border_color": "f1f1f1ff",
  "border_radius": 3,
  "border_style": "custom",
  "border_type": 0,
  "border_width": 1,
  "isDefaultSkin": false,
  "kuid": "sf0d64cd34fc4ea6bf21c60ee7dc3c68",
  "wType": "FlexContainer"
}