{
  "android": {
    "background_left_color": "48d874ff",
    "background_right_color": "0000004c",
    "bg_type": "one",
    "font_name": "default",
    "font_size": 0,
    "isForked": true,
    "left_font_color": "33333300",
    "right_font_color": "33333300",
    "thumb_color": "e1e1e1ff"
  },
  "androidwearos": {
    "background_left_color": "48d874ff",
    "background_right_color": "0000004c",
    "bg_type": "one",
    "font_name": "default",
    "font_size": 0,
    "isForked": true,
    "left_font_color": "33333300",
    "right_font_color": "33333300",
    "thumb_color": "e1e1e1ff"
  },
  "background_left_color": "0095e4ff",
  "background_right_color": "ffffff00",
  "bg_type": "one",
  "border_color": "000000ff",
  "border_style": "plain",
  "border_type": 0,
  "border_width": 0,
  "desktopweb": {
    "background_left_color": "48d874ff",
    "background_right_color": "0000004c",
    "bg_type": "one",
    "font_name": "Helvetica",
    "font_size": 0,
    "isForked": true,
    "left_font_color": "33333300",
    "right_font_color": "33333300"
  },
  "fontSizeInPx": true,
  "font_size": 0,
  "font_style": "normal",
  "font_weight": "normal",
  "ipad": {
    "background_left_color": "48d874ff",
    "background_right_color": "0000004c",
    "bg_type": "one",
    "font_name": "System",
    "font_size": 0,
    "isForked": true,
    "left_font_color": "33333300",
    "right_font_color": "33333300",
    "thumb_color": "e1e1e1ff",
    "tint_color": "e1e1e1ff"
  },
  "iphone": {
    "background_left_color": "48d874ff",
    "background_right_color": "0000004c",
    "bg_type": "one",
    "font_name": "System",
    "font_size": 0,
    "isForked": true,
    "left_font_color": "33333300",
    "right_font_color": "33333300",
    "thumb_color": "e1e1e1ff",
    "tint_color": "e1e1e1ff"
  },
  "isDefaultSkin": false,
  "kiosk": {
    "font_name": "None",
    "font_size": 0,
    "isForked": false
  },
  "kuid": "s6b0770f0bac4b428d64e2f81265ef20",
  "left_font_color": "33333300",
  "right_font_color": "33333300",
  "spaan": {
    "background_left_color": "48d874ff",
    "background_right_color": "0000004c",
    "bg_type": "one",
    "font_name": "Helvetica",
    "font_size": 0,
    "isForked": true,
    "left_font_color": "33333300",
    "right_font_color": "33333300"
  },
  "spaandroidtablet": {
    "background_left_color": "48d874ff",
    "background_right_color": "0000004c",
    "bg_type": "one",
    "font_name": "Helvetica",
    "font_size": 0,
    "isForked": true,
    "left_font_color": "33333300",
    "right_font_color": "33333300"
  },
  "spabb": {
    "background_left_color": "48d874ff",
    "background_right_color": "0000004c",
    "bg_type": "one",
    "font_name": "Helvetica",
    "font_size": 0,
    "isForked": true,
    "left_font_color": "33333300",
    "right_font_color": "33333300"
  },
  "spaip": {
    "background_left_color": "48d874ff",
    "background_right_color": "0000004c",
    "bg_type": "one",
    "font_name": "Helvetica",
    "font_size": 0,
    "isForked": true,
    "left_font_color": "33333300",
    "right_font_color": "33333300"
  },
  "spaipad": {
    "background_left_color": "48d874ff",
    "background_right_color": "0000004c",
    "bg_type": "one",
    "font_name": "Helvetica",
    "font_size": 0,
    "isForked": true,
    "left_font_color": "33333300",
    "right_font_color": "33333300"
  },
  "spawindowstablet": {
    "background_left_color": "48d874ff",
    "background_right_color": "0000004c",
    "bg_type": "one",
    "font_name": "Helvetica",
    "font_size": 0,
    "isForked": true,
    "left_font_color": "33333300",
    "right_font_color": "33333300"
  },
  "spawinphone8": {
    "background_left_color": "48d874ff",
    "background_right_color": "0000004c",
    "bg_type": "one",
    "font_name": "Helvetica",
    "font_size": 0,
    "isForked": true,
    "left_font_color": "33333300",
    "right_font_color": "33333300"
  },
  "tabrcandroid": {
    "background_left_color": "48d874ff",
    "background_right_color": "0000004c",
    "bg_type": "one",
    "font_name": "default",
    "font_size": 0,
    "isForked": true,
    "left_font_color": "33333300",
    "right_font_color": "33333300",
    "thumb_color": "e1e1e1ff"
  },
  "wType": "Switch",
  "watchos": {
    "background_left_color": "48d874ff",
    "background_right_color": "0000004c",
    "bg_type": "one",
    "font_name": "System",
    "font_size": 0,
    "isForked": true
  },
  "windows8": {
    "background_left_color": "48d874ff",
    "background_right_color": "0000004c",
    "bg_type": "one",
    "font_name": "None",
    "font_size": 0,
    "isForked": true,
    "left_font_color": "33333300",
    "right_font_color": "33333300"
  },
  "winphone8": {
    "background_left_color": "48d874ff",
    "background_right_color": "0000004c",
    "bg_type": "one",
    "font_name": "None",
    "font_size": 0,
    "isForked": true,
    "left_font_color": "33333300",
    "right_font_color": "33333300"
  }
}