{
    "@class": "com.kony.gen.viz.model.component.KVizTextBox2",
    "DNDConfig": null,
    "__parentReadjusting__": false,
    "_height_": {
        "type": "string",
        "value": "40dp"
    },
    "_margin_": [
        0,
        0,
        0,
        0
    ],
    "_padding_": [
        3,
        0,
        0,
        0
    ],
    "_placeholder_": "Enter new password",
    "_skin_": "sdc14f85f7984e13bb5ed2544fe80fe6",
    "_text_": "",
    "_width_": {
        "type": "string",
        "value": "87.50%"
    },
    "accessibilityconfig": {
        "a11yLabel": "Enter new password"
    },
    "autocapitalize": "none",
    "autocomplete": false,
    "autocorrect": false,
    "autofilter": false,
    "canUpdateUI": true,
    "centerx": {
        "type": "string",
        "value": "50%"
    },
    "centery": {
        "type": "string",
        "value": "50%"
    },
    "containerheight": "",
    "containerheightmode": 1,
    "containerweight": 100,
    "contentalignment": 4,
    "focusskin": "sdc14f85f7984e13bb5ed2544fe80fe6",
    "id": "txtNewPassword",
    "ide_onDone": "AS_TextField_h92f876e33dc472c84606d4ccab08810",
    "ide_onTextChange": "AS_TextField_be5b39c964454eaca8783939d9d794a9",
    "info": null,
    "iphone": {
        "psp": {
            "keyboardActionLabel": 4,
            "pasteboardType": 4,
            "showClearButton": false
        }
    },
    "isvisible": true,
    "keyboardactionlabel": 4,
    "keyboardtype": "A",
    "kuid": "g86046936374441bb1bcfac552a240c8",
    "mode": "A",
    "name": "kony.ui.TextBox2",
    "parent": "flxPassword",
    "pasteboardtype": 4,
    "pf": "frmForgotUsername",
    "placeholderi18n": "kony.mb.common.EnterNewPassword",
    "securetextentry": true,
    "showclearbutton": false,
    "textinputmode": "A",
    "tooltip": "",
    "viewtype": "default",
    "wType": "TextField",
    "zindex": 1
}