{
  "@class": "com.kony.gen.viz.model.component.KVizLabel",
  "DNDConfig": null,
  "__parentReadjusting__": false,
  "_height_": {
    "type": "string",
    "value": "100%"
  },
  "_left_": {
    "type": "string",
    "value": "2%"
  },
  "_margin_": [
    1,
    1,
    1,
    1
  ],
  "_padding_": [
    0,
    0,
    0,
    0
  ],
  "_skin_": "sbc20de9fb7f4655be33750a3d6188c7",
  "_text_": "/",
  "_top_": {
    "type": "string",
    "value": "0dp"
  },
  "_width_": {
    "type": "string",
    "value": "5%"
  },
  "_wrapping_": 2,
  "accessibilityconfig": {
    "a11yLabel": "/"
  },
  "android": {
    "textStyle": {
      "letterSpacing": 0,
      "strikeThrough": false
    }
  },
  "canUpdateUI": true,
  "containerweight": 100,
  "contentalignment": 5,
  "id": "lblSlashMonth",
  "info": null,
  "ipad": {
    "psp": {
      "wrapping": 2
    }
  },
  "iphone": {
    "psp": {
      "wrapping": 2
    }
  },
  "isvisible": true,
  "kuid": "gc9d445e833945d8a1739fef131f8017",
  "name": "kony.ui.Label",
  "parent": "flxDOB",
  "pf": "frmEnrollDOB",
  "textstyle": {},
  "tooltip": "",
  "wType": "Label",
  "zindex": 1
}