{
    "@class": "com.kony.gen.viz.model.component.KVizLabel",
    "DNDConfig": null,
    "__parentReadjusting__": false,
    "_bottom_": {
        "type": "string",
        "value": "17dp"
    },
    "_height_": {
        "type": "ref",
        "value": "preferred"
    },
    "_margin_": [
        1,
        1,
        1,
        1
    ],
    "_padding_": [
        0,
        0,
        0,
        0
    ],
    "_right_": {
        "type": "string",
        "value": "20dp"
    },
    "_skin_": "s9d5374b3be74fa799b86e4f77e36fe5",
    "_text_": "$200.00",
    "_width_": {
        "type": "ref",
        "value": "preferred"
    },
    "_wrapping_": 2,
    "accessibilityconfig": {
        "a11yLabel": "Successful"
    },
    "android": {
        "textStyle": {
            "letterSpacing": 0,
            "strikeThrough": false
        }
    },
    "canUpdateUI": true,
    "containerweight": 100,
    "contentalignment": 6,
    "id": "lblSuccessful",
    "info": null,
    "ipad": {
        "psp": {
            "wrapping": 2
        }
    },
    "iphone": {
        "psp": {
            "wrapping": 2
        }
    },
    "iscustomlayout": false,
    "isvisible": true,
    "kuid": "j68f9caaebc44883be1889c97d6d8bae",
    "name": "kony.ui.Label",
    "parent": "flxMain",
    "pf": "frmTransactionDetails",
    "retaincontentalignment": false,
    "retainflexpositionproperties": false,
    "texti18n": "kony.mb.common.successful",
    "textstyle": {},
    "tooltip": "",
    "wType": "Label",
    "zindex": 1
}