{
  "@class": "com.kony.gen.viz.model.component.KVizButton",
  "DNDConfig": null,
  "__parentReadjusting__": false,
  "_height_": {
    "type": "string",
    "value": "40dp"
  },
  "_left_": {
    "type": "string",
    "value": "20dp"
  },
  "_margin_": [
    6,
    6,
    6,
    6
  ],
  "_padding_": [
    0,
    0,
    0,
    0
  ],
  "_right_": {
    "type": "string",
    "value": "20dp"
  },
  "_skin_": "s3a6af80e8464e51af22769363bf659d",
  "_text_": "CONTINUE",
  "_top_": {
    "type": "string",
    "value": "20dp"
  },
  "_width_": {
    "type": "string",
    "value": "88%"
  },
  "accessibilityconfig": {
    "a11yLabel": "Continue",
    "a11yHint": "Tap Continue to move to the next screen"
  },
  "canUpdateUI": true,
  "centerx": {
    "type": "string",
    "value": "50%"
  },
  "containerweight": 100,
  "contentalignment": 5,
  "disabledSkins": {},
  "displaytext": true,
  "focusskin": "sd85a0f475ff4b3b9f0a5e4b82f68213",
  "id": "btnContinueSignUp",
  "ide_onClick": "AS_Button_dcf651ba78464d9f8764b8b6c4ed5ac8",
  "info": null,
  "isvisible": true,
  "kuid": "c8ccbfd1d11a40279bb64d91cf10d53a",
  "name": "kony.ui.Button",
  "parent": "flxSignUpContainer",
  "pf": "frmEnrollSignUp",
  "texti18n": "kony.mb.enroll.saveContinue",
  "wType": "Button",
  "zindex": 1
}