{
    "DNDConfig": null,
    "__parentReadjusting__": false,
    "_height_": {
        "type": "string",
        "value": "7dp"
    },
    "_left_": {
        "type": "string",
        "value": "5dp"
    },
    "_margin_": [
        0,
        0,
        0,
        0
    ],
    "_orientation_": 6,
    "_padding_": [
        0,
        0,
        0,
        0
    ],
    "_percent_": true,
    "_skin_": "seaf8268bbda422b8298a10b9a3c9648",
    "_top_": {
        "type": "string",
        "value": "14dp"
    },
    "_width_": {
        "type": "string",
        "value": "7dp"
    },
    "allboxes": [],
    "autogrowmode": 0,
    "canUpdateUI": true,
    "centery": {
        "type": "string",
        "value": "50%"
    },
    "children": [],
    "clipbounds": true,
    "containerweight": 100,
    "enablescrolling": true,
    "id": "flxDotUsername6",
    "info": null,
    "iscustomlayout": false,
    "isvisible": false,
    "kuid": "a9d596f1b28b45a1828ba215da3f1d01",
    "layouttype": 2,
    "name": "kony.ui.FlexContainer",
    "parent": "flxRuleUsername6",
    "pf": "frmEnrollSignUp",
    "retaincontentalignment": false,
    "retainflexpositionproperties": false,
    "snapgridsize": 10,
    "snaptogrid": true,
    "wType": "FlexContainer",
    "widgetalignment": 1,
    "zindex": 1
}