{
    "@class": "com.kony.gen.viz.model.component.KVizTextBox2",
    "DNDConfig": null,
    "__parentReadjusting__": false,
    "_height_": {
        "type": "string",
        "value": "35dp"
    },
    "_left_": {
        "type": "string",
        "value": "20dp"
    },
    "_margin_": [
        0,
        0,
        0,
        0
    ],
    "_padding_": [
        35,
        3,
        1,
        3
    ],
    "_placeholder_": "Search",
    "_right_": {
        "type": "string",
        "value": "20dp"
    },
    "_skin_": "s0dc17f0cd7748588ff8f32c2bdd41e3",
    "_text_": "",
    "_top_": {
        "type": "string",
        "value": "0dp"
    },
    "android": {
        "padding": [
            35,
            3,
            1,
            3
        ],
        "paddingInPixel": true
    },
    "autocapitalize": "none",
    "autocomplete": false,
    "autocorrect": false,
    "autofilter": false,
    "canUpdateUI": true,
    "centery": {
        "type": "string",
        "value": "50%"
    },
    "containerheight": "",
    "containerheightmode": 1,
    "containerweight": 100,
    "contentalignment": 4,
    "focusskin": "s0dc17f0cd7748588ff8f32c2bdd41e3",
    "id": "tbxSearch",
    "info": null,
    "iphone": {
        "padding": [
            35,
            3,
            1,
            3
        ],
        "paddingInPixel": true,
        "psp": {
            "keyboardActionLabel": 3
        }
    },
    "iscustomlayout": false,
    "isvisible": true,
    "keyboardactionlabel": 3,
    "keyboardtype": "A",
    "kuid": "ha8e05ca9c2d481193cc5bcdb970eabd",
    "mode": "A",
    "name": "kony.ui.TextBox2",
    "paddinginpixel": false,
    "parent": "flxSearchMain",
    "pf": "frmCardLessFrom",
    "placeholderi18n": "kony.mb.ExternalAccounts.Search",
    "placeholderskin": "s3eaacc3cd154862b4935c9ce116df1c",
    "retaincontentalignment": false,
    "retainflexpositionproperties": false,
    "securetextentry": false,
    "textinputmode": "A",
    "tooltip": "",
    "viewtype": "default",
    "wType": "TextField",
    "zindex": 1,
    "accessibilityconfig": {
        "a11yLabel": "Search"
    }
}