{
  "type" : "svcdriven",
  "custom" : false,
  "junction" : false,
  "customizable" : false,
  "verbs" : {
    "getCustomerAlertTypePreference" : "getCustomerAlertTypePreferenceMapping",
    "getCustomerAlertCategoryPreference" : "getCustomerAlertCategoryPreferenceMapping",
    "setAlertPreferences" : "setAlertPreferencesMapping",
    "getCustomerAlertCategoryChannelPreference" : "getCustomerAlertCategoryChannelPreferenceMapping"
  },
  "entityProperties" : {
    "BatchMode" : "buffer",
    "backendMeta" : { },
    "designTimeBackendMeta" : { }
  }
}