{
    "@class": "com.kony.gen.viz.model.component.KVizTextBox2",
    "DNDConfig": null,
    "__parentReadjusting__": false,
    "_bottom_": {
        "type": "string",
        "value": "10dp"
    },
    "_height_": {
        "type": "string",
        "value": "50dp"
    },
    "_left_": {
        "type": "string",
        "value": "20dp"
    },
    "_margin_": [
        0,
        0,
        0,
        0
    ],
    "_padding_": [
        3,
        0,
        0,
        0
    ],
    "_placeholder_": "Type your ",
    "_right_": {
        "type": "string",
        "value": "20dp"
    },
    "_skin_": "sdf964446b0346618dd1125a5e6b3540",
    "_text_": "",
    "_top_": {
        "type": "string",
        "value": "40dp"
    },
    "android": {},
    "autocapitalize": "none",
    "autocomplete": false,
    "autocorrect": false,
    "autofilter": false,
    "canUpdateUI": true,
    "containerId": true,
    "containerheight": "",
    "containerheightmode": 1,
    "containerweight": 100,
    "contentalignment": 4,
    "focusskin": "sdf964446b0346618dd1125a5e6b3540",
    "id": "tbxAnswer",
    "info": null,
    "iscustomlayout": false,
    "isvisible": true,
    "keyboardtype": "A",
    "kuid": "de0e36ec78a640e8bf08bee6225f52f7",
    "mode": "A",
    "name": "kony.ui.TextBox2",
    "parent": "flxSecurityQnA",
    "pf": "segSecurityQnA",
    "placeholderi18n": "kony.mb.MFA.AnswerPlaceholder",
    "placeholderskin": "s9fed7f8c24e416fa006514fe1f96be3",
    "retaincontentalignment": false,
    "retainflexpositionproperties": false,
    "securetextentry": false,
    "textinputmode": "A",
    "tooltip": "",
    "viewtype": "default",
    "wType": "TextField",
    "watchos": {
        "render": false
    },
    "windows10": {
        "render": false
    },
    "winphone10": {
        "render": false
    },
    "zindex": 1
}