{
  "background_color": "e3d8e3ff",
  "bg_type": "one",
  "border_color": "000000ff",
  "border_style": "plain",
  "border_type": 0,
  "border_width": 0,
  "isDefaultSkin": false,
  "kuid": "s9cae2ba9e884c76b9e57595e4ff7bde",
  "wType": "FlexContainer"
}