{
  "android": {
    "background_color": {
      "angle": 180,
      "colors": [
        "1a98ffff",
        "1a98ffff",
        "0a78d100",
        "ffffffff",
        "ffffffff"
      ],
      "cs": [
        0,
        8,
        10,
        13,
        92
      ],
      "gradientType": "toBottom",
      "gt": "linear"
    },
    "background_style": "linear",
    "bg_type": "ms_gradient",
    "isForked": true
  },
  "background_color": "0a78d1ff",
  "bg_type": "one",
  "border_color": "ffffffff",
  "desktopweb": {
    "background_color": {
      "angle": 180,
      "colors": [
        "1a98ffff",
        "1a98ffff",
        "0a78d100",
        "ffffffff",
        "ffffffff"
      ],
      "cs": [
        0,
        8,
        10,
        13,
        92
      ],
      "gradientType": "toBottom",
      "gt": "linear"
    },
    "background_style": "linear",
    "bg_type": "ms_gradient",
    "bottom_left_border_color": "ffffffff",
    "bottom_left_border_style": "plain",
    "bottom_right_border_color": "ffffffff",
    "bottom_right_border_style": "plain",
    "isForked": true,
    "top_left_border_color": "ffffffff",
    "top_left_border_style": "plain",
    "top_right_border_color": "ffffffff",
    "top_right_border_style": "plain"
  },
  "ipad": {
    "background_color": {
      "angle": 180,
      "colors": [
        "1a98ffff",
        "1a98ffff",
        "0a78d100",
        "ffffffff",
        "ffffffff"
      ],
      "cs": [
        0,
        8,
        10,
        13,
        92
      ],
      "gradientType": "toBottom",
      "gt": "linear"
    },
    "background_style": "linear",
    "bg_type": "ms_gradient",
    "isForked": true
  },
  "iphone": {
    "background_color": {
      "angle": 180,
      "colors": [
        "1a98ffff",
        "1a98ffff",
        "0a78d100",
        "ffffffff",
        "ffffffff"
      ],
      "cs": [
        0,
        8,
        10,
        13,
        92
      ],
      "gradientType": "toBottom",
      "gt": "linear"
    },
    "background_style": "linear",
    "bg_type": "ms_gradient",
    "isForked": true
  },
  "isDefaultSkin": false,
  "kiosk": {
    "background_color": {
      "angle": 180,
      "colors": [
        "1a98ffff",
        "1a98ffff",
        "0a78d100",
        "ffffffff",
        "ffffffff"
      ],
      "cs": [
        0,
        8,
        10,
        13,
        92
      ],
      "gradientType": "toBottom",
      "gt": "linear"
    },
    "background_style": "linear",
    "bg_type": "ms_gradient",
    "isForked": true
  },
  "kuid": "s0cf0d2072ac465d9ca859d58b04ff4a",
  "spaan": {
    "background_color": {
      "angle": 180,
      "colors": [
        "1a98ffff",
        "1a98ffff",
        "0a78d100",
        "ffffffff",
        "ffffffff"
      ],
      "cs": [
        0,
        8,
        10,
        13,
        92
      ],
      "gradientType": "toBottom",
      "gt": "linear"
    },
    "background_style": "linear",
    "bg_type": "ms_gradient",
    "bottom_left_border_color": "ffffffff",
    "bottom_left_border_style": "plain",
    "bottom_right_border_color": "ffffffff",
    "bottom_right_border_style": "plain",
    "isForked": true,
    "top_left_border_color": "ffffffff",
    "top_left_border_style": "plain",
    "top_right_border_color": "ffffffff",
    "top_right_border_style": "plain"
  },
  "spaandroidtablet": {
    "background_color": {
      "angle": 180,
      "colors": [
        "1a98ffff",
        "1a98ffff",
        "0a78d100",
        "ffffffff",
        "ffffffff"
      ],
      "cs": [
        0,
        8,
        10,
        13,
        92
      ],
      "gradientType": "toBottom",
      "gt": "linear"
    },
    "background_style": "linear",
    "bg_type": "ms_gradient",
    "bottom_left_border_color": "ffffffff",
    "bottom_left_border_style": "plain",
    "bottom_right_border_color": "ffffffff",
    "bottom_right_border_style": "plain",
    "isForked": true,
    "top_left_border_color": "ffffffff",
    "top_left_border_style": "plain",
    "top_right_border_color": "ffffffff",
    "top_right_border_style": "plain"
  },
  "spabb": {
    "background_color": {
      "angle": 180,
      "colors": [
        "1a98ffff",
        "1a98ffff",
        "0a78d100",
        "ffffffff",
        "ffffffff"
      ],
      "cs": [
        0,
        8,
        10,
        13,
        92
      ],
      "gradientType": "toBottom",
      "gt": "linear"
    },
    "background_style": "linear",
    "bg_type": "ms_gradient",
    "bottom_left_border_color": "ffffffff",
    "bottom_left_border_style": "plain",
    "bottom_right_border_color": "ffffffff",
    "bottom_right_border_style": "plain",
    "isForked": true,
    "top_left_border_color": "ffffffff",
    "top_left_border_style": "plain",
    "top_right_border_color": "ffffffff",
    "top_right_border_style": "plain"
  },
  "spaip": {
    "background_color": {
      "angle": 180,
      "colors": [
        "1a98ffff",
        "1a98ffff",
        "0a78d100",
        "ffffffff",
        "ffffffff"
      ],
      "cs": [
        0,
        8,
        10,
        13,
        92
      ],
      "gradientType": "toBottom",
      "gt": "linear"
    },
    "background_style": "linear",
    "bg_type": "ms_gradient",
    "bottom_left_border_color": "ffffffff",
    "bottom_left_border_style": "plain",
    "bottom_right_border_color": "ffffffff",
    "bottom_right_border_style": "plain",
    "isForked": true,
    "top_left_border_color": "ffffffff",
    "top_left_border_style": "plain",
    "top_right_border_color": "ffffffff",
    "top_right_border_style": "plain"
  },
  "spaipad": {
    "background_color": {
      "angle": 180,
      "colors": [
        "1a98ffff",
        "1a98ffff",
        "0a78d100",
        "ffffffff",
        "ffffffff"
      ],
      "cs": [
        0,
        8,
        10,
        13,
        92
      ],
      "gradientType": "toBottom",
      "gt": "linear"
    },
    "background_style": "linear",
    "bg_type": "ms_gradient",
    "bottom_left_border_color": "ffffffff",
    "bottom_left_border_style": "plain",
    "bottom_right_border_color": "ffffffff",
    "bottom_right_border_style": "plain",
    "isForked": true,
    "top_left_border_color": "ffffffff",
    "top_left_border_style": "plain",
    "top_right_border_color": "ffffffff",
    "top_right_border_style": "plain"
  },
  "spawindowstablet": {
    "background_color": {
      "angle": 180,
      "colors": [
        "1a98ffff",
        "1a98ffff",
        "0a78d100",
        "ffffffff",
        "ffffffff"
      ],
      "cs": [
        0,
        8,
        10,
        13,
        92
      ],
      "gradientType": "toBottom",
      "gt": "linear"
    },
    "background_style": "linear",
    "bg_type": "ms_gradient",
    "bottom_left_border_color": "ffffffff",
    "bottom_left_border_style": "plain",
    "bottom_right_border_color": "ffffffff",
    "bottom_right_border_style": "plain",
    "isForked": true,
    "top_left_border_color": "ffffffff",
    "top_left_border_style": "plain",
    "top_right_border_color": "ffffffff",
    "top_right_border_style": "plain"
  },
  "spawinphone8": {
    "background_color": {
      "angle": 180,
      "colors": [
        "1a98ffff",
        "1a98ffff",
        "0a78d100",
        "ffffffff",
        "ffffffff"
      ],
      "cs": [
        0,
        8,
        10,
        13,
        92
      ],
      "gradientType": "toBottom",
      "gt": "linear"
    },
    "background_style": "linear",
    "bg_type": "ms_gradient",
    "bottom_left_border_color": "ffffffff",
    "bottom_left_border_style": "plain",
    "bottom_right_border_color": "ffffffff",
    "bottom_right_border_style": "plain",
    "isForked": true,
    "top_left_border_color": "ffffffff",
    "top_left_border_style": "plain",
    "top_right_border_color": "ffffffff",
    "top_right_border_style": "plain"
  },
  "tabrcandroid": {
    "background_color": {
      "angle": 180,
      "colors": [
        "1a98ffff",
        "1a98ffff",
        "0a78d100",
        "ffffffff",
        "ffffffff"
      ],
      "cs": [
        0,
        8,
        10,
        13,
        92
      ],
      "gradientType": "toBottom",
      "gt": "linear"
    },
    "background_style": "linear",
    "bg_type": "ms_gradient",
    "isForked": true
  },
  "wType": "Form",
  "windows8": {
    "background_color": {
      "angle": 180,
      "colors": [
        "1a98ffff",
        "1a98ffff",
        "0a78d100",
        "ffffffff",
        "ffffffff"
      ],
      "cs": [
        0,
        8,
        10,
        13,
        92
      ],
      "gradientType": "toBottom",
      "gt": "linear"
    },
    "background_style": "linear",
    "bg_type": "ms_gradient",
    "isForked": true
  },
  "winphone8": {
    "background_color": {
      "angle": 180,
      "colors": [
        "1a98ffff",
        "1a98ffff",
        "0a78d100",
        "ffffffff",
        "ffffffff"
      ],
      "cs": [
        0,
        8,
        10,
        13,
        92
      ],
      "gradientType": "toBottom",
      "gt": "linear"
    },
    "background_style": "linear",
    "bg_type": "ms_gradient",
    "isForked": true
  }
}