{
  "android": {
    "font_name": "Lato-Regular",
    "font_size": 107,
    "isForked": false
  },
  "androidwearos": {
    "font_name": "Helvetica",
    "font_size": 107,
    "isForked": false
  },
  "background_color": "ffffffff",
  "bg_type": "one",
  "border_color": "e6e6e6ff",
  "border_radius": 3,
  "border_style": "custom",
  "border_type": 0,
  "border_width": 1,
  "desktopweb": {
    "font_name": "Helvetica",
    "font_size": 107,
    "isForked": false
  },
  "fontSizeInPx": false,
  "font_color": "54565aff",
  "font_name": "Helvetica",
  "font_size": 107,
  "font_style": "normal",
  "font_weight": "normal",
  "ipad": {
    "font_name": "Helvetica",
    "font_size": 107,
    "isForked": false
  },
  "iphone": {
    "font_name": "Lato-Regular",
    "font_size": 107,
    "isForked": false
  },
  "isDefaultSkin": false,
  "kiosk": {
    "font_name": "None",
    "font_size": 107,
    "isForked": false
  },
  "kuid": "s1b1d8206c834f8b9bad1b13d77c3190",
  "spaan": {
    "font_name": "Helvetica",
    "font_size": 107,
    "isForked": false
  },
  "spaandroidtablet": {
    "font_name": "Helvetica",
    "font_size": 107,
    "isForked": false
  },
  "spabb": {
    "font_name": "Helvetica",
    "font_size": 107,
    "isForked": false
  },
  "spaip": {
    "font_name": "Helvetica",
    "font_size": 107,
    "isForked": false
  },
  "spaipad": {
    "font_name": "Helvetica",
    "font_size": 107,
    "isForked": false
  },
  "spawindowstablet": {
    "font_name": "Helvetica",
    "font_size": 107,
    "isForked": false
  },
  "spawinphone8": {
    "font_name": "Helvetica",
    "font_size": 107,
    "isForked": false
  },
  "tabrcandroid": {
    "font_name": "Helvetica",
    "font_size": 107,
    "isForked": false
  },
  "wType": "TextField",
  "watchos": {
    "font_name": "Helvetica",
    "font_size": 107,
    "isForked": false
  },
  "windows8": {
    "font_name": "None",
    "font_size": 107,
    "isForked": false
  },
  "winphone8": {
    "font_name": "None",
    "font_size": 107,
    "isForked": false
  }
}