{
    "@class": "com.kony.gen.viz.model.component.KVizCamera",
    "DNDConfig": null,
    "__parentReadjusting__": false,
    "_height_": {
        "type": "string",
        "value": "100%"
    },
    "_left_": {
        "type": "string",
        "value": "0dp"
    },
    "_margin_": [
        0,
        0,
        0,
        0
    ],
    "_padding_": [
        0,
        0,
        0,
        0
    ],
    "_skin_": "s509a82e160f4d3f8f4def05d73fb706",
    "_text_": "",
    "_top_": {
        "type": "string",
        "value": "0dp"
    },
    "_width_": {
        "type": "string",
        "value": "100%"
    },
    "accessmode": "inmemory",
    "android": {
        "accessMode": "inmemory",
        "compressionLevel": 20,
        "enableOverlay": true,
        "overlayConfig": {
            "captureButtonText": "",
            "overlayForm": "e02b59c204a04ff59dd4f7bf4215d77a",
            "startVideoButtonText": "",
            "stopVideoButtonText": "",
            "tapAnywhere": true
        }
    },
    "camerasource": "rear",
    "canUpdateUI": true,
    "captureorientation": 1,
    "compressionlevel": 20,
    "containerweight": 100,
    "contentalignment": 5,
    "desktopweb": {
        "render": false
    },
    "enableoverlay": false,
    "id": "CamFront",
    "imageFormat": 1,
    "info": null,
    "iphone": {
        "accessMode": "inmemory",
        "compressionLevel": 20,
        "overlayConfig": {
            "startVideoButtonText": "",
            "stopVideoButtonText": ""
        },
        "psp": {
            "captureOrientation": 1,
            "imageFormat": 1
        }
    },
    "iscustomlayout": false,
    "isvisible": true,
    "kuid": "e666495935df4630b4b07c7d033a1ec3",
    "name": "kony.ui.Camera",
    "oncapture": null,
    "parent": "flxFront",
    "pf": "frmUploadCheckImages",
    "retaincontentalignment": false,
    "retainflexpositionproperties": false,
    "spaan": {
        "render": false
    },
    "spaandroidtablet": {
        "render": false
    },
    "spabb": {
        "render": false
    },
    "spaip": {
        "render": false
    },
    "spaipad": {
        "render": false
    },
    "spawindowstablet": {
        "render": false
    },
    "spawinphone8": {
        "render": false
    },
    "wType": "Camera",
    "watchos": {
        "render": false
    },
    "winphone8": {
        "overlayConfig": {
            "tapAnywhere": false
        }
    },
    "zindex": 10
}