{
    "@class": "com.kony.gen.viz.model.component.KVizTextBox2",
    "DNDConfig": null,
    "__parentReadjusting__": false,
    "_height_": {
        "type": "string",
        "value": "45dp"
    },
    "_left_": {
        "type": "string",
        "value": "5%"
    },
    "_margin_": [
        0,
        0,
        0,
        0
    ],
    "_padding_": [
        3,
        0,
        0,
        0
    ],
    "_placeholder_": "Placeholder",
    "_skin_": "sdc14f85f7984e13bb5ed2544fe80fe6",
    "_text_": "",
    "_top_": {
        "type": "string",
        "value": "0%"
    },
    "_width_": {
        "type": "string",
        "value": "90%"
    },
    "autocapitalize": "none",
    "autocomplete": false,
    "autocorrect": false,
    "autofilter": false,
    "canUpdateUI": true,
    "containerheight": "",
    "containerheightmode": 1,
    "containerweight": 100,
    "contentalignment": 4,
    "disabledSkins": {},
    "focusskin": "sdc14f85f7984e13bb5ed2544fe80fe6",
    "id": "tbxFirstName",
    "info": null,
    "iphone": {
        "psp": {
            "showClearButton": false,
            "showCloseButton": false
        }
    },
    "iscustomlayout": false,
    "isvisible": true,
    "keyboardtype": "A",
    "kuid": "hbaadd4099d247059c4ed0ffe8fd3c41",
    "mode": "A",
    "name": "kony.ui.TextBox2",
    "parent": "flxMainContainer",
    "pf": "frmEnrollLastName",
    "placeholderi18n": "kony.mb.enroll.input",
    "placeholderskin": "s1bcf8b78d1649a9a56fc498f08472f8",
    "retaincontentalignment": false,
    "retainflexpositionproperties": false,
    "securetextentry": false,
    "showclearbutton": false,
    "textinputmode": "A",
    "tooltip": "",
    "viewtype": "default",
    "wType": "TextField",
    "zindex": 1
}